[
	{
		"ID": 174,
		"unitID": 2101011,
		"scriptID": "kaerimichi",
		"script": "わたし…\nもう少しマスターと\n一緒にいたいですわ…"
	},
	{
		"ID": 188,
		"unitID": 2101011,
		"scriptID": "kaeru",
		"script": "今日は帰らなければなりません\n失礼致します…"
	},
	{
		"ID": 202,
		"unitID": 2101011,
		"scriptID": "kaeru_ok",
		"script": "@%(unitName:unit_a)s\nわかりました\nエスコート、お願いしますね"
	},
	{
		"ID": 216,
		"unitID": 2101011,
		"scriptID": "kaeru_ng",
		"script": "@%(unitName:unit_a)s\nこれから別件がありまして…\nごめんなさい"
	}
]