[
	{
		"ID": 401,
		"unitID": 2400511,
		"questionID": 9400501,
		"script": "# script \"lisp\"\n# background %(wayback_background)s\n# bgmfile \"bgm255\" \"BgmSeaDate\" 0\n# body %(unit_a)s\n# pos %(unit_a)s 3\n# mask %(unit_a)s off\n# chara %(unit_a)s\n# fadein \"black\" 0.5\n# textflame 0 0\n# face %(unit_a)s \"usual\"\n@\n帰り道－\n\n# fadein \"white\" 0.5\n# se \"SE_0735\"\n# bgm \"stop\"\n# waitandnext 2\n@\n…………\n\n# fadein \"white\" 0.5\n# se \"SE_0735\"\n# waitandnext 2\n@\n…………\n\n@\nふと、\n傍らを歩く彼女が足を止めた…\n\n# bgmfile \"bgm255\" \"BgmSeaDate\" 0\n# voice 4005 \"yoichi_0002\"\n# textflame 1 1\n@与一\nあの…マスター\nちょっといいですか？\n\n# face %(unit_a)s \"normal\"\n@与一\nあの…えっとですね\n試すみたいになっちゃうんですが…\n\n# face %(unit_a)s \"usual\"\n@与一\n与一のこと…\nどれだけ知ってるか\n聞いてみても…いいですか…？\n\n# voice 4005 \"yoichi_0036\"\n# face %(unit_a)s \"angry\"\n@与一\nきっとマスターなら…\n簡単だと思います…！\n\n# face %(unit_a)s \"usual\"\n@与一\n与一のキラーズ『与一の弓』を\n扱っていた武将の名前、\nお答えください！\n\n# se \"SE_0734\"\n# select \"那須与一\" \"select_label_correct\" \"斎藤与一\" \"select_label_wrong1\" \"梓与一\" \"select_label_wrong2\"\n与一のキラーズ『与一の弓』を\n扱っていた武将の名前、\nお答えください！\n\n# label \"select_label_correct\"\n# labeljump \"select_label_end\"\n# textwindow \"close\"\n# waitandnext 0.1\n\n# label \"select_label_wrong1\"\n# labeljump \"select_label_end\"\n# textwindow \"close\"\n# waitandnext 0.1\n\n# label \"select_label_wrong2\"\n# labeljump \"select_label_end\"\n# textwindow \"close\"\n# waitandnext 0.1\n\n# label \"select_label_end\"\n# waitandnext 0.1\n\n# sestop \"SE_0734\"\n# fadeout \"black\" 1.2\n# waitandnext 2"
	},
	{
		"ID": 402,
		"unitID": 2400511,
		"questionID": 9400502,
		"script": "# script \"lisp\"\n# background %(wayback_background)s\n# bgmfile \"bgm255\" \"BgmSeaDate\" 0\n# body %(unit_a)s\n# pos %(unit_a)s 3\n# mask %(unit_a)s off\n# chara %(unit_a)s\n# fadein \"black\" 0.5\n# textflame 0 0\n# face %(unit_a)s \"usual\"\n@\n帰り道－\n\n# fadein \"white\" 0.5\n# se \"SE_0735\"\n# bgm \"stop\"\n# waitandnext 2\n@\n…………\n\n# fadein \"white\" 0.5\n# se \"SE_0735\"\n# waitandnext 2\n@\n…………\n\n@\nふと、\n傍らを歩く彼女が足を止めた…\n\n# bgmfile \"bgm255\" \"BgmSeaDate\" 0\n# voice 4005 \"yoichi_0002\"\n# textflame 1 1\n@与一\nあの…マスター\nちょっといいですか？\n\n# face %(unit_a)s \"normal\"\n@与一\nあの…えっとですね\n試すみたいになっちゃうんですが…\n\n# face %(unit_a)s \"usual\"\n@与一\n与一のこと…\nどれだけ知ってるか\n聞いてみても…いいですか…？\n\n# voice 4005 \"yoichi_0036\"\n# face %(unit_a)s \"angry\"\n@与一\nきっとマスターなら…\n簡単だと思います…！\n\n# face %(unit_a)s \"usual\"\n@与一\n与一のキラーズ『与一の弓』を\n扱っていた武将が記されている\n書物をお答えください！\n\n# se \"SE_0734\"\n# select \"源氏物語\" \"select_label_wrong1\" \"平家物語\" \"select_label_correct\" \"竹取物語\" \"select_label_wrong2\"\n与一のキラーズ『与一の弓』を\n扱っていた武将が記されている\n書物をお答えください！\n\n# label \"select_label_wrong1\"\n# labeljump \"select_label_end\"\n# textwindow \"close\"\n# waitandnext 0.1\n\n# label \"select_label_correct\"\n# labeljump \"select_label_end\"\n# textwindow \"close\"\n# waitandnext 0.1\n\n# label \"select_label_wrong2\"\n# labeljump \"select_label_end\"\n# textwindow \"close\"\n# waitandnext 0.1\n\n# label \"select_label_end\"\n# waitandnext 0.1\n\n# sestop \"SE_0734\"\n# fadeout \"black\" 1.2\n# waitandnext 2"
	},
	{
		"ID": 403,
		"unitID": 2400511,
		"questionID": 9400503,
		"script": "# script \"lisp\"\n# background %(wayback_background)s\n# bgmfile \"bgm255\" \"BgmSeaDate\" 0\n# body %(unit_a)s\n# pos %(unit_a)s 3\n# mask %(unit_a)s off\n# chara %(unit_a)s\n# fadein \"black\" 0.5\n# textflame 0 0\n# face %(unit_a)s \"usual\"\n@\n帰り道－\n\n# fadein \"white\" 0.5\n# se \"SE_0735\"\n# bgm \"stop\"\n# waitandnext 2\n@\n…………\n\n# fadein \"white\" 0.5\n# se \"SE_0735\"\n# waitandnext 2\n@\n…………\n\n@\nふと、\n傍らを歩く彼女が足を止めた…\n\n# bgmfile \"bgm255\" \"BgmSeaDate\" 0\n# voice 4005 \"yoichi_0002\"\n# textflame 1 1\n@与一\nあの…マスター\nちょっといいですか？\n\n# face %(unit_a)s \"normal\"\n@与一\nあの…えっとですね\n試すみたいになっちゃうんですが…\n\n# face %(unit_a)s \"usual\"\n@与一\n与一のこと…\nどれだけ知ってるか\n聞いてみても…いいですか…？\n\n# voice 4005 \"yoichi_0036\"\n# face %(unit_a)s \"angry\"\n@与一\nきっとマスターなら…\n簡単だと思います…！\n\n# face %(unit_a)s \"usual\"\n@与一\n与一のキラーズ『与一の弓』を\n扱っていた武将の名前、\nお答えください！\n\n# se \"SE_0734\"\n# select \"那須十一\" \"select_label_wrong1\" \"明日与一\" \"select_label_wrong2\" \"那須資隆\" \"select_label_correct\"\n与一のキラーズ『与一の弓』を\n扱っていた武将の名前、\nお答えください！\n\n# label \"select_label_wrong1\"\n# labeljump \"select_label_end\"\n# textwindow \"close\"\n# waitandnext 0.1\n\n# label \"select_label_wrong2\"\n# labeljump \"select_label_end\"\n# textwindow \"close\"\n# waitandnext 0.1\n\n# label \"select_label_correct\"\n# labeljump \"select_label_end\"\n# textwindow \"close\"\n# waitandnext 0.1\n\n# label \"select_label_end\"\n# waitandnext 0.1\n\n# sestop \"SE_0734\"\n# fadeout \"black\" 1.2\n# waitandnext 2"
	},
	{
		"ID": 404,
		"unitID": 2400511,
		"questionID": 9400504,
		"script": "# script \"lisp\"\n# background %(wayback_background)s\n# bgmfile \"bgm255\" \"BgmSeaDate\" 0\n# body %(unit_a)s\n# pos %(unit_a)s 3\n# mask %(unit_a)s off\n# chara %(unit_a)s\n# fadein \"black\" 0.5\n# textflame 0 0\n# face %(unit_a)s \"usual\"\n@\n帰り道－\n\n# fadein \"white\" 0.5\n# se \"SE_0735\"\n# bgm \"stop\"\n# waitandnext 2\n@\n…………\n\n# fadein \"white\" 0.5\n# se \"SE_0735\"\n# waitandnext 2\n@\n…………\n\n@\nふと、\n傍らを歩く彼女が足を止めた…\n\n# bgmfile \"bgm255\" \"BgmSeaDate\" 0\n# voice 4005 \"yoichi_0002\"\n# textflame 1 1\n@与一\nあの…マスター\nちょっといいですか？\n\n# face %(unit_a)s \"normal\"\n@与一\nあの…えっとですね\n試すみたいになっちゃうんですが…\n\n# face %(unit_a)s \"usual\"\n@与一\n与一のこと…\nどれだけ知ってるか\n聞いてみても…いいですか…？\n\n# voice 4005 \"yoichi_0036\"\n# face %(unit_a)s \"angry\"\n@与一\nきっとマスターなら…\n簡単だと思います…！\n\n# face %(unit_a)s \"usual\"\n@与一\n与一のキラーズ『与一の弓』の\n持ち主は源氏の◯与一と\n言われていましたがご存知ですか？\n\n# se \"SE_0734\"\n# select \"3\" \"select_label_correct\" \"4\" \"select_label_wrong1\" \"5\" \"select_label_wrong2\"\n与一のキラーズ『与一の弓』の\n持ち主は源氏の◯与一と\n言われていましたがご存知ですか？\n\n# label \"select_label_correct\"\n# labeljump \"select_label_end\"\n# textwindow \"close\"\n# waitandnext 0.1\n\n# label \"select_label_wrong1\"\n# labeljump \"select_label_end\"\n# textwindow \"close\"\n# waitandnext 0.1\n\n# label \"select_label_wrong2\"\n# labeljump \"select_label_end\"\n# textwindow \"close\"\n# waitandnext 0.1\n\n# label \"select_label_end\"\n# waitandnext 0.1\n\n# sestop \"SE_0734\"\n# fadeout \"black\" 1.2\n# waitandnext 2"
	},
	{
		"ID": 405,
		"unitID": 2400511,
		"questionID": 9400505,
		"script": "# script \"lisp\"\n# background %(wayback_background)s\n# bgmfile \"bgm255\" \"BgmSeaDate\" 0\n# body %(unit_a)s\n# pos %(unit_a)s 3\n# mask %(unit_a)s off\n# chara %(unit_a)s\n# fadein \"black\" 0.5\n# textflame 0 0\n# face %(unit_a)s \"usual\"\n@\n帰り道－\n\n# fadein \"white\" 0.5\n# se \"SE_0735\"\n# bgm \"stop\"\n# waitandnext 2\n@\n…………\n\n# fadein \"white\" 0.5\n# se \"SE_0735\"\n# waitandnext 2\n@\n…………\n\n@\nふと、\n傍らを歩く彼女が足を止めた…\n\n# bgmfile \"bgm255\" \"BgmSeaDate\" 0\n# voice 4005 \"yoichi_0002\"\n# textflame 1 1\n@与一\nあの…マスター\nちょっといいですか？\n\n# face %(unit_a)s \"normal\"\n@与一\nあの…えっとですね\n試すみたいになっちゃうんですが…\n\n# face %(unit_a)s \"usual\"\n@与一\n与一のこと…\nどれだけ知ってるか\n聞いてみても…いいですか…？\n\n# voice 4005 \"yoichi_0036\"\n# face %(unit_a)s \"angry\"\n@与一\nきっとマスターなら…\n簡単だと思います…！\n\n# face %(unit_a)s \"usual\"\n@与一\n与一のキラーズ『与一の弓』の\n持ち主は何男だったと\n言われているでしょう？\n\n# se \"SE_0734\"\n# select \"11男\" \"select_label_correct\" \"長男\" \"select_label_wrong1\" \"6男\" \"select_label_wrong2\"\n与一のキラーズ『与一の弓』の\n持ち主は何男だったと\n言われているでしょう？\n\n# label \"select_label_correct\"\n# labeljump \"select_label_end\"\n# textwindow \"close\"\n# waitandnext 0.1\n\n# label \"select_label_wrong1\"\n# labeljump \"select_label_end\"\n# textwindow \"close\"\n# waitandnext 0.1\n\n# label \"select_label_wrong2\"\n# labeljump \"select_label_end\"\n# textwindow \"close\"\n# waitandnext 0.1\n\n# label \"select_label_end\"\n# waitandnext 0.1\n\n# sestop \"SE_0734\"\n# fadeout \"black\" 1.2\n# waitandnext 2"
	},
	{
		"ID": 406,
		"unitID": 2400511,
		"questionID": 9400506,
		"script": "# script \"lisp\"\n# background %(wayback_background)s\n# bgmfile \"bgm255\" \"BgmSeaDate\" 0\n# body %(unit_a)s\n# pos %(unit_a)s 3\n# mask %(unit_a)s off\n# chara %(unit_a)s\n# fadein \"black\" 0.5\n# textflame 0 0\n# face %(unit_a)s \"usual\"\n@\n帰り道－\n\n# fadein \"white\" 0.5\n# se \"SE_0735\"\n# bgm \"stop\"\n# waitandnext 2\n@\n…………\n\n# fadein \"white\" 0.5\n# se \"SE_0735\"\n# waitandnext 2\n@\n…………\n\n@\nふと、\n傍らを歩く彼女が足を止めた…\n\n# bgmfile \"bgm255\" \"BgmSeaDate\" 0\n# voice 4005 \"yoichi_0002\"\n# textflame 1 1\n@与一\nあの…マスター\nちょっといいですか？\n\n# face %(unit_a)s \"normal\"\n@与一\nあの…えっとですね\n試すみたいになっちゃうんですが…\n\n# face %(unit_a)s \"usual\"\n@与一\n与一のこと…\nどれだけ知ってるか\n聞いてみても…いいですか…？\n\n# voice 4005 \"yoichi_0036\"\n# face %(unit_a)s \"angry\"\n@与一\nきっとマスターなら…\n簡単だと思います…！\n\n# face %(unit_a)s \"usual\"\n@与一\n与一のキラーズ『与一の弓』の\n持ち主が射抜いたことで\n有名な物、ご存知でしょうか？\n\n# se \"SE_0734\"\n# select \"槍\" \"select_label_wrong1\" \"扇\" \"select_label_correct\" \"盾\" \"select_label_wrong2\"\n与一のキラーズ『与一の弓』の\n持ち主が射抜いたことで\n有名な物、ご存知でしょうか？\n\n# label \"select_label_wrong1\"\n# labeljump \"select_label_end\"\n# textwindow \"close\"\n# waitandnext 0.1\n\n# label \"select_label_correct\"\n# labeljump \"select_label_end\"\n# textwindow \"close\"\n# waitandnext 0.1\n\n# label \"select_label_wrong2\"\n# labeljump \"select_label_end\"\n# textwindow \"close\"\n# waitandnext 0.1\n\n# label \"select_label_end\"\n# waitandnext 0.1\n\n# sestop \"SE_0734\"\n# fadeout \"black\" 1.2\n# waitandnext 2"
	},
	{
		"ID": 407,
		"unitID": 2400511,
		"questionID": 9400507,
		"script": "# script \"lisp\"\n# background %(wayback_background)s\n# bgmfile \"bgm255\" \"BgmSeaDate\" 0\n# body %(unit_a)s\n# pos %(unit_a)s 3\n# mask %(unit_a)s off\n# chara %(unit_a)s\n# fadein \"black\" 0.5\n# textflame 0 0\n# face %(unit_a)s \"usual\"\n@\n帰り道－\n\n# fadein \"white\" 0.5\n# se \"SE_0735\"\n# bgm \"stop\"\n# waitandnext 2\n@\n…………\n\n# fadein \"white\" 0.5\n# se \"SE_0735\"\n# waitandnext 2\n@\n…………\n\n@\nふと、\n傍らを歩く彼女が足を止めた…\n\n# bgmfile \"bgm255\" \"BgmSeaDate\" 0\n# voice 4005 \"yoichi_0002\"\n# textflame 1 1\n@与一\nあの…マスター\nちょっといいですか？\n\n# face %(unit_a)s \"normal\"\n@与一\nあの…えっとですね\n試すみたいになっちゃうんですが…\n\n# face %(unit_a)s \"usual\"\n@与一\n与一のこと…\nどれだけ知ってるか\n聞いてみても…いいですか…？\n\n# voice 4005 \"yoichi_0036\"\n# face %(unit_a)s \"angry\"\n@与一\nきっとマスターなら…\n簡単だと思います…！\n\n# face %(unit_a)s \"usual\"\n@与一\n与一のキラーズ『与一の弓』の\n持ち主は、とある身体的特徴が\nあったそうですがご存知ですか？\n\n# se \"SE_0734\"\n# select \"眼帯をしていた\" \"select_label_wrong1\" \"腕の長さが左右で異なる\" \"select_label_correct\" \"手の指が6本だった\" \"select_label_wrong2\"\n与一のキラーズ『与一の弓』の\n持ち主は、とある身体的特徴が\nあったそうですがご存知ですか？\n\n# label \"select_label_wrong1\"\n# labeljump \"select_label_end\"\n# textwindow \"close\"\n# waitandnext 0.1\n\n# label \"select_label_correct\"\n# labeljump \"select_label_end\"\n# textwindow \"close\"\n# waitandnext 0.1\n\n# label \"select_label_wrong2\"\n# labeljump \"select_label_end\"\n# textwindow \"close\"\n# waitandnext 0.1\n\n# label \"select_label_end\"\n# waitandnext 0.1\n\n# sestop \"SE_0734\"\n# fadeout \"black\" 1.2\n# waitandnext 2"
	},
	{
		"ID": 408,
		"unitID": 2400511,
		"questionID": 9400508,
		"script": "# script \"lisp\"\n# background %(wayback_background)s\n# bgmfile \"bgm255\" \"BgmSeaDate\" 0\n# body %(unit_a)s\n# pos %(unit_a)s 3\n# mask %(unit_a)s off\n# chara %(unit_a)s\n# fadein \"black\" 0.5\n# textflame 0 0\n# face %(unit_a)s \"usual\"\n@\n帰り道－\n\n# fadein \"white\" 0.5\n# se \"SE_0735\"\n# bgm \"stop\"\n# waitandnext 2\n@\n…………\n\n# fadein \"white\" 0.5\n# se \"SE_0735\"\n# waitandnext 2\n@\n…………\n\n@\nふと、\n傍らを歩く彼女が足を止めた…\n\n# bgmfile \"bgm255\" \"BgmSeaDate\" 0\n# voice 4005 \"yoichi_0002\"\n# textflame 1 1\n@与一\nあの…マスター\nちょっといいですか？\n\n# face %(unit_a)s \"normal\"\n@与一\nあの…えっとですね\n試すみたいになっちゃうんですが…\n\n# face %(unit_a)s \"usual\"\n@与一\n与一のこと…\nどれだけ知ってるか\n聞いてみても…いいですか…？\n\n# voice 4005 \"yoichi_0036\"\n# face %(unit_a)s \"angry\"\n@与一\nきっとマスターなら…\n簡単だと思います…！\n\n# face %(unit_a)s \"usual\"\n@与一\n与一のキラーズ『与一の弓』の\n持ち主が扇を射抜いたことで\n有名な戦いをお答えください！\n\n# se \"SE_0734\"\n# select \"壇ノ浦の戦い\" \"select_label_wrong1\" \"一ノ谷の戦い\" \"select_label_wrong2\" \"屋島の戦い\" \"select_label_correct\"\n与一のキラーズ『与一の弓』の\n持ち主が扇を射抜いたことで\n有名な戦いをお答えください！\n\n# label \"select_label_wrong1\"\n# labeljump \"select_label_end\"\n# textwindow \"close\"\n# waitandnext 0.1\n\n# label \"select_label_wrong2\"\n# labeljump \"select_label_end\"\n# textwindow \"close\"\n# waitandnext 0.1\n\n# label \"select_label_correct\"\n# labeljump \"select_label_end\"\n# textwindow \"close\"\n# waitandnext 0.1\n\n# label \"select_label_end\"\n# waitandnext 0.1\n\n# sestop \"SE_0734\"\n# fadeout \"black\" 1.2\n# waitandnext 2"
	},
	{
		"ID": 409,
		"unitID": 2400511,
		"questionID": 9400509,
		"script": "# script \"lisp\"\n# background %(wayback_background)s\n# bgmfile \"bgm255\" \"BgmSeaDate\" 0\n# body %(unit_a)s\n# pos %(unit_a)s 3\n# mask %(unit_a)s off\n# chara %(unit_a)s\n# fadein \"black\" 0.5\n# textflame 0 0\n# face %(unit_a)s \"usual\"\n@\n帰り道－\n\n# fadein \"white\" 0.5\n# se \"SE_0735\"\n# bgm \"stop\"\n# waitandnext 2\n@\n…………\n\n# fadein \"white\" 0.5\n# se \"SE_0735\"\n# waitandnext 2\n@\n…………\n\n@\nふと、\n傍らを歩く彼女が足を止めた…\n\n# bgmfile \"bgm255\" \"BgmSeaDate\" 0\n# voice 4005 \"yoichi_0002\"\n# textflame 1 1\n@与一\nあの…マスター\nちょっといいですか？\n\n# face %(unit_a)s \"normal\"\n@与一\nあの…えっとですね\n試すみたいになっちゃうんですが…\n\n# face %(unit_a)s \"usual\"\n@与一\n与一のこと…\nどれだけ知ってるか\n聞いてみても…いいですか…？\n\n# voice 4005 \"yoichi_0036\"\n# face %(unit_a)s \"angry\"\n@与一\nきっとマスターなら…\n簡単だと思います…！\n\n# face %(unit_a)s \"usual\"\n@与一\n与一のキラーズ『与一の弓』の\n持ち主は、とある方に仕えていました\nさて、その方は誰でしょう？\n\n# se \"SE_0734\"\n# select \"源義朝\" \"select_label_wrong1\" \"源義経\" \"select_label_wrong2\" \"源頼朝\" \"select_label_correct\"\n与一のキラーズ『与一の弓』の\n持ち主は、とある方に仕えていました\nさて、その方は誰でしょう？\n\n# label \"select_label_wrong1\"\n# labeljump \"select_label_end\"\n# textwindow \"close\"\n# waitandnext 0.1\n\n# label \"select_label_wrong2\"\n# labeljump \"select_label_end\"\n# textwindow \"close\"\n# waitandnext 0.1\n\n# label \"select_label_correct\"\n# labeljump \"select_label_end\"\n# textwindow \"close\"\n# waitandnext 0.1\n\n# label \"select_label_end\"\n# waitandnext 0.1\n\n# sestop \"SE_0734\"\n# fadeout \"black\" 1.2\n# waitandnext 2"
	},
	{
		"ID": 410,
		"unitID": 2400511,
		"questionID": 9400510,
		"script": "# script \"lisp\"\n# background %(wayback_background)s\n# bgmfile \"bgm255\" \"BgmSeaDate\" 0\n# body %(unit_a)s\n# pos %(unit_a)s 3\n# mask %(unit_a)s off\n# chara %(unit_a)s\n# fadein \"black\" 0.5\n# textflame 0 0\n# face %(unit_a)s \"usual\"\n@\n帰り道－\n\n# fadein \"white\" 0.5\n# se \"SE_0735\"\n# bgm \"stop\"\n# waitandnext 2\n@\n…………\n\n# fadein \"white\" 0.5\n# se \"SE_0735\"\n# waitandnext 2\n@\n…………\n\n@\nふと、\n傍らを歩く彼女が足を止めた…\n\n# bgmfile \"bgm255\" \"BgmSeaDate\" 0\n# voice 4005 \"yoichi_0002\"\n# textflame 1 1\n@与一\nあの…マスター\nちょっといいですか？\n\n# face %(unit_a)s \"normal\"\n@与一\nあの…えっとですね\n試すみたいになっちゃうんですが…\n\n# face %(unit_a)s \"usual\"\n@与一\n与一のこと…\nどれだけ知ってるか\n聞いてみても…いいですか…？\n\n# voice 4005 \"yoichi_0036\"\n# face %(unit_a)s \"angry\"\n@与一\nきっとマスターなら…\n簡単だと思います…！\n\n# face %(unit_a)s \"usual\"\n@与一\n『与一』とはとある数字を\n表す言葉なのですが、\nいくつなのかご存知でしょうか？\n\n# se \"SE_0734\"\n# select \"11\" \"select_label_correct\" \"1\" \"select_label_wrong1\" \"41\" \"select_label_wrong2\"\n『与一』とはとある数字を\n表す言葉なのですが、\nいくつなのかご存知でしょうか？\n\n# label \"select_label_correct\"\n# labeljump \"select_label_end\"\n# textwindow \"close\"\n# waitandnext 0.1\n\n# label \"select_label_wrong1\"\n# labeljump \"select_label_end\"\n# textwindow \"close\"\n# waitandnext 0.1\n\n# label \"select_label_wrong2\"\n# labeljump \"select_label_end\"\n# textwindow \"close\"\n# waitandnext 0.1\n\n# label \"select_label_end\"\n# waitandnext 0.1\n\n# sestop \"SE_0734\"\n# fadeout \"black\" 1.2\n# waitandnext 2"
	},
	{
		"ID": 411,
		"unitID": 2400511,
		"questionID": 9400511,
		"script": "# script \"lisp\"\n# background %(wayback_background)s\n# bgmfile \"bgm255\" \"BgmSeaDate\" 0\n# body %(unit_a)s\n# pos %(unit_a)s 3\n# mask %(unit_a)s off\n# chara %(unit_a)s\n# fadein \"black\" 0.5\n# textflame 0 0\n# face %(unit_a)s \"usual\"\n@\n帰り道－\n\n# fadein \"white\" 0.5\n# se \"SE_0735\"\n# bgm \"stop\"\n# waitandnext 2\n@\n…………\n\n# fadein \"white\" 0.5\n# se \"SE_0735\"\n# waitandnext 2\n@\n…………\n\n@\nふと、\n傍らを歩く彼女が足を止めた…\n\n# bgmfile \"bgm255\" \"BgmSeaDate\" 0\n# textflame 1 1\n;; face %(unit_a)s \"close\"\n# voice 4005 \"yoichi_0001\"\n@与一\nねぇ、マスター？\nあの…ちょっといいですか？\n\n# face %(unit_a)s \"usual\"\n# voice 4005 \"yoichi_0002\"\n@与一\nえっと…その…\n試すみたいになっちゃうんですが…\n\n@与一\n私のこと…\nどれだけ知っていてくれているか\nクイズを出してもいいですか？\n\n# voice 4005 \"yoichi_0036\"\n@与一\nい、いきますよ…？\n\n@与一\n与一の属性をお答えください！\n\n# se \"SE_0734\"\n# select \"氷\" \"select_label_correct\" \"風\" \"select_label_wrong1\" \"光\" \"select_label_wrong2\"\n与一の属性をお答えください！\n\n# label \"select_label_correct\"\n# labeljump \"select_label_end\"\n# textwindow \"close\"\n# waitandnext 0.1\n\n# label \"select_label_wrong1\"\n# labeljump \"select_label_end\"\n# textwindow \"close\"\n# waitandnext 0.1\n\n# label \"select_label_wrong2\"\n# labeljump \"select_label_end\"\n# textwindow \"close\"\n# waitandnext 0.1\n\n# label \"select_label_end\"\n# waitandnext 0.1\n\n# sestop \"SE_0734\"\n# fadeout \"black\" 1.2\n# waitandnext 2"
	},
	{
		"ID": 412,
		"unitID": 2400511,
		"questionID": 9400512,
		"script": "# script \"lisp\"\n# background %(wayback_background)s\n# bgmfile \"bgm255\" \"BgmSeaDate\" 0\n# body %(unit_a)s\n# pos %(unit_a)s 3\n# mask %(unit_a)s off\n# chara %(unit_a)s\n# fadein \"black\" 0.5\n# textflame 0 0\n# face %(unit_a)s \"usual\"\n@\n帰り道－\n\n# fadein \"white\" 0.5\n# se \"SE_0735\"\n# bgm \"stop\"\n# waitandnext 2\n@\n…………\n\n# fadein \"white\" 0.5\n# se \"SE_0735\"\n# waitandnext 2\n@\n…………\n\n@\nふと、\n傍らを歩く彼女が足を止めた…\n\n# bgmfile \"bgm255\" \"BgmSeaDate\" 0\n# textflame 1 1\n;; face %(unit_a)s \"close\"\n# voice 4005 \"yoichi_0001\"\n@与一\nねぇ、マスター？\nあの…ちょっといいですか？\n\n# face %(unit_a)s \"usual\"\n# voice 4005 \"yoichi_0002\"\n@与一\nえっと…その…\n試すみたいになっちゃうんですが…\n\n@与一\n私のこと…\nどれだけ知っていてくれているか\nクイズを出してもいいですか？\n\n# voice 4005 \"yoichi_0036\"\n@与一\nい、いきますよ…？\n\n@与一\n与一の身長をお答えください！\n\n# se \"SE_0734\"\n# select \"148cm\" \"select_label_wrong1\" \"152cm\" \"select_label_correct\" \"155cm\" \"select_label_wrong2\"\n与一の身長をお答えください！\n\n# label \"select_label_wrong1\"\n# labeljump \"select_label_end\"\n# textwindow \"close\"\n# waitandnext 0.1\n\n# label \"select_label_correct\"\n# labeljump \"select_label_end\"\n# textwindow \"close\"\n# waitandnext 0.1\n\n# label \"select_label_wrong2\"\n# labeljump \"select_label_end\"\n# textwindow \"close\"\n# waitandnext 0.1\n\n# label \"select_label_end\"\n# waitandnext 0.1\n\n# sestop \"SE_0734\"\n# fadeout \"black\" 1.2\n# waitandnext 2"
	},
	{
		"ID": 413,
		"unitID": 2400511,
		"questionID": 9400513,
		"script": "# script \"lisp\"\n# background %(wayback_background)s\n# bgmfile \"bgm255\" \"BgmSeaDate\" 0\n# body %(unit_a)s\n# pos %(unit_a)s 3\n# mask %(unit_a)s off\n# chara %(unit_a)s\n# fadein \"black\" 0.5\n# textflame 0 0\n# face %(unit_a)s \"usual\"\n@\n帰り道－\n\n# fadein \"white\" 0.5\n# se \"SE_0735\"\n# bgm \"stop\"\n# waitandnext 2\n@\n…………\n\n# fadein \"white\" 0.5\n# se \"SE_0735\"\n# waitandnext 2\n@\n…………\n\n@\nふと、\n傍らを歩く彼女が足を止めた…\n\n# bgmfile \"bgm255\" \"BgmSeaDate\" 0\n# textflame 1 1\n;; face %(unit_a)s \"close\"\n# voice 4005 \"yoichi_0001\"\n@与一\nねぇ、マスター？\nあの…ちょっといいですか？\n\n# face %(unit_a)s \"usual\"\n# voice 4005 \"yoichi_0002\"\n@与一\nえっと…その…\n試すみたいになっちゃうんですが…\n\n@与一\n私のこと…\nどれだけ知っていてくれているか\nクイズを出してもいいですか？\n\n# voice 4005 \"yoichi_0036\"\n@与一\nい、いきますよ…？\n\n@与一\n与一の誕生日…\nマスター、覚えてますか…？\n\n# se \"SE_0734\"\n# select \"6月14日\" \"select_label_wrong1\" \"4月1日\" \"select_label_wrong2\" \"2月19日\" \"select_label_correct\"\n与一の誕生日…\nマスター、覚えてますか…？\n\n# label \"select_label_wrong1\"\n# labeljump \"select_label_end\"\n# textwindow \"close\"\n# waitandnext 0.1\n\n# label \"select_label_wrong2\"\n# labeljump \"select_label_end\"\n# textwindow \"close\"\n# waitandnext 0.1\n\n# label \"select_label_correct\"\n# labeljump \"select_label_end\"\n# textwindow \"close\"\n# waitandnext 0.1\n\n# label \"select_label_end\"\n# waitandnext 0.1\n\n# sestop \"SE_0734\"\n# fadeout \"black\" 1.2\n# waitandnext 2"
	},
	{
		"ID": 414,
		"unitID": 2400511,
		"questionID": 9400514,
		"script": "# script \"lisp\"\n# background %(wayback_background)s\n# bgmfile \"bgm255\" \"BgmSeaDate\" 0\n# body %(unit_a)s\n# pos %(unit_a)s 3\n# mask %(unit_a)s off\n# chara %(unit_a)s\n# fadein \"black\" 0.5\n# textflame 0 0\n# face %(unit_a)s \"usual\"\n@\n帰り道－\n\n# fadein \"white\" 0.5\n# se \"SE_0735\"\n# bgm \"stop\"\n# waitandnext 2\n@\n…………\n\n# fadein \"white\" 0.5\n# se \"SE_0735\"\n# waitandnext 2\n@\n…………\n\n@\nふと、\n傍らを歩く彼女が足を止めた…\n\n# bgmfile \"bgm255\" \"BgmSeaDate\" 0\n# textflame 1 1\n;; face %(unit_a)s \"close\"\n# voice 4005 \"yoichi_0001\"\n@与一\nねぇ、マスター？\nあの…ちょっといいですか？\n\n# face %(unit_a)s \"usual\"\n# voice 4005 \"yoichi_0002\"\n@与一\nえっと…その…\n試すみたいになっちゃうんですが…\n\n@与一\n私のこと…\nどれだけ知っていてくれているか\nクイズを出してもいいですか？\n\n# voice 4005 \"yoichi_0036\"\n@与一\nい、いきますよ…？\n\n@与一\n与一の星座をお答えください！\n\n# se \"SE_0734\"\n# select \"みずがめ座\" \"select_label_correct\" \"てんびん座\" \"select_label_wrong1\" \"しし座\" \"select_label_wrong2\"\n与一の星座をお答えください！\n\n# label \"select_label_correct\"\n# labeljump \"select_label_end\"\n# textwindow \"close\"\n# waitandnext 0.1\n\n# label \"select_label_wrong1\"\n# labeljump \"select_label_end\"\n# textwindow \"close\"\n# waitandnext 0.1\n\n# label \"select_label_wrong2\"\n# labeljump \"select_label_end\"\n# textwindow \"close\"\n# waitandnext 0.1\n\n# label \"select_label_end\"\n# waitandnext 0.1\n\n# sestop \"SE_0734\"\n# fadeout \"black\" 1.2\n# waitandnext 2"
	},
	{
		"ID": 415,
		"unitID": 2400511,
		"questionID": 9400515,
		"script": "# script \"lisp\"\n# background %(wayback_background)s\n# bgmfile \"bgm255\" \"BgmSeaDate\" 0\n# body %(unit_a)s\n# pos %(unit_a)s 3\n# mask %(unit_a)s off\n# chara %(unit_a)s\n# fadein \"black\" 0.5\n# textflame 0 0\n# face %(unit_a)s \"usual\"\n@\n帰り道－\n\n# fadein \"white\" 0.5\n# se \"SE_0735\"\n# bgm \"stop\"\n# waitandnext 2\n@\n…………\n\n# fadein \"white\" 0.5\n# se \"SE_0735\"\n# waitandnext 2\n@\n…………\n\n@\nふと、\n傍らを歩く彼女が足を止めた…\n\n# bgmfile \"bgm255\" \"BgmSeaDate\" 0\n# textflame 1 1\n;; face %(unit_a)s \"close\"\n# voice 4005 \"yoichi_0001\"\n@与一\nねぇ、マスター？\nあの…ちょっといいですか？\n\n# face %(unit_a)s \"usual\"\n# voice 4005 \"yoichi_0002\"\n@与一\nえっと…その…\n試すみたいになっちゃうんですが…\n\n@与一\n私のこと…\nどれだけ知っていてくれているか\nクイズを出してもいいですか？\n\n# voice 4005 \"yoichi_0036\"\n@与一\nい、いきますよ…？\n\n@与一\n与一の血液型は何型でしょうか？\nちなみに、AB型ではありません\n\n# se \"SE_0734\"\n# select \"A型\" \"select_label_correct\" \"O型\" \"select_label_wrong1\" \"B型\" \"select_label_wrong2\"\n与一の血液型は何型でしょうか？\nちなみに、AB型ではありません\n\n# label \"select_label_correct\"\n# labeljump \"select_label_end\"\n# textwindow \"close\"\n# waitandnext 0.1\n\n# label \"select_label_wrong1\"\n# labeljump \"select_label_end\"\n# textwindow \"close\"\n# waitandnext 0.1\n\n# label \"select_label_wrong2\"\n# labeljump \"select_label_end\"\n# textwindow \"close\"\n# waitandnext 0.1\n\n# label \"select_label_end\"\n# waitandnext 0.1\n\n# sestop \"SE_0734\"\n# fadeout \"black\" 1.2\n# waitandnext 2"
	},
	{
		"ID": 416,
		"unitID": 2400511,
		"questionID": 9400516,
		"script": "# script \"lisp\"\n# background %(wayback_background)s\n# bgmfile \"bgm255\" \"BgmSeaDate\" 0\n# body %(unit_a)s\n# pos %(unit_a)s 3\n# mask %(unit_a)s off\n# chara %(unit_a)s\n# fadein \"black\" 0.5\n# textflame 0 0\n# face %(unit_a)s \"usual\"\n@\n帰り道－\n\n# fadein \"white\" 0.5\n# se \"SE_0735\"\n# bgm \"stop\"\n# waitandnext 2\n@\n…………\n\n# fadein \"white\" 0.5\n# se \"SE_0735\"\n# waitandnext 2\n@\n…………\n\n@\nふと、\n傍らを歩く彼女が足を止めた…\n\n# bgmfile \"bgm255\" \"BgmSeaDate\" 0\n# textflame 1 1\n;; face %(unit_a)s \"close\"\n# voice 4005 \"yoichi_0001\"\n@与一\nねぇ、マスター？\nあの…ちょっといいですか？\n\n# face %(unit_a)s \"usual\"\n# voice 4005 \"yoichi_0002\"\n@与一\nえっと…その…\n試すみたいになっちゃうんですが…\n\n@与一\n私のこと…\nどれだけ知っていてくれているか\nクイズを出してもいいですか？\n\n# voice 4005 \"yoichi_0036\"\n@与一\nい、いきますよ…？\n\n@与一\n与一は“ここ”出身なのですが、\n覚えてらっしゃいますか？\n\n# se \"SE_0734\"\n# select \"鎌倉\" \"select_label_wrong1\" \"那須\" \"select_label_correct\" \"江戸\" \"select_label_wrong2\"\n与一は“ここ”出身なのですが、\n覚えてらっしゃいますか？\n\n# label \"select_label_wrong1\"\n# labeljump \"select_label_end\"\n# textwindow \"close\"\n# waitandnext 0.1\n\n# label \"select_label_correct\"\n# labeljump \"select_label_end\"\n# textwindow \"close\"\n# waitandnext 0.1\n\n# label \"select_label_wrong2\"\n# labeljump \"select_label_end\"\n# textwindow \"close\"\n# waitandnext 0.1\n\n# label \"select_label_end\"\n# waitandnext 0.1\n\n# sestop \"SE_0734\"\n# fadeout \"black\" 1.2\n# waitandnext 2"
	},
	{
		"ID": 417,
		"unitID": 2400511,
		"questionID": 9400517,
		"script": "# script \"lisp\"\n# background %(wayback_background)s\n# bgmfile \"bgm255\" \"BgmSeaDate\" 0\n# body %(unit_a)s\n# pos %(unit_a)s 3\n# mask %(unit_a)s off\n# chara %(unit_a)s\n# fadein \"black\" 0.5\n# textflame 0 0\n# face %(unit_a)s \"usual\"\n@\n帰り道－\n\n# fadein \"white\" 0.5\n# se \"SE_0735\"\n# bgm \"stop\"\n# waitandnext 2\n@\n…………\n\n# fadein \"white\" 0.5\n# se \"SE_0735\"\n# waitandnext 2\n@\n…………\n\n@\nふと、\n傍らを歩く彼女が足を止めた…\n\n# bgmfile \"bgm255\" \"BgmSeaDate\" 0\n# textflame 1 1\n;; face %(unit_a)s \"close\"\n# voice 4005 \"yoichi_0001\"\n@与一\nねぇ、マスター？\nあの…ちょっといいですか？\n\n# face %(unit_a)s \"usual\"\n# voice 4005 \"yoichi_0002\"\n@与一\nえっと…その…\n試すみたいになっちゃうんですが…\n\n@与一\n私のこと…\nどれだけ知っていてくれているか\nクイズを出してもいいですか？\n\n# voice 4005 \"yoichi_0036\"\n@与一\nい、いきますよ…？\n\n@与一\n与一は“あれ”が好きで\nついつい買ってしまうのです…\n\n# se \"SE_0734\"\n# select \"コマ\" \"select_label_wrong1\" \"扇\" \"select_label_correct\" \"髪飾り\" \"select_label_wrong2\"\n与一は“あれ”が好きで\nついつい買ってしまうのです…\n\n# label \"select_label_wrong1\"\n# labeljump \"select_label_end\"\n# textwindow \"close\"\n# waitandnext 0.1\n\n# label \"select_label_correct\"\n# labeljump \"select_label_end\"\n# textwindow \"close\"\n# waitandnext 0.1\n\n# label \"select_label_wrong2\"\n# labeljump \"select_label_end\"\n# textwindow \"close\"\n# waitandnext 0.1\n\n# label \"select_label_end\"\n# waitandnext 0.1\n\n# sestop \"SE_0734\"\n# fadeout \"black\" 1.2\n# waitandnext 2"
	},
	{
		"ID": 418,
		"unitID": 2400511,
		"questionID": 9400518,
		"script": "# script \"lisp\"\n# background %(wayback_background)s\n# bgmfile \"bgm255\" \"BgmSeaDate\" 0\n# body %(unit_a)s\n# pos %(unit_a)s 3\n# mask %(unit_a)s off\n# chara %(unit_a)s\n# fadein \"black\" 0.5\n# textflame 0 0\n# face %(unit_a)s \"usual\"\n@\n帰り道－\n\n# fadein \"white\" 0.5\n# se \"SE_0735\"\n# bgm \"stop\"\n# waitandnext 2\n@\n…………\n\n# fadein \"white\" 0.5\n# se \"SE_0735\"\n# waitandnext 2\n@\n…………\n\n@\nふと、\n傍らを歩く彼女が足を止めた…\n\n# bgmfile \"bgm255\" \"BgmSeaDate\" 0\n# textflame 1 1\n;; face %(unit_a)s \"close\"\n# voice 4005 \"yoichi_0001\"\n@与一\nねぇ、マスター？\nあの…ちょっといいですか？\n\n# face %(unit_a)s \"usual\"\n# voice 4005 \"yoichi_0002\"\n@与一\nえっと…その…\n試すみたいになっちゃうんですが…\n\n@与一\n私のこと…\nどれだけ知っていてくれているか\nクイズを出してもいいですか？\n\n# voice 4005 \"yoichi_0036\"\n@与一\nい、いきますよ…？\n\n@与一\n与一の趣味をお答えください！\n\n# se \"SE_0734\"\n# select \"掃除\" \"select_label_wrong1\" \"美容\" \"select_label_wrong2\" \"鍛錬\" \"select_label_correct\"\n与一の趣味をお答えください！\n\n# label \"select_label_wrong1\"\n# labeljump \"select_label_end\"\n# textwindow \"close\"\n# waitandnext 0.1\n\n# label \"select_label_wrong2\"\n# labeljump \"select_label_end\"\n# textwindow \"close\"\n# waitandnext 0.1\n\n# label \"select_label_correct\"\n# labeljump \"select_label_end\"\n# textwindow \"close\"\n# waitandnext 0.1\n\n# label \"select_label_end\"\n# waitandnext 0.1\n\n# sestop \"SE_0734\"\n# fadeout \"black\" 1.2\n# waitandnext 2"
	},
	{
		"ID": 419,
		"unitID": 2400511,
		"questionID": 9400519,
		"script": "# script \"lisp\"\n# background %(wayback_background)s\n# bgmfile \"bgm255\" \"BgmSeaDate\" 0\n# body %(unit_a)s\n# pos %(unit_a)s 3\n# mask %(unit_a)s off\n# chara %(unit_a)s\n# fadein \"black\" 0.5\n# textflame 0 0\n# face %(unit_a)s \"usual\"\n@\n帰り道－\n\n# fadein \"white\" 0.5\n# se \"SE_0735\"\n# bgm \"stop\"\n# waitandnext 2\n@\n…………\n\n# fadein \"white\" 0.5\n# se \"SE_0735\"\n# waitandnext 2\n@\n…………\n\n@\nふと、\n傍らを歩く彼女が足を止めた…\n\n;; face %(unit_a)s \"close\"\n# bgmfile \"bgm255\" \"BgmSeaDate\" 0\n# textflame 1 1\n# voice 4005 \"yoichi_0001\"\n@与一\nあの…マスター？\n\n# face %(unit_a)s \"smile\"\n@与一\n突然ですが…\nクイズのコーナーです！\n\n@与一\nじゃあ…いきます！\n\n@与一\n与一はよく○○だと\n言われてしまいます…\n\n# se \"SE_0734\"\n# select \"甘えん坊\" \"select_label_correct\" \"しっかり者\" \"select_label_wrong1\" \"ドジっ子\" \"select_label_wrong2\"\n与一はよく○○だと\n言われてしまいます…\n\n# label \"select_label_correct\"\n# labeljump \"select_label_end\"\n# textwindow \"close\"\n# waitandnext 0.1\n\n# label \"select_label_wrong1\"\n# labeljump \"select_label_end\"\n# textwindow \"close\"\n# waitandnext 0.1\n\n# label \"select_label_wrong2\"\n# labeljump \"select_label_end\"\n# textwindow \"close\"\n# waitandnext 0.1\n\n# label \"select_label_end\"\n# waitandnext 0.1\n\n# sestop \"SE_0734\"\n# fadeout \"black\" 1.2\n# waitandnext 2"
	},
	{
		"ID": 420,
		"unitID": 2400511,
		"questionID": 9400520,
		"script": "# script \"lisp\"\n# background %(wayback_background)s\n# bgmfile \"bgm255\" \"BgmSeaDate\" 0\n# body %(unit_a)s\n# pos %(unit_a)s 3\n# mask %(unit_a)s off\n# chara %(unit_a)s\n# fadein \"black\" 0.5\n# textflame 0 0\n# face %(unit_a)s \"usual\"\n@\n帰り道－\n\n# fadein \"white\" 0.5\n# se \"SE_0735\"\n# bgm \"stop\"\n# waitandnext 2\n@\n…………\n\n# fadein \"white\" 0.5\n# se \"SE_0735\"\n# waitandnext 2\n@\n…………\n\n@\nふと、\n傍らを歩く彼女が足を止めた…\n\n;; face %(unit_a)s \"close\"\n# bgmfile \"bgm255\" \"BgmSeaDate\" 0\n# textflame 1 1\n# voice 4005 \"yoichi_0001\"\n@与一\nあの…マスター？\n\n# face %(unit_a)s \"smile\"\n@与一\n突然ですが…\nクイズのコーナーです！\n\n@与一\nじゃあ…いきます！\n\n@与一\n与一はよく○○だと\n言われてしまいます…\n\n# se \"SE_0734\"\n# select \"短気\" \"select_label_wrong1\" \"臆病\" \"select_label_correct\" \"疑心暗鬼\" \"select_label_wrong2\"\n与一はよく○○だと\n言われてしまいます…\n\n# label \"select_label_wrong1\"\n# labeljump \"select_label_end\"\n# textwindow \"close\"\n# waitandnext 0.1\n\n# label \"select_label_correct\"\n# labeljump \"select_label_end\"\n# textwindow \"close\"\n# waitandnext 0.1\n\n# label \"select_label_wrong2\"\n# labeljump \"select_label_end\"\n# textwindow \"close\"\n# waitandnext 0.1\n\n# label \"select_label_end\"\n# waitandnext 0.1\n\n# sestop \"SE_0734\"\n# fadeout \"black\" 1.2\n# waitandnext 2"
	},
	{
		"ID": 421,
		"unitID": 2400511,
		"questionID": 9400521,
		"script": "# script \"lisp\"\n# background %(wayback_background)s\n# bgmfile \"bgm255\" \"BgmSeaDate\" 0\n# body %(unit_a)s\n# pos %(unit_a)s 3\n# mask %(unit_a)s off\n# chara %(unit_a)s\n# fadein \"black\" 0.5\n# textflame 0 0\n# face %(unit_a)s \"usual\"\n@\n帰り道－\n\n# fadein \"white\" 0.5\n# se \"SE_0735\"\n# bgm \"stop\"\n# waitandnext 2\n@\n…………\n\n# fadein \"white\" 0.5\n# se \"SE_0735\"\n# waitandnext 2\n@\n…………\n\n@\nふと、\n傍らを歩く彼女が足を止めた…\n\n;; face %(unit_a)s \"close\"\n# bgmfile \"bgm255\" \"BgmSeaDate\" 0\n# textflame 1 1\n# voice 4005 \"yoichi_0001\"\n@与一\nあの…マスター？\n\n# face %(unit_a)s \"smile\"\n@与一\n突然ですが…\nクイズのコーナーです！\n\n@与一\nじゃあ…いきます！\n\n@与一\n与一の口癖ですが、\n覚えてらっしゃいますか？\n\n# se \"SE_0734\"\n# select \"天上天下唯我独尊\" \"select_label_wrong1\" \"南妙法蓮華経\" \"select_label_wrong2\" \"南無八幡大菩薩\" \"select_label_correct\"\n与一の口癖ですが、\n覚えてらっしゃいますか？\n\n# label \"select_label_wrong1\"\n# labeljump \"select_label_end\"\n# textwindow \"close\"\n# waitandnext 0.1\n\n# label \"select_label_wrong2\"\n# labeljump \"select_label_end\"\n# textwindow \"close\"\n# waitandnext 0.1\n\n# label \"select_label_correct\"\n# labeljump \"select_label_end\"\n# textwindow \"close\"\n# waitandnext 0.1\n\n# label \"select_label_end\"\n# waitandnext 0.1\n\n# sestop \"SE_0734\"\n# fadeout \"black\" 1.2\n# waitandnext 2"
	},
	{
		"ID": 422,
		"unitID": 2400511,
		"questionID": 9400522,
		"script": "# script \"lisp\"\n# background %(wayback_background)s\n# bgmfile \"bgm255\" \"BgmSeaDate\" 0\n# body %(unit_a)s\n# pos %(unit_a)s 3\n# mask %(unit_a)s off\n# chara %(unit_a)s\n# fadein \"black\" 0.5\n# textflame 0 0\n# face %(unit_a)s \"usual\"\n@\n帰り道－\n\n# fadein \"white\" 0.5\n# se \"SE_0735\"\n# bgm \"stop\"\n# waitandnext 2\n@\n…………\n\n# fadein \"white\" 0.5\n# se \"SE_0735\"\n# waitandnext 2\n@\n…………\n\n@\nふと、\n傍らを歩く彼女が足を止めた…\n\n;; face %(unit_a)s \"close\"\n# bgmfile \"bgm255\" \"BgmSeaDate\" 0\n# textflame 1 1\n# voice 4005 \"yoichi_0001\"\n@与一\nあの…マスター？\n\n# face %(unit_a)s \"smile\"\n@与一\n突然ですが…\nクイズのコーナーです！\n\n@与一\nじゃあ…いきます！\n\n@与一\n与一が集めているもの…\nご存知ですか？\n\n# se \"SE_0734\"\n# select \"扇\" \"select_label_correct\" \"弓矢\" \"select_label_wrong1\" \"手袋\" \"select_label_wrong2\"\n与一が集めているもの…\nご存知ですか？\n\n# label \"select_label_correct\"\n# labeljump \"select_label_end\"\n# textwindow \"close\"\n# waitandnext 0.1\n\n# label \"select_label_wrong1\"\n# labeljump \"select_label_end\"\n# textwindow \"close\"\n# waitandnext 0.1\n\n# label \"select_label_wrong2\"\n# labeljump \"select_label_end\"\n# textwindow \"close\"\n# waitandnext 0.1\n\n# label \"select_label_end\"\n# waitandnext 0.1\n\n# sestop \"SE_0734\"\n# fadeout \"black\" 1.2\n# waitandnext 2"
	},
	{
		"ID": 423,
		"unitID": 2400511,
		"questionID": 9400523,
		"script": "# script \"lisp\"\n# background %(wayback_background)s\n# bgmfile \"bgm255\" \"BgmSeaDate\" 0\n# body %(unit_a)s\n# pos %(unit_a)s 3\n# mask %(unit_a)s off\n# chara %(unit_a)s\n# fadein \"black\" 0.5\n# textflame 0 0\n# face %(unit_a)s \"usual\"\n@\n帰り道－\n\n# fadein \"white\" 0.5\n# se \"SE_0735\"\n# bgm \"stop\"\n# waitandnext 2\n@\n…………\n\n# fadein \"white\" 0.5\n# se \"SE_0735\"\n# waitandnext 2\n@\n…………\n\n@\nふと、\n傍らを歩く彼女が足を止めた…\n\n;; face %(unit_a)s \"close\"\n# bgmfile \"bgm255\" \"BgmSeaDate\" 0\n# textflame 1 1\n# voice 4005 \"yoichi_0001\"\n@与一\nあの…マスター？\n\n# face %(unit_a)s \"smile\"\n@与一\n突然ですが…\nクイズのコーナーです！\n\n@与一\nじゃあ…いきます！\n\n@与一\n与一はこれこそが\n要だと心がけております\n\n# se \"SE_0734\"\n# select \"武器\" \"select_label_correct\" \"庭\" \"select_label_wrong1\" \"お肌\" \"select_label_wrong2\"\n与一はこれこそが\n要だと心がけております\n\n# label \"select_label_correct\"\n# labeljump \"select_label_end\"\n# textwindow \"close\"\n# waitandnext 0.1\n\n# label \"select_label_wrong1\"\n# labeljump \"select_label_end\"\n# textwindow \"close\"\n# waitandnext 0.1\n\n# label \"select_label_wrong2\"\n# labeljump \"select_label_end\"\n# textwindow \"close\"\n# waitandnext 0.1\n\n# label \"select_label_end\"\n# waitandnext 0.1\n\n# sestop \"SE_0734\"\n# fadeout \"black\" 1.2\n# waitandnext 2"
	},
	{
		"ID": 424,
		"unitID": 2400511,
		"questionID": 9400524,
		"script": "# script \"lisp\"\n# background %(wayback_background)s\n# bgmfile \"bgm255\" \"BgmSeaDate\" 0\n# body %(unit_a)s\n# pos %(unit_a)s 3\n# mask %(unit_a)s off\n# chara %(unit_a)s\n# fadein \"black\" 0.5\n# textflame 0 0\n# face %(unit_a)s \"usual\"\n@\n帰り道－\n\n# fadein \"white\" 0.5\n# se \"SE_0735\"\n# bgm \"stop\"\n# waitandnext 2\n@\n…………\n\n# fadein \"white\" 0.5\n# se \"SE_0735\"\n# waitandnext 2\n@\n…………\n\n@\nふと、\n傍らを歩く彼女が足を止めた…\n\n;; face %(unit_a)s \"close\"\n# bgmfile \"bgm255\" \"BgmSeaDate\" 0\n# textflame 1 1\n# voice 4005 \"yoichi_0001\"\n@与一\nあの…マスター？\n\n# face %(unit_a)s \"smile\"\n@与一\n突然ですが…\nクイズのコーナーです！\n\n@与一\nじゃあ…いきます！\n\n@与一\n与一はよく“これ”で武具の手入れを\n行っています！\n\n# se \"SE_0734\"\n# select \"菜種油\" \"select_label_wrong1\" \"胡桃油\" \"select_label_correct\" \"馬油\" \"select_label_wrong2\"\n与一はよく“これ”で武具の手入れを\n行っています！\n\n# label \"select_label_wrong1\"\n# labeljump \"select_label_end\"\n# textwindow \"close\"\n# waitandnext 0.1\n\n# label \"select_label_correct\"\n# labeljump \"select_label_end\"\n# textwindow \"close\"\n# waitandnext 0.1\n\n# label \"select_label_wrong2\"\n# labeljump \"select_label_end\"\n# textwindow \"close\"\n# waitandnext 0.1\n\n# label \"select_label_end\"\n# waitandnext 0.1\n\n# sestop \"SE_0734\"\n# fadeout \"black\" 1.2\n# waitandnext 2"
	},
	{
		"ID": 425,
		"unitID": 2400511,
		"questionID": 9400525,
		"script": "# script \"lisp\"\n# background %(wayback_background)s\n# bgmfile \"bgm255\" \"BgmSeaDate\" 0\n# body %(unit_a)s\n# pos %(unit_a)s 3\n# mask %(unit_a)s off\n# chara %(unit_a)s\n# fadein \"black\" 0.5\n# textflame 0 0\n# face %(unit_a)s \"usual\"\n@\n帰り道－\n\n# fadein \"white\" 0.5\n# se \"SE_0735\"\n# bgm \"stop\"\n# waitandnext 2\n@\n…………\n\n# fadein \"white\" 0.5\n# se \"SE_0735\"\n# waitandnext 2\n@\n…………\n\n@\nふと、\n傍らを歩く彼女が足を止めた…\n\n;; face %(unit_a)s \"close\"\n# bgmfile \"bgm255\" \"BgmSeaDate\" 0\n# textflame 1 1\n# voice 4005 \"yoichi_0001\"\n@与一\nあの…マスター？\n\n# face %(unit_a)s \"smile\"\n@与一\n突然ですが…\nクイズのコーナーです！\n\n@与一\nじゃあ…いきます！\n\n@与一\n与一は学園編では\n何部に所属しているか\n覚えてらっしゃいますか？\n\n# se \"SE_0734\"\n# select \"剣道部\" \"select_label_wrong1\" \"弓道部\" \"select_label_correct\" \"乗馬部\" \"select_label_wrong2\"\n与一は学園編では\n何部に所属しているか\n覚えてらっしゃいますか？\n\n# label \"select_label_wrong1\"\n# labeljump \"select_label_end\"\n# textwindow \"close\"\n# waitandnext 0.1\n\n# label \"select_label_correct\"\n# labeljump \"select_label_end\"\n# textwindow \"close\"\n# waitandnext 0.1\n\n# label \"select_label_wrong2\"\n# labeljump \"select_label_end\"\n# textwindow \"close\"\n# waitandnext 0.1\n\n# label \"select_label_end\"\n# waitandnext 0.1\n\n# sestop \"SE_0734\"\n# fadeout \"black\" 1.2\n# waitandnext 2"
	},
	{
		"ID": 426,
		"unitID": 2400511,
		"questionID": 9400526,
		"script": "# script \"lisp\"\n# background %(wayback_background)s\n# bgmfile \"bgm255\" \"BgmSeaDate\" 0\n# body %(unit_a)s\n# pos %(unit_a)s 3\n# mask %(unit_a)s off\n# chara %(unit_a)s\n# fadein \"black\" 0.5\n# textflame 0 0\n# face %(unit_a)s \"usual\"\n@\n帰り道－\n\n# fadein \"white\" 0.5\n# se \"SE_0735\"\n# bgm \"stop\"\n# waitandnext 2\n@\n…………\n\n# fadein \"white\" 0.5\n# se \"SE_0735\"\n# waitandnext 2\n@\n…………\n\n@\nふと、\n傍らを歩く彼女が足を止めた…\n\n;; face %(unit_a)s \"close\"\n# bgmfile \"bgm255\" \"BgmSeaDate\" 0\n# textflame 1 1\n# voice 4005 \"yoichi_0001\"\n@与一\nあの…マスター？\n\n# face %(unit_a)s \"smile\"\n@与一\n突然ですが…\nクイズのコーナーです！\n\n@与一\nじゃあ…いきます！\n\n@与一\n与一はよく◯◯気質と言われます…\n嬉しいやら哀しいやらです\n\n# se \"SE_0734\"\n# select \"末っ子\" \"select_label_wrong1\" \"妹\" \"select_label_correct\" \"武士\" \"select_label_wrong2\"\n与一はよく◯◯気質と言われます…\n嬉しいやら哀しいやらです\n\n# label \"select_label_wrong1\"\n# labeljump \"select_label_end\"\n# textwindow \"close\"\n# waitandnext 0.1\n\n# label \"select_label_correct\"\n# labeljump \"select_label_end\"\n# textwindow \"close\"\n# waitandnext 0.1\n\n# label \"select_label_wrong2\"\n# labeljump \"select_label_end\"\n# textwindow \"close\"\n# waitandnext 0.1\n\n# label \"select_label_end\"\n# waitandnext 0.1\n\n# sestop \"SE_0734\"\n# fadeout \"black\" 1.2\n# waitandnext 2"
	},
	{
		"ID": 427,
		"unitID": 2400511,
		"questionID": 9400527,
		"script": "# script \"lisp\"\n# background %(wayback_background)s\n# bgmfile \"bgm255\" \"BgmSeaDate\" 0\n# body %(unit_a)s\n# pos %(unit_a)s 3\n# mask %(unit_a)s off\n# chara %(unit_a)s\n# fadein \"black\" 0.5\n# textflame 0 0\n# face %(unit_a)s \"usual\"\n@\n帰り道－\n\n# fadein \"white\" 0.5\n# se \"SE_0735\"\n# bgm \"stop\"\n# waitandnext 2\n@\n…………\n\n# fadein \"white\" 0.5\n# se \"SE_0735\"\n# waitandnext 2\n@\n…………\n\n@\nふと、\n傍らを歩く彼女が足を止めた…\n\n;; face %(unit_a)s \"close\"\n# bgmfile \"bgm255\" \"BgmSeaDate\" 0\n# textflame 1 1\n# voice 4005 \"yoichi_0001\"\n@与一\nあの…マスター？\n\n# face %(unit_a)s \"smile\"\n@与一\n突然ですが…\nクイズのコーナーです！\n\n@与一\nじゃあ…いきます！\n\n@与一\n与一はよく◯◯家と言われます\n\n# se \"SE_0734\"\n# select \"努力\" \"select_label_wrong1\" \"倹約\" \"select_label_correct\" \"中村\" \"select_label_wrong2\"\n与一はよく◯◯家と言われます\n\n# label \"select_label_wrong1\"\n# labeljump \"select_label_end\"\n# textwindow \"close\"\n# waitandnext 0.1\n\n# label \"select_label_correct\"\n# labeljump \"select_label_end\"\n# textwindow \"close\"\n# waitandnext 0.1\n\n# label \"select_label_wrong2\"\n# labeljump \"select_label_end\"\n# textwindow \"close\"\n# waitandnext 0.1\n\n# label \"select_label_end\"\n# waitandnext 0.1\n\n# sestop \"SE_0734\"\n# fadeout \"black\" 1.2\n# waitandnext 2"
	},
	{
		"ID": 428,
		"unitID": 2400511,
		"questionID": 9400528,
		"script": "# script \"lisp\"\n# background %(wayback_background)s\n# bgmfile \"bgm255\" \"BgmSeaDate\" 0\n# body %(unit_a)s\n# pos %(unit_a)s 3\n# mask %(unit_a)s off\n# chara %(unit_a)s\n# fadein \"black\" 0.5\n# textflame 0 0\n# face %(unit_a)s \"usual\"\n@\n帰り道－\n\n# fadein \"white\" 0.5\n# se \"SE_0735\"\n# bgm \"stop\"\n# waitandnext 2\n@\n…………\n\n# fadein \"white\" 0.5\n# se \"SE_0735\"\n# waitandnext 2\n@\n…………\n\n@\nふと、\n傍らを歩く彼女が足を止めた…\n\n# bgmfile \"bgm255\" \"BgmSeaDate\" 0\n# textflame 1 1\n;; face %(unit_a)s \"close\"\n# voice 4005 \"yoichi_0001\"\n@与一\nあの…マスター？\n\n# face %(unit_a)s \"usual\"\n@与一\n私のこと…\nちゃんと知っててくれているか\n試してみても…いいですか？\n\n# face %(unit_a)s \"smile\"\n@与一\nえっと、なんていうか…\nクイズ…みたいな感じ、です！\n\n# voice 4005 \"yoichi_0004\"\n@与一\nでは…参ります！\n\n@与一\n与一は扇が大好きなのですが、\nその語源をご存知ですか？\n\n# se \"SE_0734\"\n# select \"煽ぐ\" \"select_label_correct\" \"奥義\" \"select_label_wrong1\" \"青木\" \"select_label_wrong2\"\n与一は扇が大好きなのですが、\nその語源をご存知ですか？\n\n# label \"select_label_correct\"\n# labeljump \"select_label_end\"\n# textwindow \"close\"\n# waitandnext 0.1\n\n# label \"select_label_wrong1\"\n# labeljump \"select_label_end\"\n# textwindow \"close\"\n# waitandnext 0.1\n\n# label \"select_label_wrong2\"\n# labeljump \"select_label_end\"\n# textwindow \"close\"\n# waitandnext 0.1\n\n# label \"select_label_end\"\n# waitandnext 0.1\n\n# sestop \"SE_0734\"\n# fadeout \"black\" 1.2\n# waitandnext 2"
	},
	{
		"ID": 429,
		"unitID": 2400511,
		"questionID": 9400529,
		"script": "# script \"lisp\"\n# background %(wayback_background)s\n# bgmfile \"bgm255\" \"BgmSeaDate\" 0\n# body %(unit_a)s\n# pos %(unit_a)s 3\n# mask %(unit_a)s off\n# chara %(unit_a)s\n# fadein \"black\" 0.5\n# textflame 0 0\n# face %(unit_a)s \"usual\"\n@\n帰り道－\n\n# fadein \"white\" 0.5\n# se \"SE_0735\"\n# bgm \"stop\"\n# waitandnext 2\n@\n…………\n\n# fadein \"white\" 0.5\n# se \"SE_0735\"\n# waitandnext 2\n@\n…………\n\n@\nふと、\n傍らを歩く彼女が足を止めた…\n\n# bgmfile \"bgm255\" \"BgmSeaDate\" 0\n# textflame 1 1\n;; face %(unit_a)s \"close\"\n# voice 4005 \"yoichi_0001\"\n@与一\nあの…マスター？\n\n# face %(unit_a)s \"usual\"\n@与一\n私のこと…\nちゃんと知っててくれているか\n試してみても…いいですか？\n\n# face %(unit_a)s \"smile\"\n@与一\nえっと、なんていうか…\nクイズ…みたいな感じ、です！\n\n# voice 4005 \"yoichi_0004\"\n@与一\nでは…参ります！\n\n@与一\n与一は扇が大好きなのですが、\n扇の元々の用途はどんなものか、\nご存知でしょうか？\n\n# se \"SE_0734\"\n# select \"飾り\" \"select_label_wrong1\" \"メモ帳\" \"select_label_correct\" \"武器\" \"select_label_wrong2\"\n与一は扇が大好きなのですが、\n扇の元々の用途はどんなものか、\nご存知でしょうか？\n\n# label \"select_label_wrong1\"\n# labeljump \"select_label_end\"\n# textwindow \"close\"\n# waitandnext 0.1\n\n# label \"select_label_correct\"\n# labeljump \"select_label_end\"\n# textwindow \"close\"\n# waitandnext 0.1\n\n# label \"select_label_wrong2\"\n# labeljump \"select_label_end\"\n# textwindow \"close\"\n# waitandnext 0.1\n\n# label \"select_label_end\"\n# waitandnext 0.1\n\n# sestop \"SE_0734\"\n# fadeout \"black\" 1.2\n# waitandnext 2"
	},
	{
		"ID": 430,
		"unitID": 2400511,
		"questionID": 9400530,
		"script": "# script \"lisp\"\n# background %(wayback_background)s\n# bgmfile \"bgm255\" \"BgmSeaDate\" 0\n# body %(unit_a)s\n# pos %(unit_a)s 3\n# mask %(unit_a)s off\n# chara %(unit_a)s\n# fadein \"black\" 0.5\n# textflame 0 0\n# face %(unit_a)s \"usual\"\n@\n帰り道－\n\n# fadein \"white\" 0.5\n# se \"SE_0735\"\n# bgm \"stop\"\n# waitandnext 2\n@\n…………\n\n# fadein \"white\" 0.5\n# se \"SE_0735\"\n# waitandnext 2\n@\n…………\n\n@\nふと、\n傍らを歩く彼女が足を止めた…\n\n# bgmfile \"bgm255\" \"BgmSeaDate\" 0\n# textflame 1 1\n;; face %(unit_a)s \"close\"\n# voice 4005 \"yoichi_0001\"\n@与一\nあの…マスター？\n\n# face %(unit_a)s \"usual\"\n@与一\n私のこと…\nちゃんと知っててくれているか\n試してみても…いいですか？\n\n# face %(unit_a)s \"smile\"\n@与一\nえっと、なんていうか…\nクイズ…みたいな感じ、です！\n\n# voice 4005 \"yoichi_0004\"\n@与一\nでは…参ります！\n\n@与一\n与一は扇が大好きなのですが、\n扇のなかで日本最古と\nされている物をご存知ですか？\n\n# se \"SE_0734\"\n# select \"杉扇\" \"select_label_wrong1\" \"桜扇\" \"select_label_wrong2\" \"檜扇\" \"select_label_correct\"\n与一は扇が大好きなのですが、\n扇のなかで日本最古と\nされている物をご存知ですか？\n\n# label \"select_label_wrong1\"\n# labeljump \"select_label_end\"\n# textwindow \"close\"\n# waitandnext 0.1\n\n# label \"select_label_wrong2\"\n# labeljump \"select_label_end\"\n# textwindow \"close\"\n# waitandnext 0.1\n\n# label \"select_label_correct\"\n# labeljump \"select_label_end\"\n# textwindow \"close\"\n# waitandnext 0.1\n\n# label \"select_label_end\"\n# waitandnext 0.1\n\n# sestop \"SE_0734\"\n# fadeout \"black\" 1.2\n# waitandnext 2"
	},
	{
		"ID": 431,
		"unitID": 2400511,
		"questionID": 9400531,
		"script": "# script \"lisp\"\n# background %(wayback_background)s\n# bgmfile \"bgm255\" \"BgmSeaDate\" 0\n# body %(unit_a)s\n# pos %(unit_a)s 3\n# mask %(unit_a)s off\n# chara %(unit_a)s\n# fadein \"black\" 0.5\n# textflame 0 0\n# face %(unit_a)s \"usual\"\n@\n帰り道－\n\n# fadein \"white\" 0.5\n# se \"SE_0735\"\n# bgm \"stop\"\n# waitandnext 2\n@\n…………\n\n# fadein \"white\" 0.5\n# se \"SE_0735\"\n# waitandnext 2\n@\n…………\n\n@\nふと、\n傍らを歩く彼女が足を止めた…\n\n# bgmfile \"bgm255\" \"BgmSeaDate\" 0\n# textflame 1 1\n;; face %(unit_a)s \"close\"\n# voice 4005 \"yoichi_0001\"\n@与一\nあの…マスター？\n\n# face %(unit_a)s \"usual\"\n@与一\n私のこと…\nちゃんと知っててくれているか\n試してみても…いいですか？\n\n# face %(unit_a)s \"smile\"\n@与一\nえっと、なんていうか…\nクイズ…みたいな感じ、です！\n\n# voice 4005 \"yoichi_0004\"\n@与一\nでは…参ります！\n\n@与一\n与一の誕生日はなんの日と\n呼ばれているかご存知ですか？\n\n# se \"SE_0734\"\n# select \"プロレスの日\" \"select_label_correct\" \"野球の日\" \"select_label_wrong1\" \"相撲の日\" \"select_label_wrong2\"\n与一の誕生日はなんの日と\n呼ばれているかご存知ですか？\n\n# label \"select_label_correct\"\n# labeljump \"select_label_end\"\n# textwindow \"close\"\n# waitandnext 0.1\n\n# label \"select_label_wrong1\"\n# labeljump \"select_label_end\"\n# textwindow \"close\"\n# waitandnext 0.1\n\n# label \"select_label_wrong2\"\n# labeljump \"select_label_end\"\n# textwindow \"close\"\n# waitandnext 0.1\n\n# label \"select_label_end\"\n# waitandnext 0.1\n\n# sestop \"SE_0734\"\n# fadeout \"black\" 1.2\n# waitandnext 2"
	},
	{
		"ID": 432,
		"unitID": 2400511,
		"questionID": 9400532,
		"script": "# script \"lisp\"\n# background %(wayback_background)s\n# bgmfile \"bgm255\" \"BgmSeaDate\" 0\n# body %(unit_a)s\n# pos %(unit_a)s 3\n# mask %(unit_a)s off\n# chara %(unit_a)s\n# fadein \"black\" 0.5\n# textflame 0 0\n# face %(unit_a)s \"usual\"\n@\n帰り道－\n\n# fadein \"white\" 0.5\n# se \"SE_0735\"\n# bgm \"stop\"\n# waitandnext 2\n@\n…………\n\n# fadein \"white\" 0.5\n# se \"SE_0735\"\n# waitandnext 2\n@\n…………\n\n@\nふと、\n傍らを歩く彼女が足を止めた…\n\n# bgmfile \"bgm255\" \"BgmSeaDate\" 0\n# textflame 1 1\n;; face %(unit_a)s \"close\"\n# voice 4005 \"yoichi_0001\"\n@与一\nあの…マスター？\n\n# face %(unit_a)s \"usual\"\n@与一\n私のこと…\nちゃんと知っててくれているか\n試してみても…いいですか？\n\n# face %(unit_a)s \"smile\"\n@与一\nえっと、なんていうか…\nクイズ…みたいな感じ、です！\n\n# voice 4005 \"yoichi_0004\"\n@与一\nでは…参ります！\n\n@与一\n与一と同じ誕生日の方は\n次のうちどなたでしょう？\n\n# se \"SE_0734\"\n# select \"コペルニクス\" \"select_label_correct\" \"ガレリオ\" \"select_label_wrong1\" \"ニュートン\" \"select_label_wrong2\"\n与一と同じ誕生日の方は\n次のうちどなたでしょう？\n\n# label \"select_label_correct\"\n# labeljump \"select_label_end\"\n# textwindow \"close\"\n# waitandnext 0.1\n\n# label \"select_label_wrong1\"\n# labeljump \"select_label_end\"\n# textwindow \"close\"\n# waitandnext 0.1\n\n# label \"select_label_wrong2\"\n# labeljump \"select_label_end\"\n# textwindow \"close\"\n# waitandnext 0.1\n\n# label \"select_label_end\"\n# waitandnext 0.1\n\n# sestop \"SE_0734\"\n# fadeout \"black\" 1.2\n# waitandnext 2"
	},
	{
		"ID": 433,
		"unitID": 2400511,
		"questionID": 9400533,
		"script": "# script \"lisp\"\n# background %(wayback_background)s\n# bgmfile \"bgm255\" \"BgmSeaDate\" 0\n# body %(unit_a)s\n# pos %(unit_a)s 3\n# mask %(unit_a)s off\n# chara %(unit_a)s\n# fadein \"black\" 0.5\n# textflame 0 0\n# face %(unit_a)s \"usual\"\n@\n帰り道－\n\n# fadein \"white\" 0.5\n# se \"SE_0735\"\n# bgm \"stop\"\n# waitandnext 2\n@\n…………\n\n# fadein \"white\" 0.5\n# se \"SE_0735\"\n# waitandnext 2\n@\n…………\n\n@\nふと、\n傍らを歩く彼女が足を止めた…\n\n# bgmfile \"bgm255\" \"BgmSeaDate\" 0\n# textflame 1 1\n;; face %(unit_a)s \"close\"\n# voice 4005 \"yoichi_0001\"\n@与一\nあの…マスター？\n\n# face %(unit_a)s \"usual\"\n@与一\n私のこと…\nちゃんと知っててくれているか\n試してみても…いいですか？\n\n# face %(unit_a)s \"smile\"\n@与一\nえっと、なんていうか…\nクイズ…みたいな感じ、です！\n\n# voice 4005 \"yoichi_0004\"\n@与一\nでは…参ります！\n\n@与一\n与一の武具種は\nさすがにご存知ですよね…？\n\n# se \"SE_0734\"\n# select \"槍\" \"select_label_wrong1\" \"弓\" \"select_label_correct\" \"銃\" \"select_label_wrong2\"\n与一の武具種は\nさすがにご存知ですよね…？\n\n# label \"select_label_wrong1\"\n# labeljump \"select_label_end\"\n# textwindow \"close\"\n# waitandnext 0.1\n\n# label \"select_label_correct\"\n# labeljump \"select_label_end\"\n# textwindow \"close\"\n# waitandnext 0.1\n\n# label \"select_label_wrong2\"\n# labeljump \"select_label_end\"\n# textwindow \"close\"\n# waitandnext 0.1\n\n# label \"select_label_end\"\n# waitandnext 0.1\n\n# sestop \"SE_0734\"\n# fadeout \"black\" 1.2\n# waitandnext 2"
	},
	{
		"ID": 434,
		"unitID": 2400511,
		"questionID": 9400534,
		"script": "# script \"lisp\"\n# background %(wayback_background)s\n# bgmfile \"bgm255\" \"BgmSeaDate\" 0\n# body %(unit_a)s\n# pos %(unit_a)s 3\n# mask %(unit_a)s off\n# chara %(unit_a)s\n# fadein \"black\" 0.5\n# textflame 0 0\n# face %(unit_a)s \"usual\"\n@\n帰り道－\n\n# fadein \"white\" 0.5\n# se \"SE_0735\"\n# bgm \"stop\"\n# waitandnext 2\n@\n…………\n\n# fadein \"white\" 0.5\n# se \"SE_0735\"\n# waitandnext 2\n@\n…………\n\n@\nふと、\n傍らを歩く彼女が足を止めた…\n\n# bgmfile \"bgm255\" \"BgmSeaDate\" 0\n# textflame 1 1\n;; face %(unit_a)s \"close\"\n# voice 4005 \"yoichi_0001\"\n@与一\nあの…マスター？\n\n# face %(unit_a)s \"usual\"\n@与一\n私のこと…\nちゃんと知っててくれているか\n試してみても…いいですか？\n\n# face %(unit_a)s \"smile\"\n@与一\nえっと、なんていうか…\nクイズ…みたいな感じ、です！\n\n# voice 4005 \"yoichi_0004\"\n@与一\nでは…参ります！\n\n@与一\nマスター！\n以前、与一が習得したスキルを\n覚えてらっしゃいますか？\n\n# se \"SE_0734\"\n# select \"聖夜の一閃\" \"select_label_wrong1\" \"祝福の聖矢\" \"select_label_correct\" \"神託の嚆矢\" \"select_label_wrong2\"\nマスター！\n以前、与一が習得したスキルを\n覚えてらっしゃいますか？\n\n# label \"select_label_wrong1\"\n# labeljump \"select_label_end\"\n# textwindow \"close\"\n# waitandnext 0.1\n\n# label \"select_label_correct\"\n# labeljump \"select_label_end\"\n# textwindow \"close\"\n# waitandnext 0.1\n\n# label \"select_label_wrong2\"\n# labeljump \"select_label_end\"\n# textwindow \"close\"\n# waitandnext 0.1\n\n# label \"select_label_end\"\n# waitandnext 0.1\n\n# sestop \"SE_0734\"\n# fadeout \"black\" 1.2\n# waitandnext 2"
	},
	{
		"ID": 435,
		"unitID": 2400511,
		"questionID": 9400535,
		"script": "# script \"lisp\"\n# background %(wayback_background)s\n# bgmfile \"bgm255\" \"BgmSeaDate\" 0\n# body %(unit_a)s\n# pos %(unit_a)s 3\n# mask %(unit_a)s off\n# chara %(unit_a)s\n# fadein \"black\" 0.5\n# textflame 0 0\n# face %(unit_a)s \"usual\"\n@\n帰り道－\n\n# fadein \"white\" 0.5\n# se \"SE_0735\"\n# bgm \"stop\"\n# waitandnext 2\n@\n…………\n\n# fadein \"white\" 0.5\n# se \"SE_0735\"\n# waitandnext 2\n@\n…………\n\n@\nふと、\n傍らを歩く彼女が足を止めた…\n\n# bgmfile \"bgm255\" \"BgmSeaDate\" 0\n# textflame 1 1\n;; face %(unit_a)s \"close\"\n# voice 4005 \"yoichi_0001\"\n@与一\nあの…マスター？\n\n# face %(unit_a)s \"usual\"\n@与一\n私のこと…\nちゃんと知っててくれているか\n試してみても…いいですか？\n\n# face %(unit_a)s \"smile\"\n@与一\nえっと、なんていうか…\nクイズ…みたいな感じ、です！\n\n# voice 4005 \"yoichi_0004\"\n@与一\nでは…参ります！\n\n@与一\nマスター！\n以前、与一が習得したスキルを\n覚えてらっしゃいますか？\n\n# se \"SE_0734\"\n# select \"聖夜舞う祝福の嚆矢\" \"select_label_wrong1\" \"聖夜舞う祝福の一閃\" \"select_label_wrong2\" \"聖夜舞う祝福の矢\" \"select_label_correct\"\nマスター！\n以前、与一が習得したスキルを\n覚えてらっしゃいますか？\n\n# label \"select_label_wrong1\"\n# labeljump \"select_label_end\"\n# textwindow \"close\"\n# waitandnext 0.1\n\n# label \"select_label_wrong2\"\n# labeljump \"select_label_end\"\n# textwindow \"close\"\n# waitandnext 0.1\n\n# label \"select_label_correct\"\n# labeljump \"select_label_end\"\n# textwindow \"close\"\n# waitandnext 0.1\n\n# label \"select_label_end\"\n# waitandnext 0.1\n\n# sestop \"SE_0734\"\n# fadeout \"black\" 1.2\n# waitandnext 2"
	},
	{
		"ID": 436,
		"unitID": 2400511,
		"questionID": 9400536,
		"script": "# script \"lisp\"\n# background %(wayback_background)s\n# bgmfile \"bgm255\" \"BgmSeaDate\" 0\n# body %(unit_a)s\n# pos %(unit_a)s 3\n# mask %(unit_a)s off\n# chara %(unit_a)s\n# fadein \"black\" 0.5\n# textflame 0 0\n# face %(unit_a)s \"usual\"\n@\n帰り道－\n\n# fadein \"white\" 0.5\n# se \"SE_0735\"\n# bgm \"stop\"\n# waitandnext 2\n@\n…………\n\n# fadein \"white\" 0.5\n# se \"SE_0735\"\n# waitandnext 2\n@\n…………\n\n@\nふと、\n傍らを歩く彼女が足を止めた…\n\n# bgmfile \"bgm255\" \"BgmSeaDate\" 0\n# textflame 1 1\n;; face %(unit_a)s \"close\"\n# voice 4005 \"yoichi_0001\"\n@与一\nあの…マスター？\n\n# face %(unit_a)s \"usual\"\n@与一\n私のこと…\nちゃんと知っててくれているか\n試してみても…いいですか？\n\n# face %(unit_a)s \"smile\"\n@与一\nえっと、なんていうか…\nクイズ…みたいな感じ、です！\n\n# voice 4005 \"yoichi_0004\"\n@与一\nでは…参ります！\n\n@与一\n与一が尊敬している大先輩の\nお名前をお答えください！\n\n# se \"SE_0734\"\n# select \"八咫鏡\" \"select_label_wrong1\" \"芭蕉扇\" \"select_label_wrong2\" \"梓弓\" \"select_label_correct\"\n与一が尊敬している大先輩の\nお名前をお答えください！\n\n# label \"select_label_wrong1\"\n# labeljump \"select_label_end\"\n# textwindow \"close\"\n# waitandnext 0.1\n\n# label \"select_label_wrong2\"\n# labeljump \"select_label_end\"\n# textwindow \"close\"\n# waitandnext 0.1\n\n# label \"select_label_correct\"\n# labeljump \"select_label_end\"\n# textwindow \"close\"\n# waitandnext 0.1\n\n# label \"select_label_end\"\n# waitandnext 0.1\n\n# sestop \"SE_0734\"\n# fadeout \"black\" 1.2\n# waitandnext 2"
	},
	{
		"ID": 437,
		"unitID": 2400511,
		"questionID": 9400537,
		"script": "# script \"lisp\"\n# background %(wayback_background)s\n# bgmfile \"bgm255\" \"BgmSeaDate\" 0\n# body %(unit_a)s\n# pos %(unit_a)s 3\n# mask %(unit_a)s off\n# chara %(unit_a)s\n# fadein \"black\" 0.5\n# textflame 0 0\n# face %(unit_a)s \"usual\"\n@\n帰り道－\n\n# fadein \"white\" 0.5\n# se \"SE_0735\"\n# bgm \"stop\"\n# waitandnext 2\n@\n…………\n\n# fadein \"white\" 0.5\n# se \"SE_0735\"\n# waitandnext 2\n@\n…………\n\n@\nふと、\n傍らを歩く彼女が足を止めた…\n\n# bgmfile \"bgm255\" \"BgmSeaDate\" 0\n# textflame 1 1\n;; face %(unit_a)s \"close\"\n# voice 4005 \"yoichi_0001\"\n@与一\nあの…マスター？\n\n# face %(unit_a)s \"usual\"\n@与一\n私のこと…\nちゃんと知っててくれているか\n試してみても…いいですか？\n\n# face %(unit_a)s \"smile\"\n@与一\nえっと、なんていうか…\nクイズ…みたいな感じ、です！\n\n# voice 4005 \"yoichi_0004\"\n@与一\nでは…参ります！\n\n@与一\n与一と仲良くしてくれて、\nいつも“あの方”には感謝しています\n\n# se \"SE_0734\"\n# select \"マサムネ\" \"select_label_correct\" \"パラシュ\" \"select_label_wrong1\" \"ティルフィング\" \"select_label_wrong2\"\n与一と仲良くしてくれて、\nいつも“あの方”には感謝しています\n\n# label \"select_label_correct\"\n# labeljump \"select_label_end\"\n# textwindow \"close\"\n# waitandnext 0.1\n\n# label \"select_label_wrong1\"\n# labeljump \"select_label_end\"\n# textwindow \"close\"\n# waitandnext 0.1\n\n# label \"select_label_wrong2\"\n# labeljump \"select_label_end\"\n# textwindow \"close\"\n# waitandnext 0.1\n\n# label \"select_label_end\"\n# waitandnext 0.1\n\n# sestop \"SE_0734\"\n# fadeout \"black\" 1.2\n# waitandnext 2"
	},
	{
		"ID": 438,
		"unitID": 2400511,
		"questionID": 9400538,
		"script": "# script \"lisp\"\n# background %(wayback_background)s\n# bgmfile \"bgm255\" \"BgmSeaDate\" 0\n# body %(unit_a)s\n# pos %(unit_a)s 3\n# mask %(unit_a)s off\n# chara %(unit_a)s\n# fadein \"black\" 0.5\n# textflame 0 0\n# face %(unit_a)s \"usual\"\n@\n帰り道－\n\n# fadein \"white\" 0.5\n# se \"SE_0735\"\n# bgm \"stop\"\n# waitandnext 2\n@\n…………\n\n# fadein \"white\" 0.5\n# se \"SE_0735\"\n# waitandnext 2\n@\n…………\n\n@\nふと、\n傍らを歩く彼女が足を止めた…\n\n# bgmfile \"bgm255\" \"BgmSeaDate\" 0\n# textflame 1 1\n;; face %(unit_a)s \"close\"\n# voice 4005 \"yoichi_0001\"\n@与一\nあの…マスター？\n\n# face %(unit_a)s \"usual\"\n@与一\n私のこと…\nちゃんと知っててくれているか\n試してみても…いいですか？\n\n# face %(unit_a)s \"smile\"\n@与一\nえっと、なんていうか…\nクイズ…みたいな感じ、です！\n\n# voice 4005 \"yoichi_0004\"\n@与一\nでは…参ります！\n\n@与一\n与一は扇が大好きなのですが、\n扇の日はいつかご存知ですか？\n\n# se \"SE_0734\"\n# select \"5月1日\" \"select_label_correct\" \"2月3日\" \"select_label_wrong1\" \"8月8日\" \"select_label_wrong2\"\n与一は扇が大好きなのですが、\n扇の日はいつかご存知ですか？\n\n# label \"select_label_correct\"\n# labeljump \"select_label_end\"\n# textwindow \"close\"\n# waitandnext 0.1\n\n# label \"select_label_wrong1\"\n# labeljump \"select_label_end\"\n# textwindow \"close\"\n# waitandnext 0.1\n\n# label \"select_label_wrong2\"\n# labeljump \"select_label_end\"\n# textwindow \"close\"\n# waitandnext 0.1\n\n# label \"select_label_end\"\n# waitandnext 0.1\n\n# sestop \"SE_0734\"\n# fadeout \"black\" 1.2\n# waitandnext 2"
	},
	{
		"ID": 439,
		"unitID": 2400511,
		"questionID": 9400539,
		"script": "# script \"lisp\"\n# background %(wayback_background)s\n# bgmfile \"bgm255\" \"BgmSeaDate\" 0\n# body %(unit_a)s\n# pos %(unit_a)s 3\n# mask %(unit_a)s off\n# chara %(unit_a)s\n# fadein \"black\" 0.5\n# textflame 0 0\n# face %(unit_a)s \"usual\"\n@\n帰り道－\n\n# fadein \"white\" 0.5\n# se \"SE_0735\"\n# bgm \"stop\"\n# waitandnext 2\n@\n…………\n\n# fadein \"white\" 0.5\n# se \"SE_0735\"\n# waitandnext 2\n@\n…………\n\n@\nふと、\n傍らを歩く彼女が足を止めた…\n\n# bgmfile \"bgm255\" \"BgmSeaDate\" 0\n# textflame 1 1\n;; face %(unit_a)s \"close\"\n# voice 4005 \"yoichi_0001\"\n@与一\nあの…マスター？\n\n# face %(unit_a)s \"usual\"\n@与一\n私のこと…\nちゃんと知っててくれているか\n試してみても…いいですか？\n\n# face %(unit_a)s \"smile\"\n@与一\nえっと、なんていうか…\nクイズ…みたいな感じ、です！\n\n# voice 4005 \"yoichi_0004\"\n@与一\nでは…参ります！\n\n@与一\n与一の履物、\nマスターは覚えてらっしゃいますか？\n\n# se \"SE_0734\"\n# select \"ブーツ\" \"select_label_correct\" \"スニーカー\" \"select_label_wrong1\" \"軍靴\" \"select_label_wrong2\"\n与一の履物、\nマスターは覚えてらっしゃいますか？\n\n# label \"select_label_correct\"\n# labeljump \"select_label_end\"\n# textwindow \"close\"\n# waitandnext 0.1\n\n# label \"select_label_wrong1\"\n# labeljump \"select_label_end\"\n# textwindow \"close\"\n# waitandnext 0.1\n\n# label \"select_label_wrong2\"\n# labeljump \"select_label_end\"\n# textwindow \"close\"\n# waitandnext 0.1\n\n# label \"select_label_end\"\n# waitandnext 0.1\n\n# sestop \"SE_0734\"\n# fadeout \"black\" 1.2\n# waitandnext 2"
	},
	{
		"ID": 440,
		"unitID": 2400511,
		"questionID": 9400540,
		"script": "# script \"lisp\"\n# background %(wayback_background)s\n# bgmfile \"bgm255\" \"BgmSeaDate\" 0\n# body %(unit_a)s\n# pos %(unit_a)s 3\n# mask %(unit_a)s off\n# chara %(unit_a)s\n# fadein \"black\" 0.5\n# textflame 0 0\n# face %(unit_a)s \"usual\"\n@\n帰り道－\n\n# fadein \"white\" 0.5\n# se \"SE_0735\"\n# bgm \"stop\"\n# waitandnext 2\n@\n…………\n\n# fadein \"white\" 0.5\n# se \"SE_0735\"\n# waitandnext 2\n@\n…………\n\n@\nふと、\n傍らを歩く彼女が足を止めた…\n\n# bgmfile \"bgm255\" \"BgmSeaDate\" 0\n# textflame 1 1\n;; face %(unit_a)s \"close\"\n# voice 4005 \"yoichi_0001\"\n@与一\nあの…マスター？\n\n# face %(unit_a)s \"usual\"\n@与一\n私のこと…\nちゃんと知っててくれているか\n試してみても…いいですか？\n\n# face %(unit_a)s \"smile\"\n@与一\nえっと、なんていうか…\nクイズ…みたいな感じ、です！\n\n# voice 4005 \"yoichi_0004\"\n@与一\nでは…参ります！\n\n@与一\nマスター！与一の口癖でもある、\n「南無八幡大菩薩」\nこちら読めますか？\n\n# se \"SE_0734\"\n# select \"なむはちまんだいぼさつ\" \"select_label_correct\" \"なむやはただいぼさつ\" \"select_label_wrong1\" \"なむはちまんだいさつま\" \"select_label_wrong2\"\nマスター！与一の口癖でもある、\n「南無八幡大菩薩」\nこちら読めますか？\n\n# label \"select_label_correct\"\n# labeljump \"select_label_end\"\n# textwindow \"close\"\n# waitandnext 0.1\n\n# label \"select_label_wrong1\"\n# labeljump \"select_label_end\"\n# textwindow \"close\"\n# waitandnext 0.1\n\n# label \"select_label_wrong2\"\n# labeljump \"select_label_end\"\n# textwindow \"close\"\n# waitandnext 0.1\n\n# label \"select_label_end\"\n# waitandnext 0.1\n\n# sestop \"SE_0734\"\n# fadeout \"black\" 1.2\n# waitandnext 2"
	},
	{
		"ID": 441,
		"unitID": 2400511,
		"questionID": 9400541,
		"script": "# script \"lisp\"\n# background %(wayback_background)s\n# bgmfile \"bgm255\" \"BgmSeaDate\" 0\n# body %(unit_a)s\n# pos %(unit_a)s 3\n# mask %(unit_a)s off\n# chara %(unit_a)s\n# fadein \"black\" 0.5\n# textflame 0 0\n# face %(unit_a)s \"usual\"\n@\n帰り道－\n\n# fadein \"white\" 0.5\n# se \"SE_0735\"\n# bgm \"stop\"\n# waitandnext 2\n@\n…………\n\n# fadein \"white\" 0.5\n# se \"SE_0735\"\n# waitandnext 2\n@\n…………\n\n# serif 1\n# voice 9999 \"durin_0044\"\n@？？？？\n…あれ？\nアンタ達、なにしてんの？\n\n# voice 9999 \"durin_0040\"\n# serif 1\n@デュリン\n…はっはーん、わかった！\nデート中ね？\n別に隠さなくていいわよ\n\n# serif 1\n# voice 9999 \"durin_0043\"\n@デュリン\n…そうだ！\nちょっとアンタ、こっち来て…\n\n;;//デート相手立ち絵消去\n# body 0\n# pos 0 3\n# scale 0 0.8 0\n# alpha 0 0 0\n# mask 0 off\n# fadeout \"black\" 1\n# waitandnext 2\n\n# fadein \"black\" 0.5\n# serif 1\n# textwindow \"close\"\n# serif 0\n# textwindow \"normal\"\n# bgmfile \"bgm255\" \"BgmSeaDate\" 0\n# alpha %(unit_a)s 0 0\n# alpha 0 1 0\n# textflame 1 1\n# voice 9999 \"durin_0046\"\n@デュリン\n…せっかくだから\nアンタがその子のこと\nどのぐらい知ってるか試してあげる\n\n# textflame 1 1\n@デュリン\nデートするぐらいなんだもの\n%(unitName:unit_a)sのこと\nよく知ってるんでしょ？\n\n# textflame 1 1\n# voice 9999 \"durin_0033\"\n@デュリン\n見事正解できたらあの子に\nアンタのこと良く言っといてあげる\n…それじゃ、行くわよ！\n\n# se \"SE_0734\"\n# select \"与一\" \"select_label_correct\" \"私\" \"select_label_wrong1\" \"僕\" \"select_label_wrong2\"\n与一の一人称は\n次のうちどれ？\n\n# label \"select_label_correct\"\n# labeljump \"select_label_end\"\n# textwindow \"close\"\n# waitandnext 0.1\n\n# label \"select_label_wrong1\"\n# labeljump \"select_label_end\"\n# textwindow \"close\"\n# waitandnext 0.1\n\n# label \"select_label_wrong2\"\n# labeljump \"select_label_end\"\n# textwindow \"close\"\n# waitandnext 0.1\n\n# label \"select_label_end\"\n# waitandnext 0.1\n\n# sestop \"SE_0734\"\n# fadeout \"black\" 1.2\n# waitandnext 2"
	},
	{
		"ID": 442,
		"unitID": 2400511,
		"questionID": 9400542,
		"script": "# script \"lisp\"\n# background %(wayback_background)s\n# bgmfile \"bgm255\" \"BgmSeaDate\" 0\n# body %(unit_a)s\n# pos %(unit_a)s 3\n# mask %(unit_a)s off\n# chara %(unit_a)s\n# fadein \"black\" 0.5\n# textflame 0 0\n# face %(unit_a)s \"usual\"\n@\n帰り道－\n\n# fadein \"white\" 0.5\n# se \"SE_0735\"\n# bgm \"stop\"\n# waitandnext 2\n@\n…………\n\n# fadein \"white\" 0.5\n# se \"SE_0735\"\n# waitandnext 2\n@\n…………\n\n# serif 1\n# voice 9999 \"durin_0044\"\n@？？？？\n…あれ？\nアンタ達、なにしてんの？\n\n# voice 9999 \"durin_0040\"\n# serif 1\n@デュリン\n…はっはーん、わかった！\nデート中ね？\n別に隠さなくていいわよ\n\n# serif 1\n# voice 9999 \"durin_0043\"\n@デュリン\n…そうだ！\nちょっとアンタ、こっち来て…\n\n;;//デート相手立ち絵消去\n# body 0\n# pos 0 3\n# scale 0 0.8 0\n# alpha 0 0 0\n# mask 0 off\n# fadeout \"black\" 1\n# waitandnext 2\n\n# fadein \"black\" 0.5\n# serif 1\n# textwindow \"close\"\n# serif 0\n# textwindow \"normal\"\n# bgmfile \"bgm255\" \"BgmSeaDate\" 0\n# alpha %(unit_a)s 0 0\n# alpha 0 1 0\n# textflame 1 1\n# voice 9999 \"durin_0046\"\n@デュリン\n…せっかくだから\nアンタがその子のこと\nどのぐらい知ってるか試してあげる\n\n# textflame 1 1\n@デュリン\nデートするぐらいなんだもの\n%(unitName:unit_a)sのこと\nよく知ってるんでしょ？\n\n# textflame 1 1\n# voice 9999 \"durin_0033\"\n@デュリン\n見事正解できたらあの子に\nアンタのこと良く言っといてあげる\n…それじゃ、行くわよ！\n\n# se \"SE_0734\"\n# select \"主君\" \"select_label_wrong1\" \"マスター\" \"select_label_correct\" \"殿\" \"select_label_wrong2\"\n与一はアンタのこと、\nなんて呼んでる？\n\n# label \"select_label_wrong1\"\n# labeljump \"select_label_end\"\n# textwindow \"close\"\n# waitandnext 0.1\n\n# label \"select_label_correct\"\n# labeljump \"select_label_end\"\n# textwindow \"close\"\n# waitandnext 0.1\n\n# label \"select_label_wrong2\"\n# labeljump \"select_label_end\"\n# textwindow \"close\"\n# waitandnext 0.1\n\n# label \"select_label_end\"\n# waitandnext 0.1\n\n# sestop \"SE_0734\"\n# fadeout \"black\" 1.2\n# waitandnext 2"
	},
	{
		"ID": 443,
		"unitID": 2400511,
		"questionID": 9400543,
		"script": "# script \"lisp\"\n# background %(wayback_background)s\n# bgmfile \"bgm255\" \"BgmSeaDate\" 0\n# body %(unit_a)s\n# pos %(unit_a)s 3\n# mask %(unit_a)s off\n# chara %(unit_a)s\n# fadein \"black\" 0.5\n# textflame 0 0\n# face %(unit_a)s \"usual\"\n@\n帰り道－\n\n# fadein \"white\" 0.5\n# se \"SE_0735\"\n# bgm \"stop\"\n# waitandnext 2\n@\n…………\n\n# fadein \"white\" 0.5\n# se \"SE_0735\"\n# waitandnext 2\n@\n…………\n\n# serif 1\n# voice 9999 \"durin_0044\"\n@？？？？\n…あれ？\nアンタ達、なにしてんの？\n\n# voice 9999 \"durin_0040\"\n# serif 1\n@デュリン\n…はっはーん、わかった！\nデート中ね？\n別に隠さなくていいわよ\n\n# serif 1\n# voice 9999 \"durin_0043\"\n@デュリン\n…そうだ！\nちょっとアンタ、こっち来て…\n\n;;//デート相手立ち絵消去\n# body 0\n# pos 0 3\n# scale 0 0.8 0\n# alpha 0 0 0\n# mask 0 off\n# fadeout \"black\" 1\n# waitandnext 2\n\n# fadein \"black\" 0.5\n# serif 1\n# textwindow \"close\"\n# serif 0\n# textwindow \"normal\"\n# bgmfile \"bgm255\" \"BgmSeaDate\" 0\n# alpha %(unit_a)s 0 0\n# alpha 0 1 0\n# textflame 1 1\n# voice 9999 \"durin_0046\"\n@デュリン\n…せっかくだから\nアンタがその子のこと\nどのぐらい知ってるか試してあげる\n\n# textflame 1 1\n@デュリン\nデートするぐらいなんだもの\n%(unitName:unit_a)sのこと\nよく知ってるんでしょ？\n\n# textflame 1 1\n# voice 9999 \"durin_0033\"\n@デュリン\n見事正解できたらあの子に\nアンタのこと良く言っといてあげる\n…それじゃ、行くわよ！\n\n# se \"SE_0734\"\n# select \"79\" \"select_label_1\" \"82\" \"select_label_2\" \"76\" \"select_label_3\"\n与一の\nバストサイズがどのくらいか\nアンタ…知ってるの？\n\n# label \"select_label_1\"\n# labeljump \"select_label_end\"\n# textwindow \"close\"\n# waitandnext 0.1\n\n# label \"select_label_2\"\n# labeljump \"select_label_end\"\n# textwindow \"close\"\n# waitandnext 0.1\n\n# label \"select_label_3\"\n# labeljump \"select_label_end\"\n# textwindow \"close\"\n# waitandnext 0.1\n\n# label \"select_label_end\"\n# waitandnext 0.1\n\n# sestop \"SE_0734\"\n# fadeout \"black\" 1.2\n# waitandnext 2"
	},
	{
		"ID": 444,
		"unitID": 2400511,
		"questionID": 9400544,
		"script": "# script \"lisp\"\n# background %(wayback_background)s\n# bgmfile \"bgm255\" \"BgmSeaDate\" 0\n# body %(unit_a)s\n# pos %(unit_a)s 3\n# mask %(unit_a)s off\n# chara %(unit_a)s\n# fadein \"black\" 0.5\n# textflame 0 0\n# face %(unit_a)s \"usual\"\n@\n帰り道－\n\n# fadein \"white\" 0.5\n# se \"SE_0735\"\n# bgm \"stop\"\n# waitandnext 2\n@\n…………\n\n# fadein \"white\" 0.5\n# se \"SE_0735\"\n# waitandnext 2\n@\n…………\n\n# serif 1\n# voice 9999 \"durin_0044\"\n@？？？？\n…あれ？\nアンタ達、なにしてんの？\n\n# voice 9999 \"durin_0040\"\n# serif 1\n@デュリン\n…はっはーん、わかった！\nデート中ね？\n別に隠さなくていいわよ\n\n# serif 1\n# voice 9999 \"durin_0043\"\n@デュリン\n…そうだ！\nちょっとアンタ、こっち来て…\n\n;;//デート相手立ち絵消去\n# body 0\n# pos 0 3\n# scale 0 0.8 0\n# alpha 0 0 0\n# mask 0 off\n# fadeout \"black\" 1\n# waitandnext 2\n\n# fadein \"black\" 0.5\n# serif 1\n# textwindow \"close\"\n# serif 0\n# textwindow \"normal\"\n# bgmfile \"bgm255\" \"BgmSeaDate\" 0\n# alpha %(unit_a)s 0 0\n# alpha 0 1 0\n# textflame 1 1\n# voice 9999 \"durin_0046\"\n@デュリン\n…せっかくだから\nアンタがその子のこと\nどのぐらい知ってるか試してあげる\n\n# textflame 1 1\n@デュリン\nデートするぐらいなんだもの\n%(unitName:unit_a)sのこと\nよく知ってるんでしょ？\n\n# textflame 1 1\n# voice 9999 \"durin_0033\"\n@デュリン\n見事正解できたらあの子に\nアンタのこと良く言っといてあげる\n…それじゃ、行くわよ！\n\n# se \"SE_0734\"\n# select \"55\" \"select_label_wrong1\" \"58\" \"select_label_correct\" \"61\" \"select_label_wrong2\"\n与一の\nウエストサイズがどのくらいか\nアンタ…知ってるの？\n\n# label \"select_label_wrong1\"\n# labeljump \"select_label_end\"\n# textwindow \"close\"\n# waitandnext 0.1\n\n# label \"select_label_correct\"\n# labeljump \"select_label_end\"\n# textwindow \"close\"\n# waitandnext 0.1\n\n# label \"select_label_wrong2\"\n# labeljump \"select_label_end\"\n# textwindow \"close\"\n# waitandnext 0.1\n\n# label \"select_label_end\"\n# waitandnext 0.1\n\n# sestop \"SE_0734\"\n# fadeout \"black\" 1.2\n# waitandnext 2"
	},
	{
		"ID": 445,
		"unitID": 2400511,
		"questionID": 9400545,
		"script": "# script \"lisp\"\n# background %(wayback_background)s\n# bgmfile \"bgm255\" \"BgmSeaDate\" 0\n# body %(unit_a)s\n# pos %(unit_a)s 3\n# mask %(unit_a)s off\n# chara %(unit_a)s\n# fadein \"black\" 0.5\n# textflame 0 0\n# face %(unit_a)s \"usual\"\n@\n帰り道－\n\n# fadein \"white\" 0.5\n# se \"SE_0735\"\n# bgm \"stop\"\n# waitandnext 2\n@\n…………\n\n# fadein \"white\" 0.5\n# se \"SE_0735\"\n# waitandnext 2\n@\n…………\n\n# serif 1\n# voice 9999 \"durin_0044\"\n@？？？？\n…あれ？\nアンタ達、なにしてんの？\n\n# voice 9999 \"durin_0040\"\n# serif 1\n@デュリン\n…はっはーん、わかった！\nデート中ね？\n別に隠さなくていいわよ\n\n# serif 1\n# voice 9999 \"durin_0043\"\n@デュリン\n…そうだ！\nちょっとアンタ、こっち来て…\n\n;;//デート相手立ち絵消去\n# body 0\n# pos 0 3\n# scale 0 0.8 0\n# alpha 0 0 0\n# mask 0 off\n# fadeout \"black\" 1\n# waitandnext 2\n\n# fadein \"black\" 0.5\n# serif 1\n# textwindow \"close\"\n# serif 0\n# textwindow \"normal\"\n# bgmfile \"bgm255\" \"BgmSeaDate\" 0\n# alpha %(unit_a)s 0 0\n# alpha 0 1 0\n# textflame 1 1\n# voice 9999 \"durin_0046\"\n@デュリン\n…せっかくだから\nアンタがその子のこと\nどのぐらい知ってるか試してあげる\n\n# textflame 1 1\n@デュリン\nデートするぐらいなんだもの\n%(unitName:unit_a)sのこと\nよく知ってるんでしょ？\n\n# textflame 1 1\n# voice 9999 \"durin_0033\"\n@デュリン\n見事正解できたらあの子に\nアンタのこと良く言っといてあげる\n…それじゃ、行くわよ！\n\n# se \"SE_0734\"\n# select \"79\" \"select_label_correct\" \"82\" \"select_label_wrong1\" \"85\" \"select_label_wrong2\"\n与一の\nヒップサイズがどのくらいか\nアンタ…知ってるの？\n\n# label \"select_label_correct\"\n# labeljump \"select_label_end\"\n# textwindow \"close\"\n# waitandnext 0.1\n\n# label \"select_label_wrong1\"\n# labeljump \"select_label_end\"\n# textwindow \"close\"\n# waitandnext 0.1\n\n# label \"select_label_wrong2\"\n# labeljump \"select_label_end\"\n# textwindow \"close\"\n# waitandnext 0.1\n\n# label \"select_label_end\"\n# waitandnext 0.1\n\n# sestop \"SE_0734\"\n# fadeout \"black\" 1.2\n# waitandnext 2"
	},
	{
		"ID": 446,
		"unitID": 2400511,
		"questionID": 9400546,
		"script": "# script \"lisp\"\n# background %(wayback_background)s\n# bgmfile \"bgm255\" \"BgmSeaDate\" 0\n# body %(unit_a)s\n# pos %(unit_a)s 3\n# mask %(unit_a)s off\n# chara %(unit_a)s\n# fadein \"black\" 0.5\n# textflame 0 0\n# face %(unit_a)s \"usual\"\n@\n帰り道－\n\n# fadein \"white\" 0.5\n# se \"SE_0735\"\n# bgm \"stop\"\n# waitandnext 2\n@\n…………\n\n# fadein \"white\" 0.5\n# se \"SE_0735\"\n# waitandnext 2\n@\n…………\n\n# serif 1\n# voice 9999 \"durin_0044\"\n@？？？？\n…あれ？\nアンタ達、なにしてんの？\n\n# voice 9999 \"durin_0040\"\n# serif 1\n@デュリン\n…はっはーん、わかった！\nデート中ね？\n別に隠さなくていいわよ\n\n# serif 1\n# voice 9999 \"durin_0043\"\n@デュリン\n…そうだ！\nちょっとアンタ、こっち来て…\n\n;;//デート相手立ち絵消去\n# body 0\n# pos 0 3\n# scale 0 0.8 0\n# alpha 0 0 0\n# mask 0 off\n# fadeout \"black\" 1\n# waitandnext 2\n\n# fadein \"black\" 0.5\n# serif 1\n# textwindow \"close\"\n# serif 0\n# textwindow \"normal\"\n# bgmfile \"bgm255\" \"BgmSeaDate\" 0\n# alpha %(unit_a)s 0 0\n# alpha 0 1 0\n# textflame 1 1\n# voice 9999 \"durin_0046\"\n@デュリン\n…せっかくだから\nアンタがその子のこと\nどのぐらい知ってるか試してあげる\n\n# textflame 1 1\n@デュリン\nデートするぐらいなんだもの\n%(unitName:unit_a)sのこと\nよく知ってるんでしょ？\n\n# textflame 1 1\n# voice 9999 \"durin_0033\"\n@デュリン\n見事正解できたらあの子に\nアンタのこと良く言っといてあげる\n…それじゃ、行くわよ！\n\n# se \"SE_0734\"\n# select \"47\" \"select_label_wrong1\" \"41\" \"select_label_wrong2\" \"42\" \"select_label_correct\"\n与一の体重は\n次のうちどれ？\n\n# label \"select_label_wrong1\"\n# labeljump \"select_label_end\"\n# textwindow \"close\"\n# waitandnext 0.1\n\n# label \"select_label_wrong2\"\n# labeljump \"select_label_end\"\n# textwindow \"close\"\n# waitandnext 0.1\n\n# label \"select_label_correct\"\n# labeljump \"select_label_end\"\n# textwindow \"close\"\n# waitandnext 0.1\n\n# label \"select_label_end\"\n# waitandnext 0.1\n\n# sestop \"SE_0734\"\n# fadeout \"black\" 1.2\n# waitandnext 2"
	},
	{
		"ID": 447,
		"unitID": 2400511,
		"questionID": 9400547,
		"script": "# script \"lisp\"\n# background %(wayback_background)s\n# bgmfile \"bgm255\" \"BgmSeaDate\" 0\n# body %(unit_a)s\n# pos %(unit_a)s 3\n# mask %(unit_a)s off\n# chara %(unit_a)s\n# fadein \"black\" 0.5\n# textflame 0 0\n# face %(unit_a)s \"usual\"\n@\n帰り道－\n\n# fadein \"white\" 0.5\n# se \"SE_0735\"\n# bgm \"stop\"\n# waitandnext 2\n@\n…………\n\n# fadein \"white\" 0.5\n# se \"SE_0735\"\n# waitandnext 2\n@\n…………\n\n# serif 1\n# voice 9999 \"durin_0044\"\n@？？？？\n…あれ？\nアンタ達、なにしてんの？\n\n# voice 9999 \"durin_0040\"\n# serif 1\n@デュリン\n…はっはーん、わかった！\nデート中ね？\n別に隠さなくていいわよ\n\n# serif 1\n# voice 9999 \"durin_0043\"\n@デュリン\n…そうだ！\nちょっとアンタ、こっち来て…\n\n;;//デート相手立ち絵消去\n# body 0\n# pos 0 3\n# scale 0 0.8 0\n# alpha 0 0 0\n# mask 0 off\n# fadeout \"black\" 1\n# waitandnext 2\n\n# fadein \"black\" 0.5\n# serif 1\n# textwindow \"close\"\n# serif 0\n# textwindow \"normal\"\n# bgmfile \"bgm255\" \"BgmSeaDate\" 0\n# alpha %(unit_a)s 0 0\n# alpha 0 1 0\n# textflame 1 1\n# voice 9999 \"durin_0046\"\n@デュリン\n…せっかくだから\nアンタがその子のこと\nどのぐらい知ってるか試してあげる\n\n# textflame 1 1\n@デュリン\nデートするぐらいなんだもの\n%(unitName:unit_a)sのこと\nよく知ってるんでしょ？\n\n# textflame 1 1\n# voice 9999 \"durin_0033\"\n@デュリン\n見事正解できたらあの子に\nアンタのこと良く言っといてあげる\n…それじゃ、行くわよ！\n\n# se \"SE_0734\"\n# select \"216\" \"select_label_correct\" \"228\" \"select_label_wrong1\" \"210\" \"select_label_wrong2\"\n与一の\nバスト＋ウエスト＋ヒップは\nいくつかわかる？\n\n# label \"select_label_correct\"\n# labeljump \"select_label_end\"\n# textwindow \"close\"\n# waitandnext 0.1\n\n# label \"select_label_wrong1\"\n# labeljump \"select_label_end\"\n# textwindow \"close\"\n# waitandnext 0.1\n\n# label \"select_label_wrong2\"\n# labeljump \"select_label_end\"\n# textwindow \"close\"\n# waitandnext 0.1\n\n# label \"select_label_end\"\n# waitandnext 0.1\n\n# sestop \"SE_0734\"\n# fadeout \"black\" 1.2\n# waitandnext 2"
	},
	{
		"ID": 448,
		"unitID": 2400511,
		"questionID": 9400548,
		"script": "# script \"lisp\"\n# background %(wayback_background)s\n# bgmfile \"bgm255\" \"BgmSeaDate\" 0\n# body %(unit_a)s\n# pos %(unit_a)s 3\n# mask %(unit_a)s off\n# chara %(unit_a)s\n# fadein \"black\" 0.5\n# textflame 0 0\n# face %(unit_a)s \"usual\"\n@\n帰り道－\n\n# fadein \"white\" 0.5\n# se \"SE_0735\"\n# bgm \"stop\"\n# waitandnext 2\n@\n…………\n\n# fadein \"white\" 0.5\n# se \"SE_0735\"\n# waitandnext 2\n@\n…………\n\n# serif 1\n# voice 9999 \"durin_0044\"\n@？？？？\n…あれ？\nアンタ達、なにしてんの？\n\n# voice 9999 \"durin_0040\"\n# serif 1\n@デュリン\n…はっはーん、わかった！\nデート中ね？\n別に隠さなくていいわよ\n\n# serif 1\n# voice 9999 \"durin_0043\"\n@デュリン\n…そうだ！\nちょっとアンタ、こっち来て…\n\n;;//デート相手立ち絵消去\n# body 0\n# pos 0 3\n# scale 0 0.8 0\n# alpha 0 0 0\n# mask 0 off\n# fadeout \"black\" 1\n# waitandnext 2\n\n# fadein \"black\" 0.5\n# serif 1\n# textwindow \"close\"\n# serif 0\n# textwindow \"normal\"\n# bgmfile \"bgm255\" \"BgmSeaDate\" 0\n# alpha %(unit_a)s 0 0\n# alpha 0 1 0\n# textflame 1 1\n# voice 9999 \"durin_0046\"\n@デュリン\n…せっかくだから\nアンタがその子のこと\nどのぐらい知ってるか試してあげる\n\n# textflame 1 1\n@デュリン\nデートするぐらいなんだもの\n%(unitName:unit_a)sのこと\nよく知ってるんでしょ？\n\n# textflame 1 1\n# voice 9999 \"durin_0033\"\n@デュリン\n見事正解できたらあの子に\nアンタのこと良く言っといてあげる\n…それじゃ、行くわよ！\n\n# se \"SE_0734\"\n# select \"白と赤\" \"select_label_wrong1\" \"白と黒\" \"select_label_correct\" \"黒と赤\" \"select_label_wrong2\"\n与一の水着の色は\n次のうちどれ？\n\n# label \"select_label_wrong1\"\n# labeljump \"select_label_end\"\n# textwindow \"close\"\n# waitandnext 0.1\n\n# label \"select_label_correct\"\n# labeljump \"select_label_end\"\n# textwindow \"close\"\n# waitandnext 0.1\n\n# label \"select_label_wrong2\"\n# labeljump \"select_label_end\"\n# textwindow \"close\"\n# waitandnext 0.1\n\n# label \"select_label_end\"\n# waitandnext 0.1\n\n# sestop \"SE_0734\"\n# fadeout \"black\" 1.2\n# waitandnext 2"
	},
	{
		"ID": 449,
		"unitID": 2400511,
		"questionID": 9400549,
		"script": "# script \"lisp\"\n# background %(wayback_background)s\n# bgmfile \"bgm255\" \"BgmSeaDate\" 0\n# body %(unit_a)s\n# pos %(unit_a)s 3\n# mask %(unit_a)s off\n# chara %(unit_a)s\n# fadein \"black\" 0.5\n# textflame 0 0\n# face %(unit_a)s \"usual\"\n@\n帰り道－\n\n# fadein \"white\" 0.5\n# se \"SE_0735\"\n# bgm \"stop\"\n# waitandnext 2\n@\n…………\n\n# fadein \"white\" 0.5\n# se \"SE_0735\"\n# waitandnext 2\n@\n…………\n\n# serif 1\n# voice 9999 \"durin_0044\"\n@？？？？\n…あれ？\nアンタ達、なにしてんの？\n\n# voice 9999 \"durin_0040\"\n# serif 1\n@デュリン\n…はっはーん、わかった！\nデート中ね？\n別に隠さなくていいわよ\n\n# serif 1\n# voice 9999 \"durin_0043\"\n@デュリン\n…そうだ！\nちょっとアンタ、こっち来て…\n\n;;//デート相手立ち絵消去\n# body 0\n# pos 0 3\n# scale 0 0.8 0\n# alpha 0 0 0\n# mask 0 off\n# fadeout \"black\" 1\n# waitandnext 2\n\n# fadein \"black\" 0.5\n# serif 1\n# textwindow \"close\"\n# serif 0\n# textwindow \"normal\"\n# bgmfile \"bgm255\" \"BgmSeaDate\" 0\n# alpha %(unit_a)s 0 0\n# alpha 0 1 0\n# textflame 1 1\n# voice 9999 \"durin_0046\"\n@デュリン\n…せっかくだから\nアンタがその子のこと\nどのぐらい知ってるか試してあげる\n\n# textflame 1 1\n@デュリン\nデートするぐらいなんだもの\n%(unitName:unit_a)sのこと\nよく知ってるんでしょ？\n\n# textflame 1 1\n# voice 9999 \"durin_0033\"\n@デュリン\n見事正解できたらあの子に\nアンタのこと良く言っといてあげる\n…それじゃ、行くわよ！\n\n# se \"SE_0734\"\n# select \"10位\" \"select_label_wrong1\" \"29位\" \"select_label_wrong2\" \"22位\" \"select_label_correct\"\n与一は\n第２回人気投票で\n何位だったでしょう？\n\n# label \"select_label_wrong1\"\n# labeljump \"select_label_end\"\n# textwindow \"close\"\n# waitandnext 0.1\n\n# label \"select_label_wrong2\"\n# labeljump \"select_label_end\"\n# textwindow \"close\"\n# waitandnext 0.1\n\n# label \"select_label_correct\"\n# labeljump \"select_label_end\"\n# textwindow \"close\"\n# waitandnext 0.1\n\n# label \"select_label_end\"\n# waitandnext 0.1\n\n# sestop \"SE_0734\"\n# fadeout \"black\" 1.2\n# waitandnext 2"
	},
	{
		"ID": 450,
		"unitID": 2400511,
		"questionID": 9400550,
		"script": "# script \"lisp\"\n# background %(wayback_background)s\n# bgmfile \"bgm255\" \"BgmSeaDate\" 0\n# body %(unit_a)s\n# pos %(unit_a)s 3\n# mask %(unit_a)s off\n# chara %(unit_a)s\n# fadein \"black\" 0.5\n# textflame 0 0\n# face %(unit_a)s \"usual\"\n@\n帰り道－\n\n# fadein \"white\" 0.5\n# se \"SE_0735\"\n# bgm \"stop\"\n# waitandnext 2\n@\n…………\n\n# fadein \"white\" 0.5\n# se \"SE_0735\"\n# waitandnext 2\n@\n…………\n\n# serif 1\n# voice 9999 \"durin_0044\"\n@？？？？\n…あれ？\nアンタ達、なにしてんの？\n\n# voice 9999 \"durin_0040\"\n# serif 1\n@デュリン\n…はっはーん、わかった！\nデート中ね？\n別に隠さなくていいわよ\n\n# serif 1\n# voice 9999 \"durin_0043\"\n@デュリン\n…そうだ！\nちょっとアンタ、こっち来て…\n\n;;//デート相手立ち絵消去\n# body 0\n# pos 0 3\n# scale 0 0.8 0\n# alpha 0 0 0\n# mask 0 off\n# fadeout \"black\" 1\n# waitandnext 2\n\n# fadein \"black\" 0.5\n# serif 1\n# textwindow \"close\"\n# serif 0\n# textwindow \"normal\"\n# bgmfile \"bgm255\" \"BgmSeaDate\" 0\n# alpha %(unit_a)s 0 0\n# alpha 0 1 0\n# textflame 1 1\n# voice 9999 \"durin_0046\"\n@デュリン\n…せっかくだから\nアンタがその子のこと\nどのぐらい知ってるか試してあげる\n\n# textflame 1 1\n@デュリン\nデートするぐらいなんだもの\n%(unitName:unit_a)sのこと\nよく知ってるんでしょ？\n\n# textflame 1 1\n# voice 9999 \"durin_0033\"\n@デュリン\n見事正解できたらあの子に\nアンタのこと良く言っといてあげる\n…それじゃ、行くわよ！\n\n# se \"SE_0734\"\n# select \"早見沙織\" \"select_label_correct\" \"沢城みゆき\" \"select_label_wrong1\" \"内田真礼\" \"select_label_wrong2\"\n与一の声優は誰？\n\n# label \"select_label_correct\"\n# labeljump \"select_label_end\"\n# textwindow \"close\"\n# waitandnext 0.1\n\n# label \"select_label_wrong1\"\n# labeljump \"select_label_end\"\n# textwindow \"close\"\n# waitandnext 0.1\n\n# label \"select_label_wrong2\"\n# labeljump \"select_label_end\"\n# textwindow \"close\"\n# waitandnext 0.1\n\n# label \"select_label_end\"\n# waitandnext 0.1\n\n# sestop \"SE_0734\"\n# fadeout \"black\" 1.2\n# waitandnext 2"
	}
]