[
	{
		"ID": 69172,
		"stage_BattleStage": 110050503,
		"unit_UnitUnit": 3104011,
		"money": 325,
		"initial_coordinate_x": 7,
		"initial_coordinate_y": 4,
		"reinforcement_BattleReinforcement": 0,
		"initial_direction": 270.0,
		"ai_move_group": 0,
		"ai_target_move_x": -1,
		"ai_target_move_y": -1,
		"ai_skill_function": "",
		"ai_attack": "",
		"ai_move": "",
		"ai_heal": "",
		"ai_skill": "",
		"ai_use": "",
		"skill_group_id": 18066,
		"gear_GearGear": 14045,
		"gear_rank": 1,
		"proficiency_UnitProficiency": 4,
		"level": 65,
		"hp": 128,
		"strength": 80,
		"vitality": 50,
		"intelligence": 60,
		"mind": 37,
		"agility": 75,
		"dexterity": 73,
		"lucky": 49,
		"parameter_table_BattleEnemyParameterTable": 0,
		"parameter_deviation_table_BattleEnemyParameterDeviationTable": 0,
		"acquire_skill_group_id": 0,
		"level_correction": 0,
		"group_id": 0,
		"ai_script_id_BattleAIScript": 0
	},
	{
		"ID": 69173,
		"stage_BattleStage": 110050503,
		"unit_UnitUnit": 3104111,
		"money": 325,
		"initial_coordinate_x": 8,
		"initial_coordinate_y": 5,
		"reinforcement_BattleReinforcement": 0,
		"initial_direction": 270.0,
		"ai_move_group": 0,
		"ai_target_move_x": -1,
		"ai_target_move_y": -1,
		"ai_skill_function": "",
		"ai_attack": "",
		"ai_move": "",
		"ai_heal": "",
		"ai_skill": "",
		"ai_use": "",
		"skill_group_id": 18067,
		"gear_GearGear": 14046,
		"gear_rank": 1,
		"proficiency_UnitProficiency": 4,
		"level": 65,
		"hp": 125,
		"strength": 71,
		"vitality": 47,
		"intelligence": 68,
		"mind": 38,
		"agility": 74,
		"dexterity": 71,
		"lucky": 50,
		"parameter_table_BattleEnemyParameterTable": 0,
		"parameter_deviation_table_BattleEnemyParameterDeviationTable": 0,
		"acquire_skill_group_id": 0,
		"level_correction": 0,
		"group_id": 0,
		"ai_script_id_BattleAIScript": 0
	}
]