[
	{
		"ID": 627,
		"stage_BattleStage": 110003009,
		"unit_UnitUnit": 960016,
		"money": 0,
		"initial_coordinate_x": 3,
		"initial_coordinate_y": 12,
		"reinforcement_BattleReinforcement": 0,
		"initial_direction": 180.0,
		"ai_move_group": 0,
		"ai_target_move_x": -1,
		"ai_target_move_y": -1,
		"ai_skill_function": "",
		"ai_attack": "IF( turn <=3 ,IF(panel_move_distance <= 4, 1, 0),1)",
		"ai_move": "IF(turn <=3,0,1)",
		"ai_heal": "",
		"ai_skill": "",
		"ai_use": "",
		"skill_group_id": 2,
		"gear_GearGear": 610023,
		"gear_rank": 1,
		"proficiency_UnitProficiency": 1,
		"level": 12,
		"hp": 31,
		"strength": 5,
		"vitality": 15,
		"intelligence": 23,
		"mind": 17,
		"agility": 19,
		"dexterity": 16,
		"lucky": 9,
		"parameter_table_BattleEnemyParameterTable": 0,
		"parameter_deviation_table_BattleEnemyParameterDeviationTable": 0,
		"acquire_skill_group_id": 0,
		"level_correction": 0,
		"group_id": 0,
		"ai_script_id_BattleAIScript": 0
	},
	{
		"ID": 628,
		"stage_BattleStage": 110003009,
		"unit_UnitUnit": 960015,
		"money": 0,
		"initial_coordinate_x": 6,
		"initial_coordinate_y": 12,
		"reinforcement_BattleReinforcement": 0,
		"initial_direction": 180.0,
		"ai_move_group": 0,
		"ai_target_move_x": -1,
		"ai_target_move_y": -1,
		"ai_skill_function": "",
		"ai_attack": "IF( turn <=4 ,IF(panel_move_distance <= 4, 1, 0),1)",
		"ai_move": "IF(turn <=4,0,1)",
		"ai_heal": "",
		"ai_skill": "",
		"ai_use": "",
		"skill_group_id": 3,
		"gear_GearGear": 610023,
		"gear_rank": 1,
		"proficiency_UnitProficiency": 1,
		"level": 14,
		"hp": 30,
		"strength": 10,
		"vitality": 14,
		"intelligence": 22,
		"mind": 17,
		"agility": 14,
		"dexterity": 16,
		"lucky": 15,
		"parameter_table_BattleEnemyParameterTable": 0,
		"parameter_deviation_table_BattleEnemyParameterDeviationTable": 0,
		"acquire_skill_group_id": 0,
		"level_correction": 0,
		"group_id": 0,
		"ai_script_id_BattleAIScript": 0
	},
	{
		"ID": 629,
		"stage_BattleStage": 110003009,
		"unit_UnitUnit": 960015,
		"money": 0,
		"initial_coordinate_x": 11,
		"initial_coordinate_y": 12,
		"reinforcement_BattleReinforcement": 0,
		"initial_direction": 180.0,
		"ai_move_group": 0,
		"ai_target_move_x": -1,
		"ai_target_move_y": -1,
		"ai_skill_function": "",
		"ai_attack": "IF( turn <=3 ,IF(panel_move_distance <= 4, 1, 0),1)",
		"ai_move": "IF(turn <=3,0,1)",
		"ai_heal": "",
		"ai_skill": "",
		"ai_use": "",
		"skill_group_id": 3,
		"gear_GearGear": 60001,
		"gear_rank": 1,
		"proficiency_UnitProficiency": 1,
		"level": 14,
		"hp": 29,
		"strength": 11,
		"vitality": 8,
		"intelligence": 21,
		"mind": 17,
		"agility": 21,
		"dexterity": 19,
		"lucky": 14,
		"parameter_table_BattleEnemyParameterTable": 0,
		"parameter_deviation_table_BattleEnemyParameterDeviationTable": 0,
		"acquire_skill_group_id": 0,
		"level_correction": 0,
		"group_id": 0,
		"ai_script_id_BattleAIScript": 0
	},
	{
		"ID": 630,
		"stage_BattleStage": 110003009,
		"unit_UnitUnit": 960015,
		"money": 0,
		"initial_coordinate_x": 2,
		"initial_coordinate_y": 10,
		"reinforcement_BattleReinforcement": 0,
		"initial_direction": 180.0,
		"ai_move_group": 0,
		"ai_target_move_x": -1,
		"ai_target_move_y": -1,
		"ai_skill_function": "",
		"ai_attack": "IF( turn <=2 ,IF(panel_move_distance <= 4, 1, 0),1)",
		"ai_move": "IF(turn <=2,0,1)",
		"ai_heal": "",
		"ai_skill": "",
		"ai_use": "",
		"skill_group_id": 3,
		"gear_GearGear": 60001,
		"gear_rank": 1,
		"proficiency_UnitProficiency": 1,
		"level": 16,
		"hp": 31,
		"strength": 6,
		"vitality": 11,
		"intelligence": 15,
		"mind": 19,
		"agility": 20,
		"dexterity": 18,
		"lucky": 12,
		"parameter_table_BattleEnemyParameterTable": 0,
		"parameter_deviation_table_BattleEnemyParameterDeviationTable": 0,
		"acquire_skill_group_id": 0,
		"level_correction": 0,
		"group_id": 0,
		"ai_script_id_BattleAIScript": 0
	},
	{
		"ID": 631,
		"stage_BattleStage": 110003009,
		"unit_UnitUnit": 960015,
		"money": 0,
		"initial_coordinate_x": 12,
		"initial_coordinate_y": 10,
		"reinforcement_BattleReinforcement": 0,
		"initial_direction": 180.0,
		"ai_move_group": 0,
		"ai_target_move_x": -1,
		"ai_target_move_y": -1,
		"ai_skill_function": "",
		"ai_attack": "IF( turn <=4 ,IF(panel_move_distance <= 4, 1, 0),1)",
		"ai_move": "IF(turn <=4,0,1)",
		"ai_heal": "",
		"ai_skill": "",
		"ai_use": "",
		"skill_group_id": 3,
		"gear_GearGear": 610023,
		"gear_rank": 1,
		"proficiency_UnitProficiency": 1,
		"level": 14,
		"hp": 35,
		"strength": 10,
		"vitality": 5,
		"intelligence": 19,
		"mind": 11,
		"agility": 24,
		"dexterity": 13,
		"lucky": 8,
		"parameter_table_BattleEnemyParameterTable": 0,
		"parameter_deviation_table_BattleEnemyParameterDeviationTable": 0,
		"acquire_skill_group_id": 0,
		"level_correction": 0,
		"group_id": 0,
		"ai_script_id_BattleAIScript": 0
	},
	{
		"ID": 632,
		"stage_BattleStage": 110003009,
		"unit_UnitUnit": 960016,
		"money": 0,
		"initial_coordinate_x": 14,
		"initial_coordinate_y": 10,
		"reinforcement_BattleReinforcement": 0,
		"initial_direction": 180.0,
		"ai_move_group": 0,
		"ai_target_move_x": -1,
		"ai_target_move_y": -1,
		"ai_skill_function": "",
		"ai_attack": "IF( turn <=3 ,IF(panel_move_distance <= 4, 1, 0),1)",
		"ai_move": "IF(turn <=3,0,1)",
		"ai_heal": "",
		"ai_skill": "",
		"ai_use": "",
		"skill_group_id": 2,
		"gear_GearGear": 610023,
		"gear_rank": 1,
		"proficiency_UnitProficiency": 1,
		"level": 11,
		"hp": 34,
		"strength": 7,
		"vitality": 13,
		"intelligence": 22,
		"mind": 19,
		"agility": 16,
		"dexterity": 24,
		"lucky": 10,
		"parameter_table_BattleEnemyParameterTable": 0,
		"parameter_deviation_table_BattleEnemyParameterDeviationTable": 0,
		"acquire_skill_group_id": 0,
		"level_correction": 0,
		"group_id": 0,
		"ai_script_id_BattleAIScript": 0
	},
	{
		"ID": 633,
		"stage_BattleStage": 110003009,
		"unit_UnitUnit": 960015,
		"money": 0,
		"initial_coordinate_x": 5,
		"initial_coordinate_y": 9,
		"reinforcement_BattleReinforcement": 0,
		"initial_direction": 180.0,
		"ai_move_group": 0,
		"ai_target_move_x": -1,
		"ai_target_move_y": -1,
		"ai_skill_function": "",
		"ai_attack": "IF( turn <=2 ,IF(panel_move_distance <= 4, 1, 0),1)",
		"ai_move": "IF(turn <=2,0,1)",
		"ai_heal": "",
		"ai_skill": "",
		"ai_use": "",
		"skill_group_id": 3,
		"gear_GearGear": 60001,
		"gear_rank": 1,
		"proficiency_UnitProficiency": 1,
		"level": 15,
		"hp": 30,
		"strength": 9,
		"vitality": 10,
		"intelligence": 23,
		"mind": 18,
		"agility": 16,
		"dexterity": 16,
		"lucky": 16,
		"parameter_table_BattleEnemyParameterTable": 0,
		"parameter_deviation_table_BattleEnemyParameterDeviationTable": 0,
		"acquire_skill_group_id": 0,
		"level_correction": 0,
		"group_id": 0,
		"ai_script_id_BattleAIScript": 0
	},
	{
		"ID": 634,
		"stage_BattleStage": 110003009,
		"unit_UnitUnit": 960015,
		"money": 0,
		"initial_coordinate_x": 8,
		"initial_coordinate_y": 8,
		"reinforcement_BattleReinforcement": 0,
		"initial_direction": 180.0,
		"ai_move_group": 0,
		"ai_target_move_x": -1,
		"ai_target_move_y": -1,
		"ai_skill_function": "",
		"ai_attack": "IF( turn <=2 ,IF(panel_move_distance <= 4, 1, 0),1)",
		"ai_move": "IF(turn <=2,0,1)",
		"ai_heal": "",
		"ai_skill": "",
		"ai_use": "",
		"skill_group_id": 3,
		"gear_GearGear": 60001,
		"gear_rank": 1,
		"proficiency_UnitProficiency": 1,
		"level": 14,
		"hp": 30,
		"strength": 11,
		"vitality": 16,
		"intelligence": 25,
		"mind": 17,
		"agility": 18,
		"dexterity": 14,
		"lucky": 10,
		"parameter_table_BattleEnemyParameterTable": 0,
		"parameter_deviation_table_BattleEnemyParameterDeviationTable": 0,
		"acquire_skill_group_id": 0,
		"level_correction": 0,
		"group_id": 0,
		"ai_script_id_BattleAIScript": 0
	},
	{
		"ID": 635,
		"stage_BattleStage": 110003009,
		"unit_UnitUnit": 960015,
		"money": 0,
		"initial_coordinate_x": 13,
		"initial_coordinate_y": 8,
		"reinforcement_BattleReinforcement": 0,
		"initial_direction": 180.0,
		"ai_move_group": 0,
		"ai_target_move_x": -1,
		"ai_target_move_y": -1,
		"ai_skill_function": "",
		"ai_attack": "IF( turn <=3 ,IF(panel_move_distance <= 4, 1, 0),1)",
		"ai_move": "IF(turn <=3,0,1)",
		"ai_heal": "",
		"ai_skill": "",
		"ai_use": "",
		"skill_group_id": 3,
		"gear_GearGear": 610023,
		"gear_rank": 1,
		"proficiency_UnitProficiency": 1,
		"level": 14,
		"hp": 40,
		"strength": 6,
		"vitality": 12,
		"intelligence": 17,
		"mind": 17,
		"agility": 14,
		"dexterity": 18,
		"lucky": 13,
		"parameter_table_BattleEnemyParameterTable": 0,
		"parameter_deviation_table_BattleEnemyParameterDeviationTable": 0,
		"acquire_skill_group_id": 0,
		"level_correction": 0,
		"group_id": 0,
		"ai_script_id_BattleAIScript": 0
	},
	{
		"ID": 636,
		"stage_BattleStage": 110003009,
		"unit_UnitUnit": 960016,
		"money": 0,
		"initial_coordinate_x": 9,
		"initial_coordinate_y": 7,
		"reinforcement_BattleReinforcement": 0,
		"initial_direction": 180.0,
		"ai_move_group": 0,
		"ai_target_move_x": -1,
		"ai_target_move_y": -1,
		"ai_skill_function": "",
		"ai_attack": "IF( turn <=2 ,IF(panel_move_distance <= 4, 1, 0),1)",
		"ai_move": "IF(turn <=2,0,1)",
		"ai_heal": "",
		"ai_skill": "",
		"ai_use": "",
		"skill_group_id": 2,
		"gear_GearGear": 610023,
		"gear_rank": 1,
		"proficiency_UnitProficiency": 1,
		"level": 12,
		"hp": 31,
		"strength": 12,
		"vitality": 6,
		"intelligence": 22,
		"mind": 12,
		"agility": 16,
		"dexterity": 26,
		"lucky": 14,
		"parameter_table_BattleEnemyParameterTable": 0,
		"parameter_deviation_table_BattleEnemyParameterDeviationTable": 0,
		"acquire_skill_group_id": 0,
		"level_correction": 0,
		"group_id": 0,
		"ai_script_id_BattleAIScript": 0
	},
	{
		"ID": 637,
		"stage_BattleStage": 110003009,
		"unit_UnitUnit": 960015,
		"money": 0,
		"initial_coordinate_x": 16,
		"initial_coordinate_y": 7,
		"reinforcement_BattleReinforcement": 0,
		"initial_direction": 180.0,
		"ai_move_group": 0,
		"ai_target_move_x": -1,
		"ai_target_move_y": -1,
		"ai_skill_function": "",
		"ai_attack": "IF( turn <=4 ,IF(panel_move_distance <= 4, 1, 0),1)",
		"ai_move": "IF(turn <=4,0,1)",
		"ai_heal": "",
		"ai_skill": "",
		"ai_use": "",
		"skill_group_id": 3,
		"gear_GearGear": 60001,
		"gear_rank": 1,
		"proficiency_UnitProficiency": 1,
		"level": 15,
		"hp": 34,
		"strength": 12,
		"vitality": 8,
		"intelligence": 24,
		"mind": 13,
		"agility": 22,
		"dexterity": 14,
		"lucky": 16,
		"parameter_table_BattleEnemyParameterTable": 0,
		"parameter_deviation_table_BattleEnemyParameterDeviationTable": 0,
		"acquire_skill_group_id": 0,
		"level_correction": 0,
		"group_id": 0,
		"ai_script_id_BattleAIScript": 0
	},
	{
		"ID": 638,
		"stage_BattleStage": 110003009,
		"unit_UnitUnit": 960015,
		"money": 0,
		"initial_coordinate_x": 8,
		"initial_coordinate_y": 5,
		"reinforcement_BattleReinforcement": 0,
		"initial_direction": 180.0,
		"ai_move_group": 0,
		"ai_target_move_x": -1,
		"ai_target_move_y": -1,
		"ai_skill_function": "",
		"ai_attack": "IF( turn <=2 ,IF(panel_move_distance <= 4, 1, 0),1)",
		"ai_move": "IF(turn <=2,0,1)",
		"ai_heal": "",
		"ai_skill": "",
		"ai_use": "",
		"skill_group_id": 3,
		"gear_GearGear": 60001,
		"gear_rank": 1,
		"proficiency_UnitProficiency": 1,
		"level": 15,
		"hp": 40,
		"strength": 9,
		"vitality": 12,
		"intelligence": 23,
		"mind": 15,
		"agility": 14,
		"dexterity": 14,
		"lucky": 11,
		"parameter_table_BattleEnemyParameterTable": 0,
		"parameter_deviation_table_BattleEnemyParameterDeviationTable": 0,
		"acquire_skill_group_id": 0,
		"level_correction": 0,
		"group_id": 0,
		"ai_script_id_BattleAIScript": 0
	},
	{
		"ID": 639,
		"stage_BattleStage": 110003009,
		"unit_UnitUnit": 960016,
		"money": 0,
		"initial_coordinate_x": 15,
		"initial_coordinate_y": 5,
		"reinforcement_BattleReinforcement": 0,
		"initial_direction": 180.0,
		"ai_move_group": 0,
		"ai_target_move_x": -1,
		"ai_target_move_y": -1,
		"ai_skill_function": "",
		"ai_attack": "IF( turn <=4 ,IF(panel_move_distance <= 4, 1, 0),1)",
		"ai_move": "IF(turn <=4,0,1)",
		"ai_heal": "",
		"ai_skill": "",
		"ai_use": "",
		"skill_group_id": 2,
		"gear_GearGear": 610023,
		"gear_rank": 1,
		"proficiency_UnitProficiency": 1,
		"level": 13,
		"hp": 32,
		"strength": 8,
		"vitality": 14,
		"intelligence": 15,
		"mind": 14,
		"agility": 16,
		"dexterity": 17,
		"lucky": 14,
		"parameter_table_BattleEnemyParameterTable": 0,
		"parameter_deviation_table_BattleEnemyParameterDeviationTable": 0,
		"acquire_skill_group_id": 0,
		"level_correction": 0,
		"group_id": 0,
		"ai_script_id_BattleAIScript": 0
	},
	{
		"ID": 640,
		"stage_BattleStage": 110003009,
		"unit_UnitUnit": 960015,
		"money": 0,
		"initial_coordinate_x": 12,
		"initial_coordinate_y": 4,
		"reinforcement_BattleReinforcement": 0,
		"initial_direction": 180.0,
		"ai_move_group": 0,
		"ai_target_move_x": -1,
		"ai_target_move_y": -1,
		"ai_skill_function": "",
		"ai_attack": "IF( turn <=2 ,IF(panel_move_distance <= 4, 1, 0),1)",
		"ai_move": "IF(turn <=2,0,1)",
		"ai_heal": "",
		"ai_skill": "",
		"ai_use": "",
		"skill_group_id": 3,
		"gear_GearGear": 610023,
		"gear_rank": 1,
		"proficiency_UnitProficiency": 1,
		"level": 14,
		"hp": 35,
		"strength": 5,
		"vitality": 7,
		"intelligence": 21,
		"mind": 13,
		"agility": 20,
		"dexterity": 17,
		"lucky": 15,
		"parameter_table_BattleEnemyParameterTable": 0,
		"parameter_deviation_table_BattleEnemyParameterDeviationTable": 0,
		"acquire_skill_group_id": 0,
		"level_correction": 0,
		"group_id": 0,
		"ai_script_id_BattleAIScript": 0
	},
	{
		"ID": 641,
		"stage_BattleStage": 110003009,
		"unit_UnitUnit": 960015,
		"money": 0,
		"initial_coordinate_x": 18,
		"initial_coordinate_y": 3,
		"reinforcement_BattleReinforcement": 0,
		"initial_direction": 180.0,
		"ai_move_group": 0,
		"ai_target_move_x": -1,
		"ai_target_move_y": -1,
		"ai_skill_function": "",
		"ai_attack": "IF( turn <=4 ,IF(panel_move_distance <= 4, 1, 0),1)",
		"ai_move": "IF(turn <=4,0,1)",
		"ai_heal": "",
		"ai_skill": "",
		"ai_use": "",
		"skill_group_id": 3,
		"gear_GearGear": 60001,
		"gear_rank": 1,
		"proficiency_UnitProficiency": 1,
		"level": 16,
		"hp": 31,
		"strength": 9,
		"vitality": 12,
		"intelligence": 23,
		"mind": 18,
		"agility": 14,
		"dexterity": 15,
		"lucky": 8,
		"parameter_table_BattleEnemyParameterTable": 0,
		"parameter_deviation_table_BattleEnemyParameterDeviationTable": 0,
		"acquire_skill_group_id": 0,
		"level_correction": 0,
		"group_id": 0,
		"ai_script_id_BattleAIScript": 0
	},
	{
		"ID": 642,
		"stage_BattleStage": 110003009,
		"unit_UnitUnit": 960015,
		"money": 0,
		"initial_coordinate_x": 13,
		"initial_coordinate_y": 2,
		"reinforcement_BattleReinforcement": 0,
		"initial_direction": 180.0,
		"ai_move_group": 0,
		"ai_target_move_x": -1,
		"ai_target_move_y": -1,
		"ai_skill_function": "",
		"ai_attack": "IF( turn <=2 ,IF(panel_move_distance <= 4, 1, 0),1)",
		"ai_move": "IF(turn <=2,0,1)",
		"ai_heal": "",
		"ai_skill": "",
		"ai_use": "",
		"skill_group_id": 3,
		"gear_GearGear": 60001,
		"gear_rank": 1,
		"proficiency_UnitProficiency": 1,
		"level": 16,
		"hp": 32,
		"strength": 9,
		"vitality": 11,
		"intelligence": 21,
		"mind": 11,
		"agility": 21,
		"dexterity": 19,
		"lucky": 15,
		"parameter_table_BattleEnemyParameterTable": 0,
		"parameter_deviation_table_BattleEnemyParameterDeviationTable": 0,
		"acquire_skill_group_id": 0,
		"level_correction": 0,
		"group_id": 0,
		"ai_script_id_BattleAIScript": 0
	}
]