[
	{
		"ID": 83397,
		"stage_BattleStage": 110150401,
		"unit_UnitUnit": 3850002,
		"money": 425,
		"initial_coordinate_x": 5,
		"initial_coordinate_y": 6,
		"reinforcement_BattleReinforcement": 0,
		"initial_direction": 0.0,
		"ai_move_group": 0,
		"ai_target_move_x": -1,
		"ai_target_move_y": -1,
		"ai_skill_function": "",
		"ai_attack": "1.0",
		"ai_move": "1.0",
		"ai_heal": "",
		"ai_skill": "",
		"ai_use": "",
		"skill_group_id": 19332,
		"gear_GearGear": 24002,
		"gear_rank": 10,
		"proficiency_UnitProficiency": 4,
		"level": 85,
		"hp": 333,
		"strength": 101,
		"vitality": 91,
		"intelligence": 7,
		"mind": 53,
		"agility": 81,
		"dexterity": 91,
		"lucky": 44,
		"parameter_table_BattleEnemyParameterTable": 0,
		"parameter_deviation_table_BattleEnemyParameterDeviationTable": 0,
		"acquire_skill_group_id": 0,
		"level_correction": 0,
		"group_id": 0,
		"ai_script_id_BattleAIScript": 0
	},
	{
		"ID": 83398,
		"stage_BattleStage": 110150401,
		"unit_UnitUnit": 3850002,
		"money": 425,
		"initial_coordinate_x": 3,
		"initial_coordinate_y": 3,
		"reinforcement_BattleReinforcement": 0,
		"initial_direction": 0.0,
		"ai_move_group": 0,
		"ai_target_move_x": -1,
		"ai_target_move_y": -1,
		"ai_skill_function": "",
		"ai_attack": "1.0",
		"ai_move": "IF(turn <=1,0,1)",
		"ai_heal": "",
		"ai_skill": "",
		"ai_use": "",
		"skill_group_id": 19332,
		"gear_GearGear": 24002,
		"gear_rank": 10,
		"proficiency_UnitProficiency": 4,
		"level": 85,
		"hp": 334,
		"strength": 103,
		"vitality": 93,
		"intelligence": 6,
		"mind": 52,
		"agility": 79,
		"dexterity": 92,
		"lucky": 44,
		"parameter_table_BattleEnemyParameterTable": 0,
		"parameter_deviation_table_BattleEnemyParameterDeviationTable": 0,
		"acquire_skill_group_id": 0,
		"level_correction": 0,
		"group_id": 0,
		"ai_script_id_BattleAIScript": 0
	},
	{
		"ID": 83399,
		"stage_BattleStage": 110150401,
		"unit_UnitUnit": 3850002,
		"money": 425,
		"initial_coordinate_x": 5,
		"initial_coordinate_y": 3,
		"reinforcement_BattleReinforcement": 0,
		"initial_direction": 0.0,
		"ai_move_group": 0,
		"ai_target_move_x": -1,
		"ai_target_move_y": -1,
		"ai_skill_function": "",
		"ai_attack": "1.0",
		"ai_move": "IF(turn <=1,0,1)",
		"ai_heal": "",
		"ai_skill": "",
		"ai_use": "",
		"skill_group_id": 19332,
		"gear_GearGear": 24002,
		"gear_rank": 10,
		"proficiency_UnitProficiency": 4,
		"level": 85,
		"hp": 336,
		"strength": 101,
		"vitality": 94,
		"intelligence": 5,
		"mind": 55,
		"agility": 82,
		"dexterity": 93,
		"lucky": 45,
		"parameter_table_BattleEnemyParameterTable": 0,
		"parameter_deviation_table_BattleEnemyParameterDeviationTable": 0,
		"acquire_skill_group_id": 0,
		"level_correction": 0,
		"group_id": 0,
		"ai_script_id_BattleAIScript": 0
	},
	{
		"ID": 83400,
		"stage_BattleStage": 110150401,
		"unit_UnitUnit": 3850002,
		"money": 425,
		"initial_coordinate_x": 4,
		"initial_coordinate_y": 5,
		"reinforcement_BattleReinforcement": 0,
		"initial_direction": 0.0,
		"ai_move_group": 0,
		"ai_target_move_x": -1,
		"ai_target_move_y": -1,
		"ai_skill_function": "",
		"ai_attack": "1.0",
		"ai_move": "1.0",
		"ai_heal": "",
		"ai_skill": "",
		"ai_use": "",
		"skill_group_id": 19332,
		"gear_GearGear": 24002,
		"gear_rank": 10,
		"proficiency_UnitProficiency": 4,
		"level": 85,
		"hp": 331,
		"strength": 105,
		"vitality": 94,
		"intelligence": 6,
		"mind": 55,
		"agility": 79,
		"dexterity": 89,
		"lucky": 44,
		"parameter_table_BattleEnemyParameterTable": 0,
		"parameter_deviation_table_BattleEnemyParameterDeviationTable": 0,
		"acquire_skill_group_id": 0,
		"level_correction": 0,
		"group_id": 0,
		"ai_script_id_BattleAIScript": 0
	},
	{
		"ID": 83401,
		"stage_BattleStage": 110150401,
		"unit_UnitUnit": 3850002,
		"money": 425,
		"initial_coordinate_x": 1,
		"initial_coordinate_y": 9,
		"reinforcement_BattleReinforcement": 0,
		"initial_direction": 90.0,
		"ai_move_group": 0,
		"ai_target_move_x": -1,
		"ai_target_move_y": -1,
		"ai_skill_function": "",
		"ai_attack": "1.0",
		"ai_move": "1.0",
		"ai_heal": "",
		"ai_skill": "",
		"ai_use": "",
		"skill_group_id": 19332,
		"gear_GearGear": 24002,
		"gear_rank": 10,
		"proficiency_UnitProficiency": 4,
		"level": 85,
		"hp": 335,
		"strength": 106,
		"vitality": 93,
		"intelligence": 6,
		"mind": 51,
		"agility": 77,
		"dexterity": 90,
		"lucky": 48,
		"parameter_table_BattleEnemyParameterTable": 0,
		"parameter_deviation_table_BattleEnemyParameterDeviationTable": 0,
		"acquire_skill_group_id": 0,
		"level_correction": 0,
		"group_id": 0,
		"ai_script_id_BattleAIScript": 0
	},
	{
		"ID": 83402,
		"stage_BattleStage": 110150401,
		"unit_UnitUnit": 3850002,
		"money": 425,
		"initial_coordinate_x": 7,
		"initial_coordinate_y": 9,
		"reinforcement_BattleReinforcement": 0,
		"initial_direction": 270.0,
		"ai_move_group": 0,
		"ai_target_move_x": -1,
		"ai_target_move_y": -1,
		"ai_skill_function": "",
		"ai_attack": "1.0",
		"ai_move": "1.0",
		"ai_heal": "",
		"ai_skill": "",
		"ai_use": "",
		"skill_group_id": 19332,
		"gear_GearGear": 24002,
		"gear_rank": 10,
		"proficiency_UnitProficiency": 4,
		"level": 85,
		"hp": 331,
		"strength": 101,
		"vitality": 90,
		"intelligence": 5,
		"mind": 53,
		"agility": 81,
		"dexterity": 93,
		"lucky": 46,
		"parameter_table_BattleEnemyParameterTable": 0,
		"parameter_deviation_table_BattleEnemyParameterDeviationTable": 0,
		"acquire_skill_group_id": 0,
		"level_correction": 0,
		"group_id": 0,
		"ai_script_id_BattleAIScript": 0
	},
	{
		"ID": 83403,
		"stage_BattleStage": 110150401,
		"unit_UnitUnit": 3850002,
		"money": 425,
		"initial_coordinate_x": 8,
		"initial_coordinate_y": 8,
		"reinforcement_BattleReinforcement": 0,
		"initial_direction": 270.0,
		"ai_move_group": 0,
		"ai_target_move_x": -1,
		"ai_target_move_y": -1,
		"ai_skill_function": "",
		"ai_attack": "1.0",
		"ai_move": "1.0",
		"ai_heal": "",
		"ai_skill": "",
		"ai_use": "",
		"skill_group_id": 19332,
		"gear_GearGear": 24002,
		"gear_rank": 10,
		"proficiency_UnitProficiency": 4,
		"level": 85,
		"hp": 334,
		"strength": 103,
		"vitality": 92,
		"intelligence": 7,
		"mind": 53,
		"agility": 79,
		"dexterity": 89,
		"lucky": 47,
		"parameter_table_BattleEnemyParameterTable": 0,
		"parameter_deviation_table_BattleEnemyParameterDeviationTable": 0,
		"acquire_skill_group_id": 0,
		"level_correction": 0,
		"group_id": 0,
		"ai_script_id_BattleAIScript": 0
	},
	{
		"ID": 83404,
		"stage_BattleStage": 110150401,
		"unit_UnitUnit": 3202519,
		"money": 450,
		"initial_coordinate_x": 4,
		"initial_coordinate_y": 1,
		"reinforcement_BattleReinforcement": 0,
		"initial_direction": 0.0,
		"ai_move_group": 0,
		"ai_target_move_x": -1,
		"ai_target_move_y": -1,
		"ai_skill_function": "",
		"ai_attack": "1.0",
		"ai_move": "IF(turn <=1,0,1)",
		"ai_heal": "",
		"ai_skill": "",
		"ai_use": "",
		"skill_group_id": 19318,
		"gear_GearGear": 26025,
		"gear_rank": 10,
		"proficiency_UnitProficiency": 6,
		"level": 90,
		"hp": 159,
		"strength": 115,
		"vitality": 78,
		"intelligence": 19,
		"mind": 48,
		"agility": 120,
		"dexterity": 119,
		"lucky": 53,
		"parameter_table_BattleEnemyParameterTable": 0,
		"parameter_deviation_table_BattleEnemyParameterDeviationTable": 0,
		"acquire_skill_group_id": 0,
		"level_correction": 0,
		"group_id": 0,
		"ai_script_id_BattleAIScript": 0
	}
]