[
	{
		"ID": 81373,
		"stage_BattleStage": 110140102,
		"unit_UnitUnit": 3200413,
		"money": 425,
		"initial_coordinate_x": 5,
		"initial_coordinate_y": 10,
		"reinforcement_BattleReinforcement": 0,
		"initial_direction": 180.0,
		"ai_move_group": 0,
		"ai_target_move_x": -1,
		"ai_target_move_y": -1,
		"ai_skill_function": "",
		"ai_attack": "",
		"ai_move": "",
		"ai_heal": "",
		"ai_skill": "",
		"ai_use": "",
		"skill_group_id": 19310,
		"gear_GearGear": 24026,
		"gear_rank": 10,
		"proficiency_UnitProficiency": 4,
		"level": 85,
		"hp": 305,
		"strength": 108,
		"vitality": 73,
		"intelligence": 46,
		"mind": 47,
		"agility": 113,
		"dexterity": 111,
		"lucky": 50,
		"parameter_table_BattleEnemyParameterTable": 0,
		"parameter_deviation_table_BattleEnemyParameterDeviationTable": 0,
		"acquire_skill_group_id": 0,
		"level_correction": 0,
		"group_id": 0,
		"ai_script_id_BattleAIScript": 0
	},
	{
		"ID": 81374,
		"stage_BattleStage": 110140102,
		"unit_UnitUnit": 3201913,
		"money": 425,
		"initial_coordinate_x": 5,
		"initial_coordinate_y": 9,
		"reinforcement_BattleReinforcement": 0,
		"initial_direction": 180.0,
		"ai_move_group": 0,
		"ai_target_move_x": -1,
		"ai_target_move_y": -1,
		"ai_skill_function": "",
		"ai_attack": "",
		"ai_move": "",
		"ai_heal": "",
		"ai_skill": "",
		"ai_use": "",
		"skill_group_id": 19311,
		"gear_GearGear": 24026,
		"gear_rank": 10,
		"proficiency_UnitProficiency": 4,
		"level": 85,
		"hp": 297,
		"strength": 108,
		"vitality": 77,
		"intelligence": 46,
		"mind": 45,
		"agility": 114,
		"dexterity": 111,
		"lucky": 50,
		"parameter_table_BattleEnemyParameterTable": 0,
		"parameter_deviation_table_BattleEnemyParameterDeviationTable": 0,
		"acquire_skill_group_id": 0,
		"level_correction": 0,
		"group_id": 0,
		"ai_script_id_BattleAIScript": 0
	},
	{
		"ID": 81375,
		"stage_BattleStage": 110140102,
		"unit_UnitUnit": 3301813,
		"money": 425,
		"initial_coordinate_x": 6,
		"initial_coordinate_y": 12,
		"reinforcement_BattleReinforcement": 0,
		"initial_direction": 180.0,
		"ai_move_group": 0,
		"ai_target_move_x": -1,
		"ai_target_move_y": -1,
		"ai_skill_function": "",
		"ai_attack": "",
		"ai_move": "IF( turn <= 1,0,1)",
		"ai_heal": "",
		"ai_skill": "",
		"ai_use": "",
		"skill_group_id": 19312,
		"gear_GearGear": 34030,
		"gear_rank": 10,
		"proficiency_UnitProficiency": 4,
		"level": 85,
		"hp": 302,
		"strength": 103,
		"vitality": 78,
		"intelligence": 25,
		"mind": 39,
		"agility": 115,
		"dexterity": 110,
		"lucky": 52,
		"parameter_table_BattleEnemyParameterTable": 0,
		"parameter_deviation_table_BattleEnemyParameterDeviationTable": 0,
		"acquire_skill_group_id": 0,
		"level_correction": 0,
		"group_id": 0,
		"ai_script_id_BattleAIScript": 0
	},
	{
		"ID": 81376,
		"stage_BattleStage": 110140102,
		"unit_UnitUnit": 3500213,
		"money": 425,
		"initial_coordinate_x": 6,
		"initial_coordinate_y": 14,
		"reinforcement_BattleReinforcement": 0,
		"initial_direction": 180.0,
		"ai_move_group": 0,
		"ai_target_move_x": -1,
		"ai_target_move_y": -1,
		"ai_skill_function": "",
		"ai_attack": "",
		"ai_move": "IF( turn <= 2,0,1)",
		"ai_heal": "",
		"ai_skill": "",
		"ai_use": "",
		"skill_group_id": 19313,
		"gear_GearGear": 54023,
		"gear_rank": 10,
		"proficiency_UnitProficiency": 4,
		"level": 85,
		"hp": 304,
		"strength": 18,
		"vitality": 40,
		"intelligence": 108,
		"mind": 80,
		"agility": 117,
		"dexterity": 111,
		"lucky": 51,
		"parameter_table_BattleEnemyParameterTable": 0,
		"parameter_deviation_table_BattleEnemyParameterDeviationTable": 0,
		"acquire_skill_group_id": 0,
		"level_correction": 0,
		"group_id": 0,
		"ai_script_id_BattleAIScript": 0
	},
	{
		"ID": 81377,
		"stage_BattleStage": 110140102,
		"unit_UnitUnit": 3102513,
		"money": 425,
		"initial_coordinate_x": 5,
		"initial_coordinate_y": 8,
		"reinforcement_BattleReinforcement": 0,
		"initial_direction": 180.0,
		"ai_move_group": 0,
		"ai_target_move_x": -1,
		"ai_target_move_y": -1,
		"ai_skill_function": "",
		"ai_attack": "",
		"ai_move": "",
		"ai_heal": "",
		"ai_skill": "",
		"ai_use": "",
		"skill_group_id": 19314,
		"gear_GearGear": 14041,
		"gear_rank": 10,
		"proficiency_UnitProficiency": 4,
		"level": 85,
		"hp": 299,
		"strength": 107,
		"vitality": 71,
		"intelligence": 20,
		"mind": 48,
		"agility": 116,
		"dexterity": 110,
		"lucky": 53,
		"parameter_table_BattleEnemyParameterTable": 0,
		"parameter_deviation_table_BattleEnemyParameterDeviationTable": 0,
		"acquire_skill_group_id": 0,
		"level_correction": 0,
		"group_id": 0,
		"ai_script_id_BattleAIScript": 0
	},
	{
		"ID": 81378,
		"stage_BattleStage": 110140102,
		"unit_UnitUnit": 3400113,
		"money": 425,
		"initial_coordinate_x": 9,
		"initial_coordinate_y": 15,
		"reinforcement_BattleReinforcement": 0,
		"initial_direction": 180.0,
		"ai_move_group": 0,
		"ai_target_move_x": -1,
		"ai_target_move_y": -1,
		"ai_skill_function": "",
		"ai_attack": "",
		"ai_move": "IF( turn <= 2,0,1)",
		"ai_heal": "",
		"ai_skill": "",
		"ai_use": "",
		"skill_group_id": 19315,
		"gear_GearGear": 44020,
		"gear_rank": 10,
		"proficiency_UnitProficiency": 4,
		"level": 85,
		"hp": 305,
		"strength": 98,
		"vitality": 78,
		"intelligence": 27,
		"mind": 44,
		"agility": 114,
		"dexterity": 108,
		"lucky": 53,
		"parameter_table_BattleEnemyParameterTable": 0,
		"parameter_deviation_table_BattleEnemyParameterDeviationTable": 0,
		"acquire_skill_group_id": 0,
		"level_correction": 0,
		"group_id": 0,
		"ai_script_id_BattleAIScript": 0
	},
	{
		"ID": 81379,
		"stage_BattleStage": 110140102,
		"unit_UnitUnit": 3501713,
		"money": 425,
		"initial_coordinate_x": 2,
		"initial_coordinate_y": 15,
		"reinforcement_BattleReinforcement": 0,
		"initial_direction": 180.0,
		"ai_move_group": 0,
		"ai_target_move_x": -1,
		"ai_target_move_y": -1,
		"ai_skill_function": "",
		"ai_attack": "",
		"ai_move": "IF( turn <= 2,0,1)",
		"ai_heal": "",
		"ai_skill": "",
		"ai_use": "",
		"skill_group_id": 19316,
		"gear_GearGear": 54025,
		"gear_rank": 10,
		"proficiency_UnitProficiency": 4,
		"level": 85,
		"hp": 306,
		"strength": 24,
		"vitality": 42,
		"intelligence": 110,
		"mind": 78,
		"agility": 117,
		"dexterity": 110,
		"lucky": 53,
		"parameter_table_BattleEnemyParameterTable": 0,
		"parameter_deviation_table_BattleEnemyParameterDeviationTable": 0,
		"acquire_skill_group_id": 0,
		"level_correction": 0,
		"group_id": 0,
		"ai_script_id_BattleAIScript": 0
	}
]