[
	{
		"ID": 77614,
		"stage_BattleStage": 110120402,
		"unit_UnitUnit": 3301812,
		"money": 400,
		"initial_coordinate_x": 11,
		"initial_coordinate_y": 2,
		"reinforcement_BattleReinforcement": 0,
		"initial_direction": 0.0,
		"ai_move_group": 0,
		"ai_target_move_x": -1,
		"ai_target_move_y": -1,
		"ai_skill_function": "",
		"ai_attack": "",
		"ai_move": "",
		"ai_heal": "",
		"ai_skill": "",
		"ai_use": "",
		"skill_group_id": 18997,
		"gear_GearGear": 34030,
		"gear_rank": 1,
		"proficiency_UnitProficiency": 4,
		"level": 80,
		"hp": 206,
		"strength": 101,
		"vitality": 75,
		"intelligence": 21,
		"mind": 40,
		"agility": 115,
		"dexterity": 109,
		"lucky": 52,
		"parameter_table_BattleEnemyParameterTable": 0,
		"parameter_deviation_table_BattleEnemyParameterDeviationTable": 0,
		"acquire_skill_group_id": 0,
		"level_correction": 0,
		"group_id": 0,
		"ai_script_id_BattleAIScript": 0
	},
	{
		"ID": 77615,
		"stage_BattleStage": 110120402,
		"unit_UnitUnit": 3500212,
		"money": 400,
		"initial_coordinate_x": 12,
		"initial_coordinate_y": 3,
		"reinforcement_BattleReinforcement": 0,
		"initial_direction": 0.0,
		"ai_move_group": 0,
		"ai_target_move_x": -1,
		"ai_target_move_y": -1,
		"ai_skill_function": "",
		"ai_attack": "",
		"ai_move": "",
		"ai_heal": "",
		"ai_skill": "",
		"ai_use": "",
		"skill_group_id": 18999,
		"gear_GearGear": 54023,
		"gear_rank": 1,
		"proficiency_UnitProficiency": 4,
		"level": 80,
		"hp": 203,
		"strength": 17,
		"vitality": 41,
		"intelligence": 104,
		"mind": 77,
		"agility": 111,
		"dexterity": 107,
		"lucky": 50,
		"parameter_table_BattleEnemyParameterTable": 0,
		"parameter_deviation_table_BattleEnemyParameterDeviationTable": 0,
		"acquire_skill_group_id": 0,
		"level_correction": 0,
		"group_id": 0,
		"ai_script_id_BattleAIScript": 0
	},
	{
		"ID": 77616,
		"stage_BattleStage": 110120402,
		"unit_UnitUnit": 3810001,
		"money": 400,
		"initial_coordinate_x": 9,
		"initial_coordinate_y": 14,
		"reinforcement_BattleReinforcement": 0,
		"initial_direction": 180.0,
		"ai_move_group": 0,
		"ai_target_move_x": -1,
		"ai_target_move_y": -1,
		"ai_skill_function": "",
		"ai_attack": "",
		"ai_move": "",
		"ai_heal": "",
		"ai_skill": "",
		"ai_use": "",
		"skill_group_id": 16600,
		"gear_GearGear": 13003,
		"gear_rank": 1,
		"proficiency_UnitProficiency": 3,
		"level": 80,
		"hp": 114,
		"strength": 86,
		"vitality": 86,
		"intelligence": 10,
		"mind": 60,
		"agility": 93,
		"dexterity": 93,
		"lucky": 49,
		"parameter_table_BattleEnemyParameterTable": 0,
		"parameter_deviation_table_BattleEnemyParameterDeviationTable": 0,
		"acquire_skill_group_id": 0,
		"level_correction": 0,
		"group_id": 0,
		"ai_script_id_BattleAIScript": 0
	},
	{
		"ID": 77617,
		"stage_BattleStage": 110120402,
		"unit_UnitUnit": 3810001,
		"money": 400,
		"initial_coordinate_x": 10,
		"initial_coordinate_y": 14,
		"reinforcement_BattleReinforcement": 0,
		"initial_direction": 180.0,
		"ai_move_group": 0,
		"ai_target_move_x": -1,
		"ai_target_move_y": -1,
		"ai_skill_function": "",
		"ai_attack": "",
		"ai_move": "",
		"ai_heal": "",
		"ai_skill": "",
		"ai_use": "",
		"skill_group_id": 16600,
		"gear_GearGear": 13003,
		"gear_rank": 1,
		"proficiency_UnitProficiency": 3,
		"level": 80,
		"hp": 114,
		"strength": 86,
		"vitality": 87,
		"intelligence": 10,
		"mind": 61,
		"agility": 92,
		"dexterity": 95,
		"lucky": 47,
		"parameter_table_BattleEnemyParameterTable": 0,
		"parameter_deviation_table_BattleEnemyParameterDeviationTable": 0,
		"acquire_skill_group_id": 0,
		"level_correction": 0,
		"group_id": 0,
		"ai_script_id_BattleAIScript": 0
	},
	{
		"ID": 77618,
		"stage_BattleStage": 110120402,
		"unit_UnitUnit": 3810002,
		"money": 400,
		"initial_coordinate_x": 2,
		"initial_coordinate_y": 10,
		"reinforcement_BattleReinforcement": 0,
		"initial_direction": 180.0,
		"ai_move_group": 0,
		"ai_target_move_x": -1,
		"ai_target_move_y": -1,
		"ai_skill_function": "",
		"ai_attack": "",
		"ai_move": "",
		"ai_heal": "",
		"ai_skill": "",
		"ai_use": "",
		"skill_group_id": 16600,
		"gear_GearGear": 23001,
		"gear_rank": 1,
		"proficiency_UnitProficiency": 3,
		"level": 80,
		"hp": 137,
		"strength": 101,
		"vitality": 89,
		"intelligence": 8,
		"mind": 54,
		"agility": 79,
		"dexterity": 89,
		"lucky": 46,
		"parameter_table_BattleEnemyParameterTable": 0,
		"parameter_deviation_table_BattleEnemyParameterDeviationTable": 0,
		"acquire_skill_group_id": 0,
		"level_correction": 0,
		"group_id": 0,
		"ai_script_id_BattleAIScript": 0
	},
	{
		"ID": 77619,
		"stage_BattleStage": 110120402,
		"unit_UnitUnit": 3810002,
		"money": 400,
		"initial_coordinate_x": 2,
		"initial_coordinate_y": 9,
		"reinforcement_BattleReinforcement": 0,
		"initial_direction": 180.0,
		"ai_move_group": 0,
		"ai_target_move_x": -1,
		"ai_target_move_y": -1,
		"ai_skill_function": "",
		"ai_attack": "",
		"ai_move": "",
		"ai_heal": "",
		"ai_skill": "",
		"ai_use": "",
		"skill_group_id": 16600,
		"gear_GearGear": 23001,
		"gear_rank": 1,
		"proficiency_UnitProficiency": 3,
		"level": 80,
		"hp": 137,
		"strength": 100,
		"vitality": 89,
		"intelligence": 10,
		"mind": 52,
		"agility": 77,
		"dexterity": 91,
		"lucky": 47,
		"parameter_table_BattleEnemyParameterTable": 0,
		"parameter_deviation_table_BattleEnemyParameterDeviationTable": 0,
		"acquire_skill_group_id": 0,
		"level_correction": 0,
		"group_id": 0,
		"ai_script_id_BattleAIScript": 0
	},
	{
		"ID": 77620,
		"stage_BattleStage": 110120402,
		"unit_UnitUnit": 3810003,
		"money": 400,
		"initial_coordinate_x": 2,
		"initial_coordinate_y": 2,
		"reinforcement_BattleReinforcement": 0,
		"initial_direction": 90.0,
		"ai_move_group": 0,
		"ai_target_move_x": -1,
		"ai_target_move_y": -1,
		"ai_skill_function": "",
		"ai_attack": "",
		"ai_move": "",
		"ai_heal": "",
		"ai_skill": "",
		"ai_use": "",
		"skill_group_id": 16600,
		"gear_GearGear": 33001,
		"gear_rank": 1,
		"proficiency_UnitProficiency": 3,
		"level": 80,
		"hp": 119,
		"strength": 90,
		"vitality": 90,
		"intelligence": 10,
		"mind": 70,
		"agility": 85,
		"dexterity": 95,
		"lucky": 48,
		"parameter_table_BattleEnemyParameterTable": 0,
		"parameter_deviation_table_BattleEnemyParameterDeviationTable": 0,
		"acquire_skill_group_id": 0,
		"level_correction": 0,
		"group_id": 0,
		"ai_script_id_BattleAIScript": 0
	},
	{
		"ID": 77621,
		"stage_BattleStage": 110120402,
		"unit_UnitUnit": 3810003,
		"money": 400,
		"initial_coordinate_x": 3,
		"initial_coordinate_y": 1,
		"reinforcement_BattleReinforcement": 0,
		"initial_direction": 90.0,
		"ai_move_group": 0,
		"ai_target_move_x": -1,
		"ai_target_move_y": -1,
		"ai_skill_function": "",
		"ai_attack": "",
		"ai_move": "",
		"ai_heal": "",
		"ai_skill": "",
		"ai_use": "",
		"skill_group_id": 16600,
		"gear_GearGear": 33001,
		"gear_rank": 1,
		"proficiency_UnitProficiency": 3,
		"level": 80,
		"hp": 119,
		"strength": 89,
		"vitality": 91,
		"intelligence": 9,
		"mind": 70,
		"agility": 88,
		"dexterity": 92,
		"lucky": 47,
		"parameter_table_BattleEnemyParameterTable": 0,
		"parameter_deviation_table_BattleEnemyParameterDeviationTable": 0,
		"acquire_skill_group_id": 0,
		"level_correction": 0,
		"group_id": 0,
		"ai_script_id_BattleAIScript": 0
	},
	{
		"ID": 77622,
		"stage_BattleStage": 110120402,
		"unit_UnitUnit": 3810004,
		"money": 400,
		"initial_coordinate_x": 7,
		"initial_coordinate_y": 15,
		"reinforcement_BattleReinforcement": 0,
		"initial_direction": 180.0,
		"ai_move_group": 0,
		"ai_target_move_x": -1,
		"ai_target_move_y": -1,
		"ai_skill_function": "",
		"ai_attack": "",
		"ai_move": "IF(turn <2,0,1)",
		"ai_heal": "",
		"ai_skill": "",
		"ai_use": "",
		"skill_group_id": 16600,
		"gear_GearGear": 43001,
		"gear_rank": 1,
		"proficiency_UnitProficiency": 3,
		"level": 80,
		"hp": 110,
		"strength": 82,
		"vitality": 70,
		"intelligence": 10,
		"mind": 64,
		"agility": 86,
		"dexterity": 91,
		"lucky": 46,
		"parameter_table_BattleEnemyParameterTable": 0,
		"parameter_deviation_table_BattleEnemyParameterDeviationTable": 0,
		"acquire_skill_group_id": 0,
		"level_correction": 0,
		"group_id": 0,
		"ai_script_id_BattleAIScript": 0
	},
	{
		"ID": 77623,
		"stage_BattleStage": 110120402,
		"unit_UnitUnit": 3810004,
		"money": 400,
		"initial_coordinate_x": 2,
		"initial_coordinate_y": 12,
		"reinforcement_BattleReinforcement": 0,
		"initial_direction": 180.0,
		"ai_move_group": 0,
		"ai_target_move_x": -1,
		"ai_target_move_y": -1,
		"ai_skill_function": "",
		"ai_attack": "",
		"ai_move": "IF(turn <2,0,1)",
		"ai_heal": "",
		"ai_skill": "",
		"ai_use": "",
		"skill_group_id": 16600,
		"gear_GearGear": 43001,
		"gear_rank": 1,
		"proficiency_UnitProficiency": 3,
		"level": 80,
		"hp": 109,
		"strength": 83,
		"vitality": 68,
		"intelligence": 11,
		"mind": 62,
		"agility": 87,
		"dexterity": 91,
		"lucky": 46,
		"parameter_table_BattleEnemyParameterTable": 0,
		"parameter_deviation_table_BattleEnemyParameterDeviationTable": 0,
		"acquire_skill_group_id": 0,
		"level_correction": 0,
		"group_id": 0,
		"ai_script_id_BattleAIScript": 0
	}
]