[
	{
		"ID": 85396,
		"stage_BattleStage": 110160205,
		"unit_UnitUnit": 301813,
		"money": 425,
		"initial_coordinate_x": 3,
		"initial_coordinate_y": 13,
		"reinforcement_BattleReinforcement": 0,
		"initial_direction": 90.0,
		"ai_move_group": 0,
		"ai_target_move_x": -1,
		"ai_target_move_y": -1,
		"ai_skill_function": "",
		"ai_attack": "",
		"ai_move": "",
		"ai_heal": "",
		"ai_skill": "",
		"ai_use": "",
		"skill_group_id": 20238,
		"gear_GearGear": 34001,
		"gear_rank": 10,
		"proficiency_UnitProficiency": 4,
		"level": 85,
		"hp": 185,
		"strength": 142,
		"vitality": 101,
		"intelligence": 7,
		"mind": 70,
		"agility": 81,
		"dexterity": 100,
		"lucky": 102,
		"parameter_table_BattleEnemyParameterTable": 0,
		"parameter_deviation_table_BattleEnemyParameterDeviationTable": 0,
		"acquire_skill_group_id": 0,
		"level_correction": 0,
		"group_id": 0,
		"ai_script_id_BattleAIScript": 0
	},
	{
		"ID": 85397,
		"stage_BattleStage": 110160205,
		"unit_UnitUnit": 601113,
		"money": 425,
		"initial_coordinate_x": 3,
		"initial_coordinate_y": 12,
		"reinforcement_BattleReinforcement": 0,
		"initial_direction": 90.0,
		"ai_move_group": 0,
		"ai_target_move_x": -1,
		"ai_target_move_y": -1,
		"ai_skill_function": "",
		"ai_attack": "",
		"ai_move": "",
		"ai_heal": "",
		"ai_skill": "",
		"ai_use": "",
		"skill_group_id": 20239,
		"gear_GearGear": 66006,
		"gear_rank": 10,
		"proficiency_UnitProficiency": 6,
		"level": 85,
		"hp": 170,
		"strength": 13,
		"vitality": 25,
		"intelligence": 85,
		"mind": 107,
		"agility": 85,
		"dexterity": 95,
		"lucky": 47,
		"parameter_table_BattleEnemyParameterTable": 0,
		"parameter_deviation_table_BattleEnemyParameterDeviationTable": 0,
		"acquire_skill_group_id": 0,
		"level_correction": 0,
		"group_id": 0,
		"ai_script_id_BattleAIScript": 0
	},
	{
		"ID": 85398,
		"stage_BattleStage": 110160205,
		"unit_UnitUnit": 300114,
		"money": 425,
		"initial_coordinate_x": 3,
		"initial_coordinate_y": 11,
		"reinforcement_BattleReinforcement": 0,
		"initial_direction": 90.0,
		"ai_move_group": 0,
		"ai_target_move_x": -1,
		"ai_target_move_y": -1,
		"ai_skill_function": "",
		"ai_attack": "",
		"ai_move": "",
		"ai_heal": "",
		"ai_skill": "",
		"ai_use": "",
		"skill_group_id": 13953,
		"gear_GearGear": 34001,
		"gear_rank": 10,
		"proficiency_UnitProficiency": 4,
		"level": 85,
		"hp": 195,
		"strength": 142,
		"vitality": 99,
		"intelligence": 10,
		"mind": 75,
		"agility": 84,
		"dexterity": 100,
		"lucky": 101,
		"parameter_table_BattleEnemyParameterTable": 0,
		"parameter_deviation_table_BattleEnemyParameterDeviationTable": 0,
		"acquire_skill_group_id": 0,
		"level_correction": 0,
		"group_id": 0,
		"ai_script_id_BattleAIScript": 0
	},
	{
		"ID": 85399,
		"stage_BattleStage": 110160205,
		"unit_UnitUnit": 500213,
		"money": 425,
		"initial_coordinate_x": 2,
		"initial_coordinate_y": 12,
		"reinforcement_BattleReinforcement": 0,
		"initial_direction": 90.0,
		"ai_move_group": 0,
		"ai_target_move_x": -1,
		"ai_target_move_y": -1,
		"ai_skill_function": "",
		"ai_attack": "",
		"ai_move": "",
		"ai_heal": "",
		"ai_skill": "",
		"ai_use": "",
		"skill_group_id": 20240,
		"gear_GearGear": 54002,
		"gear_rank": 10,
		"proficiency_UnitProficiency": 4,
		"level": 85,
		"hp": 180,
		"strength": 13,
		"vitality": 25,
		"intelligence": 90,
		"mind": 107,
		"agility": 85,
		"dexterity": 95,
		"lucky": 47,
		"parameter_table_BattleEnemyParameterTable": 0,
		"parameter_deviation_table_BattleEnemyParameterDeviationTable": 0,
		"acquire_skill_group_id": 0,
		"level_correction": 0,
		"group_id": 0,
		"ai_script_id_BattleAIScript": 0
	},
	{
		"ID": 85400,
		"stage_BattleStage": 110160205,
		"unit_UnitUnit": 201913,
		"money": 425,
		"initial_coordinate_x": 10,
		"initial_coordinate_y": 13,
		"reinforcement_BattleReinforcement": 0,
		"initial_direction": 270.0,
		"ai_move_group": 0,
		"ai_target_move_x": -1,
		"ai_target_move_y": -1,
		"ai_skill_function": "",
		"ai_attack": "",
		"ai_move": "",
		"ai_heal": "",
		"ai_skill": "",
		"ai_use": "",
		"skill_group_id": 20241,
		"gear_GearGear": 24002,
		"gear_rank": 10,
		"proficiency_UnitProficiency": 4,
		"level": 85,
		"hp": 195,
		"strength": 138,
		"vitality": 98,
		"intelligence": 8,
		"mind": 75,
		"agility": 78,
		"dexterity": 81,
		"lucky": 99,
		"parameter_table_BattleEnemyParameterTable": 0,
		"parameter_deviation_table_BattleEnemyParameterDeviationTable": 0,
		"acquire_skill_group_id": 0,
		"level_correction": 0,
		"group_id": 0,
		"ai_script_id_BattleAIScript": 0
	},
	{
		"ID": 85401,
		"stage_BattleStage": 110160205,
		"unit_UnitUnit": 401313,
		"money": 425,
		"initial_coordinate_x": 10,
		"initial_coordinate_y": 12,
		"reinforcement_BattleReinforcement": 0,
		"initial_direction": 270.0,
		"ai_move_group": 0,
		"ai_target_move_x": -1,
		"ai_target_move_y": -1,
		"ai_skill_function": "",
		"ai_attack": "",
		"ai_move": "",
		"ai_heal": "",
		"ai_skill": "",
		"ai_use": "",
		"skill_group_id": 20242,
		"gear_GearGear": 44003,
		"gear_rank": 10,
		"proficiency_UnitProficiency": 4,
		"level": 85,
		"hp": 195,
		"strength": 138,
		"vitality": 98,
		"intelligence": 8,
		"mind": 75,
		"agility": 78,
		"dexterity": 81,
		"lucky": 99,
		"parameter_table_BattleEnemyParameterTable": 0,
		"parameter_deviation_table_BattleEnemyParameterDeviationTable": 0,
		"acquire_skill_group_id": 0,
		"level_correction": 0,
		"group_id": 0,
		"ai_script_id_BattleAIScript": 0
	},
	{
		"ID": 85402,
		"stage_BattleStage": 110160205,
		"unit_UnitUnit": 102313,
		"money": 425,
		"initial_coordinate_x": 11,
		"initial_coordinate_y": 12,
		"reinforcement_BattleReinforcement": 0,
		"initial_direction": 270.0,
		"ai_move_group": 0,
		"ai_target_move_x": -1,
		"ai_target_move_y": -1,
		"ai_skill_function": "",
		"ai_attack": "",
		"ai_move": "",
		"ai_heal": "",
		"ai_skill": "",
		"ai_use": "",
		"skill_group_id": 20243,
		"gear_GearGear": 14041,
		"gear_rank": 10,
		"proficiency_UnitProficiency": 4,
		"level": 85,
		"hp": 195,
		"strength": 138,
		"vitality": 98,
		"intelligence": 8,
		"mind": 75,
		"agility": 78,
		"dexterity": 81,
		"lucky": 99,
		"parameter_table_BattleEnemyParameterTable": 0,
		"parameter_deviation_table_BattleEnemyParameterDeviationTable": 0,
		"acquire_skill_group_id": 0,
		"level_correction": 0,
		"group_id": 0,
		"ai_script_id_BattleAIScript": 0
	},
	{
		"ID": 85403,
		"stage_BattleStage": 110160205,
		"unit_UnitUnit": 200414,
		"money": 425,
		"initial_coordinate_x": 10,
		"initial_coordinate_y": 11,
		"reinforcement_BattleReinforcement": 0,
		"initial_direction": 270.0,
		"ai_move_group": 0,
		"ai_target_move_x": -1,
		"ai_target_move_y": -1,
		"ai_skill_function": "",
		"ai_attack": "",
		"ai_move": "",
		"ai_heal": "",
		"ai_skill": "",
		"ai_use": "",
		"skill_group_id": 13952,
		"gear_GearGear": 24002,
		"gear_rank": 10,
		"proficiency_UnitProficiency": 4,
		"level": 85,
		"hp": 204,
		"strength": 150,
		"vitality": 92,
		"intelligence": 8,
		"mind": 73,
		"agility": 79,
		"dexterity": 85,
		"lucky": 99,
		"parameter_table_BattleEnemyParameterTable": 0,
		"parameter_deviation_table_BattleEnemyParameterDeviationTable": 0,
		"acquire_skill_group_id": 0,
		"level_correction": 0,
		"group_id": 0,
		"ai_script_id_BattleAIScript": 0
	},
	{
		"ID": 85404,
		"stage_BattleStage": 110160205,
		"unit_UnitUnit": 400134,
		"money": 425,
		"initial_coordinate_x": 6,
		"initial_coordinate_y": 7,
		"reinforcement_BattleReinforcement": 0,
		"initial_direction": 0.0,
		"ai_move_group": 0,
		"ai_target_move_x": -1,
		"ai_target_move_y": -1,
		"ai_skill_function": "",
		"ai_attack": "",
		"ai_move": "",
		"ai_heal": "",
		"ai_skill": "",
		"ai_use": "",
		"skill_group_id": 13954,
		"gear_GearGear": 44003,
		"gear_rank": 10,
		"proficiency_UnitProficiency": 4,
		"level": 85,
		"hp": 179,
		"strength": 133,
		"vitality": 103,
		"intelligence": 5,
		"mind": 75,
		"agility": 81,
		"dexterity": 93,
		"lucky": 99,
		"parameter_table_BattleEnemyParameterTable": 0,
		"parameter_deviation_table_BattleEnemyParameterDeviationTable": 0,
		"acquire_skill_group_id": 0,
		"level_correction": 0,
		"group_id": 0,
		"ai_script_id_BattleAIScript": 0
	},
	{
		"ID": 85405,
		"stage_BattleStage": 110160205,
		"unit_UnitUnit": 100114,
		"money": 425,
		"initial_coordinate_x": 7,
		"initial_coordinate_y": 7,
		"reinforcement_BattleReinforcement": 0,
		"initial_direction": 0.0,
		"ai_move_group": 0,
		"ai_target_move_x": -1,
		"ai_target_move_y": -1,
		"ai_skill_function": "",
		"ai_attack": "",
		"ai_move": "",
		"ai_heal": "",
		"ai_skill": "",
		"ai_use": "",
		"skill_group_id": 13950,
		"gear_GearGear": 14041,
		"gear_rank": 10,
		"proficiency_UnitProficiency": 4,
		"level": 85,
		"hp": 182,
		"strength": 142,
		"vitality": 94,
		"intelligence": 9,
		"mind": 69,
		"agility": 83,
		"dexterity": 93,
		"lucky": 101,
		"parameter_table_BattleEnemyParameterTable": 0,
		"parameter_deviation_table_BattleEnemyParameterDeviationTable": 0,
		"acquire_skill_group_id": 0,
		"level_correction": 0,
		"group_id": 0,
		"ai_script_id_BattleAIScript": 0
	},
	{
		"ID": 85406,
		"stage_BattleStage": 110160205,
		"unit_UnitUnit": 102513,
		"money": 425,
		"initial_coordinate_x": 6,
		"initial_coordinate_y": 6,
		"reinforcement_BattleReinforcement": 0,
		"initial_direction": 0.0,
		"ai_move_group": 0,
		"ai_target_move_x": -1,
		"ai_target_move_y": -1,
		"ai_skill_function": "",
		"ai_attack": "",
		"ai_move": "",
		"ai_heal": "",
		"ai_skill": "",
		"ai_use": "",
		"skill_group_id": 13533,
		"gear_GearGear": 14041,
		"gear_rank": 10,
		"proficiency_UnitProficiency": 4,
		"level": 85,
		"hp": 182,
		"strength": 142,
		"vitality": 94,
		"intelligence": 9,
		"mind": 69,
		"agility": 83,
		"dexterity": 93,
		"lucky": 101,
		"parameter_table_BattleEnemyParameterTable": 0,
		"parameter_deviation_table_BattleEnemyParameterDeviationTable": 0,
		"acquire_skill_group_id": 0,
		"level_correction": 0,
		"group_id": 0,
		"ai_script_id_BattleAIScript": 0
	},
	{
		"ID": 85407,
		"stage_BattleStage": 110160205,
		"unit_UnitUnit": 501713,
		"money": 425,
		"initial_coordinate_x": 7,
		"initial_coordinate_y": 6,
		"reinforcement_BattleReinforcement": 0,
		"initial_direction": 0.0,
		"ai_move_group": 0,
		"ai_target_move_x": -1,
		"ai_target_move_y": -1,
		"ai_skill_function": "",
		"ai_attack": "",
		"ai_move": "",
		"ai_heal": "",
		"ai_skill": "",
		"ai_use": "",
		"skill_group_id": 20244,
		"gear_GearGear": 54002,
		"gear_rank": 10,
		"proficiency_UnitProficiency": 4,
		"level": 85,
		"hp": 165,
		"strength": 13,
		"vitality": 25,
		"intelligence": 85,
		"mind": 107,
		"agility": 85,
		"dexterity": 95,
		"lucky": 47,
		"parameter_table_BattleEnemyParameterTable": 0,
		"parameter_deviation_table_BattleEnemyParameterDeviationTable": 0,
		"acquire_skill_group_id": 0,
		"level_correction": 0,
		"group_id": 0,
		"ai_script_id_BattleAIScript": 0
	},
	{
		"ID": 85408,
		"stage_BattleStage": 110160205,
		"unit_UnitUnit": 830008,
		"money": 425,
		"initial_coordinate_x": 1,
		"initial_coordinate_y": 13,
		"reinforcement_BattleReinforcement": 0,
		"initial_direction": 90.0,
		"ai_move_group": 0,
		"ai_target_move_x": -1,
		"ai_target_move_y": -1,
		"ai_skill_function": "",
		"ai_attack": "",
		"ai_move": "",
		"ai_heal": "",
		"ai_skill": "",
		"ai_use": "",
		"skill_group_id": 20219,
		"gear_GearGear": 34001,
		"gear_rank": 10,
		"proficiency_UnitProficiency": 4,
		"level": 85,
		"hp": 203,
		"strength": 136,
		"vitality": 106,
		"intelligence": 9,
		"mind": 81,
		"agility": 82,
		"dexterity": 105,
		"lucky": 25,
		"parameter_table_BattleEnemyParameterTable": 0,
		"parameter_deviation_table_BattleEnemyParameterDeviationTable": 0,
		"acquire_skill_group_id": 0,
		"level_correction": 0,
		"group_id": 0,
		"ai_script_id_BattleAIScript": 0
	},
	{
		"ID": 85409,
		"stage_BattleStage": 110160205,
		"unit_UnitUnit": 820004,
		"money": 425,
		"initial_coordinate_x": 11,
		"initial_coordinate_y": 13,
		"reinforcement_BattleReinforcement": 0,
		"initial_direction": 270.0,
		"ai_move_group": 0,
		"ai_target_move_x": -1,
		"ai_target_move_y": -1,
		"ai_skill_function": "",
		"ai_attack": "",
		"ai_move": "",
		"ai_heal": "",
		"ai_skill": "",
		"ai_use": "",
		"skill_group_id": 20218,
		"gear_GearGear": 24002,
		"gear_rank": 10,
		"proficiency_UnitProficiency": 4,
		"level": 85,
		"hp": 190,
		"strength": 138,
		"vitality": 96,
		"intelligence": 6,
		"mind": 66,
		"agility": 81,
		"dexterity": 94,
		"lucky": 97,
		"parameter_table_BattleEnemyParameterTable": 0,
		"parameter_deviation_table_BattleEnemyParameterDeviationTable": 0,
		"acquire_skill_group_id": 0,
		"level_correction": 0,
		"group_id": 0,
		"ai_script_id_BattleAIScript": 0
	},
	{
		"ID": 85410,
		"stage_BattleStage": 110160205,
		"unit_UnitUnit": 860001,
		"money": 425,
		"initial_coordinate_x": 6,
		"initial_coordinate_y": 5,
		"reinforcement_BattleReinforcement": 0,
		"initial_direction": 0.0,
		"ai_move_group": 0,
		"ai_target_move_x": -1,
		"ai_target_move_y": -1,
		"ai_skill_function": "",
		"ai_attack": "",
		"ai_move": "",
		"ai_heal": "",
		"ai_skill": "",
		"ai_use": "",
		"skill_group_id": 20056,
		"gear_GearGear": 66006,
		"gear_rank": 10,
		"proficiency_UnitProficiency": 6,
		"level": 85,
		"hp": 172,
		"strength": 47,
		"vitality": 63,
		"intelligence": 116,
		"mind": 90,
		"agility": 97,
		"dexterity": 116,
		"lucky": 47,
		"parameter_table_BattleEnemyParameterTable": 0,
		"parameter_deviation_table_BattleEnemyParameterDeviationTable": 0,
		"acquire_skill_group_id": 0,
		"level_correction": 0,
		"group_id": 0,
		"ai_script_id_BattleAIScript": 0
	}
]