[
	{
		"ID": 85466,
		"stage_BattleStage": 110160504,
		"unit_UnitUnit": 3103619,
		"money": 425,
		"initial_coordinate_x": 6,
		"initial_coordinate_y": 6,
		"reinforcement_BattleReinforcement": 0,
		"initial_direction": 180.0,
		"ai_move_group": 0,
		"ai_target_move_x": -1,
		"ai_target_move_y": -1,
		"ai_skill_function": "",
		"ai_attack": "",
		"ai_move": "",
		"ai_heal": "",
		"ai_skill": "",
		"ai_use": "",
		"skill_group_id": 20090,
		"gear_GearGear": 16068,
		"gear_rank": 10,
		"proficiency_UnitProficiency": 6,
		"level": 85,
		"hp": 186,
		"strength": 84,
		"vitality": 63,
		"intelligence": 72,
		"mind": 40,
		"agility": 93,
		"dexterity": 94,
		"lucky": 15,
		"parameter_table_BattleEnemyParameterTable": 0,
		"parameter_deviation_table_BattleEnemyParameterDeviationTable": 0,
		"acquire_skill_group_id": 0,
		"level_correction": 0,
		"group_id": 0,
		"ai_script_id_BattleAIScript": 0
	}
]