[
	{
		"ID": 8566,
		"stage_BattleStage": 131015010,
		"unit_UnitUnit": 810008,
		"money": 225,
		"initial_coordinate_x": 1,
		"initial_coordinate_y": 6,
		"reinforcement_BattleReinforcement": 0,
		"initial_direction": 180.0,
		"ai_move_group": 0,
		"ai_target_move_x": -1,
		"ai_target_move_y": -1,
		"ai_skill_function": "",
		"ai_attack": "",
		"ai_move": "",
		"ai_heal": "",
		"ai_skill": "",
		"ai_use": "",
		"skill_group_id": 1650,
		"gear_GearGear": 13003,
		"gear_rank": 1,
		"proficiency_UnitProficiency": 3,
		"level": 45,
		"hp": 82,
		"strength": 55,
		"vitality": 44,
		"intelligence": 0,
		"mind": 14,
		"agility": 29,
		"dexterity": 51,
		"lucky": 7,
		"parameter_table_BattleEnemyParameterTable": 0,
		"parameter_deviation_table_BattleEnemyParameterDeviationTable": 0,
		"acquire_skill_group_id": 0,
		"level_correction": 0,
		"group_id": 0,
		"ai_script_id_BattleAIScript": 0
	},
	{
		"ID": 8567,
		"stage_BattleStage": 131015010,
		"unit_UnitUnit": 820008,
		"money": 230,
		"initial_coordinate_x": 6,
		"initial_coordinate_y": 5,
		"reinforcement_BattleReinforcement": 0,
		"initial_direction": 180.0,
		"ai_move_group": 0,
		"ai_target_move_x": -1,
		"ai_target_move_y": -1,
		"ai_skill_function": "",
		"ai_attack": "",
		"ai_move": "",
		"ai_heal": "",
		"ai_skill": "",
		"ai_use": "",
		"skill_group_id": 1650,
		"gear_GearGear": 24006,
		"gear_rank": 1,
		"proficiency_UnitProficiency": 4,
		"level": 46,
		"hp": 83,
		"strength": 58,
		"vitality": 45,
		"intelligence": 0,
		"mind": 15,
		"agility": 25,
		"dexterity": 50,
		"lucky": 7,
		"parameter_table_BattleEnemyParameterTable": 0,
		"parameter_deviation_table_BattleEnemyParameterDeviationTable": 0,
		"acquire_skill_group_id": 0,
		"level_correction": 0,
		"group_id": 0,
		"ai_script_id_BattleAIScript": 0
	},
	{
		"ID": 8568,
		"stage_BattleStage": 131015010,
		"unit_UnitUnit": 830008,
		"money": 235,
		"initial_coordinate_x": 9,
		"initial_coordinate_y": 4,
		"reinforcement_BattleReinforcement": 0,
		"initial_direction": 180.0,
		"ai_move_group": 0,
		"ai_target_move_x": -1,
		"ai_target_move_y": -1,
		"ai_skill_function": "",
		"ai_attack": "",
		"ai_move": "",
		"ai_heal": "",
		"ai_skill": "",
		"ai_use": "",
		"skill_group_id": 1650,
		"gear_GearGear": 34006,
		"gear_rank": 1,
		"proficiency_UnitProficiency": 4,
		"level": 47,
		"hp": 83,
		"strength": 57,
		"vitality": 46,
		"intelligence": 0,
		"mind": 15,
		"agility": 29,
		"dexterity": 52,
		"lucky": 7,
		"parameter_table_BattleEnemyParameterTable": 0,
		"parameter_deviation_table_BattleEnemyParameterDeviationTable": 0,
		"acquire_skill_group_id": 0,
		"level_correction": 0,
		"group_id": 0,
		"ai_script_id_BattleAIScript": 0
	},
	{
		"ID": 8569,
		"stage_BattleStage": 131015010,
		"unit_UnitUnit": 810008,
		"money": 240,
		"initial_coordinate_x": 13,
		"initial_coordinate_y": 6,
		"reinforcement_BattleReinforcement": 0,
		"initial_direction": 180.0,
		"ai_move_group": 0,
		"ai_target_move_x": -1,
		"ai_target_move_y": -1,
		"ai_skill_function": "",
		"ai_attack": "",
		"ai_move": "",
		"ai_heal": "",
		"ai_skill": "",
		"ai_use": "",
		"skill_group_id": 1650,
		"gear_GearGear": 13003,
		"gear_rank": 1,
		"proficiency_UnitProficiency": 3,
		"level": 48,
		"hp": 85,
		"strength": 58,
		"vitality": 46,
		"intelligence": 0,
		"mind": 14,
		"agility": 31,
		"dexterity": 54,
		"lucky": 7,
		"parameter_table_BattleEnemyParameterTable": 0,
		"parameter_deviation_table_BattleEnemyParameterDeviationTable": 0,
		"acquire_skill_group_id": 0,
		"level_correction": 0,
		"group_id": 0,
		"ai_script_id_BattleAIScript": 0
	},
	{
		"ID": 8570,
		"stage_BattleStage": 131015010,
		"unit_UnitUnit": 820008,
		"money": 245,
		"initial_coordinate_x": 16,
		"initial_coordinate_y": 4,
		"reinforcement_BattleReinforcement": 0,
		"initial_direction": 180.0,
		"ai_move_group": 0,
		"ai_target_move_x": -1,
		"ai_target_move_y": -1,
		"ai_skill_function": "",
		"ai_attack": "",
		"ai_move": "",
		"ai_heal": "",
		"ai_skill": "",
		"ai_use": "",
		"skill_group_id": 1650,
		"gear_GearGear": 24006,
		"gear_rank": 1,
		"proficiency_UnitProficiency": 4,
		"level": 49,
		"hp": 86,
		"strength": 61,
		"vitality": 47,
		"intelligence": 0,
		"mind": 16,
		"agility": 27,
		"dexterity": 53,
		"lucky": 7,
		"parameter_table_BattleEnemyParameterTable": 0,
		"parameter_deviation_table_BattleEnemyParameterDeviationTable": 0,
		"acquire_skill_group_id": 0,
		"level_correction": 0,
		"group_id": 0,
		"ai_script_id_BattleAIScript": 0
	},
	{
		"ID": 8571,
		"stage_BattleStage": 131015010,
		"unit_UnitUnit": 830008,
		"money": 250,
		"initial_coordinate_x": 20,
		"initial_coordinate_y": 5,
		"reinforcement_BattleReinforcement": 0,
		"initial_direction": 180.0,
		"ai_move_group": 0,
		"ai_target_move_x": -1,
		"ai_target_move_y": -1,
		"ai_skill_function": "",
		"ai_attack": "",
		"ai_move": "",
		"ai_heal": "",
		"ai_skill": "",
		"ai_use": "",
		"skill_group_id": 1650,
		"gear_GearGear": 34006,
		"gear_rank": 1,
		"proficiency_UnitProficiency": 4,
		"level": 50,
		"hp": 86,
		"strength": 60,
		"vitality": 48,
		"intelligence": 0,
		"mind": 16,
		"agility": 31,
		"dexterity": 55,
		"lucky": 7,
		"parameter_table_BattleEnemyParameterTable": 0,
		"parameter_deviation_table_BattleEnemyParameterDeviationTable": 0,
		"acquire_skill_group_id": 0,
		"level_correction": 0,
		"group_id": 0,
		"ai_script_id_BattleAIScript": 0
	},
	{
		"ID": 8572,
		"stage_BattleStage": 131015010,
		"unit_UnitUnit": 830008,
		"money": 255,
		"initial_coordinate_x": 5,
		"initial_coordinate_y": 8,
		"reinforcement_BattleReinforcement": 0,
		"initial_direction": 180.0,
		"ai_move_group": 0,
		"ai_target_move_x": -1,
		"ai_target_move_y": -1,
		"ai_skill_function": "",
		"ai_attack": "IF(panel_move_distance = 0, 1, 0)",
		"ai_move": "IF(turn <=15,0,1)",
		"ai_heal": "",
		"ai_skill": "",
		"ai_use": "",
		"skill_group_id": 1650,
		"gear_GearGear": 33001,
		"gear_rank": 1,
		"proficiency_UnitProficiency": 3,
		"level": 51,
		"hp": 87,
		"strength": 61,
		"vitality": 49,
		"intelligence": 0,
		"mind": 16,
		"agility": 32,
		"dexterity": 56,
		"lucky": 7,
		"parameter_table_BattleEnemyParameterTable": 0,
		"parameter_deviation_table_BattleEnemyParameterDeviationTable": 0,
		"acquire_skill_group_id": 0,
		"level_correction": 0,
		"group_id": 0,
		"ai_script_id_BattleAIScript": 0
	},
	{
		"ID": 8573,
		"stage_BattleStage": 131015010,
		"unit_UnitUnit": 830008,
		"money": 260,
		"initial_coordinate_x": 6,
		"initial_coordinate_y": 8,
		"reinforcement_BattleReinforcement": 0,
		"initial_direction": 180.0,
		"ai_move_group": 0,
		"ai_target_move_x": -1,
		"ai_target_move_y": -1,
		"ai_skill_function": "",
		"ai_attack": "IF(panel_move_distance = 0, 1, 0)",
		"ai_move": "IF(turn <=15,0,1)",
		"ai_heal": "",
		"ai_skill": "",
		"ai_use": "",
		"skill_group_id": 1650,
		"gear_GearGear": 33001,
		"gear_rank": 1,
		"proficiency_UnitProficiency": 3,
		"level": 52,
		"hp": 88,
		"strength": 61,
		"vitality": 49,
		"intelligence": 0,
		"mind": 16,
		"agility": 32,
		"dexterity": 56,
		"lucky": 7,
		"parameter_table_BattleEnemyParameterTable": 0,
		"parameter_deviation_table_BattleEnemyParameterDeviationTable": 0,
		"acquire_skill_group_id": 0,
		"level_correction": 0,
		"group_id": 0,
		"ai_script_id_BattleAIScript": 0
	},
	{
		"ID": 8574,
		"stage_BattleStage": 131015010,
		"unit_UnitUnit": 830008,
		"money": 255,
		"initial_coordinate_x": 20,
		"initial_coordinate_y": 7,
		"reinforcement_BattleReinforcement": 0,
		"initial_direction": 180.0,
		"ai_move_group": 0,
		"ai_target_move_x": -1,
		"ai_target_move_y": -1,
		"ai_skill_function": "",
		"ai_attack": "IF(panel_move_distance = 0, 1, 0)",
		"ai_move": "IF(turn <=15,0,1)",
		"ai_heal": "",
		"ai_skill": "",
		"ai_use": "",
		"skill_group_id": 1650,
		"gear_GearGear": 33001,
		"gear_rank": 1,
		"proficiency_UnitProficiency": 3,
		"level": 51,
		"hp": 87,
		"strength": 61,
		"vitality": 49,
		"intelligence": 0,
		"mind": 16,
		"agility": 32,
		"dexterity": 56,
		"lucky": 7,
		"parameter_table_BattleEnemyParameterTable": 0,
		"parameter_deviation_table_BattleEnemyParameterDeviationTable": 0,
		"acquire_skill_group_id": 0,
		"level_correction": 0,
		"group_id": 0,
		"ai_script_id_BattleAIScript": 0
	},
	{
		"ID": 8575,
		"stage_BattleStage": 131015010,
		"unit_UnitUnit": 830008,
		"money": 250,
		"initial_coordinate_x": 21,
		"initial_coordinate_y": 7,
		"reinforcement_BattleReinforcement": 0,
		"initial_direction": 180.0,
		"ai_move_group": 0,
		"ai_target_move_x": -1,
		"ai_target_move_y": -1,
		"ai_skill_function": "",
		"ai_attack": "IF(panel_move_distance = 0, 1, 0)",
		"ai_move": "IF(turn <=15,0,1)",
		"ai_heal": "",
		"ai_skill": "",
		"ai_use": "",
		"skill_group_id": 1650,
		"gear_GearGear": 33001,
		"gear_rank": 1,
		"proficiency_UnitProficiency": 3,
		"level": 50,
		"hp": 86,
		"strength": 60,
		"vitality": 48,
		"intelligence": 0,
		"mind": 16,
		"agility": 31,
		"dexterity": 55,
		"lucky": 7,
		"parameter_table_BattleEnemyParameterTable": 0,
		"parameter_deviation_table_BattleEnemyParameterDeviationTable": 0,
		"acquire_skill_group_id": 0,
		"level_correction": 0,
		"group_id": 0,
		"ai_script_id_BattleAIScript": 0
	},
	{
		"ID": 8576,
		"stage_BattleStage": 131015010,
		"unit_UnitUnit": 820007,
		"money": 245,
		"initial_coordinate_x": 16,
		"initial_coordinate_y": 11,
		"reinforcement_BattleReinforcement": 0,
		"initial_direction": 180.0,
		"ai_move_group": 0,
		"ai_target_move_x": -1,
		"ai_target_move_y": -1,
		"ai_skill_function": "",
		"ai_attack": "",
		"ai_move": "IF(turn <=6,0,1)",
		"ai_heal": "",
		"ai_skill": "",
		"ai_use": "",
		"skill_group_id": 1060,
		"gear_GearGear": 23001,
		"gear_rank": 1,
		"proficiency_UnitProficiency": 3,
		"level": 49,
		"hp": 73,
		"strength": 59,
		"vitality": 44,
		"intelligence": 1,
		"mind": 8,
		"agility": 29,
		"dexterity": 44,
		"lucky": 9,
		"parameter_table_BattleEnemyParameterTable": 0,
		"parameter_deviation_table_BattleEnemyParameterDeviationTable": 0,
		"acquire_skill_group_id": 0,
		"level_correction": 0,
		"group_id": 0,
		"ai_script_id_BattleAIScript": 0
	},
	{
		"ID": 8577,
		"stage_BattleStage": 131015010,
		"unit_UnitUnit": 820007,
		"money": 240,
		"initial_coordinate_x": 17,
		"initial_coordinate_y": 12,
		"reinforcement_BattleReinforcement": 0,
		"initial_direction": 180.0,
		"ai_move_group": 0,
		"ai_target_move_x": -1,
		"ai_target_move_y": -1,
		"ai_skill_function": "",
		"ai_attack": "",
		"ai_move": "IF(turn <=6,0,1)",
		"ai_heal": "",
		"ai_skill": "",
		"ai_use": "",
		"skill_group_id": 1060,
		"gear_GearGear": 23001,
		"gear_rank": 1,
		"proficiency_UnitProficiency": 3,
		"level": 48,
		"hp": 72,
		"strength": 58,
		"vitality": 43,
		"intelligence": 1,
		"mind": 8,
		"agility": 28,
		"dexterity": 44,
		"lucky": 9,
		"parameter_table_BattleEnemyParameterTable": 0,
		"parameter_deviation_table_BattleEnemyParameterDeviationTable": 0,
		"acquire_skill_group_id": 0,
		"level_correction": 0,
		"group_id": 0,
		"ai_script_id_BattleAIScript": 0
	},
	{
		"ID": 8578,
		"stage_BattleStage": 131015010,
		"unit_UnitUnit": 820007,
		"money": 235,
		"initial_coordinate_x": 8,
		"initial_coordinate_y": 11,
		"reinforcement_BattleReinforcement": 0,
		"initial_direction": 180.0,
		"ai_move_group": 0,
		"ai_target_move_x": -1,
		"ai_target_move_y": -1,
		"ai_skill_function": "",
		"ai_attack": "",
		"ai_move": "IF(turn <=6,0,1)",
		"ai_heal": "",
		"ai_skill": "",
		"ai_use": "",
		"skill_group_id": 1060,
		"gear_GearGear": 23001,
		"gear_rank": 1,
		"proficiency_UnitProficiency": 3,
		"level": 47,
		"hp": 71,
		"strength": 57,
		"vitality": 42,
		"intelligence": 1,
		"mind": 8,
		"agility": 28,
		"dexterity": 43,
		"lucky": 9,
		"parameter_table_BattleEnemyParameterTable": 0,
		"parameter_deviation_table_BattleEnemyParameterDeviationTable": 0,
		"acquire_skill_group_id": 0,
		"level_correction": 0,
		"group_id": 0,
		"ai_script_id_BattleAIScript": 0
	},
	{
		"ID": 8579,
		"stage_BattleStage": 131015010,
		"unit_UnitUnit": 820008,
		"money": 300,
		"initial_coordinate_x": 10,
		"initial_coordinate_y": 11,
		"reinforcement_BattleReinforcement": 0,
		"initial_direction": 180.0,
		"ai_move_group": 0,
		"ai_target_move_x": -1,
		"ai_target_move_y": -1,
		"ai_skill_function": "",
		"ai_attack": "IF(panel_move_distance = 0, 1, 0)",
		"ai_move": "IF(turn <=15,0,1)",
		"ai_heal": "",
		"ai_skill": "",
		"ai_use": "",
		"skill_group_id": 1650,
		"gear_GearGear": 23001,
		"gear_rank": 1,
		"proficiency_UnitProficiency": 3,
		"level": 60,
		"hp": 97,
		"strength": 72,
		"vitality": 54,
		"intelligence": 0,
		"mind": 18,
		"agility": 32,
		"dexterity": 63,
		"lucky": 7,
		"parameter_table_BattleEnemyParameterTable": 0,
		"parameter_deviation_table_BattleEnemyParameterDeviationTable": 0,
		"acquire_skill_group_id": 0,
		"level_correction": 0,
		"group_id": 0,
		"ai_script_id_BattleAIScript": 0
	},
	{
		"ID": 8580,
		"stage_BattleStage": 131015010,
		"unit_UnitUnit": 830008,
		"money": 300,
		"initial_coordinate_x": 11,
		"initial_coordinate_y": 11,
		"reinforcement_BattleReinforcement": 0,
		"initial_direction": 180.0,
		"ai_move_group": 0,
		"ai_target_move_x": -1,
		"ai_target_move_y": -1,
		"ai_skill_function": "",
		"ai_attack": "IF(panel_move_distance = 0, 1, 0)",
		"ai_move": "IF(turn <=15,0,1)",
		"ai_heal": "",
		"ai_skill": "",
		"ai_use": "",
		"skill_group_id": 1650,
		"gear_GearGear": 33001,
		"gear_rank": 1,
		"proficiency_UnitProficiency": 3,
		"level": 60,
		"hp": 96,
		"strength": 69,
		"vitality": 55,
		"intelligence": 0,
		"mind": 18,
		"agility": 37,
		"dexterity": 64,
		"lucky": 7,
		"parameter_table_BattleEnemyParameterTable": 0,
		"parameter_deviation_table_BattleEnemyParameterDeviationTable": 0,
		"acquire_skill_group_id": 0,
		"level_correction": 0,
		"group_id": 0,
		"ai_script_id_BattleAIScript": 0
	},
	{
		"ID": 8581,
		"stage_BattleStage": 131015010,
		"unit_UnitUnit": 820007,
		"money": 230,
		"initial_coordinate_x": 5,
		"initial_coordinate_y": 12,
		"reinforcement_BattleReinforcement": 3,
		"initial_direction": 180.0,
		"ai_move_group": 0,
		"ai_target_move_x": -1,
		"ai_target_move_y": -1,
		"ai_skill_function": "",
		"ai_attack": "",
		"ai_move": "",
		"ai_heal": "",
		"ai_skill": "",
		"ai_use": "",
		"skill_group_id": 1060,
		"gear_GearGear": 23001,
		"gear_rank": 1,
		"proficiency_UnitProficiency": 3,
		"level": 46,
		"hp": 70,
		"strength": 56,
		"vitality": 42,
		"intelligence": 1,
		"mind": 8,
		"agility": 27,
		"dexterity": 42,
		"lucky": 9,
		"parameter_table_BattleEnemyParameterTable": 0,
		"parameter_deviation_table_BattleEnemyParameterDeviationTable": 0,
		"acquire_skill_group_id": 0,
		"level_correction": 0,
		"group_id": 0,
		"ai_script_id_BattleAIScript": 0
	},
	{
		"ID": 8582,
		"stage_BattleStage": 131015010,
		"unit_UnitUnit": 820007,
		"money": 235,
		"initial_coordinate_x": 6,
		"initial_coordinate_y": 12,
		"reinforcement_BattleReinforcement": 3,
		"initial_direction": 180.0,
		"ai_move_group": 0,
		"ai_target_move_x": -1,
		"ai_target_move_y": -1,
		"ai_skill_function": "",
		"ai_attack": "",
		"ai_move": "",
		"ai_heal": "",
		"ai_skill": "",
		"ai_use": "",
		"skill_group_id": 1060,
		"gear_GearGear": 23001,
		"gear_rank": 1,
		"proficiency_UnitProficiency": 3,
		"level": 47,
		"hp": 71,
		"strength": 57,
		"vitality": 42,
		"intelligence": 1,
		"mind": 8,
		"agility": 28,
		"dexterity": 43,
		"lucky": 9,
		"parameter_table_BattleEnemyParameterTable": 0,
		"parameter_deviation_table_BattleEnemyParameterDeviationTable": 0,
		"acquire_skill_group_id": 0,
		"level_correction": 0,
		"group_id": 0,
		"ai_script_id_BattleAIScript": 0
	},
	{
		"ID": 8583,
		"stage_BattleStage": 131015010,
		"unit_UnitUnit": 820007,
		"money": 240,
		"initial_coordinate_x": 20,
		"initial_coordinate_y": 12,
		"reinforcement_BattleReinforcement": 3,
		"initial_direction": 180.0,
		"ai_move_group": 0,
		"ai_target_move_x": -1,
		"ai_target_move_y": -1,
		"ai_skill_function": "",
		"ai_attack": "",
		"ai_move": "",
		"ai_heal": "",
		"ai_skill": "",
		"ai_use": "",
		"skill_group_id": 1060,
		"gear_GearGear": 23001,
		"gear_rank": 1,
		"proficiency_UnitProficiency": 3,
		"level": 48,
		"hp": 72,
		"strength": 58,
		"vitality": 43,
		"intelligence": 1,
		"mind": 8,
		"agility": 28,
		"dexterity": 44,
		"lucky": 9,
		"parameter_table_BattleEnemyParameterTable": 0,
		"parameter_deviation_table_BattleEnemyParameterDeviationTable": 0,
		"acquire_skill_group_id": 0,
		"level_correction": 0,
		"group_id": 0,
		"ai_script_id_BattleAIScript": 0
	},
	{
		"ID": 8584,
		"stage_BattleStage": 131015010,
		"unit_UnitUnit": 820007,
		"money": 245,
		"initial_coordinate_x": 21,
		"initial_coordinate_y": 12,
		"reinforcement_BattleReinforcement": 3,
		"initial_direction": 180.0,
		"ai_move_group": 0,
		"ai_target_move_x": -1,
		"ai_target_move_y": -1,
		"ai_skill_function": "",
		"ai_attack": "",
		"ai_move": "",
		"ai_heal": "",
		"ai_skill": "",
		"ai_use": "",
		"skill_group_id": 1060,
		"gear_GearGear": 23001,
		"gear_rank": 1,
		"proficiency_UnitProficiency": 3,
		"level": 49,
		"hp": 73,
		"strength": 59,
		"vitality": 44,
		"intelligence": 1,
		"mind": 8,
		"agility": 29,
		"dexterity": 44,
		"lucky": 9,
		"parameter_table_BattleEnemyParameterTable": 0,
		"parameter_deviation_table_BattleEnemyParameterDeviationTable": 0,
		"acquire_skill_group_id": 0,
		"level_correction": 0,
		"group_id": 0,
		"ai_script_id_BattleAIScript": 0
	},
	{
		"ID": 8585,
		"stage_BattleStage": 131015010,
		"unit_UnitUnit": 820007,
		"money": 250,
		"initial_coordinate_x": 5,
		"initial_coordinate_y": 12,
		"reinforcement_BattleReinforcement": 4,
		"initial_direction": 180.0,
		"ai_move_group": 0,
		"ai_target_move_x": -1,
		"ai_target_move_y": -1,
		"ai_skill_function": "",
		"ai_attack": "",
		"ai_move": "",
		"ai_heal": "",
		"ai_skill": "",
		"ai_use": "",
		"skill_group_id": 1060,
		"gear_GearGear": 23001,
		"gear_rank": 1,
		"proficiency_UnitProficiency": 3,
		"level": 50,
		"hp": 74,
		"strength": 60,
		"vitality": 44,
		"intelligence": 1,
		"mind": 8,
		"agility": 29,
		"dexterity": 45,
		"lucky": 9,
		"parameter_table_BattleEnemyParameterTable": 0,
		"parameter_deviation_table_BattleEnemyParameterDeviationTable": 0,
		"acquire_skill_group_id": 0,
		"level_correction": 0,
		"group_id": 0,
		"ai_script_id_BattleAIScript": 0
	},
	{
		"ID": 8586,
		"stage_BattleStage": 131015010,
		"unit_UnitUnit": 820007,
		"money": 255,
		"initial_coordinate_x": 6,
		"initial_coordinate_y": 12,
		"reinforcement_BattleReinforcement": 4,
		"initial_direction": 180.0,
		"ai_move_group": 0,
		"ai_target_move_x": -1,
		"ai_target_move_y": -1,
		"ai_skill_function": "",
		"ai_attack": "",
		"ai_move": "",
		"ai_heal": "",
		"ai_skill": "",
		"ai_use": "",
		"skill_group_id": 1060,
		"gear_GearGear": 23001,
		"gear_rank": 1,
		"proficiency_UnitProficiency": 3,
		"level": 51,
		"hp": 75,
		"strength": 61,
		"vitality": 45,
		"intelligence": 2,
		"mind": 9,
		"agility": 30,
		"dexterity": 46,
		"lucky": 9,
		"parameter_table_BattleEnemyParameterTable": 0,
		"parameter_deviation_table_BattleEnemyParameterDeviationTable": 0,
		"acquire_skill_group_id": 0,
		"level_correction": 0,
		"group_id": 0,
		"ai_script_id_BattleAIScript": 0
	},
	{
		"ID": 8587,
		"stage_BattleStage": 131015010,
		"unit_UnitUnit": 820007,
		"money": 260,
		"initial_coordinate_x": 20,
		"initial_coordinate_y": 12,
		"reinforcement_BattleReinforcement": 4,
		"initial_direction": 180.0,
		"ai_move_group": 0,
		"ai_target_move_x": -1,
		"ai_target_move_y": -1,
		"ai_skill_function": "",
		"ai_attack": "",
		"ai_move": "",
		"ai_heal": "",
		"ai_skill": "",
		"ai_use": "",
		"skill_group_id": 1060,
		"gear_GearGear": 23001,
		"gear_rank": 1,
		"proficiency_UnitProficiency": 3,
		"level": 52,
		"hp": 75,
		"strength": 62,
		"vitality": 46,
		"intelligence": 2,
		"mind": 9,
		"agility": 30,
		"dexterity": 47,
		"lucky": 9,
		"parameter_table_BattleEnemyParameterTable": 0,
		"parameter_deviation_table_BattleEnemyParameterDeviationTable": 0,
		"acquire_skill_group_id": 0,
		"level_correction": 0,
		"group_id": 0,
		"ai_script_id_BattleAIScript": 0
	},
	{
		"ID": 8588,
		"stage_BattleStage": 131015010,
		"unit_UnitUnit": 820007,
		"money": 255,
		"initial_coordinate_x": 21,
		"initial_coordinate_y": 12,
		"reinforcement_BattleReinforcement": 4,
		"initial_direction": 180.0,
		"ai_move_group": 0,
		"ai_target_move_x": -1,
		"ai_target_move_y": -1,
		"ai_skill_function": "",
		"ai_attack": "",
		"ai_move": "",
		"ai_heal": "",
		"ai_skill": "",
		"ai_use": "",
		"skill_group_id": 1060,
		"gear_GearGear": 23001,
		"gear_rank": 1,
		"proficiency_UnitProficiency": 3,
		"level": 51,
		"hp": 75,
		"strength": 61,
		"vitality": 45,
		"intelligence": 2,
		"mind": 9,
		"agility": 30,
		"dexterity": 46,
		"lucky": 9,
		"parameter_table_BattleEnemyParameterTable": 0,
		"parameter_deviation_table_BattleEnemyParameterDeviationTable": 0,
		"acquire_skill_group_id": 0,
		"level_correction": 0,
		"group_id": 0,
		"ai_script_id_BattleAIScript": 0
	},
	{
		"ID": 8589,
		"stage_BattleStage": 131015010,
		"unit_UnitUnit": 820007,
		"money": 250,
		"initial_coordinate_x": 5,
		"initial_coordinate_y": 12,
		"reinforcement_BattleReinforcement": 6,
		"initial_direction": 180.0,
		"ai_move_group": 0,
		"ai_target_move_x": -1,
		"ai_target_move_y": -1,
		"ai_skill_function": "",
		"ai_attack": "",
		"ai_move": "",
		"ai_heal": "",
		"ai_skill": "",
		"ai_use": "",
		"skill_group_id": 1060,
		"gear_GearGear": 23001,
		"gear_rank": 1,
		"proficiency_UnitProficiency": 3,
		"level": 50,
		"hp": 74,
		"strength": 60,
		"vitality": 44,
		"intelligence": 1,
		"mind": 8,
		"agility": 29,
		"dexterity": 45,
		"lucky": 9,
		"parameter_table_BattleEnemyParameterTable": 0,
		"parameter_deviation_table_BattleEnemyParameterDeviationTable": 0,
		"acquire_skill_group_id": 0,
		"level_correction": 0,
		"group_id": 0,
		"ai_script_id_BattleAIScript": 0
	},
	{
		"ID": 8590,
		"stage_BattleStage": 131015010,
		"unit_UnitUnit": 820007,
		"money": 245,
		"initial_coordinate_x": 6,
		"initial_coordinate_y": 12,
		"reinforcement_BattleReinforcement": 6,
		"initial_direction": 180.0,
		"ai_move_group": 0,
		"ai_target_move_x": -1,
		"ai_target_move_y": -1,
		"ai_skill_function": "",
		"ai_attack": "",
		"ai_move": "",
		"ai_heal": "",
		"ai_skill": "",
		"ai_use": "",
		"skill_group_id": 1060,
		"gear_GearGear": 23001,
		"gear_rank": 1,
		"proficiency_UnitProficiency": 3,
		"level": 49,
		"hp": 73,
		"strength": 59,
		"vitality": 44,
		"intelligence": 1,
		"mind": 8,
		"agility": 29,
		"dexterity": 44,
		"lucky": 9,
		"parameter_table_BattleEnemyParameterTable": 0,
		"parameter_deviation_table_BattleEnemyParameterDeviationTable": 0,
		"acquire_skill_group_id": 0,
		"level_correction": 0,
		"group_id": 0,
		"ai_script_id_BattleAIScript": 0
	},
	{
		"ID": 8591,
		"stage_BattleStage": 131015010,
		"unit_UnitUnit": 820007,
		"money": 240,
		"initial_coordinate_x": 7,
		"initial_coordinate_y": 12,
		"reinforcement_BattleReinforcement": 6,
		"initial_direction": 180.0,
		"ai_move_group": 0,
		"ai_target_move_x": -1,
		"ai_target_move_y": -1,
		"ai_skill_function": "",
		"ai_attack": "",
		"ai_move": "",
		"ai_heal": "",
		"ai_skill": "",
		"ai_use": "",
		"skill_group_id": 1060,
		"gear_GearGear": 23001,
		"gear_rank": 1,
		"proficiency_UnitProficiency": 3,
		"level": 48,
		"hp": 72,
		"strength": 58,
		"vitality": 43,
		"intelligence": 1,
		"mind": 8,
		"agility": 28,
		"dexterity": 44,
		"lucky": 9,
		"parameter_table_BattleEnemyParameterTable": 0,
		"parameter_deviation_table_BattleEnemyParameterDeviationTable": 0,
		"acquire_skill_group_id": 0,
		"level_correction": 0,
		"group_id": 0,
		"ai_script_id_BattleAIScript": 0
	},
	{
		"ID": 8592,
		"stage_BattleStage": 131015010,
		"unit_UnitUnit": 820007,
		"money": 235,
		"initial_coordinate_x": 16,
		"initial_coordinate_y": 12,
		"reinforcement_BattleReinforcement": 7,
		"initial_direction": 180.0,
		"ai_move_group": 0,
		"ai_target_move_x": -1,
		"ai_target_move_y": -1,
		"ai_skill_function": "",
		"ai_attack": "",
		"ai_move": "",
		"ai_heal": "",
		"ai_skill": "",
		"ai_use": "",
		"skill_group_id": 1060,
		"gear_GearGear": 23001,
		"gear_rank": 1,
		"proficiency_UnitProficiency": 3,
		"level": 47,
		"hp": 71,
		"strength": 57,
		"vitality": 42,
		"intelligence": 1,
		"mind": 8,
		"agility": 28,
		"dexterity": 43,
		"lucky": 9,
		"parameter_table_BattleEnemyParameterTable": 0,
		"parameter_deviation_table_BattleEnemyParameterDeviationTable": 0,
		"acquire_skill_group_id": 0,
		"level_correction": 0,
		"group_id": 0,
		"ai_script_id_BattleAIScript": 0
	},
	{
		"ID": 8593,
		"stage_BattleStage": 131015010,
		"unit_UnitUnit": 820007,
		"money": 230,
		"initial_coordinate_x": 20,
		"initial_coordinate_y": 12,
		"reinforcement_BattleReinforcement": 7,
		"initial_direction": 180.0,
		"ai_move_group": 0,
		"ai_target_move_x": -1,
		"ai_target_move_y": -1,
		"ai_skill_function": "",
		"ai_attack": "",
		"ai_move": "",
		"ai_heal": "",
		"ai_skill": "",
		"ai_use": "",
		"skill_group_id": 1060,
		"gear_GearGear": 23001,
		"gear_rank": 1,
		"proficiency_UnitProficiency": 3,
		"level": 46,
		"hp": 70,
		"strength": 56,
		"vitality": 42,
		"intelligence": 1,
		"mind": 8,
		"agility": 27,
		"dexterity": 42,
		"lucky": 9,
		"parameter_table_BattleEnemyParameterTable": 0,
		"parameter_deviation_table_BattleEnemyParameterDeviationTable": 0,
		"acquire_skill_group_id": 0,
		"level_correction": 0,
		"group_id": 0,
		"ai_script_id_BattleAIScript": 0
	},
	{
		"ID": 8594,
		"stage_BattleStage": 131015010,
		"unit_UnitUnit": 820007,
		"money": 225,
		"initial_coordinate_x": 21,
		"initial_coordinate_y": 12,
		"reinforcement_BattleReinforcement": 7,
		"initial_direction": 180.0,
		"ai_move_group": 0,
		"ai_target_move_x": -1,
		"ai_target_move_y": -1,
		"ai_skill_function": "",
		"ai_attack": "",
		"ai_move": "",
		"ai_heal": "",
		"ai_skill": "",
		"ai_use": "",
		"skill_group_id": 1060,
		"gear_GearGear": 23001,
		"gear_rank": 1,
		"proficiency_UnitProficiency": 3,
		"level": 45,
		"hp": 69,
		"strength": 55,
		"vitality": 41,
		"intelligence": 1,
		"mind": 8,
		"agility": 27,
		"dexterity": 41,
		"lucky": 9,
		"parameter_table_BattleEnemyParameterTable": 0,
		"parameter_deviation_table_BattleEnemyParameterDeviationTable": 0,
		"acquire_skill_group_id": 0,
		"level_correction": 0,
		"group_id": 0,
		"ai_script_id_BattleAIScript": 0
	},
	{
		"ID": 8595,
		"stage_BattleStage": 131015010,
		"unit_UnitUnit": 810008,
		"money": 230,
		"initial_coordinate_x": 9,
		"initial_coordinate_y": 12,
		"reinforcement_BattleReinforcement": 10,
		"initial_direction": 180.0,
		"ai_move_group": 0,
		"ai_target_move_x": -1,
		"ai_target_move_y": -1,
		"ai_skill_function": "",
		"ai_attack": "",
		"ai_move": "",
		"ai_heal": "",
		"ai_skill": "",
		"ai_use": "",
		"skill_group_id": 1650,
		"gear_GearGear": 13003,
		"gear_rank": 1,
		"proficiency_UnitProficiency": 3,
		"level": 46,
		"hp": 83,
		"strength": 56,
		"vitality": 45,
		"intelligence": 0,
		"mind": 14,
		"agility": 30,
		"dexterity": 52,
		"lucky": 7,
		"parameter_table_BattleEnemyParameterTable": 0,
		"parameter_deviation_table_BattleEnemyParameterDeviationTable": 0,
		"acquire_skill_group_id": 0,
		"level_correction": 0,
		"group_id": 0,
		"ai_script_id_BattleAIScript": 0
	},
	{
		"ID": 8596,
		"stage_BattleStage": 131015010,
		"unit_UnitUnit": 820008,
		"money": 235,
		"initial_coordinate_x": 10,
		"initial_coordinate_y": 12,
		"reinforcement_BattleReinforcement": 10,
		"initial_direction": 180.0,
		"ai_move_group": 0,
		"ai_target_move_x": -1,
		"ai_target_move_y": -1,
		"ai_skill_function": "",
		"ai_attack": "",
		"ai_move": "",
		"ai_heal": "",
		"ai_skill": "",
		"ai_use": "",
		"skill_group_id": 1650,
		"gear_GearGear": 24006,
		"gear_rank": 1,
		"proficiency_UnitProficiency": 4,
		"level": 47,
		"hp": 84,
		"strength": 59,
		"vitality": 45,
		"intelligence": 0,
		"mind": 15,
		"agility": 26,
		"dexterity": 51,
		"lucky": 7,
		"parameter_table_BattleEnemyParameterTable": 0,
		"parameter_deviation_table_BattleEnemyParameterDeviationTable": 0,
		"acquire_skill_group_id": 0,
		"level_correction": 0,
		"group_id": 0,
		"ai_script_id_BattleAIScript": 0
	},
	{
		"ID": 8597,
		"stage_BattleStage": 131015010,
		"unit_UnitUnit": 830008,
		"money": 240,
		"initial_coordinate_x": 11,
		"initial_coordinate_y": 12,
		"reinforcement_BattleReinforcement": 10,
		"initial_direction": 180.0,
		"ai_move_group": 0,
		"ai_target_move_x": -1,
		"ai_target_move_y": -1,
		"ai_skill_function": "",
		"ai_attack": "",
		"ai_move": "",
		"ai_heal": "",
		"ai_skill": "",
		"ai_use": "",
		"skill_group_id": 1650,
		"gear_GearGear": 34006,
		"gear_rank": 1,
		"proficiency_UnitProficiency": 4,
		"level": 48,
		"hp": 84,
		"strength": 58,
		"vitality": 46,
		"intelligence": 0,
		"mind": 15,
		"agility": 30,
		"dexterity": 53,
		"lucky": 7,
		"parameter_table_BattleEnemyParameterTable": 0,
		"parameter_deviation_table_BattleEnemyParameterDeviationTable": 0,
		"acquire_skill_group_id": 0,
		"level_correction": 0,
		"group_id": 0,
		"ai_script_id_BattleAIScript": 0
	},
	{
		"ID": 8598,
		"stage_BattleStage": 131015010,
		"unit_UnitUnit": 840008,
		"money": 245,
		"initial_coordinate_x": 12,
		"initial_coordinate_y": 12,
		"reinforcement_BattleReinforcement": 10,
		"initial_direction": 180.0,
		"ai_move_group": 0,
		"ai_target_move_x": -1,
		"ai_target_move_y": -1,
		"ai_skill_function": "",
		"ai_attack": "",
		"ai_move": "",
		"ai_heal": "",
		"ai_skill": "",
		"ai_use": "",
		"skill_group_id": 1650,
		"gear_GearGear": 44003,
		"gear_rank": 1,
		"proficiency_UnitProficiency": 4,
		"level": 49,
		"hp": 85,
		"strength": 58,
		"vitality": 46,
		"intelligence": 0,
		"mind": 15,
		"agility": 31,
		"dexterity": 55,
		"lucky": 7,
		"parameter_table_BattleEnemyParameterTable": 0,
		"parameter_deviation_table_BattleEnemyParameterDeviationTable": 0,
		"acquire_skill_group_id": 0,
		"level_correction": 0,
		"group_id": 0,
		"ai_script_id_BattleAIScript": 0
	},
	{
		"ID": 8599,
		"stage_BattleStage": 131015010,
		"unit_UnitUnit": 810008,
		"money": 250,
		"initial_coordinate_x": 9,
		"initial_coordinate_y": 12,
		"reinforcement_BattleReinforcement": 12,
		"initial_direction": 180.0,
		"ai_move_group": 0,
		"ai_target_move_x": -1,
		"ai_target_move_y": -1,
		"ai_skill_function": "",
		"ai_attack": "",
		"ai_move": "",
		"ai_heal": "",
		"ai_skill": "",
		"ai_use": "",
		"skill_group_id": 1650,
		"gear_GearGear": 13003,
		"gear_rank": 1,
		"proficiency_UnitProficiency": 3,
		"level": 50,
		"hp": 87,
		"strength": 60,
		"vitality": 47,
		"intelligence": 0,
		"mind": 15,
		"agility": 32,
		"dexterity": 56,
		"lucky": 7,
		"parameter_table_BattleEnemyParameterTable": 0,
		"parameter_deviation_table_BattleEnemyParameterDeviationTable": 0,
		"acquire_skill_group_id": 0,
		"level_correction": 0,
		"group_id": 0,
		"ai_script_id_BattleAIScript": 0
	},
	{
		"ID": 8600,
		"stage_BattleStage": 131015010,
		"unit_UnitUnit": 820008,
		"money": 255,
		"initial_coordinate_x": 10,
		"initial_coordinate_y": 12,
		"reinforcement_BattleReinforcement": 12,
		"initial_direction": 180.0,
		"ai_move_group": 0,
		"ai_target_move_x": -1,
		"ai_target_move_y": -1,
		"ai_skill_function": "",
		"ai_attack": "",
		"ai_move": "",
		"ai_heal": "",
		"ai_skill": "",
		"ai_use": "",
		"skill_group_id": 1650,
		"gear_GearGear": 24006,
		"gear_rank": 1,
		"proficiency_UnitProficiency": 4,
		"level": 51,
		"hp": 88,
		"strength": 63,
		"vitality": 48,
		"intelligence": 0,
		"mind": 16,
		"agility": 28,
		"dexterity": 55,
		"lucky": 7,
		"parameter_table_BattleEnemyParameterTable": 0,
		"parameter_deviation_table_BattleEnemyParameterDeviationTable": 0,
		"acquire_skill_group_id": 0,
		"level_correction": 0,
		"group_id": 0,
		"ai_script_id_BattleAIScript": 0
	},
	{
		"ID": 8601,
		"stage_BattleStage": 131015010,
		"unit_UnitUnit": 830008,
		"money": 260,
		"initial_coordinate_x": 11,
		"initial_coordinate_y": 12,
		"reinforcement_BattleReinforcement": 12,
		"initial_direction": 180.0,
		"ai_move_group": 0,
		"ai_target_move_x": -1,
		"ai_target_move_y": -1,
		"ai_skill_function": "",
		"ai_attack": "",
		"ai_move": "",
		"ai_heal": "",
		"ai_skill": "",
		"ai_use": "",
		"skill_group_id": 1650,
		"gear_GearGear": 34006,
		"gear_rank": 1,
		"proficiency_UnitProficiency": 4,
		"level": 52,
		"hp": 88,
		"strength": 61,
		"vitality": 49,
		"intelligence": 0,
		"mind": 16,
		"agility": 32,
		"dexterity": 56,
		"lucky": 7,
		"parameter_table_BattleEnemyParameterTable": 0,
		"parameter_deviation_table_BattleEnemyParameterDeviationTable": 0,
		"acquire_skill_group_id": 0,
		"level_correction": 0,
		"group_id": 0,
		"ai_script_id_BattleAIScript": 0
	},
	{
		"ID": 8602,
		"stage_BattleStage": 131015010,
		"unit_UnitUnit": 840008,
		"money": 255,
		"initial_coordinate_x": 12,
		"initial_coordinate_y": 12,
		"reinforcement_BattleReinforcement": 12,
		"initial_direction": 180.0,
		"ai_move_group": 0,
		"ai_target_move_x": -1,
		"ai_target_move_y": -1,
		"ai_skill_function": "",
		"ai_attack": "",
		"ai_move": "",
		"ai_heal": "",
		"ai_skill": "",
		"ai_use": "",
		"skill_group_id": 1650,
		"gear_GearGear": 44003,
		"gear_rank": 1,
		"proficiency_UnitProficiency": 4,
		"level": 51,
		"hp": 87,
		"strength": 60,
		"vitality": 48,
		"intelligence": 0,
		"mind": 15,
		"agility": 33,
		"dexterity": 57,
		"lucky": 7,
		"parameter_table_BattleEnemyParameterTable": 0,
		"parameter_deviation_table_BattleEnemyParameterDeviationTable": 0,
		"acquire_skill_group_id": 0,
		"level_correction": 0,
		"group_id": 0,
		"ai_script_id_BattleAIScript": 0
	}
]