[
	{
		"ID": 55490,
		"stage_BattleStage": 190042002,
		"unit_UnitUnit": 811002,
		"money": 425,
		"initial_coordinate_x": 4,
		"initial_coordinate_y": 5,
		"reinforcement_BattleReinforcement": 0,
		"initial_direction": 0.0,
		"ai_move_group": 0,
		"ai_target_move_x": -1,
		"ai_target_move_y": -1,
		"ai_skill_function": "",
		"ai_attack": "IF( turn <=2 ,IF(panel_move_distance <= 2, 1, 0),1)",
		"ai_move": "IF(turn <=2,0,1)",
		"ai_heal": "",
		"ai_skill": "",
		"ai_use": "",
		"skill_group_id": 470,
		"gear_GearGear": 13003,
		"gear_rank": 1,
		"proficiency_UnitProficiency": 3,
		"level": 85,
		"hp": 123,
		"strength": 99,
		"vitality": 56,
		"intelligence": 8,
		"mind": 36,
		"agility": 77,
		"dexterity": 84,
		"lucky": 20,
		"parameter_table_BattleEnemyParameterTable": 0,
		"parameter_deviation_table_BattleEnemyParameterDeviationTable": 0,
		"acquire_skill_group_id": 0,
		"level_correction": 0,
		"group_id": 0,
		"ai_script_id_BattleAIScript": 0
	},
	{
		"ID": 55491,
		"stage_BattleStage": 190042002,
		"unit_UnitUnit": 811002,
		"money": 425,
		"initial_coordinate_x": 5,
		"initial_coordinate_y": 5,
		"reinforcement_BattleReinforcement": 0,
		"initial_direction": 0.0,
		"ai_move_group": 0,
		"ai_target_move_x": -1,
		"ai_target_move_y": -1,
		"ai_skill_function": "",
		"ai_attack": "IF( turn <=2 ,IF(panel_move_distance <= 2, 1, 0),1)",
		"ai_move": "IF(turn <=2,0,1)",
		"ai_heal": "",
		"ai_skill": "",
		"ai_use": "",
		"skill_group_id": 470,
		"gear_GearGear": 13003,
		"gear_rank": 1,
		"proficiency_UnitProficiency": 3,
		"level": 85,
		"hp": 122,
		"strength": 98,
		"vitality": 58,
		"intelligence": 8,
		"mind": 36,
		"agility": 75,
		"dexterity": 85,
		"lucky": 19,
		"parameter_table_BattleEnemyParameterTable": 0,
		"parameter_deviation_table_BattleEnemyParameterDeviationTable": 0,
		"acquire_skill_group_id": 0,
		"level_correction": 0,
		"group_id": 0,
		"ai_script_id_BattleAIScript": 0
	},
	{
		"ID": 55492,
		"stage_BattleStage": 190042002,
		"unit_UnitUnit": 811002,
		"money": 425,
		"initial_coordinate_x": 6,
		"initial_coordinate_y": 5,
		"reinforcement_BattleReinforcement": 0,
		"initial_direction": 0.0,
		"ai_move_group": 0,
		"ai_target_move_x": -1,
		"ai_target_move_y": -1,
		"ai_skill_function": "",
		"ai_attack": "IF( turn <=2 ,IF(panel_move_distance <= 2, 1, 0),1)",
		"ai_move": "IF(turn <=2,0,1)",
		"ai_heal": "",
		"ai_skill": "",
		"ai_use": "",
		"skill_group_id": 470,
		"gear_GearGear": 13003,
		"gear_rank": 1,
		"proficiency_UnitProficiency": 3,
		"level": 85,
		"hp": 124,
		"strength": 99,
		"vitality": 57,
		"intelligence": 10,
		"mind": 37,
		"agility": 76,
		"dexterity": 83,
		"lucky": 20,
		"parameter_table_BattleEnemyParameterTable": 0,
		"parameter_deviation_table_BattleEnemyParameterDeviationTable": 0,
		"acquire_skill_group_id": 0,
		"level_correction": 0,
		"group_id": 0,
		"ai_script_id_BattleAIScript": 0
	},
	{
		"ID": 55493,
		"stage_BattleStage": 190042002,
		"unit_UnitUnit": 811002,
		"money": 430,
		"initial_coordinate_x": 7,
		"initial_coordinate_y": 5,
		"reinforcement_BattleReinforcement": 0,
		"initial_direction": 0.0,
		"ai_move_group": 0,
		"ai_target_move_x": -1,
		"ai_target_move_y": -1,
		"ai_skill_function": "",
		"ai_attack": "",
		"ai_move": "",
		"ai_heal": "",
		"ai_skill": "",
		"ai_use": "",
		"skill_group_id": 470,
		"gear_GearGear": 13003,
		"gear_rank": 1,
		"proficiency_UnitProficiency": 3,
		"level": 86,
		"hp": 123,
		"strength": 99,
		"vitality": 57,
		"intelligence": 9,
		"mind": 36,
		"agility": 78,
		"dexterity": 84,
		"lucky": 20,
		"parameter_table_BattleEnemyParameterTable": 0,
		"parameter_deviation_table_BattleEnemyParameterDeviationTable": 0,
		"acquire_skill_group_id": 0,
		"level_correction": 0,
		"group_id": 0,
		"ai_script_id_BattleAIScript": 0
	},
	{
		"ID": 55494,
		"stage_BattleStage": 190042002,
		"unit_UnitUnit": 811002,
		"money": 430,
		"initial_coordinate_x": 8,
		"initial_coordinate_y": 5,
		"reinforcement_BattleReinforcement": 0,
		"initial_direction": 0.0,
		"ai_move_group": 0,
		"ai_target_move_x": -1,
		"ai_target_move_y": -1,
		"ai_skill_function": "",
		"ai_attack": "",
		"ai_move": "",
		"ai_heal": "",
		"ai_skill": "",
		"ai_use": "",
		"skill_group_id": 470,
		"gear_GearGear": 13003,
		"gear_rank": 1,
		"proficiency_UnitProficiency": 3,
		"level": 86,
		"hp": 125,
		"strength": 100,
		"vitality": 57,
		"intelligence": 10,
		"mind": 38,
		"agility": 77,
		"dexterity": 84,
		"lucky": 21,
		"parameter_table_BattleEnemyParameterTable": 0,
		"parameter_deviation_table_BattleEnemyParameterDeviationTable": 0,
		"acquire_skill_group_id": 0,
		"level_correction": 0,
		"group_id": 0,
		"ai_script_id_BattleAIScript": 0
	},
	{
		"ID": 55495,
		"stage_BattleStage": 190042002,
		"unit_UnitUnit": 811002,
		"money": 430,
		"initial_coordinate_x": 9,
		"initial_coordinate_y": 5,
		"reinforcement_BattleReinforcement": 0,
		"initial_direction": 0.0,
		"ai_move_group": 0,
		"ai_target_move_x": -1,
		"ai_target_move_y": -1,
		"ai_skill_function": "",
		"ai_attack": "",
		"ai_move": "",
		"ai_heal": "",
		"ai_skill": "",
		"ai_use": "",
		"skill_group_id": 470,
		"gear_GearGear": 13003,
		"gear_rank": 1,
		"proficiency_UnitProficiency": 3,
		"level": 86,
		"hp": 125,
		"strength": 98,
		"vitality": 58,
		"intelligence": 8,
		"mind": 36,
		"agility": 76,
		"dexterity": 84,
		"lucky": 19,
		"parameter_table_BattleEnemyParameterTable": 0,
		"parameter_deviation_table_BattleEnemyParameterDeviationTable": 0,
		"acquire_skill_group_id": 0,
		"level_correction": 0,
		"group_id": 0,
		"ai_script_id_BattleAIScript": 0
	},
	{
		"ID": 55496,
		"stage_BattleStage": 190042002,
		"unit_UnitUnit": 821003,
		"money": 425,
		"initial_coordinate_x": 11,
		"initial_coordinate_y": 5,
		"reinforcement_BattleReinforcement": 0,
		"initial_direction": 0.0,
		"ai_move_group": 0,
		"ai_target_move_x": -1,
		"ai_target_move_y": -1,
		"ai_skill_function": "",
		"ai_attack": "",
		"ai_move": "",
		"ai_heal": "",
		"ai_skill": "",
		"ai_use": "",
		"skill_group_id": 470,
		"gear_GearGear": 23001,
		"gear_rank": 1,
		"proficiency_UnitProficiency": 3,
		"level": 85,
		"hp": 134,
		"strength": 108,
		"vitality": 86,
		"intelligence": 10,
		"mind": 24,
		"agility": 47,
		"dexterity": 75,
		"lucky": 19,
		"parameter_table_BattleEnemyParameterTable": 0,
		"parameter_deviation_table_BattleEnemyParameterDeviationTable": 0,
		"acquire_skill_group_id": 0,
		"level_correction": 0,
		"group_id": 0,
		"ai_script_id_BattleAIScript": 0
	},
	{
		"ID": 55497,
		"stage_BattleStage": 190042002,
		"unit_UnitUnit": 821003,
		"money": 425,
		"initial_coordinate_x": 12,
		"initial_coordinate_y": 5,
		"reinforcement_BattleReinforcement": 0,
		"initial_direction": 0.0,
		"ai_move_group": 0,
		"ai_target_move_x": -1,
		"ai_target_move_y": -1,
		"ai_skill_function": "",
		"ai_attack": "",
		"ai_move": "",
		"ai_heal": "",
		"ai_skill": "",
		"ai_use": "",
		"skill_group_id": 470,
		"gear_GearGear": 23001,
		"gear_rank": 1,
		"proficiency_UnitProficiency": 3,
		"level": 85,
		"hp": 135,
		"strength": 108,
		"vitality": 87,
		"intelligence": 10,
		"mind": 25,
		"agility": 48,
		"dexterity": 75,
		"lucky": 20,
		"parameter_table_BattleEnemyParameterTable": 0,
		"parameter_deviation_table_BattleEnemyParameterDeviationTable": 0,
		"acquire_skill_group_id": 0,
		"level_correction": 0,
		"group_id": 0,
		"ai_script_id_BattleAIScript": 0
	},
	{
		"ID": 55498,
		"stage_BattleStage": 190042002,
		"unit_UnitUnit": 821003,
		"money": 425,
		"initial_coordinate_x": 13,
		"initial_coordinate_y": 5,
		"reinforcement_BattleReinforcement": 0,
		"initial_direction": 0.0,
		"ai_move_group": 0,
		"ai_target_move_x": -1,
		"ai_target_move_y": -1,
		"ai_skill_function": "",
		"ai_attack": "",
		"ai_move": "",
		"ai_heal": "",
		"ai_skill": "",
		"ai_use": "",
		"skill_group_id": 470,
		"gear_GearGear": 23001,
		"gear_rank": 1,
		"proficiency_UnitProficiency": 3,
		"level": 85,
		"hp": 135,
		"strength": 108,
		"vitality": 86,
		"intelligence": 8,
		"mind": 26,
		"agility": 47,
		"dexterity": 76,
		"lucky": 20,
		"parameter_table_BattleEnemyParameterTable": 0,
		"parameter_deviation_table_BattleEnemyParameterDeviationTable": 0,
		"acquire_skill_group_id": 0,
		"level_correction": 0,
		"group_id": 0,
		"ai_script_id_BattleAIScript": 0
	},
	{
		"ID": 55499,
		"stage_BattleStage": 190042002,
		"unit_UnitUnit": 821003,
		"money": 435,
		"initial_coordinate_x": 11,
		"initial_coordinate_y": 6,
		"reinforcement_BattleReinforcement": 0,
		"initial_direction": 0.0,
		"ai_move_group": 0,
		"ai_target_move_x": -1,
		"ai_target_move_y": -1,
		"ai_skill_function": "",
		"ai_attack": "IF( turn <=2 ,IF(panel_move_distance <= 2, 1, 0),1)",
		"ai_move": "IF(turn <=2,0,1)",
		"ai_heal": "",
		"ai_skill": "",
		"ai_use": "",
		"skill_group_id": 470,
		"gear_GearGear": 23001,
		"gear_rank": 1,
		"proficiency_UnitProficiency": 3,
		"level": 87,
		"hp": 138,
		"strength": 108,
		"vitality": 90,
		"intelligence": 9,
		"mind": 27,
		"agility": 48,
		"dexterity": 79,
		"lucky": 21,
		"parameter_table_BattleEnemyParameterTable": 0,
		"parameter_deviation_table_BattleEnemyParameterDeviationTable": 0,
		"acquire_skill_group_id": 0,
		"level_correction": 0,
		"group_id": 0,
		"ai_script_id_BattleAIScript": 0
	},
	{
		"ID": 55500,
		"stage_BattleStage": 190042002,
		"unit_UnitUnit": 821003,
		"money": 435,
		"initial_coordinate_x": 12,
		"initial_coordinate_y": 6,
		"reinforcement_BattleReinforcement": 0,
		"initial_direction": 0.0,
		"ai_move_group": 0,
		"ai_target_move_x": -1,
		"ai_target_move_y": -1,
		"ai_skill_function": "",
		"ai_attack": "IF( turn <=2 ,IF(panel_move_distance <= 2, 1, 0),1)",
		"ai_move": "IF(turn <=2,0,1)",
		"ai_heal": "",
		"ai_skill": "",
		"ai_use": "",
		"skill_group_id": 470,
		"gear_GearGear": 23001,
		"gear_rank": 1,
		"proficiency_UnitProficiency": 3,
		"level": 87,
		"hp": 137,
		"strength": 108,
		"vitality": 89,
		"intelligence": 10,
		"mind": 25,
		"agility": 48,
		"dexterity": 77,
		"lucky": 19,
		"parameter_table_BattleEnemyParameterTable": 0,
		"parameter_deviation_table_BattleEnemyParameterDeviationTable": 0,
		"acquire_skill_group_id": 0,
		"level_correction": 0,
		"group_id": 0,
		"ai_script_id_BattleAIScript": 0
	},
	{
		"ID": 55501,
		"stage_BattleStage": 190042002,
		"unit_UnitUnit": 821003,
		"money": 435,
		"initial_coordinate_x": 13,
		"initial_coordinate_y": 6,
		"reinforcement_BattleReinforcement": 0,
		"initial_direction": 0.0,
		"ai_move_group": 0,
		"ai_target_move_x": -1,
		"ai_target_move_y": -1,
		"ai_skill_function": "",
		"ai_attack": "IF( turn <=2 ,IF(panel_move_distance <= 2, 1, 0),1)",
		"ai_move": "IF(turn <=2,0,1)",
		"ai_heal": "",
		"ai_skill": "",
		"ai_use": "",
		"skill_group_id": 470,
		"gear_GearGear": 23001,
		"gear_rank": 1,
		"proficiency_UnitProficiency": 3,
		"level": 87,
		"hp": 137,
		"strength": 108,
		"vitality": 90,
		"intelligence": 9,
		"mind": 25,
		"agility": 47,
		"dexterity": 79,
		"lucky": 21,
		"parameter_table_BattleEnemyParameterTable": 0,
		"parameter_deviation_table_BattleEnemyParameterDeviationTable": 0,
		"acquire_skill_group_id": 0,
		"level_correction": 0,
		"group_id": 0,
		"ai_script_id_BattleAIScript": 0
	},
	{
		"ID": 55502,
		"stage_BattleStage": 190042002,
		"unit_UnitUnit": 821007,
		"money": 430,
		"initial_coordinate_x": 1,
		"initial_coordinate_y": 3,
		"reinforcement_BattleReinforcement": 0,
		"initial_direction": 0.0,
		"ai_move_group": 0,
		"ai_target_move_x": -1,
		"ai_target_move_y": -1,
		"ai_skill_function": "",
		"ai_attack": "IF( turn <=2 ,IF(panel_move_distance <= 2, 1, 0),1)",
		"ai_move": "IF(turn <=2,0,1)",
		"ai_heal": "",
		"ai_skill": "",
		"ai_use": "",
		"skill_group_id": 470,
		"gear_GearGear": 23001,
		"gear_rank": 1,
		"proficiency_UnitProficiency": 3,
		"level": 86,
		"hp": 126,
		"strength": 112,
		"vitality": 78,
		"intelligence": 11,
		"mind": 27,
		"agility": 51,
		"dexterity": 78,
		"lucky": 21,
		"parameter_table_BattleEnemyParameterTable": 0,
		"parameter_deviation_table_BattleEnemyParameterDeviationTable": 0,
		"acquire_skill_group_id": 0,
		"level_correction": 0,
		"group_id": 0,
		"ai_script_id_BattleAIScript": 0
	},
	{
		"ID": 55503,
		"stage_BattleStage": 190042002,
		"unit_UnitUnit": 821007,
		"money": 430,
		"initial_coordinate_x": 2,
		"initial_coordinate_y": 3,
		"reinforcement_BattleReinforcement": 0,
		"initial_direction": 0.0,
		"ai_move_group": 0,
		"ai_target_move_x": -1,
		"ai_target_move_y": -1,
		"ai_skill_function": "",
		"ai_attack": "IF( turn <=2 ,IF(panel_move_distance <= 2, 1, 0),1)",
		"ai_move": "IF(turn <=2,0,1)",
		"ai_heal": "",
		"ai_skill": "",
		"ai_use": "",
		"skill_group_id": 470,
		"gear_GearGear": 23001,
		"gear_rank": 1,
		"proficiency_UnitProficiency": 3,
		"level": 86,
		"hp": 127,
		"strength": 112,
		"vitality": 78,
		"intelligence": 9,
		"mind": 28,
		"agility": 51,
		"dexterity": 79,
		"lucky": 21,
		"parameter_table_BattleEnemyParameterTable": 0,
		"parameter_deviation_table_BattleEnemyParameterDeviationTable": 0,
		"acquire_skill_group_id": 0,
		"level_correction": 0,
		"group_id": 0,
		"ai_script_id_BattleAIScript": 0
	},
	{
		"ID": 55504,
		"stage_BattleStage": 190042002,
		"unit_UnitUnit": 821007,
		"money": 430,
		"initial_coordinate_x": 3,
		"initial_coordinate_y": 3,
		"reinforcement_BattleReinforcement": 0,
		"initial_direction": 0.0,
		"ai_move_group": 0,
		"ai_target_move_x": -1,
		"ai_target_move_y": -1,
		"ai_skill_function": "",
		"ai_attack": "IF( turn <=2 ,IF(panel_move_distance <= 2, 1, 0),1)",
		"ai_move": "IF(turn <=2,0,1)",
		"ai_heal": "",
		"ai_skill": "",
		"ai_use": "",
		"skill_group_id": 470,
		"gear_GearGear": 23001,
		"gear_rank": 1,
		"proficiency_UnitProficiency": 3,
		"level": 86,
		"hp": 126,
		"strength": 111,
		"vitality": 79,
		"intelligence": 9,
		"mind": 28,
		"agility": 51,
		"dexterity": 77,
		"lucky": 21,
		"parameter_table_BattleEnemyParameterTable": 0,
		"parameter_deviation_table_BattleEnemyParameterDeviationTable": 0,
		"acquire_skill_group_id": 0,
		"level_correction": 0,
		"group_id": 0,
		"ai_script_id_BattleAIScript": 0
	},
	{
		"ID": 55505,
		"stage_BattleStage": 190042002,
		"unit_UnitUnit": 821007,
		"money": 435,
		"initial_coordinate_x": 4,
		"initial_coordinate_y": 3,
		"reinforcement_BattleReinforcement": 0,
		"initial_direction": 0.0,
		"ai_move_group": 0,
		"ai_target_move_x": -1,
		"ai_target_move_y": -1,
		"ai_skill_function": "",
		"ai_attack": "IF( turn <=2 ,IF(panel_move_distance <= 2, 1, 0),1)",
		"ai_move": "IF(turn <=2,0,1)",
		"ai_heal": "",
		"ai_skill": "",
		"ai_use": "",
		"skill_group_id": 470,
		"gear_GearGear": 23001,
		"gear_rank": 1,
		"proficiency_UnitProficiency": 3,
		"level": 87,
		"hp": 129,
		"strength": 113,
		"vitality": 80,
		"intelligence": 10,
		"mind": 29,
		"agility": 52,
		"dexterity": 80,
		"lucky": 20,
		"parameter_table_BattleEnemyParameterTable": 0,
		"parameter_deviation_table_BattleEnemyParameterDeviationTable": 0,
		"acquire_skill_group_id": 0,
		"level_correction": 0,
		"group_id": 0,
		"ai_script_id_BattleAIScript": 0
	},
	{
		"ID": 55506,
		"stage_BattleStage": 190042002,
		"unit_UnitUnit": 821007,
		"money": 435,
		"initial_coordinate_x": 5,
		"initial_coordinate_y": 3,
		"reinforcement_BattleReinforcement": 0,
		"initial_direction": 0.0,
		"ai_move_group": 0,
		"ai_target_move_x": -1,
		"ai_target_move_y": -1,
		"ai_skill_function": "",
		"ai_attack": "IF( turn <=2 ,IF(panel_move_distance <= 2, 1, 0),1)",
		"ai_move": "IF(turn <=2,0,1)",
		"ai_heal": "",
		"ai_skill": "",
		"ai_use": "",
		"skill_group_id": 470,
		"gear_GearGear": 23001,
		"gear_rank": 1,
		"proficiency_UnitProficiency": 3,
		"level": 87,
		"hp": 127,
		"strength": 112,
		"vitality": 80,
		"intelligence": 12,
		"mind": 28,
		"agility": 52,
		"dexterity": 79,
		"lucky": 20,
		"parameter_table_BattleEnemyParameterTable": 0,
		"parameter_deviation_table_BattleEnemyParameterDeviationTable": 0,
		"acquire_skill_group_id": 0,
		"level_correction": 0,
		"group_id": 0,
		"ai_script_id_BattleAIScript": 0
	},
	{
		"ID": 55507,
		"stage_BattleStage": 190042002,
		"unit_UnitUnit": 821007,
		"money": 435,
		"initial_coordinate_x": 6,
		"initial_coordinate_y": 3,
		"reinforcement_BattleReinforcement": 0,
		"initial_direction": 0.0,
		"ai_move_group": 0,
		"ai_target_move_x": -1,
		"ai_target_move_y": -1,
		"ai_skill_function": "",
		"ai_attack": "IF( turn <=2 ,IF(panel_move_distance <= 2, 1, 0),1)",
		"ai_move": "IF(turn <=2,0,1)",
		"ai_heal": "",
		"ai_skill": "",
		"ai_use": "",
		"skill_group_id": 470,
		"gear_GearGear": 23001,
		"gear_rank": 1,
		"proficiency_UnitProficiency": 3,
		"level": 87,
		"hp": 127,
		"strength": 113,
		"vitality": 79,
		"intelligence": 12,
		"mind": 27,
		"agility": 53,
		"dexterity": 79,
		"lucky": 19,
		"parameter_table_BattleEnemyParameterTable": 0,
		"parameter_deviation_table_BattleEnemyParameterDeviationTable": 0,
		"acquire_skill_group_id": 0,
		"level_correction": 0,
		"group_id": 0,
		"ai_script_id_BattleAIScript": 0
	},
	{
		"ID": 55508,
		"stage_BattleStage": 190042002,
		"unit_UnitUnit": 861006,
		"money": 440,
		"initial_coordinate_x": 2,
		"initial_coordinate_y": 2,
		"reinforcement_BattleReinforcement": 0,
		"initial_direction": 0.0,
		"ai_move_group": 0,
		"ai_target_move_x": -1,
		"ai_target_move_y": -1,
		"ai_skill_function": "",
		"ai_attack": "IF( turn <=3 ,IF(panel_move_distance <= 2, 1, 0),1)",
		"ai_move": "IF(turn <=3,0,1)",
		"ai_heal": "",
		"ai_skill": "",
		"ai_use": "",
		"skill_group_id": 570,
		"gear_GearGear": 63001,
		"gear_rank": 1,
		"proficiency_UnitProficiency": 3,
		"level": 88,
		"hp": 104,
		"strength": 18,
		"vitality": 36,
		"intelligence": 93,
		"mind": 62,
		"agility": 70,
		"dexterity": 85,
		"lucky": 21,
		"parameter_table_BattleEnemyParameterTable": 0,
		"parameter_deviation_table_BattleEnemyParameterDeviationTable": 0,
		"acquire_skill_group_id": 0,
		"level_correction": 0,
		"group_id": 0,
		"ai_script_id_BattleAIScript": 0
	},
	{
		"ID": 55509,
		"stage_BattleStage": 190042002,
		"unit_UnitUnit": 861006,
		"money": 440,
		"initial_coordinate_x": 3,
		"initial_coordinate_y": 2,
		"reinforcement_BattleReinforcement": 0,
		"initial_direction": 0.0,
		"ai_move_group": 0,
		"ai_target_move_x": -1,
		"ai_target_move_y": -1,
		"ai_skill_function": "",
		"ai_attack": "IF( turn <=3 ,IF(panel_move_distance <= 2, 1, 0),1)",
		"ai_move": "IF(turn <=3,0,1)",
		"ai_heal": "",
		"ai_skill": "",
		"ai_use": "",
		"skill_group_id": 570,
		"gear_GearGear": 63001,
		"gear_rank": 1,
		"proficiency_UnitProficiency": 3,
		"level": 88,
		"hp": 104,
		"strength": 19,
		"vitality": 38,
		"intelligence": 94,
		"mind": 63,
		"agility": 72,
		"dexterity": 84,
		"lucky": 21,
		"parameter_table_BattleEnemyParameterTable": 0,
		"parameter_deviation_table_BattleEnemyParameterDeviationTable": 0,
		"acquire_skill_group_id": 0,
		"level_correction": 0,
		"group_id": 0,
		"ai_script_id_BattleAIScript": 0
	},
	{
		"ID": 55510,
		"stage_BattleStage": 190042002,
		"unit_UnitUnit": 861006,
		"money": 440,
		"initial_coordinate_x": 4,
		"initial_coordinate_y": 2,
		"reinforcement_BattleReinforcement": 0,
		"initial_direction": 0.0,
		"ai_move_group": 0,
		"ai_target_move_x": -1,
		"ai_target_move_y": -1,
		"ai_skill_function": "",
		"ai_attack": "IF( turn <=3 ,IF(panel_move_distance <= 2, 1, 0),1)",
		"ai_move": "IF(turn <=3,0,1)",
		"ai_heal": "",
		"ai_skill": "",
		"ai_use": "",
		"skill_group_id": 570,
		"gear_GearGear": 63001,
		"gear_rank": 1,
		"proficiency_UnitProficiency": 3,
		"level": 88,
		"hp": 104,
		"strength": 18,
		"vitality": 36,
		"intelligence": 94,
		"mind": 62,
		"agility": 70,
		"dexterity": 86,
		"lucky": 21,
		"parameter_table_BattleEnemyParameterTable": 0,
		"parameter_deviation_table_BattleEnemyParameterDeviationTable": 0,
		"acquire_skill_group_id": 0,
		"level_correction": 0,
		"group_id": 0,
		"ai_script_id_BattleAIScript": 0
	},
	{
		"ID": 55511,
		"stage_BattleStage": 190042002,
		"unit_UnitUnit": 861006,
		"money": 430,
		"initial_coordinate_x": 13,
		"initial_coordinate_y": 2,
		"reinforcement_BattleReinforcement": 0,
		"initial_direction": 0.0,
		"ai_move_group": 0,
		"ai_target_move_x": -1,
		"ai_target_move_y": -1,
		"ai_skill_function": "",
		"ai_attack": "IF( turn <=3 ,IF(panel_move_distance <= 2, 1, 0),1)",
		"ai_move": "IF(turn <=3,0,1)",
		"ai_heal": "",
		"ai_skill": "",
		"ai_use": "",
		"skill_group_id": 570,
		"gear_GearGear": 63001,
		"gear_rank": 1,
		"proficiency_UnitProficiency": 3,
		"level": 86,
		"hp": 102,
		"strength": 16,
		"vitality": 35,
		"intelligence": 90,
		"mind": 62,
		"agility": 70,
		"dexterity": 85,
		"lucky": 19,
		"parameter_table_BattleEnemyParameterTable": 0,
		"parameter_deviation_table_BattleEnemyParameterDeviationTable": 0,
		"acquire_skill_group_id": 0,
		"level_correction": 0,
		"group_id": 0,
		"ai_script_id_BattleAIScript": 0
	},
	{
		"ID": 55512,
		"stage_BattleStage": 190042002,
		"unit_UnitUnit": 861006,
		"money": 430,
		"initial_coordinate_x": 14,
		"initial_coordinate_y": 2,
		"reinforcement_BattleReinforcement": 0,
		"initial_direction": 0.0,
		"ai_move_group": 0,
		"ai_target_move_x": -1,
		"ai_target_move_y": -1,
		"ai_skill_function": "",
		"ai_attack": "IF( turn <=3 ,IF(panel_move_distance <= 2, 1, 0),1)",
		"ai_move": "IF(turn <=3,0,1)",
		"ai_heal": "",
		"ai_skill": "",
		"ai_use": "",
		"skill_group_id": 570,
		"gear_GearGear": 63001,
		"gear_rank": 1,
		"proficiency_UnitProficiency": 3,
		"level": 86,
		"hp": 103,
		"strength": 17,
		"vitality": 37,
		"intelligence": 92,
		"mind": 61,
		"agility": 68,
		"dexterity": 85,
		"lucky": 19,
		"parameter_table_BattleEnemyParameterTable": 0,
		"parameter_deviation_table_BattleEnemyParameterDeviationTable": 0,
		"acquire_skill_group_id": 0,
		"level_correction": 0,
		"group_id": 0,
		"ai_script_id_BattleAIScript": 0
	},
	{
		"ID": 55513,
		"stage_BattleStage": 190042002,
		"unit_UnitUnit": 861006,
		"money": 430,
		"initial_coordinate_x": 15,
		"initial_coordinate_y": 2,
		"reinforcement_BattleReinforcement": 0,
		"initial_direction": 0.0,
		"ai_move_group": 0,
		"ai_target_move_x": -1,
		"ai_target_move_y": -1,
		"ai_skill_function": "",
		"ai_attack": "IF( turn <=3 ,IF(panel_move_distance <= 2, 1, 0),1)",
		"ai_move": "IF(turn <=3,0,1)",
		"ai_heal": "",
		"ai_skill": "",
		"ai_use": "",
		"skill_group_id": 570,
		"gear_GearGear": 63001,
		"gear_rank": 1,
		"proficiency_UnitProficiency": 3,
		"level": 86,
		"hp": 104,
		"strength": 17,
		"vitality": 37,
		"intelligence": 91,
		"mind": 61,
		"agility": 69,
		"dexterity": 83,
		"lucky": 21,
		"parameter_table_BattleEnemyParameterTable": 0,
		"parameter_deviation_table_BattleEnemyParameterDeviationTable": 0,
		"acquire_skill_group_id": 0,
		"level_correction": 0,
		"group_id": 0,
		"ai_script_id_BattleAIScript": 0
	},
	{
		"ID": 55514,
		"stage_BattleStage": 190042002,
		"unit_UnitUnit": 811002,
		"money": 430,
		"initial_coordinate_x": 8,
		"initial_coordinate_y": 1,
		"reinforcement_BattleReinforcement": 2,
		"initial_direction": 0.0,
		"ai_move_group": 0,
		"ai_target_move_x": -1,
		"ai_target_move_y": -1,
		"ai_skill_function": "",
		"ai_attack": "IF( turn <=3 ,IF(panel_move_distance <= 2, 1, 0),1)",
		"ai_move": "IF(turn <=3,0,1)",
		"ai_heal": "",
		"ai_skill": "",
		"ai_use": "",
		"skill_group_id": 560,
		"gear_GearGear": 14005,
		"gear_rank": 1,
		"proficiency_UnitProficiency": 4,
		"level": 86,
		"hp": 125,
		"strength": 100,
		"vitality": 57,
		"intelligence": 8,
		"mind": 36,
		"agility": 78,
		"dexterity": 84,
		"lucky": 19,
		"parameter_table_BattleEnemyParameterTable": 0,
		"parameter_deviation_table_BattleEnemyParameterDeviationTable": 0,
		"acquire_skill_group_id": 0,
		"level_correction": 0,
		"group_id": 0,
		"ai_script_id_BattleAIScript": 0
	},
	{
		"ID": 55515,
		"stage_BattleStage": 190042002,
		"unit_UnitUnit": 811002,
		"money": 430,
		"initial_coordinate_x": 9,
		"initial_coordinate_y": 1,
		"reinforcement_BattleReinforcement": 2,
		"initial_direction": 0.0,
		"ai_move_group": 0,
		"ai_target_move_x": -1,
		"ai_target_move_y": -1,
		"ai_skill_function": "",
		"ai_attack": "IF( turn <=3 ,IF(panel_move_distance <= 2, 1, 0),1)",
		"ai_move": "IF(turn <=3,0,1)",
		"ai_heal": "",
		"ai_skill": "",
		"ai_use": "",
		"skill_group_id": 560,
		"gear_GearGear": 14005,
		"gear_rank": 1,
		"proficiency_UnitProficiency": 4,
		"level": 86,
		"hp": 124,
		"strength": 99,
		"vitality": 58,
		"intelligence": 8,
		"mind": 38,
		"agility": 77,
		"dexterity": 86,
		"lucky": 19,
		"parameter_table_BattleEnemyParameterTable": 0,
		"parameter_deviation_table_BattleEnemyParameterDeviationTable": 0,
		"acquire_skill_group_id": 0,
		"level_correction": 0,
		"group_id": 0,
		"ai_script_id_BattleAIScript": 0
	},
	{
		"ID": 55516,
		"stage_BattleStage": 190042002,
		"unit_UnitUnit": 960023,
		"money": 425,
		"initial_coordinate_x": 1,
		"initial_coordinate_y": 7,
		"reinforcement_BattleReinforcement": 3,
		"initial_direction": 90.0,
		"ai_move_group": 0,
		"ai_target_move_x": -1,
		"ai_target_move_y": -1,
		"ai_skill_function": "",
		"ai_attack": "IF( turn <=3 ,IF(panel_move_distance <= 2, 1, 0),1)",
		"ai_move": "IF(turn <=3,0,1)",
		"ai_heal": "",
		"ai_skill": "",
		"ai_use": "",
		"skill_group_id": 560,
		"gear_GearGear": 14005,
		"gear_rank": 1,
		"proficiency_UnitProficiency": 4,
		"level": 85,
		"hp": 85,
		"strength": 22,
		"vitality": 70,
		"intelligence": 8,
		"mind": 51,
		"agility": 82,
		"dexterity": 90,
		"lucky": 19,
		"parameter_table_BattleEnemyParameterTable": 0,
		"parameter_deviation_table_BattleEnemyParameterDeviationTable": 0,
		"acquire_skill_group_id": 0,
		"level_correction": 0,
		"group_id": 0,
		"ai_script_id_BattleAIScript": 0
	},
	{
		"ID": 55517,
		"stage_BattleStage": 190042002,
		"unit_UnitUnit": 960023,
		"money": 430,
		"initial_coordinate_x": 1,
		"initial_coordinate_y": 6,
		"reinforcement_BattleReinforcement": 3,
		"initial_direction": 90.0,
		"ai_move_group": 0,
		"ai_target_move_x": -1,
		"ai_target_move_y": -1,
		"ai_skill_function": "",
		"ai_attack": "IF( turn <=3 ,IF(panel_move_distance <= 2, 1, 0),1)",
		"ai_move": "IF(turn <=3,0,1)",
		"ai_heal": "",
		"ai_skill": "",
		"ai_use": "",
		"skill_group_id": 560,
		"gear_GearGear": 14005,
		"gear_rank": 1,
		"proficiency_UnitProficiency": 4,
		"level": 86,
		"hp": 86,
		"strength": 23,
		"vitality": 71,
		"intelligence": 8,
		"mind": 52,
		"agility": 83,
		"dexterity": 91,
		"lucky": 20,
		"parameter_table_BattleEnemyParameterTable": 0,
		"parameter_deviation_table_BattleEnemyParameterDeviationTable": 0,
		"acquire_skill_group_id": 0,
		"level_correction": 0,
		"group_id": 0,
		"ai_script_id_BattleAIScript": 0
	},
	{
		"ID": 55518,
		"stage_BattleStage": 190042002,
		"unit_UnitUnit": 960023,
		"money": 435,
		"initial_coordinate_x": 1,
		"initial_coordinate_y": 5,
		"reinforcement_BattleReinforcement": 3,
		"initial_direction": 90.0,
		"ai_move_group": 0,
		"ai_target_move_x": -1,
		"ai_target_move_y": -1,
		"ai_skill_function": "",
		"ai_attack": "IF( turn <=3 ,IF(panel_move_distance <= 2, 1, 0),1)",
		"ai_move": "IF(turn <=3,0,1)",
		"ai_heal": "",
		"ai_skill": "",
		"ai_use": "",
		"skill_group_id": 560,
		"gear_GearGear": 14005,
		"gear_rank": 1,
		"proficiency_UnitProficiency": 4,
		"level": 87,
		"hp": 86,
		"strength": 23,
		"vitality": 71,
		"intelligence": 8,
		"mind": 52,
		"agility": 84,
		"dexterity": 92,
		"lucky": 20,
		"parameter_table_BattleEnemyParameterTable": 0,
		"parameter_deviation_table_BattleEnemyParameterDeviationTable": 0,
		"acquire_skill_group_id": 0,
		"level_correction": 0,
		"group_id": 0,
		"ai_script_id_BattleAIScript": 0
	},
	{
		"ID": 55519,
		"stage_BattleStage": 190042002,
		"unit_UnitUnit": 960023,
		"money": 430,
		"initial_coordinate_x": 15,
		"initial_coordinate_y": 6,
		"reinforcement_BattleReinforcement": 4,
		"initial_direction": 270.0,
		"ai_move_group": 0,
		"ai_target_move_x": -1,
		"ai_target_move_y": -1,
		"ai_skill_function": "",
		"ai_attack": "IF( turn <=4 ,IF(panel_move_distance <= 2, 1, 0),1)",
		"ai_move": "IF(turn <=4,0,1)",
		"ai_heal": "",
		"ai_skill": "",
		"ai_use": "",
		"skill_group_id": 560,
		"gear_GearGear": 14005,
		"gear_rank": 1,
		"proficiency_UnitProficiency": 4,
		"level": 86,
		"hp": 86,
		"strength": 23,
		"vitality": 71,
		"intelligence": 8,
		"mind": 52,
		"agility": 83,
		"dexterity": 91,
		"lucky": 20,
		"parameter_table_BattleEnemyParameterTable": 0,
		"parameter_deviation_table_BattleEnemyParameterDeviationTable": 0,
		"acquire_skill_group_id": 0,
		"level_correction": 0,
		"group_id": 0,
		"ai_script_id_BattleAIScript": 0
	},
	{
		"ID": 55520,
		"stage_BattleStage": 190042002,
		"unit_UnitUnit": 960023,
		"money": 435,
		"initial_coordinate_x": 15,
		"initial_coordinate_y": 5,
		"reinforcement_BattleReinforcement": 4,
		"initial_direction": 270.0,
		"ai_move_group": 0,
		"ai_target_move_x": -1,
		"ai_target_move_y": -1,
		"ai_skill_function": "",
		"ai_attack": "IF( turn <=4 ,IF(panel_move_distance <= 2, 1, 0),1)",
		"ai_move": "IF(turn <=4,0,1)",
		"ai_heal": "",
		"ai_skill": "",
		"ai_use": "",
		"skill_group_id": 560,
		"gear_GearGear": 14005,
		"gear_rank": 1,
		"proficiency_UnitProficiency": 4,
		"level": 87,
		"hp": 86,
		"strength": 23,
		"vitality": 71,
		"intelligence": 8,
		"mind": 52,
		"agility": 84,
		"dexterity": 92,
		"lucky": 20,
		"parameter_table_BattleEnemyParameterTable": 0,
		"parameter_deviation_table_BattleEnemyParameterDeviationTable": 0,
		"acquire_skill_group_id": 0,
		"level_correction": 0,
		"group_id": 0,
		"ai_script_id_BattleAIScript": 0
	},
	{
		"ID": 55521,
		"stage_BattleStage": 190042002,
		"unit_UnitUnit": 960023,
		"money": 440,
		"initial_coordinate_x": 15,
		"initial_coordinate_y": 4,
		"reinforcement_BattleReinforcement": 4,
		"initial_direction": 270.0,
		"ai_move_group": 0,
		"ai_target_move_x": -1,
		"ai_target_move_y": -1,
		"ai_skill_function": "",
		"ai_attack": "IF( turn <=4 ,IF(panel_move_distance <= 2, 1, 0),1)",
		"ai_move": "IF(turn <=4,0,1)",
		"ai_heal": "",
		"ai_skill": "",
		"ai_use": "",
		"skill_group_id": 560,
		"gear_GearGear": 14005,
		"gear_rank": 1,
		"proficiency_UnitProficiency": 4,
		"level": 88,
		"hp": 87,
		"strength": 23,
		"vitality": 72,
		"intelligence": 8,
		"mind": 53,
		"agility": 85,
		"dexterity": 93,
		"lucky": 20,
		"parameter_table_BattleEnemyParameterTable": 0,
		"parameter_deviation_table_BattleEnemyParameterDeviationTable": 0,
		"acquire_skill_group_id": 0,
		"level_correction": 0,
		"group_id": 0,
		"ai_script_id_BattleAIScript": 0
	}
]