[
	{
		"ID": 14582,
		"stage_BattleStage": 231008005,
		"unit_UnitUnit": 820003,
		"money": 1,
		"initial_coordinate_x": 8,
		"initial_coordinate_y": 12,
		"reinforcement_BattleReinforcement": 0,
		"initial_direction": 0.0,
		"ai_move_group": 0,
		"ai_target_move_x": -1,
		"ai_target_move_y": -1,
		"ai_skill_function": "",
		"ai_attack": "IF( turn <=3 ,IF(panel_move_distance <= 1, 1, 0),1)",
		"ai_move": "IF(turn <=3,0,1)",
		"ai_heal": "",
		"ai_skill": "",
		"ai_use": "",
		"skill_group_id": 0,
		"gear_GearGear": 21002,
		"gear_rank": 1,
		"proficiency_UnitProficiency": 1,
		"level": 6,
		"hp": 25,
		"strength": 9,
		"vitality": 11,
		"intelligence": 0,
		"mind": 0,
		"agility": 2,
		"dexterity": 5,
		"lucky": 3,
		"parameter_table_BattleEnemyParameterTable": 0,
		"parameter_deviation_table_BattleEnemyParameterDeviationTable": 0,
		"acquire_skill_group_id": 0,
		"level_correction": 0,
		"group_id": 0,
		"ai_script_id_BattleAIScript": 0
	},
	{
		"ID": 14583,
		"stage_BattleStage": 231008005,
		"unit_UnitUnit": 830003,
		"money": 2,
		"initial_coordinate_x": 2,
		"initial_coordinate_y": 13,
		"reinforcement_BattleReinforcement": 0,
		"initial_direction": 0.0,
		"ai_move_group": 0,
		"ai_target_move_x": -1,
		"ai_target_move_y": -1,
		"ai_skill_function": "",
		"ai_attack": "",
		"ai_move": "",
		"ai_heal": "",
		"ai_skill": "",
		"ai_use": "",
		"skill_group_id": 0,
		"gear_GearGear": 31002,
		"gear_rank": 1,
		"proficiency_UnitProficiency": 1,
		"level": 7,
		"hp": 28,
		"strength": 10,
		"vitality": 13,
		"intelligence": 0,
		"mind": 0,
		"agility": 3,
		"dexterity": 6,
		"lucky": 3,
		"parameter_table_BattleEnemyParameterTable": 0,
		"parameter_deviation_table_BattleEnemyParameterDeviationTable": 0,
		"acquire_skill_group_id": 0,
		"level_correction": 0,
		"group_id": 0,
		"ai_script_id_BattleAIScript": 0
	},
	{
		"ID": 14584,
		"stage_BattleStage": 231008005,
		"unit_UnitUnit": 820003,
		"money": 1,
		"initial_coordinate_x": 6,
		"initial_coordinate_y": 13,
		"reinforcement_BattleReinforcement": 0,
		"initial_direction": 0.0,
		"ai_move_group": 0,
		"ai_target_move_x": -1,
		"ai_target_move_y": -1,
		"ai_skill_function": "",
		"ai_attack": "IF( turn <=3 ,IF(panel_move_distance <= 1, 1, 0),1)",
		"ai_move": "IF(turn <=3,0,1)",
		"ai_heal": "",
		"ai_skill": "",
		"ai_use": "",
		"skill_group_id": 0,
		"gear_GearGear": 21002,
		"gear_rank": 1,
		"proficiency_UnitProficiency": 1,
		"level": 8,
		"hp": 29,
		"strength": 12,
		"vitality": 14,
		"intelligence": 0,
		"mind": 0,
		"agility": 3,
		"dexterity": 6,
		"lucky": 3,
		"parameter_table_BattleEnemyParameterTable": 0,
		"parameter_deviation_table_BattleEnemyParameterDeviationTable": 0,
		"acquire_skill_group_id": 0,
		"level_correction": 0,
		"group_id": 0,
		"ai_script_id_BattleAIScript": 0
	},
	{
		"ID": 14585,
		"stage_BattleStage": 231008005,
		"unit_UnitUnit": 830003,
		"money": 2,
		"initial_coordinate_x": 1,
		"initial_coordinate_y": 16,
		"reinforcement_BattleReinforcement": 0,
		"initial_direction": 0.0,
		"ai_move_group": 0,
		"ai_target_move_x": -1,
		"ai_target_move_y": -1,
		"ai_skill_function": "",
		"ai_attack": "",
		"ai_move": "",
		"ai_heal": "",
		"ai_skill": "",
		"ai_use": "",
		"skill_group_id": 0,
		"gear_GearGear": 31002,
		"gear_rank": 1,
		"proficiency_UnitProficiency": 1,
		"level": 9,
		"hp": 30,
		"strength": 12,
		"vitality": 14,
		"intelligence": 0,
		"mind": 0,
		"agility": 4,
		"dexterity": 7,
		"lucky": 3,
		"parameter_table_BattleEnemyParameterTable": 0,
		"parameter_deviation_table_BattleEnemyParameterDeviationTable": 0,
		"acquire_skill_group_id": 0,
		"level_correction": 0,
		"group_id": 0,
		"ai_script_id_BattleAIScript": 0
	},
	{
		"ID": 14586,
		"stage_BattleStage": 231008005,
		"unit_UnitUnit": 800009,
		"money": 1,
		"initial_coordinate_x": 7,
		"initial_coordinate_y": 13,
		"reinforcement_BattleReinforcement": 0,
		"initial_direction": 0.0,
		"ai_move_group": 0,
		"ai_target_move_x": -1,
		"ai_target_move_y": -1,
		"ai_skill_function": "",
		"ai_attack": "IF( turn <=3 ,IF(panel_move_distance <= 2, 1, 0),1)",
		"ai_move": "IF(turn <=2,0,1)",
		"ai_heal": "",
		"ai_skill": "",
		"ai_use": "",
		"skill_group_id": 817,
		"gear_GearGear": 80001,
		"gear_rank": 1,
		"proficiency_UnitProficiency": 1,
		"level": 9,
		"hp": 6,
		"strength": 4,
		"vitality": 305,
		"intelligence": 8,
		"mind": 301,
		"agility": 23,
		"dexterity": 24,
		"lucky": 3,
		"parameter_table_BattleEnemyParameterTable": 0,
		"parameter_deviation_table_BattleEnemyParameterDeviationTable": 0,
		"acquire_skill_group_id": 0,
		"level_correction": 0,
		"group_id": 0,
		"ai_script_id_BattleAIScript": 0
	},
	{
		"ID": 14587,
		"stage_BattleStage": 231008005,
		"unit_UnitUnit": 800009,
		"money": 2,
		"initial_coordinate_x": 2,
		"initial_coordinate_y": 15,
		"reinforcement_BattleReinforcement": 0,
		"initial_direction": 0.0,
		"ai_move_group": 0,
		"ai_target_move_x": -1,
		"ai_target_move_y": -1,
		"ai_skill_function": "",
		"ai_attack": "",
		"ai_move": "",
		"ai_heal": "",
		"ai_skill": "",
		"ai_use": "",
		"skill_group_id": 817,
		"gear_GearGear": 80001,
		"gear_rank": 1,
		"proficiency_UnitProficiency": 1,
		"level": 10,
		"hp": 7,
		"strength": 4,
		"vitality": 306,
		"intelligence": 9,
		"mind": 301,
		"agility": 24,
		"dexterity": 25,
		"lucky": 3,
		"parameter_table_BattleEnemyParameterTable": 0,
		"parameter_deviation_table_BattleEnemyParameterDeviationTable": 0,
		"acquire_skill_group_id": 0,
		"level_correction": 0,
		"group_id": 0,
		"ai_script_id_BattleAIScript": 0
	},
	{
		"ID": 14588,
		"stage_BattleStage": 231008005,
		"unit_UnitUnit": 800009,
		"money": 3,
		"initial_coordinate_x": 4,
		"initial_coordinate_y": 11,
		"reinforcement_BattleReinforcement": 0,
		"initial_direction": 0.0,
		"ai_move_group": 0,
		"ai_target_move_x": -1,
		"ai_target_move_y": -1,
		"ai_skill_function": "",
		"ai_attack": "IF( turn <=2 ,IF(panel_move_distance <= 2, 1, 0),1)",
		"ai_move": "IF(turn <=2,0,1)",
		"ai_heal": "",
		"ai_skill": "",
		"ai_use": "",
		"skill_group_id": 817,
		"gear_GearGear": 80001,
		"gear_rank": 1,
		"proficiency_UnitProficiency": 1,
		"level": 10,
		"hp": 7,
		"strength": 4,
		"vitality": 306,
		"intelligence": 9,
		"mind": 301,
		"agility": 24,
		"dexterity": 25,
		"lucky": 3,
		"parameter_table_BattleEnemyParameterTable": 0,
		"parameter_deviation_table_BattleEnemyParameterDeviationTable": 0,
		"acquire_skill_group_id": 0,
		"level_correction": 0,
		"group_id": 0,
		"ai_script_id_BattleAIScript": 0
	},
	{
		"ID": 14589,
		"stage_BattleStage": 231008005,
		"unit_UnitUnit": 800009,
		"money": 2,
		"initial_coordinate_x": 1,
		"initial_coordinate_y": 14,
		"reinforcement_BattleReinforcement": 0,
		"initial_direction": 0.0,
		"ai_move_group": 0,
		"ai_target_move_x": -1,
		"ai_target_move_y": -1,
		"ai_skill_function": "",
		"ai_attack": "",
		"ai_move": "",
		"ai_heal": "",
		"ai_skill": "",
		"ai_use": "",
		"skill_group_id": 817,
		"gear_GearGear": 80001,
		"gear_rank": 1,
		"proficiency_UnitProficiency": 1,
		"level": 11,
		"hp": 8,
		"strength": 5,
		"vitality": 307,
		"intelligence": 9,
		"mind": 301,
		"agility": 24,
		"dexterity": 25,
		"lucky": 4,
		"parameter_table_BattleEnemyParameterTable": 0,
		"parameter_deviation_table_BattleEnemyParameterDeviationTable": 0,
		"acquire_skill_group_id": 0,
		"level_correction": 0,
		"group_id": 0,
		"ai_script_id_BattleAIScript": 0
	},
	{
		"ID": 14590,
		"stage_BattleStage": 231008005,
		"unit_UnitUnit": 820003,
		"money": 1,
		"initial_coordinate_x": 6,
		"initial_coordinate_y": 10,
		"reinforcement_BattleReinforcement": 0,
		"initial_direction": 0.0,
		"ai_move_group": 0,
		"ai_target_move_x": -1,
		"ai_target_move_y": -1,
		"ai_skill_function": "",
		"ai_attack": "",
		"ai_move": "",
		"ai_heal": "",
		"ai_skill": "",
		"ai_use": "",
		"skill_group_id": 0,
		"gear_GearGear": 21002,
		"gear_rank": 1,
		"proficiency_UnitProficiency": 1,
		"level": 9,
		"hp": 30,
		"strength": 12,
		"vitality": 14,
		"intelligence": 0,
		"mind": 0,
		"agility": 3,
		"dexterity": 7,
		"lucky": 3,
		"parameter_table_BattleEnemyParameterTable": 0,
		"parameter_deviation_table_BattleEnemyParameterDeviationTable": 0,
		"acquire_skill_group_id": 0,
		"level_correction": 0,
		"group_id": 0,
		"ai_script_id_BattleAIScript": 0
	},
	{
		"ID": 14591,
		"stage_BattleStage": 231008005,
		"unit_UnitUnit": 830003,
		"money": 2,
		"initial_coordinate_x": 2,
		"initial_coordinate_y": 10,
		"reinforcement_BattleReinforcement": 0,
		"initial_direction": 0.0,
		"ai_move_group": 0,
		"ai_target_move_x": -1,
		"ai_target_move_y": -1,
		"ai_skill_function": "",
		"ai_attack": "",
		"ai_move": "",
		"ai_heal": "",
		"ai_skill": "",
		"ai_use": "",
		"skill_group_id": 0,
		"gear_GearGear": 31002,
		"gear_rank": 1,
		"proficiency_UnitProficiency": 1,
		"level": 7,
		"hp": 28,
		"strength": 10,
		"vitality": 13,
		"intelligence": 0,
		"mind": 0,
		"agility": 3,
		"dexterity": 6,
		"lucky": 3,
		"parameter_table_BattleEnemyParameterTable": 0,
		"parameter_deviation_table_BattleEnemyParameterDeviationTable": 0,
		"acquire_skill_group_id": 0,
		"level_correction": 0,
		"group_id": 0,
		"ai_script_id_BattleAIScript": 0
	},
	{
		"ID": 14592,
		"stage_BattleStage": 231008005,
		"unit_UnitUnit": 800009,
		"money": 1,
		"initial_coordinate_x": 7,
		"initial_coordinate_y": 6,
		"reinforcement_BattleReinforcement": 0,
		"initial_direction": 0.0,
		"ai_move_group": 0,
		"ai_target_move_x": -1,
		"ai_target_move_y": -1,
		"ai_skill_function": "",
		"ai_attack": "",
		"ai_move": "",
		"ai_heal": "",
		"ai_skill": "",
		"ai_use": "",
		"skill_group_id": 817,
		"gear_GearGear": 80001,
		"gear_rank": 1,
		"proficiency_UnitProficiency": 1,
		"level": 9,
		"hp": 6,
		"strength": 4,
		"vitality": 305,
		"intelligence": 8,
		"mind": 301,
		"agility": 23,
		"dexterity": 24,
		"lucky": 3,
		"parameter_table_BattleEnemyParameterTable": 0,
		"parameter_deviation_table_BattleEnemyParameterDeviationTable": 0,
		"acquire_skill_group_id": 0,
		"level_correction": 0,
		"group_id": 0,
		"ai_script_id_BattleAIScript": 0
	},
	{
		"ID": 14593,
		"stage_BattleStage": 231008005,
		"unit_UnitUnit": 804009,
		"money": 2,
		"initial_coordinate_x": 1,
		"initial_coordinate_y": 6,
		"reinforcement_BattleReinforcement": 0,
		"initial_direction": 0.0,
		"ai_move_group": 0,
		"ai_target_move_x": -1,
		"ai_target_move_y": -1,
		"ai_skill_function": "",
		"ai_attack": "IF(turn <=8,0,1)",
		"ai_move": "IF(turn <=8,0,1)",
		"ai_heal": "",
		"ai_skill": "",
		"ai_use": "",
		"skill_group_id": 1785,
		"gear_GearGear": 80001,
		"gear_rank": 1,
		"proficiency_UnitProficiency": 1,
		"level": 14,
		"hp": 30,
		"strength": 6,
		"vitality": 600,
		"intelligence": 10,
		"mind": 600,
		"agility": 26,
		"dexterity": 27,
		"lucky": 100,
		"parameter_table_BattleEnemyParameterTable": 0,
		"parameter_deviation_table_BattleEnemyParameterDeviationTable": 0,
		"acquire_skill_group_id": 0,
		"level_correction": 0,
		"group_id": 0,
		"ai_script_id_BattleAIScript": 0
	},
	{
		"ID": 14594,
		"stage_BattleStage": 231008005,
		"unit_UnitUnit": 840004,
		"money": 1,
		"initial_coordinate_x": 6,
		"initial_coordinate_y": 7,
		"reinforcement_BattleReinforcement": 0,
		"initial_direction": 0.0,
		"ai_move_group": 0,
		"ai_target_move_x": -1,
		"ai_target_move_y": -1,
		"ai_skill_function": "",
		"ai_attack": "IF( turn <=3 ,IF(panel_move_distance <= 1, 1, 0),1)",
		"ai_move": "IF(turn <=3,0,1)",
		"ai_heal": "",
		"ai_skill": "",
		"ai_use": "",
		"skill_group_id": 0,
		"gear_GearGear": 41002,
		"gear_rank": 1,
		"proficiency_UnitProficiency": 1,
		"level": 9,
		"hp": 24,
		"strength": 11,
		"vitality": 7,
		"intelligence": 0,
		"mind": 2,
		"agility": 10,
		"dexterity": 11,
		"lucky": 3,
		"parameter_table_BattleEnemyParameterTable": 0,
		"parameter_deviation_table_BattleEnemyParameterDeviationTable": 0,
		"acquire_skill_group_id": 0,
		"level_correction": 0,
		"group_id": 0,
		"ai_script_id_BattleAIScript": 0
	},
	{
		"ID": 14595,
		"stage_BattleStage": 231008005,
		"unit_UnitUnit": 800009,
		"money": 2,
		"initial_coordinate_x": 6,
		"initial_coordinate_y": 7,
		"reinforcement_BattleReinforcement": 0,
		"initial_direction": 0.0,
		"ai_move_group": 0,
		"ai_target_move_x": -1,
		"ai_target_move_y": -1,
		"ai_skill_function": "",
		"ai_attack": "IF( turn <=2 ,IF(panel_move_distance <= 2, 1, 0),1)",
		"ai_move": "IF(turn <=2,0,1)",
		"ai_heal": "",
		"ai_skill": "",
		"ai_use": "",
		"skill_group_id": 817,
		"gear_GearGear": 80001,
		"gear_rank": 1,
		"proficiency_UnitProficiency": 1,
		"level": 10,
		"hp": 7,
		"strength": 4,
		"vitality": 306,
		"intelligence": 9,
		"mind": 301,
		"agility": 24,
		"dexterity": 25,
		"lucky": 3,
		"parameter_table_BattleEnemyParameterTable": 0,
		"parameter_deviation_table_BattleEnemyParameterDeviationTable": 0,
		"acquire_skill_group_id": 0,
		"level_correction": 0,
		"group_id": 0,
		"ai_script_id_BattleAIScript": 0
	},
	{
		"ID": 14596,
		"stage_BattleStage": 231008005,
		"unit_UnitUnit": 801009,
		"money": 3,
		"initial_coordinate_x": 6,
		"initial_coordinate_y": 7,
		"reinforcement_BattleReinforcement": 0,
		"initial_direction": 0.0,
		"ai_move_group": 0,
		"ai_target_move_x": -1,
		"ai_target_move_y": -1,
		"ai_skill_function": "",
		"ai_attack": "IF( turn <=2 ,IF(panel_move_distance <= 2, 1, 0),1)",
		"ai_move": "IF(turn <=2,0,1)",
		"ai_heal": "",
		"ai_skill": "",
		"ai_use": "",
		"skill_group_id": 817,
		"gear_GearGear": 80001,
		"gear_rank": 1,
		"proficiency_UnitProficiency": 1,
		"level": 15,
		"hp": 10,
		"strength": 6,
		"vitality": 309,
		"intelligence": 11,
		"mind": 302,
		"agility": 26,
		"dexterity": 28,
		"lucky": 4,
		"parameter_table_BattleEnemyParameterTable": 0,
		"parameter_deviation_table_BattleEnemyParameterDeviationTable": 0,
		"acquire_skill_group_id": 0,
		"level_correction": 0,
		"group_id": 0,
		"ai_script_id_BattleAIScript": 0
	},
	{
		"ID": 14597,
		"stage_BattleStage": 231008005,
		"unit_UnitUnit": 840004,
		"money": 1,
		"initial_coordinate_x": 7,
		"initial_coordinate_y": 1,
		"reinforcement_BattleReinforcement": 0,
		"initial_direction": 0.0,
		"ai_move_group": 0,
		"ai_target_move_x": -1,
		"ai_target_move_y": -1,
		"ai_skill_function": "",
		"ai_attack": "IF( turn <=3 ,IF(panel_move_distance <= 1, 1, 0),1)",
		"ai_move": "IF(turn <=3,0,1)",
		"ai_heal": "",
		"ai_skill": "",
		"ai_use": "",
		"skill_group_id": 0,
		"gear_GearGear": 41002,
		"gear_rank": 1,
		"proficiency_UnitProficiency": 1,
		"level": 9,
		"hp": 24,
		"strength": 11,
		"vitality": 7,
		"intelligence": 0,
		"mind": 2,
		"agility": 10,
		"dexterity": 11,
		"lucky": 3,
		"parameter_table_BattleEnemyParameterTable": 0,
		"parameter_deviation_table_BattleEnemyParameterDeviationTable": 0,
		"acquire_skill_group_id": 0,
		"level_correction": 0,
		"group_id": 0,
		"ai_script_id_BattleAIScript": 0
	},
	{
		"ID": 14598,
		"stage_BattleStage": 231008005,
		"unit_UnitUnit": 800009,
		"money": 2,
		"initial_coordinate_x": 7,
		"initial_coordinate_y": 1,
		"reinforcement_BattleReinforcement": 0,
		"initial_direction": 0.0,
		"ai_move_group": 0,
		"ai_target_move_x": -1,
		"ai_target_move_y": -1,
		"ai_skill_function": "",
		"ai_attack": "IF( turn <=2 ,IF(panel_move_distance <= 2, 1, 0),1)",
		"ai_move": "IF(turn <=2,0,1)",
		"ai_heal": "",
		"ai_skill": "",
		"ai_use": "",
		"skill_group_id": 817,
		"gear_GearGear": 80001,
		"gear_rank": 1,
		"proficiency_UnitProficiency": 1,
		"level": 10,
		"hp": 7,
		"strength": 4,
		"vitality": 306,
		"intelligence": 9,
		"mind": 301,
		"agility": 24,
		"dexterity": 25,
		"lucky": 3,
		"parameter_table_BattleEnemyParameterTable": 0,
		"parameter_deviation_table_BattleEnemyParameterDeviationTable": 0,
		"acquire_skill_group_id": 0,
		"level_correction": 0,
		"group_id": 0,
		"ai_script_id_BattleAIScript": 0
	},
	{
		"ID": 14599,
		"stage_BattleStage": 231008005,
		"unit_UnitUnit": 801009,
		"money": 3,
		"initial_coordinate_x": 7,
		"initial_coordinate_y": 1,
		"reinforcement_BattleReinforcement": 0,
		"initial_direction": 0.0,
		"ai_move_group": 0,
		"ai_target_move_x": -1,
		"ai_target_move_y": -1,
		"ai_skill_function": "",
		"ai_attack": "IF( turn <=2 ,IF(panel_move_distance <= 2, 1, 0),1)",
		"ai_move": "IF(turn <=2,0,1)",
		"ai_heal": "",
		"ai_skill": "",
		"ai_use": "",
		"skill_group_id": 817,
		"gear_GearGear": 80001,
		"gear_rank": 1,
		"proficiency_UnitProficiency": 1,
		"level": 15,
		"hp": 10,
		"strength": 6,
		"vitality": 309,
		"intelligence": 11,
		"mind": 302,
		"agility": 26,
		"dexterity": 28,
		"lucky": 4,
		"parameter_table_BattleEnemyParameterTable": 0,
		"parameter_deviation_table_BattleEnemyParameterDeviationTable": 0,
		"acquire_skill_group_id": 0,
		"level_correction": 0,
		"group_id": 0,
		"ai_script_id_BattleAIScript": 0
	},
	{
		"ID": 14600,
		"stage_BattleStage": 231008005,
		"unit_UnitUnit": 820003,
		"money": 3,
		"initial_coordinate_x": 7,
		"initial_coordinate_y": 14,
		"reinforcement_BattleReinforcement": 0,
		"initial_direction": 0.0,
		"ai_move_group": 0,
		"ai_target_move_x": -1,
		"ai_target_move_y": -1,
		"ai_skill_function": "",
		"ai_attack": "IF( turn <=3 ,IF(panel_move_distance <= 1, 1, 0),1)",
		"ai_move": "IF(turn <=3,0,1)",
		"ai_heal": "",
		"ai_skill": "",
		"ai_use": "",
		"skill_group_id": 0,
		"gear_GearGear": 21002,
		"gear_rank": 1,
		"proficiency_UnitProficiency": 1,
		"level": 6,
		"hp": 28,
		"strength": 10,
		"vitality": 12,
		"intelligence": 0,
		"mind": 0,
		"agility": 2,
		"dexterity": 5,
		"lucky": 3,
		"parameter_table_BattleEnemyParameterTable": 0,
		"parameter_deviation_table_BattleEnemyParameterDeviationTable": 0,
		"acquire_skill_group_id": 0,
		"level_correction": 0,
		"group_id": 0,
		"ai_script_id_BattleAIScript": 0
	},
	{
		"ID": 14601,
		"stage_BattleStage": 231008005,
		"unit_UnitUnit": 830003,
		"money": 1,
		"initial_coordinate_x": 4,
		"initial_coordinate_y": 12,
		"reinforcement_BattleReinforcement": 0,
		"initial_direction": 0.0,
		"ai_move_group": 0,
		"ai_target_move_x": -1,
		"ai_target_move_y": -1,
		"ai_skill_function": "",
		"ai_attack": "IF( turn <=3 ,IF(panel_move_distance <= 1, 1, 0),1)",
		"ai_move": "IF(turn <=3,0,1)",
		"ai_heal": "",
		"ai_skill": "",
		"ai_use": "",
		"skill_group_id": 0,
		"gear_GearGear": 31002,
		"gear_rank": 1,
		"proficiency_UnitProficiency": 1,
		"level": 7,
		"hp": 28,
		"strength": 10,
		"vitality": 13,
		"intelligence": 0,
		"mind": 0,
		"agility": 3,
		"dexterity": 6,
		"lucky": 3,
		"parameter_table_BattleEnemyParameterTable": 0,
		"parameter_deviation_table_BattleEnemyParameterDeviationTable": 0,
		"acquire_skill_group_id": 0,
		"level_correction": 0,
		"group_id": 0,
		"ai_script_id_BattleAIScript": 0
	},
	{
		"ID": 14602,
		"stage_BattleStage": 231008005,
		"unit_UnitUnit": 820003,
		"money": 2,
		"initial_coordinate_x": 6,
		"initial_coordinate_y": 8,
		"reinforcement_BattleReinforcement": 0,
		"initial_direction": 0.0,
		"ai_move_group": 0,
		"ai_target_move_x": -1,
		"ai_target_move_y": -1,
		"ai_skill_function": "",
		"ai_attack": "",
		"ai_move": "",
		"ai_heal": "",
		"ai_skill": "",
		"ai_use": "",
		"skill_group_id": 0,
		"gear_GearGear": 21002,
		"gear_rank": 1,
		"proficiency_UnitProficiency": 1,
		"level": 6,
		"hp": 28,
		"strength": 10,
		"vitality": 12,
		"intelligence": 0,
		"mind": 0,
		"agility": 2,
		"dexterity": 5,
		"lucky": 3,
		"parameter_table_BattleEnemyParameterTable": 0,
		"parameter_deviation_table_BattleEnemyParameterDeviationTable": 0,
		"acquire_skill_group_id": 0,
		"level_correction": 0,
		"group_id": 0,
		"ai_script_id_BattleAIScript": 0
	},
	{
		"ID": 14603,
		"stage_BattleStage": 231008005,
		"unit_UnitUnit": 830003,
		"money": 3,
		"initial_coordinate_x": 3,
		"initial_coordinate_y": 1,
		"reinforcement_BattleReinforcement": 0,
		"initial_direction": 0.0,
		"ai_move_group": 0,
		"ai_target_move_x": -1,
		"ai_target_move_y": -1,
		"ai_skill_function": "",
		"ai_attack": "",
		"ai_move": "",
		"ai_heal": "",
		"ai_skill": "",
		"ai_use": "",
		"skill_group_id": 0,
		"gear_GearGear": 31002,
		"gear_rank": 1,
		"proficiency_UnitProficiency": 1,
		"level": 7,
		"hp": 28,
		"strength": 10,
		"vitality": 13,
		"intelligence": 0,
		"mind": 0,
		"agility": 3,
		"dexterity": 6,
		"lucky": 3,
		"parameter_table_BattleEnemyParameterTable": 0,
		"parameter_deviation_table_BattleEnemyParameterDeviationTable": 0,
		"acquire_skill_group_id": 0,
		"level_correction": 0,
		"group_id": 0,
		"ai_script_id_BattleAIScript": 0
	}
]