[
	{
		"ID": 44136,
		"stage_BattleStage": 241011721,
		"unit_UnitUnit": 830004,
		"money": 100,
		"initial_coordinate_x": 5,
		"initial_coordinate_y": 6,
		"reinforcement_BattleReinforcement": 0,
		"initial_direction": 270.0,
		"ai_move_group": 0,
		"ai_target_move_x": -1,
		"ai_target_move_y": -1,
		"ai_skill_function": "",
		"ai_attack": "",
		"ai_move": "1 / (panel_enemy_distance + 1)",
		"ai_heal": "",
		"ai_skill": "",
		"ai_use": "",
		"skill_group_id": 284,
		"gear_GearGear": 30001,
		"gear_rank": 1,
		"proficiency_UnitProficiency": 1,
		"level": 20,
		"hp": 29,
		"strength": 25,
		"vitality": 23,
		"intelligence": 3,
		"mind": 2,
		"agility": 22,
		"dexterity": 16,
		"lucky": 3,
		"parameter_table_BattleEnemyParameterTable": 0,
		"parameter_deviation_table_BattleEnemyParameterDeviationTable": 0,
		"acquire_skill_group_id": 0,
		"level_correction": 0,
		"group_id": 0,
		"ai_script_id_BattleAIScript": 0
	},
	{
		"ID": 44137,
		"stage_BattleStage": 241011721,
		"unit_UnitUnit": 830004,
		"money": 100,
		"initial_coordinate_x": 8,
		"initial_coordinate_y": 8,
		"reinforcement_BattleReinforcement": 0,
		"initial_direction": 270.0,
		"ai_move_group": 0,
		"ai_target_move_x": -1,
		"ai_target_move_y": -1,
		"ai_skill_function": "",
		"ai_attack": "",
		"ai_move": "1 / (panel_enemy_distance + 1)",
		"ai_heal": "",
		"ai_skill": "",
		"ai_use": "",
		"skill_group_id": 284,
		"gear_GearGear": 30001,
		"gear_rank": 1,
		"proficiency_UnitProficiency": 1,
		"level": 20,
		"hp": 25,
		"strength": 24,
		"vitality": 21,
		"intelligence": 2,
		"mind": 3,
		"agility": 20,
		"dexterity": 16,
		"lucky": 3,
		"parameter_table_BattleEnemyParameterTable": 0,
		"parameter_deviation_table_BattleEnemyParameterDeviationTable": 0,
		"acquire_skill_group_id": 0,
		"level_correction": 0,
		"group_id": 0,
		"ai_script_id_BattleAIScript": 0
	},
	{
		"ID": 44138,
		"stage_BattleStage": 241011721,
		"unit_UnitUnit": 830004,
		"money": 100,
		"initial_coordinate_x": 8,
		"initial_coordinate_y": 3,
		"reinforcement_BattleReinforcement": 0,
		"initial_direction": 270.0,
		"ai_move_group": 0,
		"ai_target_move_x": -1,
		"ai_target_move_y": -1,
		"ai_skill_function": "",
		"ai_attack": "IF( turn <=1 ,IF(panel_move_distance = 2, 1, 0),1)",
		"ai_move": "IF(turn <=1,0,1)",
		"ai_heal": "",
		"ai_skill": "",
		"ai_use": "",
		"skill_group_id": 284,
		"gear_GearGear": 30001,
		"gear_rank": 1,
		"proficiency_UnitProficiency": 1,
		"level": 20,
		"hp": 33,
		"strength": 23,
		"vitality": 22,
		"intelligence": 3,
		"mind": 3,
		"agility": 20,
		"dexterity": 15,
		"lucky": 3,
		"parameter_table_BattleEnemyParameterTable": 0,
		"parameter_deviation_table_BattleEnemyParameterDeviationTable": 0,
		"acquire_skill_group_id": 0,
		"level_correction": 0,
		"group_id": 0,
		"ai_script_id_BattleAIScript": 0
	},
	{
		"ID": 44139,
		"stage_BattleStage": 241011721,
		"unit_UnitUnit": 830004,
		"money": 100,
		"initial_coordinate_x": 11,
		"initial_coordinate_y": 8,
		"reinforcement_BattleReinforcement": 0,
		"initial_direction": 270.0,
		"ai_move_group": 0,
		"ai_target_move_x": -1,
		"ai_target_move_y": -1,
		"ai_skill_function": "",
		"ai_attack": "IF( turn <=2 ,IF(panel_move_distance = 2, 1, 0),1)",
		"ai_move": "IF(turn <=2,0,1)",
		"ai_heal": "",
		"ai_skill": "",
		"ai_use": "",
		"skill_group_id": 284,
		"gear_GearGear": 30001,
		"gear_rank": 1,
		"proficiency_UnitProficiency": 1,
		"level": 20,
		"hp": 32,
		"strength": 25,
		"vitality": 21,
		"intelligence": 3,
		"mind": 4,
		"agility": 21,
		"dexterity": 16,
		"lucky": 3,
		"parameter_table_BattleEnemyParameterTable": 0,
		"parameter_deviation_table_BattleEnemyParameterDeviationTable": 0,
		"acquire_skill_group_id": 0,
		"level_correction": 0,
		"group_id": 0,
		"ai_script_id_BattleAIScript": 0
	},
	{
		"ID": 44140,
		"stage_BattleStage": 241011721,
		"unit_UnitUnit": 830004,
		"money": 100,
		"initial_coordinate_x": 6,
		"initial_coordinate_y": 3,
		"reinforcement_BattleReinforcement": 0,
		"initial_direction": 270.0,
		"ai_move_group": 0,
		"ai_target_move_x": -1,
		"ai_target_move_y": -1,
		"ai_skill_function": "",
		"ai_attack": "IF(panel_move_distance = 2, 1, 0)",
		"ai_move": "0.0",
		"ai_heal": "",
		"ai_skill": "",
		"ai_use": "",
		"skill_group_id": 283,
		"gear_GearGear": 30001,
		"gear_rank": 1,
		"proficiency_UnitProficiency": 1,
		"level": 20,
		"hp": 32,
		"strength": 23,
		"vitality": 24,
		"intelligence": 2,
		"mind": 4,
		"agility": 20,
		"dexterity": 17,
		"lucky": 3,
		"parameter_table_BattleEnemyParameterTable": 0,
		"parameter_deviation_table_BattleEnemyParameterDeviationTable": 0,
		"acquire_skill_group_id": 0,
		"level_correction": 0,
		"group_id": 0,
		"ai_script_id_BattleAIScript": 0
	},
	{
		"ID": 44141,
		"stage_BattleStage": 241011721,
		"unit_UnitUnit": 830004,
		"money": 100,
		"initial_coordinate_x": 10,
		"initial_coordinate_y": 1,
		"reinforcement_BattleReinforcement": 0,
		"initial_direction": 270.0,
		"ai_move_group": 0,
		"ai_target_move_x": -1,
		"ai_target_move_y": -1,
		"ai_skill_function": "",
		"ai_attack": "IF(panel_move_distance = 2, 1, 0)",
		"ai_move": "0.0",
		"ai_heal": "",
		"ai_skill": "",
		"ai_use": "",
		"skill_group_id": 284,
		"gear_GearGear": 30001,
		"gear_rank": 1,
		"proficiency_UnitProficiency": 1,
		"level": 20,
		"hp": 26,
		"strength": 25,
		"vitality": 23,
		"intelligence": 4,
		"mind": 3,
		"agility": 19,
		"dexterity": 16,
		"lucky": 3,
		"parameter_table_BattleEnemyParameterTable": 0,
		"parameter_deviation_table_BattleEnemyParameterDeviationTable": 0,
		"acquire_skill_group_id": 0,
		"level_correction": 0,
		"group_id": 0,
		"ai_script_id_BattleAIScript": 0
	},
	{
		"ID": 44142,
		"stage_BattleStage": 241011721,
		"unit_UnitUnit": 830004,
		"money": 100,
		"initial_coordinate_x": 12,
		"initial_coordinate_y": 2,
		"reinforcement_BattleReinforcement": 0,
		"initial_direction": 270.0,
		"ai_move_group": 0,
		"ai_target_move_x": -1,
		"ai_target_move_y": -1,
		"ai_skill_function": "",
		"ai_attack": "IF(panel_move_distance = 2, 1, 0)",
		"ai_move": "0.0",
		"ai_heal": "",
		"ai_skill": "",
		"ai_use": "",
		"skill_group_id": 284,
		"gear_GearGear": 30001,
		"gear_rank": 1,
		"proficiency_UnitProficiency": 1,
		"level": 20,
		"hp": 24,
		"strength": 24,
		"vitality": 21,
		"intelligence": 3,
		"mind": 2,
		"agility": 21,
		"dexterity": 15,
		"lucky": 3,
		"parameter_table_BattleEnemyParameterTable": 0,
		"parameter_deviation_table_BattleEnemyParameterDeviationTable": 0,
		"acquire_skill_group_id": 0,
		"level_correction": 0,
		"group_id": 0,
		"ai_script_id_BattleAIScript": 0
	}
]