[
	{
		"ID": 18010,
		"stage_BattleStage": 241005002,
		"unit_UnitUnit": 820004,
		"money": 65,
		"initial_coordinate_x": 14,
		"initial_coordinate_y": 7,
		"reinforcement_BattleReinforcement": 0,
		"initial_direction": 270.0,
		"ai_move_group": 0,
		"ai_target_move_x": 10,
		"ai_target_move_y": 5,
		"ai_skill_function": "",
		"ai_attack": "",
		"ai_move": "",
		"ai_heal": "",
		"ai_skill": "",
		"ai_use": "",
		"skill_group_id": 0,
		"gear_GearGear": 24011,
		"gear_rank": 1,
		"proficiency_UnitProficiency": 4,
		"level": 13,
		"hp": 27,
		"strength": 15,
		"vitality": 10,
		"intelligence": 0,
		"mind": 3,
		"agility": 10,
		"dexterity": 13,
		"lucky": 3,
		"parameter_table_BattleEnemyParameterTable": 0,
		"parameter_deviation_table_BattleEnemyParameterDeviationTable": 0,
		"acquire_skill_group_id": 0,
		"level_correction": 0,
		"group_id": 0,
		"ai_script_id_BattleAIScript": 0
	},
	{
		"ID": 18011,
		"stage_BattleStage": 241005002,
		"unit_UnitUnit": 820004,
		"money": 70,
		"initial_coordinate_x": 15,
		"initial_coordinate_y": 6,
		"reinforcement_BattleReinforcement": 0,
		"initial_direction": 270.0,
		"ai_move_group": 0,
		"ai_target_move_x": 10,
		"ai_target_move_y": 5,
		"ai_skill_function": "",
		"ai_attack": "",
		"ai_move": "",
		"ai_heal": "",
		"ai_skill": "",
		"ai_use": "",
		"skill_group_id": 0,
		"gear_GearGear": 24011,
		"gear_rank": 1,
		"proficiency_UnitProficiency": 4,
		"level": 14,
		"hp": 28,
		"strength": 16,
		"vitality": 10,
		"intelligence": 0,
		"mind": 3,
		"agility": 11,
		"dexterity": 13,
		"lucky": 3,
		"parameter_table_BattleEnemyParameterTable": 0,
		"parameter_deviation_table_BattleEnemyParameterDeviationTable": 0,
		"acquire_skill_group_id": 0,
		"level_correction": 0,
		"group_id": 0,
		"ai_script_id_BattleAIScript": 0
	},
	{
		"ID": 18012,
		"stage_BattleStage": 241005002,
		"unit_UnitUnit": 820004,
		"money": 75,
		"initial_coordinate_x": 12,
		"initial_coordinate_y": 12,
		"reinforcement_BattleReinforcement": 0,
		"initial_direction": 225.0,
		"ai_move_group": 0,
		"ai_target_move_x": 10,
		"ai_target_move_y": 5,
		"ai_skill_function": "",
		"ai_attack": "IF(turn <=2,0,1)",
		"ai_move": "",
		"ai_heal": "",
		"ai_skill": "",
		"ai_use": "",
		"skill_group_id": 0,
		"gear_GearGear": 24011,
		"gear_rank": 1,
		"proficiency_UnitProficiency": 4,
		"level": 15,
		"hp": 28,
		"strength": 17,
		"vitality": 11,
		"intelligence": 0,
		"mind": 3,
		"agility": 11,
		"dexterity": 14,
		"lucky": 3,
		"parameter_table_BattleEnemyParameterTable": 0,
		"parameter_deviation_table_BattleEnemyParameterDeviationTable": 0,
		"acquire_skill_group_id": 0,
		"level_correction": 0,
		"group_id": 0,
		"ai_script_id_BattleAIScript": 0
	},
	{
		"ID": 18013,
		"stage_BattleStage": 241005002,
		"unit_UnitUnit": 820004,
		"money": 80,
		"initial_coordinate_x": 5,
		"initial_coordinate_y": 12,
		"reinforcement_BattleReinforcement": 0,
		"initial_direction": 180.0,
		"ai_move_group": 0,
		"ai_target_move_x": 10,
		"ai_target_move_y": 5,
		"ai_skill_function": "",
		"ai_attack": "",
		"ai_move": "",
		"ai_heal": "",
		"ai_skill": "",
		"ai_use": "",
		"skill_group_id": 0,
		"gear_GearGear": 24011,
		"gear_rank": 1,
		"proficiency_UnitProficiency": 4,
		"level": 16,
		"hp": 29,
		"strength": 18,
		"vitality": 11,
		"intelligence": 0,
		"mind": 4,
		"agility": 12,
		"dexterity": 15,
		"lucky": 3,
		"parameter_table_BattleEnemyParameterTable": 0,
		"parameter_deviation_table_BattleEnemyParameterDeviationTable": 0,
		"acquire_skill_group_id": 0,
		"level_correction": 0,
		"group_id": 0,
		"ai_script_id_BattleAIScript": 0
	},
	{
		"ID": 18014,
		"stage_BattleStage": 241005002,
		"unit_UnitUnit": 820004,
		"money": 75,
		"initial_coordinate_x": 8,
		"initial_coordinate_y": 14,
		"reinforcement_BattleReinforcement": 0,
		"initial_direction": 180.0,
		"ai_move_group": 0,
		"ai_target_move_x": 10,
		"ai_target_move_y": 5,
		"ai_skill_function": "",
		"ai_attack": "IF(turn <=2,0,1)",
		"ai_move": "",
		"ai_heal": "",
		"ai_skill": "",
		"ai_use": "",
		"skill_group_id": 0,
		"gear_GearGear": 24011,
		"gear_rank": 1,
		"proficiency_UnitProficiency": 4,
		"level": 15,
		"hp": 28,
		"strength": 17,
		"vitality": 11,
		"intelligence": 0,
		"mind": 3,
		"agility": 11,
		"dexterity": 14,
		"lucky": 3,
		"parameter_table_BattleEnemyParameterTable": 0,
		"parameter_deviation_table_BattleEnemyParameterDeviationTable": 0,
		"acquire_skill_group_id": 0,
		"level_correction": 0,
		"group_id": 0,
		"ai_script_id_BattleAIScript": 0
	},
	{
		"ID": 18015,
		"stage_BattleStage": 241005002,
		"unit_UnitUnit": 820004,
		"money": 70,
		"initial_coordinate_x": 16,
		"initial_coordinate_y": 11,
		"reinforcement_BattleReinforcement": 0,
		"initial_direction": 180.0,
		"ai_move_group": 0,
		"ai_target_move_x": 10,
		"ai_target_move_y": 5,
		"ai_skill_function": "",
		"ai_attack": "IF(turn <=2,0,1)",
		"ai_move": "",
		"ai_heal": "",
		"ai_skill": "",
		"ai_use": "",
		"skill_group_id": 0,
		"gear_GearGear": 24011,
		"gear_rank": 1,
		"proficiency_UnitProficiency": 4,
		"level": 14,
		"hp": 28,
		"strength": 16,
		"vitality": 10,
		"intelligence": 0,
		"mind": 3,
		"agility": 11,
		"dexterity": 13,
		"lucky": 3,
		"parameter_table_BattleEnemyParameterTable": 0,
		"parameter_deviation_table_BattleEnemyParameterDeviationTable": 0,
		"acquire_skill_group_id": 0,
		"level_correction": 0,
		"group_id": 0,
		"ai_script_id_BattleAIScript": 0
	},
	{
		"ID": 18016,
		"stage_BattleStage": 241005002,
		"unit_UnitUnit": 830001,
		"money": 65,
		"initial_coordinate_x": 3,
		"initial_coordinate_y": 7,
		"reinforcement_BattleReinforcement": 0,
		"initial_direction": 90.0,
		"ai_move_group": 0,
		"ai_target_move_x": 10,
		"ai_target_move_y": 5,
		"ai_skill_function": "",
		"ai_attack": "IF(turn <=1,0,1)",
		"ai_move": "",
		"ai_heal": "",
		"ai_skill": "",
		"ai_use": "",
		"skill_group_id": 0,
		"gear_GearGear": 32001,
		"gear_rank": 1,
		"proficiency_UnitProficiency": 2,
		"level": 13,
		"hp": 25,
		"strength": 13,
		"vitality": 10,
		"intelligence": 4,
		"mind": 6,
		"agility": 14,
		"dexterity": 12,
		"lucky": 2,
		"parameter_table_BattleEnemyParameterTable": 0,
		"parameter_deviation_table_BattleEnemyParameterDeviationTable": 0,
		"acquire_skill_group_id": 0,
		"level_correction": 0,
		"group_id": 0,
		"ai_script_id_BattleAIScript": 0
	},
	{
		"ID": 18017,
		"stage_BattleStage": 241005002,
		"unit_UnitUnit": 830001,
		"money": 60,
		"initial_coordinate_x": 3,
		"initial_coordinate_y": 8,
		"reinforcement_BattleReinforcement": 0,
		"initial_direction": 90.0,
		"ai_move_group": 0,
		"ai_target_move_x": 10,
		"ai_target_move_y": 5,
		"ai_skill_function": "",
		"ai_attack": "IF(turn <=1,0,1)",
		"ai_move": "",
		"ai_heal": "",
		"ai_skill": "",
		"ai_use": "",
		"skill_group_id": 0,
		"gear_GearGear": 32002,
		"gear_rank": 1,
		"proficiency_UnitProficiency": 2,
		"level": 12,
		"hp": 24,
		"strength": 12,
		"vitality": 10,
		"intelligence": 4,
		"mind": 6,
		"agility": 14,
		"dexterity": 11,
		"lucky": 2,
		"parameter_table_BattleEnemyParameterTable": 0,
		"parameter_deviation_table_BattleEnemyParameterDeviationTable": 0,
		"acquire_skill_group_id": 0,
		"level_correction": 0,
		"group_id": 0,
		"ai_script_id_BattleAIScript": 0
	},
	{
		"ID": 18018,
		"stage_BattleStage": 241005002,
		"unit_UnitUnit": 830001,
		"money": 65,
		"initial_coordinate_x": 3,
		"initial_coordinate_y": 9,
		"reinforcement_BattleReinforcement": 0,
		"initial_direction": 90.0,
		"ai_move_group": 0,
		"ai_target_move_x": 10,
		"ai_target_move_y": 5,
		"ai_skill_function": "",
		"ai_attack": "IF(turn <=1,0,1)",
		"ai_move": "",
		"ai_heal": "",
		"ai_skill": "",
		"ai_use": "",
		"skill_group_id": 0,
		"gear_GearGear": 32003,
		"gear_rank": 1,
		"proficiency_UnitProficiency": 2,
		"level": 13,
		"hp": 25,
		"strength": 13,
		"vitality": 10,
		"intelligence": 4,
		"mind": 6,
		"agility": 14,
		"dexterity": 12,
		"lucky": 2,
		"parameter_table_BattleEnemyParameterTable": 0,
		"parameter_deviation_table_BattleEnemyParameterDeviationTable": 0,
		"acquire_skill_group_id": 0,
		"level_correction": 0,
		"group_id": 0,
		"ai_script_id_BattleAIScript": 0
	}
]