[
	{
		"ID": 65550,
		"stage_BattleStage": 241402121,
		"unit_UnitUnit": 3830001,
		"money": 350,
		"initial_coordinate_x": 13,
		"initial_coordinate_y": 5,
		"reinforcement_BattleReinforcement": 0,
		"initial_direction": 0.0,
		"ai_move_group": 0,
		"ai_target_move_x": -1,
		"ai_target_move_y": -1,
		"ai_skill_function": "",
		"ai_attack": "IF(panel_move_distance <= 5, 1, 0)",
		"ai_move": "0.0",
		"ai_heal": "",
		"ai_skill": "",
		"ai_use": "",
		"skill_group_id": 17847,
		"gear_GearGear": 16001,
		"gear_rank": 1,
		"proficiency_UnitProficiency": 6,
		"level": 70,
		"hp": 107,
		"strength": 78,
		"vitality": 497,
		"intelligence": 9,
		"mind": 425,
		"agility": 85,
		"dexterity": 86,
		"lucky": 42,
		"parameter_table_BattleEnemyParameterTable": 0,
		"parameter_deviation_table_BattleEnemyParameterDeviationTable": 0,
		"acquire_skill_group_id": 0,
		"level_correction": 0,
		"group_id": 1,
		"ai_script_id_BattleAIScript": 0
	},
	{
		"ID": 65551,
		"stage_BattleStage": 241402121,
		"unit_UnitUnit": 3830002,
		"money": 350,
		"initial_coordinate_x": 18,
		"initial_coordinate_y": 15,
		"reinforcement_BattleReinforcement": 0,
		"initial_direction": 180.0,
		"ai_move_group": 0,
		"ai_target_move_x": -1,
		"ai_target_move_y": -1,
		"ai_skill_function": "",
		"ai_attack": "IF(panel_move_distance <= 5, 1, 0)",
		"ai_move": "0.0",
		"ai_heal": "",
		"ai_skill": "",
		"ai_use": "",
		"skill_group_id": 17847,
		"gear_GearGear": 26001,
		"gear_rank": 1,
		"proficiency_UnitProficiency": 6,
		"level": 70,
		"hp": 122,
		"strength": 92,
		"vitality": 588,
		"intelligence": 8,
		"mind": 373,
		"agility": 68,
		"dexterity": 74,
		"lucky": 45,
		"parameter_table_BattleEnemyParameterTable": 0,
		"parameter_deviation_table_BattleEnemyParameterDeviationTable": 0,
		"acquire_skill_group_id": 0,
		"level_correction": 0,
		"group_id": 2,
		"ai_script_id_BattleAIScript": 0
	},
	{
		"ID": 65552,
		"stage_BattleStage": 241402121,
		"unit_UnitUnit": 3810004,
		"money": 350,
		"initial_coordinate_x": 5,
		"initial_coordinate_y": 6,
		"reinforcement_BattleReinforcement": 0,
		"initial_direction": 90.0,
		"ai_move_group": 0,
		"ai_target_move_x": -1,
		"ai_target_move_y": -1,
		"ai_skill_function": "",
		"ai_attack": "IF(panel_move_distance <= 6, 1, 0)",
		"ai_move": "0.0",
		"ai_heal": "",
		"ai_skill": "",
		"ai_use": "",
		"skill_group_id": 17852,
		"gear_GearGear": 46002,
		"gear_rank": 1,
		"proficiency_UnitProficiency": 6,
		"level": 70,
		"hp": 98,
		"strength": 71,
		"vitality": 474,
		"intelligence": 9,
		"mind": 433,
		"agility": 80,
		"dexterity": 84,
		"lucky": 46,
		"parameter_table_BattleEnemyParameterTable": 0,
		"parameter_deviation_table_BattleEnemyParameterDeviationTable": 0,
		"acquire_skill_group_id": 0,
		"level_correction": 0,
		"group_id": 3,
		"ai_script_id_BattleAIScript": 0
	},
	{
		"ID": 65553,
		"stage_BattleStage": 241402121,
		"unit_UnitUnit": 3830003,
		"money": 350,
		"initial_coordinate_x": 20,
		"initial_coordinate_y": 6,
		"reinforcement_BattleReinforcement": 0,
		"initial_direction": 270.0,
		"ai_move_group": 0,
		"ai_target_move_x": -1,
		"ai_target_move_y": -1,
		"ai_skill_function": "",
		"ai_attack": "IF(panel_move_distance <= 5, 1, 0)",
		"ai_move": "0.0",
		"ai_heal": "",
		"ai_skill": "",
		"ai_use": "",
		"skill_group_id": 17847,
		"gear_GearGear": 35004,
		"gear_rank": 1,
		"proficiency_UnitProficiency": 5,
		"level": 70,
		"hp": 107,
		"strength": 83,
		"vitality": 674,
		"intelligence": 6,
		"mind": 481,
		"agility": 76,
		"dexterity": 77,
		"lucky": 45,
		"parameter_table_BattleEnemyParameterTable": 0,
		"parameter_deviation_table_BattleEnemyParameterDeviationTable": 0,
		"acquire_skill_group_id": 0,
		"level_correction": 0,
		"group_id": 4,
		"ai_script_id_BattleAIScript": 0
	},
	{
		"ID": 65554,
		"stage_BattleStage": 241402121,
		"unit_UnitUnit": 3810005,
		"money": 350,
		"initial_coordinate_x": 13,
		"initial_coordinate_y": 20,
		"reinforcement_BattleReinforcement": 0,
		"initial_direction": 180.0,
		"ai_move_group": 0,
		"ai_target_move_x": -1,
		"ai_target_move_y": -1,
		"ai_skill_function": "",
		"ai_attack": "IF(panel_move_distance <= 6, 1, 0)",
		"ai_move": "0.0",
		"ai_heal": "",
		"ai_skill": "",
		"ai_use": "",
		"skill_group_id": 17850,
		"gear_GearGear": 56019,
		"gear_rank": 1,
		"proficiency_UnitProficiency": 6,
		"level": 70,
		"hp": 95,
		"strength": 10,
		"vitality": 330,
		"intelligence": 80,
		"mind": 452,
		"agility": 75,
		"dexterity": 84,
		"lucky": 45,
		"parameter_table_BattleEnemyParameterTable": 0,
		"parameter_deviation_table_BattleEnemyParameterDeviationTable": 0,
		"acquire_skill_group_id": 0,
		"level_correction": 0,
		"group_id": 5,
		"ai_script_id_BattleAIScript": 0
	},
	{
		"ID": 65555,
		"stage_BattleStage": 241402121,
		"unit_UnitUnit": 3830003,
		"money": 350,
		"initial_coordinate_x": 10,
		"initial_coordinate_y": 1,
		"reinforcement_BattleReinforcement": 0,
		"initial_direction": 0.0,
		"ai_move_group": 0,
		"ai_target_move_x": -1,
		"ai_target_move_y": -1,
		"ai_skill_function": "",
		"ai_attack": "IF(panel_move_distance <= 5, 1, 0)",
		"ai_move": "0.0",
		"ai_heal": "",
		"ai_skill": "",
		"ai_use": "",
		"skill_group_id": 17847,
		"gear_GearGear": 35004,
		"gear_rank": 1,
		"proficiency_UnitProficiency": 5,
		"level": 70,
		"hp": 108,
		"strength": 84,
		"vitality": 677,
		"intelligence": 6,
		"mind": 480,
		"agility": 75,
		"dexterity": 77,
		"lucky": 43,
		"parameter_table_BattleEnemyParameterTable": 0,
		"parameter_deviation_table_BattleEnemyParameterDeviationTable": 0,
		"acquire_skill_group_id": 0,
		"level_correction": 0,
		"group_id": 6,
		"ai_script_id_BattleAIScript": 0
	},
	{
		"ID": 65556,
		"stage_BattleStage": 241402121,
		"unit_UnitUnit": 3810004,
		"money": 375,
		"initial_coordinate_x": 2,
		"initial_coordinate_y": 14,
		"reinforcement_BattleReinforcement": 373,
		"initial_direction": 180.0,
		"ai_move_group": 0,
		"ai_target_move_x": -1,
		"ai_target_move_y": -1,
		"ai_skill_function": "",
		"ai_attack": "IF(panel_move_distance <= 6, 1, 0)",
		"ai_move": "0.0",
		"ai_heal": "",
		"ai_skill": "",
		"ai_use": "",
		"skill_group_id": 17852,
		"gear_GearGear": 46002,
		"gear_rank": 1,
		"proficiency_UnitProficiency": 6,
		"level": 75,
		"hp": 106,
		"strength": 77,
		"vitality": 507,
		"intelligence": 12,
		"mind": 464,
		"agility": 85,
		"dexterity": 90,
		"lucky": 46,
		"parameter_table_BattleEnemyParameterTable": 0,
		"parameter_deviation_table_BattleEnemyParameterDeviationTable": 0,
		"acquire_skill_group_id": 0,
		"level_correction": 0,
		"group_id": 7,
		"ai_script_id_BattleAIScript": 0
	},
	{
		"ID": 65557,
		"stage_BattleStage": 241402121,
		"unit_UnitUnit": 3830004,
		"money": 375,
		"initial_coordinate_x": 17,
		"initial_coordinate_y": 21,
		"reinforcement_BattleReinforcement": 374,
		"initial_direction": 180.0,
		"ai_move_group": 0,
		"ai_target_move_x": -1,
		"ai_target_move_y": -1,
		"ai_skill_function": "",
		"ai_attack": "IF(panel_move_distance <= 6, 1, 0)",
		"ai_move": "0.0",
		"ai_heal": "",
		"ai_skill": "",
		"ai_use": "",
		"skill_group_id": 17851,
		"gear_GearGear": 46002,
		"gear_rank": 1,
		"proficiency_UnitProficiency": 6,
		"level": 75,
		"hp": 107,
		"strength": 76,
		"vitality": 508,
		"intelligence": 7,
		"mind": 468,
		"agility": 82,
		"dexterity": 91,
		"lucky": 46,
		"parameter_table_BattleEnemyParameterTable": 0,
		"parameter_deviation_table_BattleEnemyParameterDeviationTable": 0,
		"acquire_skill_group_id": 0,
		"level_correction": 0,
		"group_id": 8,
		"ai_script_id_BattleAIScript": 0
	},
	{
		"ID": 65558,
		"stage_BattleStage": 241402121,
		"unit_UnitUnit": 3830002,
		"money": 375,
		"initial_coordinate_x": 11,
		"initial_coordinate_y": 5,
		"reinforcement_BattleReinforcement": 375,
		"initial_direction": 180.0,
		"ai_move_group": 0,
		"ai_target_move_x": -1,
		"ai_target_move_y": -1,
		"ai_skill_function": "",
		"ai_attack": "IF(panel_move_distance <= 5, 1, 0)",
		"ai_move": "0.0",
		"ai_heal": "",
		"ai_skill": "",
		"ai_use": "",
		"skill_group_id": 17847,
		"gear_GearGear": 26001,
		"gear_rank": 1,
		"proficiency_UnitProficiency": 6,
		"level": 75,
		"hp": 129,
		"strength": 99,
		"vitality": 629,
		"intelligence": 11,
		"mind": 395,
		"agility": 74,
		"dexterity": 79,
		"lucky": 48,
		"parameter_table_BattleEnemyParameterTable": 0,
		"parameter_deviation_table_BattleEnemyParameterDeviationTable": 0,
		"acquire_skill_group_id": 0,
		"level_correction": 0,
		"group_id": 9,
		"ai_script_id_BattleAIScript": 0
	},
	{
		"ID": 65559,
		"stage_BattleStage": 241402121,
		"unit_UnitUnit": 3830003,
		"money": 375,
		"initial_coordinate_x": 21,
		"initial_coordinate_y": 8,
		"reinforcement_BattleReinforcement": 376,
		"initial_direction": 180.0,
		"ai_move_group": 0,
		"ai_target_move_x": -1,
		"ai_target_move_y": -1,
		"ai_skill_function": "",
		"ai_attack": "IF(panel_move_distance <= 5, 1, 0)",
		"ai_move": "0.0",
		"ai_heal": "",
		"ai_skill": "",
		"ai_use": "",
		"skill_group_id": 17847,
		"gear_GearGear": 35004,
		"gear_rank": 1,
		"proficiency_UnitProficiency": 5,
		"level": 75,
		"hp": 113,
		"strength": 85,
		"vitality": 724,
		"intelligence": 10,
		"mind": 524,
		"agility": 81,
		"dexterity": 81,
		"lucky": 44,
		"parameter_table_BattleEnemyParameterTable": 0,
		"parameter_deviation_table_BattleEnemyParameterDeviationTable": 0,
		"acquire_skill_group_id": 0,
		"level_correction": 0,
		"group_id": 10,
		"ai_script_id_BattleAIScript": 0
	},
	{
		"ID": 65560,
		"stage_BattleStage": 241402121,
		"unit_UnitUnit": 3810005,
		"money": 375,
		"initial_coordinate_x": 10,
		"initial_coordinate_y": 16,
		"reinforcement_BattleReinforcement": 377,
		"initial_direction": 180.0,
		"ai_move_group": 0,
		"ai_target_move_x": -1,
		"ai_target_move_y": -1,
		"ai_skill_function": "",
		"ai_attack": "IF(panel_move_distance <= 6, 1, 0)",
		"ai_move": "0.0",
		"ai_heal": "",
		"ai_skill": "",
		"ai_use": "",
		"skill_group_id": 17850,
		"gear_GearGear": 56019,
		"gear_rank": 1,
		"proficiency_UnitProficiency": 6,
		"level": 75,
		"hp": 103,
		"strength": 14,
		"vitality": 355,
		"intelligence": 88,
		"mind": 485,
		"agility": 76,
		"dexterity": 92,
		"lucky": 48,
		"parameter_table_BattleEnemyParameterTable": 0,
		"parameter_deviation_table_BattleEnemyParameterDeviationTable": 0,
		"acquire_skill_group_id": 0,
		"level_correction": 0,
		"group_id": 11,
		"ai_script_id_BattleAIScript": 0
	},
	{
		"ID": 65561,
		"stage_BattleStage": 241402121,
		"unit_UnitUnit": 3830001,
		"money": 375,
		"initial_coordinate_x": 22,
		"initial_coordinate_y": 14,
		"reinforcement_BattleReinforcement": 378,
		"initial_direction": 180.0,
		"ai_move_group": 0,
		"ai_target_move_x": -1,
		"ai_target_move_y": -1,
		"ai_skill_function": "",
		"ai_attack": "IF(panel_move_distance <= 5, 1, 0)",
		"ai_move": "0.0",
		"ai_heal": "",
		"ai_skill": "",
		"ai_use": "",
		"skill_group_id": 17847,
		"gear_GearGear": 16001,
		"gear_rank": 1,
		"proficiency_UnitProficiency": 6,
		"level": 75,
		"hp": 113,
		"strength": 80,
		"vitality": 533,
		"intelligence": 7,
		"mind": 452,
		"agility": 90,
		"dexterity": 89,
		"lucky": 43,
		"parameter_table_BattleEnemyParameterTable": 0,
		"parameter_deviation_table_BattleEnemyParameterDeviationTable": 0,
		"acquire_skill_group_id": 0,
		"level_correction": 0,
		"group_id": 12,
		"ai_script_id_BattleAIScript": 0
	},
	{
		"ID": 65562,
		"stage_BattleStage": 241402121,
		"unit_UnitUnit": 3810004,
		"money": 400,
		"initial_coordinate_x": 3,
		"initial_coordinate_y": 21,
		"reinforcement_BattleReinforcement": 379,
		"initial_direction": 180.0,
		"ai_move_group": 0,
		"ai_target_move_x": -1,
		"ai_target_move_y": -1,
		"ai_skill_function": "",
		"ai_attack": "IF(panel_move_distance <= 6, 1, 0)",
		"ai_move": "0.0",
		"ai_heal": "",
		"ai_skill": "",
		"ai_use": "",
		"skill_group_id": 17852,
		"gear_GearGear": 46002,
		"gear_rank": 1,
		"proficiency_UnitProficiency": 6,
		"level": 80,
		"hp": 110,
		"strength": 82,
		"vitality": 539,
		"intelligence": 13,
		"mind": 501,
		"agility": 89,
		"dexterity": 92,
		"lucky": 48,
		"parameter_table_BattleEnemyParameterTable": 0,
		"parameter_deviation_table_BattleEnemyParameterDeviationTable": 0,
		"acquire_skill_group_id": 0,
		"level_correction": 0,
		"group_id": 13,
		"ai_script_id_BattleAIScript": 0
	},
	{
		"ID": 65563,
		"stage_BattleStage": 241402121,
		"unit_UnitUnit": 3830002,
		"money": 400,
		"initial_coordinate_x": 15,
		"initial_coordinate_y": 14,
		"reinforcement_BattleReinforcement": 380,
		"initial_direction": 180.0,
		"ai_move_group": 0,
		"ai_target_move_x": -1,
		"ai_target_move_y": -1,
		"ai_skill_function": "",
		"ai_attack": "IF(panel_move_distance <= 5, 1, 0)",
		"ai_move": "0.0",
		"ai_heal": "",
		"ai_skill": "",
		"ai_use": "",
		"skill_group_id": 17847,
		"gear_GearGear": 26001,
		"gear_rank": 1,
		"proficiency_UnitProficiency": 6,
		"level": 80,
		"hp": 139,
		"strength": 104,
		"vitality": 665,
		"intelligence": 7,
		"mind": 417,
		"agility": 77,
		"dexterity": 85,
		"lucky": 48,
		"parameter_table_BattleEnemyParameterTable": 0,
		"parameter_deviation_table_BattleEnemyParameterDeviationTable": 0,
		"acquire_skill_group_id": 0,
		"level_correction": 0,
		"group_id": 14,
		"ai_script_id_BattleAIScript": 0
	},
	{
		"ID": 65564,
		"stage_BattleStage": 241402121,
		"unit_UnitUnit": 3810005,
		"money": 400,
		"initial_coordinate_x": 4,
		"initial_coordinate_y": 8,
		"reinforcement_BattleReinforcement": 381,
		"initial_direction": 180.0,
		"ai_move_group": 0,
		"ai_target_move_x": -1,
		"ai_target_move_y": -1,
		"ai_skill_function": "",
		"ai_attack": "IF(panel_move_distance <= 6, 1, 0)",
		"ai_move": "0.0",
		"ai_heal": "",
		"ai_skill": "",
		"ai_use": "",
		"skill_group_id": 17850,
		"gear_GearGear": 56019,
		"gear_rank": 1,
		"proficiency_UnitProficiency": 6,
		"level": 80,
		"hp": 107,
		"strength": 12,
		"vitality": 376,
		"intelligence": 92,
		"mind": 516,
		"agility": 83,
		"dexterity": 94,
		"lucky": 50,
		"parameter_table_BattleEnemyParameterTable": 0,
		"parameter_deviation_table_BattleEnemyParameterDeviationTable": 0,
		"acquire_skill_group_id": 0,
		"level_correction": 0,
		"group_id": 15,
		"ai_script_id_BattleAIScript": 0
	},
	{
		"ID": 65565,
		"stage_BattleStage": 241402121,
		"unit_UnitUnit": 3830003,
		"money": 400,
		"initial_coordinate_x": 18,
		"initial_coordinate_y": 12,
		"reinforcement_BattleReinforcement": 382,
		"initial_direction": 180.0,
		"ai_move_group": 0,
		"ai_target_move_x": -1,
		"ai_target_move_y": -1,
		"ai_skill_function": "",
		"ai_attack": "IF(panel_move_distance <= 5, 1, 0)",
		"ai_move": "0.0",
		"ai_heal": "",
		"ai_skill": "",
		"ai_use": "",
		"skill_group_id": 17847,
		"gear_GearGear": 35004,
		"gear_rank": 1,
		"proficiency_UnitProficiency": 5,
		"level": 80,
		"hp": 123,
		"strength": 94,
		"vitality": 769,
		"intelligence": 7,
		"mind": 552,
		"agility": 88,
		"dexterity": 87,
		"lucky": 47,
		"parameter_table_BattleEnemyParameterTable": 0,
		"parameter_deviation_table_BattleEnemyParameterDeviationTable": 0,
		"acquire_skill_group_id": 0,
		"level_correction": 0,
		"group_id": 16,
		"ai_script_id_BattleAIScript": 0
	},
	{
		"ID": 65566,
		"stage_BattleStage": 241402121,
		"unit_UnitUnit": 3810004,
		"money": 400,
		"initial_coordinate_x": 2,
		"initial_coordinate_y": 3,
		"reinforcement_BattleReinforcement": 383,
		"initial_direction": 180.0,
		"ai_move_group": 0,
		"ai_target_move_x": -1,
		"ai_target_move_y": -1,
		"ai_skill_function": "",
		"ai_attack": "IF(panel_move_distance <= 6, 1, 0)",
		"ai_move": "0.0",
		"ai_heal": "",
		"ai_skill": "",
		"ai_use": "",
		"skill_group_id": 17852,
		"gear_GearGear": 46002,
		"gear_rank": 1,
		"proficiency_UnitProficiency": 6,
		"level": 80,
		"hp": 112,
		"strength": 84,
		"vitality": 536,
		"intelligence": 9,
		"mind": 499,
		"agility": 86,
		"dexterity": 92,
		"lucky": 49,
		"parameter_table_BattleEnemyParameterTable": 0,
		"parameter_deviation_table_BattleEnemyParameterDeviationTable": 0,
		"acquire_skill_group_id": 0,
		"level_correction": 0,
		"group_id": 17,
		"ai_script_id_BattleAIScript": 0
	},
	{
		"ID": 65567,
		"stage_BattleStage": 241402121,
		"unit_UnitUnit": 3810005,
		"money": 400,
		"initial_coordinate_x": 5,
		"initial_coordinate_y": 20,
		"reinforcement_BattleReinforcement": 384,
		"initial_direction": 180.0,
		"ai_move_group": 0,
		"ai_target_move_x": -1,
		"ai_target_move_y": -1,
		"ai_skill_function": "",
		"ai_attack": "IF(panel_move_distance <= 6, 1, 0)",
		"ai_move": "0.0",
		"ai_heal": "",
		"ai_skill": "",
		"ai_use": "",
		"skill_group_id": 17850,
		"gear_GearGear": 56019,
		"gear_rank": 1,
		"proficiency_UnitProficiency": 6,
		"level": 80,
		"hp": 109,
		"strength": 12,
		"vitality": 380,
		"intelligence": 91,
		"mind": 513,
		"agility": 81,
		"dexterity": 97,
		"lucky": 49,
		"parameter_table_BattleEnemyParameterTable": 0,
		"parameter_deviation_table_BattleEnemyParameterDeviationTable": 0,
		"acquire_skill_group_id": 0,
		"level_correction": 0,
		"group_id": 18,
		"ai_script_id_BattleAIScript": 0
	},
	{
		"ID": 65568,
		"stage_BattleStage": 241402121,
		"unit_UnitUnit": 3830001,
		"money": 425,
		"initial_coordinate_x": 15,
		"initial_coordinate_y": 5,
		"reinforcement_BattleReinforcement": 385,
		"initial_direction": 180.0,
		"ai_move_group": 0,
		"ai_target_move_x": -1,
		"ai_target_move_y": -1,
		"ai_skill_function": "",
		"ai_attack": "IF(panel_move_distance <= 5, 1, 0)",
		"ai_move": "0.0",
		"ai_heal": "",
		"ai_skill": "",
		"ai_use": "",
		"skill_group_id": 17847,
		"gear_GearGear": 16001,
		"gear_rank": 1,
		"proficiency_UnitProficiency": 6,
		"level": 85,
		"hp": 121,
		"strength": 90,
		"vitality": 593,
		"intelligence": 8,
		"mind": 512,
		"agility": 103,
		"dexterity": 100,
		"lucky": 49,
		"parameter_table_BattleEnemyParameterTable": 0,
		"parameter_deviation_table_BattleEnemyParameterDeviationTable": 0,
		"acquire_skill_group_id": 0,
		"level_correction": 0,
		"group_id": 19,
		"ai_script_id_BattleAIScript": 0
	},
	{
		"ID": 65569,
		"stage_BattleStage": 241402121,
		"unit_UnitUnit": 3810004,
		"money": 425,
		"initial_coordinate_x": 6,
		"initial_coordinate_y": 15,
		"reinforcement_BattleReinforcement": 386,
		"initial_direction": 180.0,
		"ai_move_group": 0,
		"ai_target_move_x": -1,
		"ai_target_move_y": -1,
		"ai_skill_function": "",
		"ai_attack": "IF(panel_move_distance <= 6, 1, 0)",
		"ai_move": "0.0",
		"ai_heal": "",
		"ai_skill": "",
		"ai_use": "",
		"skill_group_id": 17852,
		"gear_GearGear": 46002,
		"gear_rank": 1,
		"proficiency_UnitProficiency": 6,
		"level": 85,
		"hp": 114,
		"strength": 88,
		"vitality": 571,
		"intelligence": 8,
		"mind": 530,
		"agility": 92,
		"dexterity": 98,
		"lucky": 50,
		"parameter_table_BattleEnemyParameterTable": 0,
		"parameter_deviation_table_BattleEnemyParameterDeviationTable": 0,
		"acquire_skill_group_id": 0,
		"level_correction": 0,
		"group_id": 20,
		"ai_script_id_BattleAIScript": 0
	},
	{
		"ID": 65570,
		"stage_BattleStage": 241402121,
		"unit_UnitUnit": 3830001,
		"money": 425,
		"initial_coordinate_x": 20,
		"initial_coordinate_y": 17,
		"reinforcement_BattleReinforcement": 387,
		"initial_direction": 180.0,
		"ai_move_group": 0,
		"ai_target_move_x": -1,
		"ai_target_move_y": -1,
		"ai_skill_function": "",
		"ai_attack": "IF(panel_move_distance <= 5, 1, 0)",
		"ai_move": "0.0",
		"ai_heal": "",
		"ai_skill": "",
		"ai_use": "",
		"skill_group_id": 17847,
		"gear_GearGear": 16001,
		"gear_rank": 1,
		"proficiency_UnitProficiency": 6,
		"level": 85,
		"hp": 123,
		"strength": 90,
		"vitality": 597,
		"intelligence": 10,
		"mind": 517,
		"agility": 100,
		"dexterity": 103,
		"lucky": 54,
		"parameter_table_BattleEnemyParameterTable": 0,
		"parameter_deviation_table_BattleEnemyParameterDeviationTable": 0,
		"acquire_skill_group_id": 0,
		"level_correction": 0,
		"group_id": 21,
		"ai_script_id_BattleAIScript": 0
	},
	{
		"ID": 65571,
		"stage_BattleStage": 241402121,
		"unit_UnitUnit": 3810005,
		"money": 425,
		"initial_coordinate_x": 10,
		"initial_coordinate_y": 14,
		"reinforcement_BattleReinforcement": 388,
		"initial_direction": 180.0,
		"ai_move_group": 0,
		"ai_target_move_x": -1,
		"ai_target_move_y": -1,
		"ai_skill_function": "",
		"ai_attack": "IF(panel_move_distance <= 6, 1, 0)",
		"ai_move": "0.0",
		"ai_heal": "",
		"ai_skill": "",
		"ai_use": "",
		"skill_group_id": 17850,
		"gear_GearGear": 56019,
		"gear_rank": 1,
		"proficiency_UnitProficiency": 6,
		"level": 85,
		"hp": 113,
		"strength": 12,
		"vitality": 401,
		"intelligence": 97,
		"mind": 540,
		"agility": 86,
		"dexterity": 100,
		"lucky": 49,
		"parameter_table_BattleEnemyParameterTable": 0,
		"parameter_deviation_table_BattleEnemyParameterDeviationTable": 0,
		"acquire_skill_group_id": 0,
		"level_correction": 0,
		"group_id": 22,
		"ai_script_id_BattleAIScript": 0
	},
	{
		"ID": 65572,
		"stage_BattleStage": 241402121,
		"unit_UnitUnit": 3810004,
		"money": 425,
		"initial_coordinate_x": 15,
		"initial_coordinate_y": 21,
		"reinforcement_BattleReinforcement": 389,
		"initial_direction": 180.0,
		"ai_move_group": 0,
		"ai_target_move_x": -1,
		"ai_target_move_y": -1,
		"ai_skill_function": "",
		"ai_attack": "IF(panel_move_distance <= 6, 1, 0)",
		"ai_move": "0.0",
		"ai_heal": "",
		"ai_skill": "",
		"ai_use": "",
		"skill_group_id": 17852,
		"gear_GearGear": 46002,
		"gear_rank": 1,
		"proficiency_UnitProficiency": 6,
		"level": 85,
		"hp": 115,
		"strength": 85,
		"vitality": 570,
		"intelligence": 10,
		"mind": 531,
		"agility": 96,
		"dexterity": 102,
		"lucky": 50,
		"parameter_table_BattleEnemyParameterTable": 0,
		"parameter_deviation_table_BattleEnemyParameterDeviationTable": 0,
		"acquire_skill_group_id": 0,
		"level_correction": 0,
		"group_id": 23,
		"ai_script_id_BattleAIScript": 0
	},
	{
		"ID": 65573,
		"stage_BattleStage": 241402121,
		"unit_UnitUnit": 3830002,
		"money": 425,
		"initial_coordinate_x": 14,
		"initial_coordinate_y": 9,
		"reinforcement_BattleReinforcement": 390,
		"initial_direction": 180.0,
		"ai_move_group": 0,
		"ai_target_move_x": -1,
		"ai_target_move_y": -1,
		"ai_skill_function": "",
		"ai_attack": "IF(panel_move_distance <= 5, 1, 0)",
		"ai_move": "0.0",
		"ai_heal": "",
		"ai_skill": "",
		"ai_use": "",
		"skill_group_id": 17847,
		"gear_GearGear": 26001,
		"gear_rank": 1,
		"proficiency_UnitProficiency": 6,
		"level": 85,
		"hp": 144,
		"strength": 106,
		"vitality": 704,
		"intelligence": 10,
		"mind": 441,
		"agility": 83,
		"dexterity": 88,
		"lucky": 54,
		"parameter_table_BattleEnemyParameterTable": 0,
		"parameter_deviation_table_BattleEnemyParameterDeviationTable": 0,
		"acquire_skill_group_id": 0,
		"level_correction": 0,
		"group_id": 24,
		"ai_script_id_BattleAIScript": 0
	},
	{
		"ID": 65574,
		"stage_BattleStage": 241402121,
		"unit_UnitUnit": 3810005,
		"money": 450,
		"initial_coordinate_x": 8,
		"initial_coordinate_y": 20,
		"reinforcement_BattleReinforcement": 391,
		"initial_direction": 180.0,
		"ai_move_group": 0,
		"ai_target_move_x": -1,
		"ai_target_move_y": -1,
		"ai_skill_function": "",
		"ai_attack": "IF(panel_move_distance <= 6, 1, 0)",
		"ai_move": "0.0",
		"ai_heal": "",
		"ai_skill": "",
		"ai_use": "",
		"skill_group_id": 17850,
		"gear_GearGear": 56019,
		"gear_rank": 1,
		"proficiency_UnitProficiency": 6,
		"level": 90,
		"hp": 121,
		"strength": 11,
		"vitality": 428,
		"intelligence": 99,
		"mind": 570,
		"agility": 92,
		"dexterity": 109,
		"lucky": 53,
		"parameter_table_BattleEnemyParameterTable": 0,
		"parameter_deviation_table_BattleEnemyParameterDeviationTable": 0,
		"acquire_skill_group_id": 0,
		"level_correction": 0,
		"group_id": 0,
		"ai_script_id_BattleAIScript": 0
	},
	{
		"ID": 65575,
		"stage_BattleStage": 241402121,
		"unit_UnitUnit": 3830003,
		"money": 450,
		"initial_coordinate_x": 21,
		"initial_coordinate_y": 2,
		"reinforcement_BattleReinforcement": 392,
		"initial_direction": 180.0,
		"ai_move_group": 0,
		"ai_target_move_x": -1,
		"ai_target_move_y": -1,
		"ai_skill_function": "",
		"ai_attack": "IF(panel_move_distance <= 5, 1, 0)",
		"ai_move": "0.0",
		"ai_heal": "",
		"ai_skill": "",
		"ai_use": "",
		"skill_group_id": 17847,
		"gear_GearGear": 35004,
		"gear_rank": 1,
		"proficiency_UnitProficiency": 5,
		"level": 90,
		"hp": 135,
		"strength": 102,
		"vitality": 860,
		"intelligence": 10,
		"mind": 624,
		"agility": 99,
		"dexterity": 97,
		"lucky": 53,
		"parameter_table_BattleEnemyParameterTable": 0,
		"parameter_deviation_table_BattleEnemyParameterDeviationTable": 0,
		"acquire_skill_group_id": 0,
		"level_correction": 0,
		"group_id": 0,
		"ai_script_id_BattleAIScript": 0
	},
	{
		"ID": 65576,
		"stage_BattleStage": 241402121,
		"unit_UnitUnit": 3810005,
		"money": 450,
		"initial_coordinate_x": 3,
		"initial_coordinate_y": 3,
		"reinforcement_BattleReinforcement": 393,
		"initial_direction": 180.0,
		"ai_move_group": 0,
		"ai_target_move_x": -1,
		"ai_target_move_y": -1,
		"ai_skill_function": "",
		"ai_attack": "IF(panel_move_distance <= 6, 1, 0)",
		"ai_move": "0.0",
		"ai_heal": "",
		"ai_skill": "",
		"ai_use": "",
		"skill_group_id": 17850,
		"gear_GearGear": 56019,
		"gear_rank": 1,
		"proficiency_UnitProficiency": 6,
		"level": 90,
		"hp": 122,
		"strength": 13,
		"vitality": 427,
		"intelligence": 104,
		"mind": 573,
		"agility": 89,
		"dexterity": 108,
		"lucky": 52,
		"parameter_table_BattleEnemyParameterTable": 0,
		"parameter_deviation_table_BattleEnemyParameterDeviationTable": 0,
		"acquire_skill_group_id": 0,
		"level_correction": 0,
		"group_id": 0,
		"ai_script_id_BattleAIScript": 0
	},
	{
		"ID": 65577,
		"stage_BattleStage": 241402121,
		"unit_UnitUnit": 3830001,
		"money": 450,
		"initial_coordinate_x": 17,
		"initial_coordinate_y": 16,
		"reinforcement_BattleReinforcement": 394,
		"initial_direction": 180.0,
		"ai_move_group": 0,
		"ai_target_move_x": -1,
		"ai_target_move_y": -1,
		"ai_skill_function": "",
		"ai_attack": "IF(panel_move_distance <= 5, 1, 0)",
		"ai_move": "0.0",
		"ai_heal": "",
		"ai_skill": "",
		"ai_use": "",
		"skill_group_id": 17847,
		"gear_GearGear": 16001,
		"gear_rank": 1,
		"proficiency_UnitProficiency": 6,
		"level": 90,
		"hp": 128,
		"strength": 99,
		"vitality": 633,
		"intelligence": 11,
		"mind": 544,
		"agility": 105,
		"dexterity": 106,
		"lucky": 53,
		"parameter_table_BattleEnemyParameterTable": 0,
		"parameter_deviation_table_BattleEnemyParameterDeviationTable": 0,
		"acquire_skill_group_id": 0,
		"level_correction": 0,
		"group_id": 0,
		"ai_script_id_BattleAIScript": 0
	},
	{
		"ID": 65578,
		"stage_BattleStage": 241402121,
		"unit_UnitUnit": 3810004,
		"money": 450,
		"initial_coordinate_x": 7,
		"initial_coordinate_y": 7,
		"reinforcement_BattleReinforcement": 395,
		"initial_direction": 180.0,
		"ai_move_group": 0,
		"ai_target_move_x": -1,
		"ai_target_move_y": -1,
		"ai_skill_function": "",
		"ai_attack": "IF(panel_move_distance <= 6, 1, 0)",
		"ai_move": "0.0",
		"ai_heal": "",
		"ai_skill": "",
		"ai_use": "",
		"skill_group_id": 17852,
		"gear_GearGear": 46002,
		"gear_rank": 1,
		"proficiency_UnitProficiency": 6,
		"level": 90,
		"hp": 120,
		"strength": 94,
		"vitality": 600,
		"intelligence": 10,
		"mind": 562,
		"agility": 97,
		"dexterity": 106,
		"lucky": 53,
		"parameter_table_BattleEnemyParameterTable": 0,
		"parameter_deviation_table_BattleEnemyParameterDeviationTable": 0,
		"acquire_skill_group_id": 0,
		"level_correction": 0,
		"group_id": 0,
		"ai_script_id_BattleAIScript": 0
	},
	{
		"ID": 65579,
		"stage_BattleStage": 241402121,
		"unit_UnitUnit": 3810005,
		"money": 450,
		"initial_coordinate_x": 11,
		"initial_coordinate_y": 20,
		"reinforcement_BattleReinforcement": 396,
		"initial_direction": 180.0,
		"ai_move_group": 0,
		"ai_target_move_x": -1,
		"ai_target_move_y": -1,
		"ai_skill_function": "",
		"ai_attack": "IF(panel_move_distance <= 6, 1, 0)",
		"ai_move": "0.0",
		"ai_heal": "",
		"ai_skill": "",
		"ai_use": "",
		"skill_group_id": 17850,
		"gear_GearGear": 56019,
		"gear_rank": 1,
		"proficiency_UnitProficiency": 6,
		"level": 90,
		"hp": 120,
		"strength": 15,
		"vitality": 429,
		"intelligence": 101,
		"mind": 573,
		"agility": 90,
		"dexterity": 107,
		"lucky": 54,
		"parameter_table_BattleEnemyParameterTable": 0,
		"parameter_deviation_table_BattleEnemyParameterDeviationTable": 0,
		"acquire_skill_group_id": 0,
		"level_correction": 0,
		"group_id": 0,
		"ai_script_id_BattleAIScript": 0
	},
	{
		"ID": 65580,
		"stage_BattleStage": 241402121,
		"unit_UnitUnit": 3501713,
		"money": 450,
		"initial_coordinate_x": 21,
		"initial_coordinate_y": 13,
		"reinforcement_BattleReinforcement": 2,
		"initial_direction": 180.0,
		"ai_move_group": 0,
		"ai_target_move_x": -1,
		"ai_target_move_y": -1,
		"ai_skill_function": "",
		"ai_attack": "IF(panel_move_distance <= 5, 1, 0)",
		"ai_move": "0.0",
		"ai_heal": "",
		"ai_skill": "",
		"ai_use": "",
		"skill_group_id": 17846,
		"gear_GearGear": 56018,
		"gear_rank": 1,
		"proficiency_UnitProficiency": 6,
		"level": 90,
		"hp": 131,
		"strength": 21,
		"vitality": 44,
		"intelligence": 110,
		"mind": 78,
		"agility": 120,
		"dexterity": 115,
		"lucky": 51,
		"parameter_table_BattleEnemyParameterTable": 0,
		"parameter_deviation_table_BattleEnemyParameterDeviationTable": 0,
		"acquire_skill_group_id": 0,
		"level_correction": 0,
		"group_id": 0,
		"ai_script_id_BattleAIScript": 0
	},
	{
		"ID": 65581,
		"stage_BattleStage": 241402121,
		"unit_UnitUnit": 3102313,
		"money": 450,
		"initial_coordinate_x": 3,
		"initial_coordinate_y": 9,
		"reinforcement_BattleReinforcement": 2,
		"initial_direction": 180.0,
		"ai_move_group": 0,
		"ai_target_move_x": -1,
		"ai_target_move_y": -1,
		"ai_skill_function": "",
		"ai_attack": "IF(panel_move_distance <= 5, 1, 0)",
		"ai_move": "0.0",
		"ai_heal": "",
		"ai_skill": "",
		"ai_use": "",
		"skill_group_id": 17845,
		"gear_GearGear": 16040,
		"gear_rank": 1,
		"proficiency_UnitProficiency": 6,
		"level": 90,
		"hp": 131,
		"strength": 106,
		"vitality": 77,
		"intelligence": 21,
		"mind": 46,
		"agility": 120,
		"dexterity": 117,
		"lucky": 51,
		"parameter_table_BattleEnemyParameterTable": 0,
		"parameter_deviation_table_BattleEnemyParameterDeviationTable": 0,
		"acquire_skill_group_id": 0,
		"level_correction": 0,
		"group_id": 0,
		"ai_script_id_BattleAIScript": 0
	},
	{
		"ID": 65582,
		"stage_BattleStage": 241402121,
		"unit_UnitUnit": 3501713,
		"money": 450,
		"initial_coordinate_x": 13,
		"initial_coordinate_y": 17,
		"reinforcement_BattleReinforcement": 3,
		"initial_direction": 180.0,
		"ai_move_group": 0,
		"ai_target_move_x": -1,
		"ai_target_move_y": -1,
		"ai_skill_function": "",
		"ai_attack": "IF(panel_move_distance <= 5, 1, 0)",
		"ai_move": "0.0",
		"ai_heal": "",
		"ai_skill": "",
		"ai_use": "",
		"skill_group_id": 17846,
		"gear_GearGear": 56018,
		"gear_rank": 1,
		"proficiency_UnitProficiency": 6,
		"level": 90,
		"hp": 131,
		"strength": 21,
		"vitality": 44,
		"intelligence": 110,
		"mind": 78,
		"agility": 120,
		"dexterity": 115,
		"lucky": 51,
		"parameter_table_BattleEnemyParameterTable": 0,
		"parameter_deviation_table_BattleEnemyParameterDeviationTable": 0,
		"acquire_skill_group_id": 0,
		"level_correction": 0,
		"group_id": 0,
		"ai_script_id_BattleAIScript": 0
	},
	{
		"ID": 65583,
		"stage_BattleStage": 241402121,
		"unit_UnitUnit": 3102313,
		"money": 450,
		"initial_coordinate_x": 13,
		"initial_coordinate_y": 4,
		"reinforcement_BattleReinforcement": 3,
		"initial_direction": 180.0,
		"ai_move_group": 0,
		"ai_target_move_x": -1,
		"ai_target_move_y": -1,
		"ai_skill_function": "",
		"ai_attack": "IF(panel_move_distance <= 5, 1, 0)",
		"ai_move": "0.0",
		"ai_heal": "",
		"ai_skill": "",
		"ai_use": "",
		"skill_group_id": 17845,
		"gear_GearGear": 16040,
		"gear_rank": 1,
		"proficiency_UnitProficiency": 6,
		"level": 90,
		"hp": 131,
		"strength": 106,
		"vitality": 77,
		"intelligence": 21,
		"mind": 46,
		"agility": 120,
		"dexterity": 117,
		"lucky": 51,
		"parameter_table_BattleEnemyParameterTable": 0,
		"parameter_deviation_table_BattleEnemyParameterDeviationTable": 0,
		"acquire_skill_group_id": 0,
		"level_correction": 0,
		"group_id": 0,
		"ai_script_id_BattleAIScript": 0
	},
	{
		"ID": 65584,
		"stage_BattleStage": 241402121,
		"unit_UnitUnit": 3501713,
		"money": 450,
		"initial_coordinate_x": 22,
		"initial_coordinate_y": 21,
		"reinforcement_BattleReinforcement": 4,
		"initial_direction": 180.0,
		"ai_move_group": 0,
		"ai_target_move_x": -1,
		"ai_target_move_y": -1,
		"ai_skill_function": "",
		"ai_attack": "IF(panel_move_distance <= 5, 1, 0)",
		"ai_move": "0.0",
		"ai_heal": "",
		"ai_skill": "",
		"ai_use": "",
		"skill_group_id": 17846,
		"gear_GearGear": 56018,
		"gear_rank": 1,
		"proficiency_UnitProficiency": 6,
		"level": 90,
		"hp": 131,
		"strength": 21,
		"vitality": 44,
		"intelligence": 110,
		"mind": 78,
		"agility": 120,
		"dexterity": 115,
		"lucky": 51,
		"parameter_table_BattleEnemyParameterTable": 0,
		"parameter_deviation_table_BattleEnemyParameterDeviationTable": 0,
		"acquire_skill_group_id": 0,
		"level_correction": 0,
		"group_id": 0,
		"ai_script_id_BattleAIScript": 0
	},
	{
		"ID": 65585,
		"stage_BattleStage": 241402121,
		"unit_UnitUnit": 3102313,
		"money": 450,
		"initial_coordinate_x": 16,
		"initial_coordinate_y": 2,
		"reinforcement_BattleReinforcement": 4,
		"initial_direction": 180.0,
		"ai_move_group": 0,
		"ai_target_move_x": -1,
		"ai_target_move_y": -1,
		"ai_skill_function": "",
		"ai_attack": "IF(panel_move_distance <= 5, 1, 0)",
		"ai_move": "0.0",
		"ai_heal": "",
		"ai_skill": "",
		"ai_use": "",
		"skill_group_id": 17845,
		"gear_GearGear": 16040,
		"gear_rank": 1,
		"proficiency_UnitProficiency": 6,
		"level": 90,
		"hp": 131,
		"strength": 106,
		"vitality": 77,
		"intelligence": 21,
		"mind": 46,
		"agility": 120,
		"dexterity": 117,
		"lucky": 51,
		"parameter_table_BattleEnemyParameterTable": 0,
		"parameter_deviation_table_BattleEnemyParameterDeviationTable": 0,
		"acquire_skill_group_id": 0,
		"level_correction": 0,
		"group_id": 0,
		"ai_script_id_BattleAIScript": 0
	},
	{
		"ID": 65586,
		"stage_BattleStage": 241402121,
		"unit_UnitUnit": 3501713,
		"money": 450,
		"initial_coordinate_x": 8,
		"initial_coordinate_y": 2,
		"reinforcement_BattleReinforcement": 5,
		"initial_direction": 180.0,
		"ai_move_group": 0,
		"ai_target_move_x": -1,
		"ai_target_move_y": -1,
		"ai_skill_function": "",
		"ai_attack": "IF(panel_move_distance <= 5, 1, 0)",
		"ai_move": "0.0",
		"ai_heal": "",
		"ai_skill": "",
		"ai_use": "",
		"skill_group_id": 17846,
		"gear_GearGear": 56018,
		"gear_rank": 1,
		"proficiency_UnitProficiency": 6,
		"level": 90,
		"hp": 131,
		"strength": 21,
		"vitality": 44,
		"intelligence": 110,
		"mind": 78,
		"agility": 120,
		"dexterity": 115,
		"lucky": 51,
		"parameter_table_BattleEnemyParameterTable": 0,
		"parameter_deviation_table_BattleEnemyParameterDeviationTable": 0,
		"acquire_skill_group_id": 0,
		"level_correction": 0,
		"group_id": 0,
		"ai_script_id_BattleAIScript": 0
	},
	{
		"ID": 65587,
		"stage_BattleStage": 241402121,
		"unit_UnitUnit": 3102313,
		"money": 450,
		"initial_coordinate_x": 12,
		"initial_coordinate_y": 11,
		"reinforcement_BattleReinforcement": 5,
		"initial_direction": 180.0,
		"ai_move_group": 0,
		"ai_target_move_x": -1,
		"ai_target_move_y": -1,
		"ai_skill_function": "",
		"ai_attack": "IF(panel_move_distance <= 5, 1, 0)",
		"ai_move": "0.0",
		"ai_heal": "",
		"ai_skill": "",
		"ai_use": "",
		"skill_group_id": 17845,
		"gear_GearGear": 16040,
		"gear_rank": 1,
		"proficiency_UnitProficiency": 6,
		"level": 90,
		"hp": 131,
		"strength": 106,
		"vitality": 77,
		"intelligence": 21,
		"mind": 46,
		"agility": 120,
		"dexterity": 117,
		"lucky": 51,
		"parameter_table_BattleEnemyParameterTable": 0,
		"parameter_deviation_table_BattleEnemyParameterDeviationTable": 0,
		"acquire_skill_group_id": 0,
		"level_correction": 0,
		"group_id": 0,
		"ai_script_id_BattleAIScript": 0
	}
]