[
	{
		"ID": 69977,
		"stage_BattleStage": 241402324,
		"unit_UnitUnit": 3810008,
		"money": 500,
		"initial_coordinate_x": 23,
		"initial_coordinate_y": 9,
		"reinforcement_BattleReinforcement": 0,
		"initial_direction": 270.0,
		"ai_move_group": 0,
		"ai_target_move_x": -1,
		"ai_target_move_y": -1,
		"ai_skill_function": "",
		"ai_attack": "IF(panel_move_distance <= 7, 1, 0)",
		"ai_move": "IF(turn <=5,0,1)",
		"ai_heal": "",
		"ai_skill": "",
		"ai_use": "IF(turn % 5 == 1, IF(1 == 1, USESKILL(100000330), 0), IF(turn % 5 == 3, IF(1 == 1,USESKILL(100000322), 0), IF(turn % 5 == 0, USESKILL(100000322), 0)))",
		"skill_group_id": 18206,
		"gear_GearGear": 80027,
		"gear_rank": 1,
		"proficiency_UnitProficiency": 1,
		"level": 100,
		"hp": 5000,
		"strength": 23,
		"vitality": 112,
		"intelligence": 122,
		"mind": 111,
		"agility": 131,
		"dexterity": 142,
		"lucky": 72,
		"parameter_table_BattleEnemyParameterTable": 0,
		"parameter_deviation_table_BattleEnemyParameterDeviationTable": 0,
		"acquire_skill_group_id": 0,
		"level_correction": 0,
		"group_id": 0,
		"ai_script_id_BattleAIScript": 0
	},
	{
		"ID": 69978,
		"stage_BattleStage": 241402324,
		"unit_UnitUnit": 3810006,
		"money": 450,
		"initial_coordinate_x": 21,
		"initial_coordinate_y": 11,
		"reinforcement_BattleReinforcement": 0,
		"initial_direction": 270.0,
		"ai_move_group": 0,
		"ai_target_move_x": -1,
		"ai_target_move_y": -1,
		"ai_skill_function": "",
		"ai_attack": "IF(panel_move_distance <= 7, 1, 0)",
		"ai_move": "IF(turn <=5,0,1)",
		"ai_heal": "",
		"ai_skill": "",
		"ai_use": "",
		"skill_group_id": 18204,
		"gear_GearGear": 64021,
		"gear_rank": 1,
		"proficiency_UnitProficiency": 4,
		"level": 90,
		"hp": 199,
		"strength": 9,
		"vitality": 82,
		"intelligence": 86,
		"mind": 101,
		"agility": 92,
		"dexterity": 91,
		"lucky": 53,
		"parameter_table_BattleEnemyParameterTable": 0,
		"parameter_deviation_table_BattleEnemyParameterDeviationTable": 0,
		"acquire_skill_group_id": 0,
		"level_correction": 0,
		"group_id": 0,
		"ai_script_id_BattleAIScript": 0
	},
	{
		"ID": 69979,
		"stage_BattleStage": 241402324,
		"unit_UnitUnit": 3810006,
		"money": 450,
		"initial_coordinate_x": 21,
		"initial_coordinate_y": 7,
		"reinforcement_BattleReinforcement": 0,
		"initial_direction": 270.0,
		"ai_move_group": 0,
		"ai_target_move_x": -1,
		"ai_target_move_y": -1,
		"ai_skill_function": "",
		"ai_attack": "IF(panel_move_distance <= 7, 1, 0)",
		"ai_move": "IF(turn <=5,0,1)",
		"ai_heal": "",
		"ai_skill": "",
		"ai_use": "",
		"skill_group_id": 18204,
		"gear_GearGear": 64021,
		"gear_rank": 1,
		"proficiency_UnitProficiency": 4,
		"level": 90,
		"hp": 198,
		"strength": 8,
		"vitality": 85,
		"intelligence": 87,
		"mind": 104,
		"agility": 92,
		"dexterity": 93,
		"lucky": 52,
		"parameter_table_BattleEnemyParameterTable": 0,
		"parameter_deviation_table_BattleEnemyParameterDeviationTable": 0,
		"acquire_skill_group_id": 0,
		"level_correction": 0,
		"group_id": 0,
		"ai_script_id_BattleAIScript": 0
	},
	{
		"ID": 69980,
		"stage_BattleStage": 241402324,
		"unit_UnitUnit": 3810002,
		"money": 450,
		"initial_coordinate_x": 17,
		"initial_coordinate_y": 11,
		"reinforcement_BattleReinforcement": 0,
		"initial_direction": 270.0,
		"ai_move_group": 0,
		"ai_target_move_x": -1,
		"ai_target_move_y": -1,
		"ai_skill_function": "",
		"ai_attack": "IF(panel_move_distance <= 7, 1, 0)",
		"ai_move": "IF(turn <=5,0,1)",
		"ai_heal": "",
		"ai_skill": "",
		"ai_use": "",
		"skill_group_id": 18203,
		"gear_GearGear": 24025,
		"gear_rank": 1,
		"proficiency_UnitProficiency": 4,
		"level": 90,
		"hp": 228,
		"strength": 113,
		"vitality": 94,
		"intelligence": 11,
		"mind": 62,
		"agility": 87,
		"dexterity": 91,
		"lucky": 55,
		"parameter_table_BattleEnemyParameterTable": 0,
		"parameter_deviation_table_BattleEnemyParameterDeviationTable": 0,
		"acquire_skill_group_id": 0,
		"level_correction": 0,
		"group_id": 0,
		"ai_script_id_BattleAIScript": 0
	},
	{
		"ID": 69981,
		"stage_BattleStage": 241402324,
		"unit_UnitUnit": 3810002,
		"money": 450,
		"initial_coordinate_x": 18,
		"initial_coordinate_y": 9,
		"reinforcement_BattleReinforcement": 0,
		"initial_direction": 270.0,
		"ai_move_group": 0,
		"ai_target_move_x": -1,
		"ai_target_move_y": -1,
		"ai_skill_function": "",
		"ai_attack": "IF(panel_move_distance <= 7, 1, 0)",
		"ai_move": "IF(turn <=5,0,1)",
		"ai_heal": "",
		"ai_skill": "",
		"ai_use": "",
		"skill_group_id": 18203,
		"gear_GearGear": 24025,
		"gear_rank": 1,
		"proficiency_UnitProficiency": 4,
		"level": 90,
		"hp": 229,
		"strength": 111,
		"vitality": 94,
		"intelligence": 9,
		"mind": 62,
		"agility": 88,
		"dexterity": 93,
		"lucky": 55,
		"parameter_table_BattleEnemyParameterTable": 0,
		"parameter_deviation_table_BattleEnemyParameterDeviationTable": 0,
		"acquire_skill_group_id": 0,
		"level_correction": 0,
		"group_id": 0,
		"ai_script_id_BattleAIScript": 0
	},
	{
		"ID": 69982,
		"stage_BattleStage": 241402324,
		"unit_UnitUnit": 3810002,
		"money": 450,
		"initial_coordinate_x": 17,
		"initial_coordinate_y": 7,
		"reinforcement_BattleReinforcement": 0,
		"initial_direction": 270.0,
		"ai_move_group": 0,
		"ai_target_move_x": -1,
		"ai_target_move_y": -1,
		"ai_skill_function": "",
		"ai_attack": "IF(panel_move_distance <= 7, 1, 0)",
		"ai_move": "IF(turn <=5,0,1)",
		"ai_heal": "",
		"ai_skill": "",
		"ai_use": "",
		"skill_group_id": 18203,
		"gear_GearGear": 24025,
		"gear_rank": 1,
		"proficiency_UnitProficiency": 4,
		"level": 90,
		"hp": 231,
		"strength": 113,
		"vitality": 94,
		"intelligence": 8,
		"mind": 63,
		"agility": 86,
		"dexterity": 89,
		"lucky": 53,
		"parameter_table_BattleEnemyParameterTable": 0,
		"parameter_deviation_table_BattleEnemyParameterDeviationTable": 0,
		"acquire_skill_group_id": 0,
		"level_correction": 0,
		"group_id": 0,
		"ai_script_id_BattleAIScript": 0
	},
	{
		"ID": 69983,
		"stage_BattleStage": 241402324,
		"unit_UnitUnit": 3810004,
		"money": 450,
		"initial_coordinate_x": 19,
		"initial_coordinate_y": 4,
		"reinforcement_BattleReinforcement": 0,
		"initial_direction": 270.0,
		"ai_move_group": 0,
		"ai_target_move_x": -1,
		"ai_target_move_y": -1,
		"ai_skill_function": "",
		"ai_attack": "IF(panel_move_distance <= 7, 1, 0)",
		"ai_move": "IF(turn <=3,0,1)",
		"ai_heal": "",
		"ai_skill": "",
		"ai_use": "",
		"skill_group_id": 18202,
		"gear_GearGear": 44018,
		"gear_rank": 1,
		"proficiency_UnitProficiency": 4,
		"level": 90,
		"hp": 201,
		"strength": 94,
		"vitality": 78,
		"intelligence": 10,
		"mind": 72,
		"agility": 100,
		"dexterity": 104,
		"lucky": 55,
		"parameter_table_BattleEnemyParameterTable": 0,
		"parameter_deviation_table_BattleEnemyParameterDeviationTable": 0,
		"acquire_skill_group_id": 0,
		"level_correction": 0,
		"group_id": 0,
		"ai_script_id_BattleAIScript": 0
	},
	{
		"ID": 69984,
		"stage_BattleStage": 241402324,
		"unit_UnitUnit": 3810004,
		"money": 450,
		"initial_coordinate_x": 19,
		"initial_coordinate_y": 3,
		"reinforcement_BattleReinforcement": 0,
		"initial_direction": 270.0,
		"ai_move_group": 0,
		"ai_target_move_x": -1,
		"ai_target_move_y": -1,
		"ai_skill_function": "",
		"ai_attack": "IF(panel_move_distance <= 7, 1, 0)",
		"ai_move": "IF(turn <=3,0,1)",
		"ai_heal": "",
		"ai_skill": "",
		"ai_use": "",
		"skill_group_id": 18202,
		"gear_GearGear": 44018,
		"gear_rank": 1,
		"proficiency_UnitProficiency": 4,
		"level": 90,
		"hp": 201,
		"strength": 93,
		"vitality": 76,
		"intelligence": 12,
		"mind": 73,
		"agility": 98,
		"dexterity": 106,
		"lucky": 53,
		"parameter_table_BattleEnemyParameterTable": 0,
		"parameter_deviation_table_BattleEnemyParameterDeviationTable": 0,
		"acquire_skill_group_id": 0,
		"level_correction": 0,
		"group_id": 0,
		"ai_script_id_BattleAIScript": 0
	},
	{
		"ID": 69985,
		"stage_BattleStage": 241402324,
		"unit_UnitUnit": 3810006,
		"money": 450,
		"initial_coordinate_x": 14,
		"initial_coordinate_y": 11,
		"reinforcement_BattleReinforcement": 0,
		"initial_direction": 270.0,
		"ai_move_group": 0,
		"ai_target_move_x": -1,
		"ai_target_move_y": -1,
		"ai_skill_function": "",
		"ai_attack": "IF(panel_move_distance <= 7, 1, 0)",
		"ai_move": "IF(turn <=3,0,1)",
		"ai_heal": "",
		"ai_skill": "",
		"ai_use": "",
		"skill_group_id": 18204,
		"gear_GearGear": 64021,
		"gear_rank": 1,
		"proficiency_UnitProficiency": 4,
		"level": 90,
		"hp": 200,
		"strength": 10,
		"vitality": 81,
		"intelligence": 87,
		"mind": 100,
		"agility": 88,
		"dexterity": 92,
		"lucky": 52,
		"parameter_table_BattleEnemyParameterTable": 0,
		"parameter_deviation_table_BattleEnemyParameterDeviationTable": 0,
		"acquire_skill_group_id": 0,
		"level_correction": 0,
		"group_id": 0,
		"ai_script_id_BattleAIScript": 0
	},
	{
		"ID": 69986,
		"stage_BattleStage": 241402324,
		"unit_UnitUnit": 3810006,
		"money": 450,
		"initial_coordinate_x": 14,
		"initial_coordinate_y": 9,
		"reinforcement_BattleReinforcement": 0,
		"initial_direction": 270.0,
		"ai_move_group": 0,
		"ai_target_move_x": -1,
		"ai_target_move_y": -1,
		"ai_skill_function": "",
		"ai_attack": "IF(panel_move_distance <= 7, 1, 0)",
		"ai_move": "IF(turn <=3,0,1)",
		"ai_heal": "",
		"ai_skill": "",
		"ai_use": "",
		"skill_group_id": 18204,
		"gear_GearGear": 64021,
		"gear_rank": 1,
		"proficiency_UnitProficiency": 4,
		"level": 90,
		"hp": 200,
		"strength": 11,
		"vitality": 85,
		"intelligence": 90,
		"mind": 104,
		"agility": 91,
		"dexterity": 92,
		"lucky": 54,
		"parameter_table_BattleEnemyParameterTable": 0,
		"parameter_deviation_table_BattleEnemyParameterDeviationTable": 0,
		"acquire_skill_group_id": 0,
		"level_correction": 0,
		"group_id": 0,
		"ai_script_id_BattleAIScript": 0
	},
	{
		"ID": 69987,
		"stage_BattleStage": 241402324,
		"unit_UnitUnit": 3810006,
		"money": 450,
		"initial_coordinate_x": 14,
		"initial_coordinate_y": 7,
		"reinforcement_BattleReinforcement": 0,
		"initial_direction": 270.0,
		"ai_move_group": 0,
		"ai_target_move_x": -1,
		"ai_target_move_y": -1,
		"ai_skill_function": "",
		"ai_attack": "IF(panel_move_distance <= 7, 1, 0)",
		"ai_move": "IF(turn <=3,0,1)",
		"ai_heal": "",
		"ai_skill": "",
		"ai_use": "",
		"skill_group_id": 18204,
		"gear_GearGear": 64021,
		"gear_rank": 1,
		"proficiency_UnitProficiency": 4,
		"level": 90,
		"hp": 196,
		"strength": 11,
		"vitality": 84,
		"intelligence": 87,
		"mind": 101,
		"agility": 92,
		"dexterity": 91,
		"lucky": 54,
		"parameter_table_BattleEnemyParameterTable": 0,
		"parameter_deviation_table_BattleEnemyParameterDeviationTable": 0,
		"acquire_skill_group_id": 0,
		"level_correction": 0,
		"group_id": 0,
		"ai_script_id_BattleAIScript": 0
	},
	{
		"ID": 69988,
		"stage_BattleStage": 241402324,
		"unit_UnitUnit": 3810002,
		"money": 450,
		"initial_coordinate_x": 12,
		"initial_coordinate_y": 10,
		"reinforcement_BattleReinforcement": 0,
		"initial_direction": 270.0,
		"ai_move_group": 0,
		"ai_target_move_x": -1,
		"ai_target_move_y": -1,
		"ai_skill_function": "",
		"ai_attack": "IF(panel_move_distance <= 7, 1, 0)",
		"ai_move": "IF(turn <=3,0,1)",
		"ai_heal": "",
		"ai_skill": "",
		"ai_use": "",
		"skill_group_id": 18203,
		"gear_GearGear": 24025,
		"gear_rank": 1,
		"proficiency_UnitProficiency": 4,
		"level": 90,
		"hp": 232,
		"strength": 113,
		"vitality": 95,
		"intelligence": 12,
		"mind": 63,
		"agility": 90,
		"dexterity": 93,
		"lucky": 54,
		"parameter_table_BattleEnemyParameterTable": 0,
		"parameter_deviation_table_BattleEnemyParameterDeviationTable": 0,
		"acquire_skill_group_id": 0,
		"level_correction": 0,
		"group_id": 0,
		"ai_script_id_BattleAIScript": 0
	},
	{
		"ID": 69989,
		"stage_BattleStage": 241402324,
		"unit_UnitUnit": 3810002,
		"money": 450,
		"initial_coordinate_x": 12,
		"initial_coordinate_y": 8,
		"reinforcement_BattleReinforcement": 0,
		"initial_direction": 270.0,
		"ai_move_group": 0,
		"ai_target_move_x": -1,
		"ai_target_move_y": -1,
		"ai_skill_function": "",
		"ai_attack": "IF(panel_move_distance <= 7, 1, 0)",
		"ai_move": "1.0",
		"ai_heal": "",
		"ai_skill": "",
		"ai_use": "",
		"skill_group_id": 18203,
		"gear_GearGear": 24025,
		"gear_rank": 1,
		"proficiency_UnitProficiency": 4,
		"level": 90,
		"hp": 229,
		"strength": 115,
		"vitality": 93,
		"intelligence": 8,
		"mind": 61,
		"agility": 86,
		"dexterity": 93,
		"lucky": 54,
		"parameter_table_BattleEnemyParameterTable": 0,
		"parameter_deviation_table_BattleEnemyParameterDeviationTable": 0,
		"acquire_skill_group_id": 0,
		"level_correction": 0,
		"group_id": 0,
		"ai_script_id_BattleAIScript": 0
	},
	{
		"ID": 69990,
		"stage_BattleStage": 241402324,
		"unit_UnitUnit": 3810003,
		"money": 450,
		"initial_coordinate_x": 7,
		"initial_coordinate_y": 12,
		"reinforcement_BattleReinforcement": 0,
		"initial_direction": 270.0,
		"ai_move_group": 0,
		"ai_target_move_x": -1,
		"ai_target_move_y": -1,
		"ai_skill_function": "",
		"ai_attack": "IF(panel_move_distance <= 7, 1, 0)",
		"ai_move": "1.0",
		"ai_heal": "",
		"ai_skill": "",
		"ai_use": "",
		"skill_group_id": 18201,
		"gear_GearGear": 34030,
		"gear_rank": 1,
		"proficiency_UnitProficiency": 4,
		"level": 90,
		"hp": 222,
		"strength": 104,
		"vitality": 109,
		"intelligence": 12,
		"mind": 78,
		"agility": 96,
		"dexterity": 99,
		"lucky": 53,
		"parameter_table_BattleEnemyParameterTable": 0,
		"parameter_deviation_table_BattleEnemyParameterDeviationTable": 0,
		"acquire_skill_group_id": 0,
		"level_correction": 0,
		"group_id": 0,
		"ai_script_id_BattleAIScript": 0
	},
	{
		"ID": 69991,
		"stage_BattleStage": 241402324,
		"unit_UnitUnit": 3810003,
		"money": 450,
		"initial_coordinate_x": 7,
		"initial_coordinate_y": 11,
		"reinforcement_BattleReinforcement": 0,
		"initial_direction": 270.0,
		"ai_move_group": 0,
		"ai_target_move_x": -1,
		"ai_target_move_y": -1,
		"ai_skill_function": "",
		"ai_attack": "IF(panel_move_distance <= 7, 1, 0)",
		"ai_move": "1.0",
		"ai_heal": "",
		"ai_skill": "",
		"ai_use": "",
		"skill_group_id": 18201,
		"gear_GearGear": 34030,
		"gear_rank": 1,
		"proficiency_UnitProficiency": 4,
		"level": 90,
		"hp": 219,
		"strength": 102,
		"vitality": 111,
		"intelligence": 11,
		"mind": 81,
		"agility": 97,
		"dexterity": 95,
		"lucky": 51,
		"parameter_table_BattleEnemyParameterTable": 0,
		"parameter_deviation_table_BattleEnemyParameterDeviationTable": 0,
		"acquire_skill_group_id": 0,
		"level_correction": 0,
		"group_id": 0,
		"ai_script_id_BattleAIScript": 0
	},
	{
		"ID": 69992,
		"stage_BattleStage": 241402324,
		"unit_UnitUnit": 3810006,
		"money": 450,
		"initial_coordinate_x": 9,
		"initial_coordinate_y": 12,
		"reinforcement_BattleReinforcement": 0,
		"initial_direction": 270.0,
		"ai_move_group": 0,
		"ai_target_move_x": -1,
		"ai_target_move_y": -1,
		"ai_skill_function": "",
		"ai_attack": "IF(panel_move_distance <= 7, 1, 0)",
		"ai_move": "1.0",
		"ai_heal": "",
		"ai_skill": "",
		"ai_use": "",
		"skill_group_id": 18204,
		"gear_GearGear": 64021,
		"gear_rank": 1,
		"proficiency_UnitProficiency": 4,
		"level": 90,
		"hp": 200,
		"strength": 12,
		"vitality": 82,
		"intelligence": 86,
		"mind": 100,
		"agility": 89,
		"dexterity": 93,
		"lucky": 53,
		"parameter_table_BattleEnemyParameterTable": 0,
		"parameter_deviation_table_BattleEnemyParameterDeviationTable": 0,
		"acquire_skill_group_id": 0,
		"level_correction": 0,
		"group_id": 0,
		"ai_script_id_BattleAIScript": 0
	},
	{
		"ID": 69993,
		"stage_BattleStage": 241402324,
		"unit_UnitUnit": 3810006,
		"money": 450,
		"initial_coordinate_x": 9,
		"initial_coordinate_y": 11,
		"reinforcement_BattleReinforcement": 0,
		"initial_direction": 270.0,
		"ai_move_group": 0,
		"ai_target_move_x": -1,
		"ai_target_move_y": -1,
		"ai_skill_function": "",
		"ai_attack": "IF(panel_move_distance <= 7, 1, 0)",
		"ai_move": "1.0",
		"ai_heal": "",
		"ai_skill": "",
		"ai_use": "",
		"skill_group_id": 18204,
		"gear_GearGear": 64021,
		"gear_rank": 1,
		"proficiency_UnitProficiency": 4,
		"level": 90,
		"hp": 199,
		"strength": 10,
		"vitality": 84,
		"intelligence": 89,
		"mind": 103,
		"agility": 91,
		"dexterity": 90,
		"lucky": 55,
		"parameter_table_BattleEnemyParameterTable": 0,
		"parameter_deviation_table_BattleEnemyParameterDeviationTable": 0,
		"acquire_skill_group_id": 0,
		"level_correction": 0,
		"group_id": 0,
		"ai_script_id_BattleAIScript": 0
	},
	{
		"ID": 69994,
		"stage_BattleStage": 241402324,
		"unit_UnitUnit": 3810005,
		"money": 450,
		"initial_coordinate_x": 10,
		"initial_coordinate_y": 4,
		"reinforcement_BattleReinforcement": 0,
		"initial_direction": 270.0,
		"ai_move_group": 0,
		"ai_target_move_x": -1,
		"ai_target_move_y": -1,
		"ai_skill_function": "",
		"ai_attack": "IF(panel_move_distance <= 7, 1, 0)",
		"ai_move": "1.0",
		"ai_heal": "",
		"ai_skill": "",
		"ai_use": "",
		"skill_group_id": 18205,
		"gear_GearGear": 54023,
		"gear_rank": 1,
		"proficiency_UnitProficiency": 4,
		"level": 90,
		"hp": 202,
		"strength": 8,
		"vitality": 75,
		"intelligence": 108,
		"mind": 115,
		"agility": 95,
		"dexterity": 95,
		"lucky": 55,
		"parameter_table_BattleEnemyParameterTable": 0,
		"parameter_deviation_table_BattleEnemyParameterDeviationTable": 0,
		"acquire_skill_group_id": 0,
		"level_correction": 0,
		"group_id": 0,
		"ai_script_id_BattleAIScript": 0
	},
	{
		"ID": 69995,
		"stage_BattleStage": 241402324,
		"unit_UnitUnit": 3810005,
		"money": 450,
		"initial_coordinate_x": 10,
		"initial_coordinate_y": 3,
		"reinforcement_BattleReinforcement": 0,
		"initial_direction": 270.0,
		"ai_move_group": 0,
		"ai_target_move_x": -1,
		"ai_target_move_y": -1,
		"ai_skill_function": "",
		"ai_attack": "IF(panel_move_distance <= 7, 1, 0)",
		"ai_move": "1.0",
		"ai_heal": "",
		"ai_skill": "",
		"ai_use": "",
		"skill_group_id": 18205,
		"gear_GearGear": 54023,
		"gear_rank": 1,
		"proficiency_UnitProficiency": 4,
		"level": 90,
		"hp": 205,
		"strength": 8,
		"vitality": 77,
		"intelligence": 108,
		"mind": 116,
		"agility": 98,
		"dexterity": 98,
		"lucky": 53,
		"parameter_table_BattleEnemyParameterTable": 0,
		"parameter_deviation_table_BattleEnemyParameterDeviationTable": 0,
		"acquire_skill_group_id": 0,
		"level_correction": 0,
		"group_id": 0,
		"ai_script_id_BattleAIScript": 0
	},
	{
		"ID": 69996,
		"stage_BattleStage": 241402324,
		"unit_UnitUnit": 3810005,
		"money": 450,
		"initial_coordinate_x": 12,
		"initial_coordinate_y": 3,
		"reinforcement_BattleReinforcement": 0,
		"initial_direction": 270.0,
		"ai_move_group": 0,
		"ai_target_move_x": -1,
		"ai_target_move_y": -1,
		"ai_skill_function": "",
		"ai_attack": "IF(panel_move_distance <= 7, 1, 0)",
		"ai_move": "1.0",
		"ai_heal": "",
		"ai_skill": "",
		"ai_use": "",
		"skill_group_id": 18205,
		"gear_GearGear": 54023,
		"gear_rank": 1,
		"proficiency_UnitProficiency": 4,
		"level": 90,
		"hp": 204,
		"strength": 8,
		"vitality": 74,
		"intelligence": 107,
		"mind": 115,
		"agility": 94,
		"dexterity": 95,
		"lucky": 55,
		"parameter_table_BattleEnemyParameterTable": 0,
		"parameter_deviation_table_BattleEnemyParameterDeviationTable": 0,
		"acquire_skill_group_id": 0,
		"level_correction": 0,
		"group_id": 0,
		"ai_script_id_BattleAIScript": 0
	}
]