[
	{
		"ID": 88892,
		"stage_BattleStage": 243011023,
		"unit_UnitUnit": 2831004,
		"money": 320,
		"initial_coordinate_x": 2,
		"initial_coordinate_y": 5,
		"reinforcement_BattleReinforcement": 0,
		"initial_direction": 180.0,
		"ai_move_group": 0,
		"ai_target_move_x": -1,
		"ai_target_move_y": -1,
		"ai_skill_function": "",
		"ai_attack": "",
		"ai_move": "",
		"ai_heal": "",
		"ai_skill": "",
		"ai_use": "",
		"skill_group_id": 20591,
		"gear_GearGear": 35001,
		"gear_rank": 10,
		"proficiency_UnitProficiency": 5,
		"level": 64,
		"hp": 109,
		"strength": 79,
		"vitality": 71,
		"intelligence": 6,
		"mind": 20,
		"agility": 44,
		"dexterity": 61,
		"lucky": 17,
		"parameter_table_BattleEnemyParameterTable": 0,
		"parameter_deviation_table_BattleEnemyParameterDeviationTable": 0,
		"acquire_skill_group_id": 0,
		"level_correction": 0,
		"group_id": 0,
		"ai_script_id_BattleAIScript": 0
	},
	{
		"ID": 88893,
		"stage_BattleStage": 243011023,
		"unit_UnitUnit": 2831004,
		"money": 320,
		"initial_coordinate_x": 4,
		"initial_coordinate_y": 6,
		"reinforcement_BattleReinforcement": 0,
		"initial_direction": 180.0,
		"ai_move_group": 0,
		"ai_target_move_x": -1,
		"ai_target_move_y": -1,
		"ai_skill_function": "",
		"ai_attack": "",
		"ai_move": "",
		"ai_heal": "",
		"ai_skill": "",
		"ai_use": "",
		"skill_group_id": 20591,
		"gear_GearGear": 35001,
		"gear_rank": 10,
		"proficiency_UnitProficiency": 5,
		"level": 64,
		"hp": 110,
		"strength": 78,
		"vitality": 72,
		"intelligence": 6,
		"mind": 18,
		"agility": 42,
		"dexterity": 61,
		"lucky": 17,
		"parameter_table_BattleEnemyParameterTable": 0,
		"parameter_deviation_table_BattleEnemyParameterDeviationTable": 0,
		"acquire_skill_group_id": 0,
		"level_correction": 0,
		"group_id": 0,
		"ai_script_id_BattleAIScript": 0
	},
	{
		"ID": 88894,
		"stage_BattleStage": 243011023,
		"unit_UnitUnit": 2831004,
		"money": 320,
		"initial_coordinate_x": 5,
		"initial_coordinate_y": 6,
		"reinforcement_BattleReinforcement": 0,
		"initial_direction": 180.0,
		"ai_move_group": 0,
		"ai_target_move_x": -1,
		"ai_target_move_y": -1,
		"ai_skill_function": "",
		"ai_attack": "",
		"ai_move": "",
		"ai_heal": "",
		"ai_skill": "",
		"ai_use": "",
		"skill_group_id": 20591,
		"gear_GearGear": 35001,
		"gear_rank": 10,
		"proficiency_UnitProficiency": 5,
		"level": 64,
		"hp": 110,
		"strength": 79,
		"vitality": 71,
		"intelligence": 7,
		"mind": 18,
		"agility": 44,
		"dexterity": 60,
		"lucky": 17,
		"parameter_table_BattleEnemyParameterTable": 0,
		"parameter_deviation_table_BattleEnemyParameterDeviationTable": 0,
		"acquire_skill_group_id": 0,
		"level_correction": 0,
		"group_id": 0,
		"ai_script_id_BattleAIScript": 0
	},
	{
		"ID": 88895,
		"stage_BattleStage": 243011023,
		"unit_UnitUnit": 2831004,
		"money": 275,
		"initial_coordinate_x": 8,
		"initial_coordinate_y": 4,
		"reinforcement_BattleReinforcement": 0,
		"initial_direction": 180.0,
		"ai_move_group": 0,
		"ai_target_move_x": -1,
		"ai_target_move_y": -1,
		"ai_skill_function": "",
		"ai_attack": "",
		"ai_move": "",
		"ai_heal": "",
		"ai_skill": "",
		"ai_use": "",
		"skill_group_id": 20591,
		"gear_GearGear": 35001,
		"gear_rank": 10,
		"proficiency_UnitProficiency": 5,
		"level": 55,
		"hp": 89,
		"strength": 66,
		"vitality": 45,
		"intelligence": 6,
		"mind": 28,
		"agility": 53,
		"dexterity": 62,
		"lucky": 15,
		"parameter_table_BattleEnemyParameterTable": 0,
		"parameter_deviation_table_BattleEnemyParameterDeviationTable": 0,
		"acquire_skill_group_id": 0,
		"level_correction": 0,
		"group_id": 0,
		"ai_script_id_BattleAIScript": 0
	},
	{
		"ID": 88896,
		"stage_BattleStage": 243011023,
		"unit_UnitUnit": 2821004,
		"money": 275,
		"initial_coordinate_x": 7,
		"initial_coordinate_y": 8,
		"reinforcement_BattleReinforcement": 0,
		"initial_direction": 180.0,
		"ai_move_group": 0,
		"ai_target_move_x": -1,
		"ai_target_move_y": -1,
		"ai_skill_function": "",
		"ai_attack": "",
		"ai_move": "",
		"ai_heal": "",
		"ai_skill": "",
		"ai_use": "",
		"skill_group_id": 20592,
		"gear_GearGear": 25001,
		"gear_rank": 10,
		"proficiency_UnitProficiency": 5,
		"level": 55,
		"hp": 89,
		"strength": 66,
		"vitality": 46,
		"intelligence": 7,
		"mind": 26,
		"agility": 53,
		"dexterity": 61,
		"lucky": 17,
		"parameter_table_BattleEnemyParameterTable": 0,
		"parameter_deviation_table_BattleEnemyParameterDeviationTable": 0,
		"acquire_skill_group_id": 0,
		"level_correction": 0,
		"group_id": 0,
		"ai_script_id_BattleAIScript": 0
	},
	{
		"ID": 88897,
		"stage_BattleStage": 243011023,
		"unit_UnitUnit": 2821004,
		"money": 320,
		"initial_coordinate_x": 2,
		"initial_coordinate_y": 8,
		"reinforcement_BattleReinforcement": 0,
		"initial_direction": 180.0,
		"ai_move_group": 0,
		"ai_target_move_x": -1,
		"ai_target_move_y": -1,
		"ai_skill_function": "",
		"ai_attack": "",
		"ai_move": "",
		"ai_heal": "",
		"ai_skill": "",
		"ai_use": "",
		"skill_group_id": 20592,
		"gear_GearGear": 25001,
		"gear_rank": 10,
		"proficiency_UnitProficiency": 5,
		"level": 64,
		"hp": 109,
		"strength": 80,
		"vitality": 71,
		"intelligence": 8,
		"mind": 18,
		"agility": 42,
		"dexterity": 59,
		"lucky": 17,
		"parameter_table_BattleEnemyParameterTable": 0,
		"parameter_deviation_table_BattleEnemyParameterDeviationTable": 0,
		"acquire_skill_group_id": 0,
		"level_correction": 0,
		"group_id": 0,
		"ai_script_id_BattleAIScript": 0
	},
	{
		"ID": 88898,
		"stage_BattleStage": 243011023,
		"unit_UnitUnit": 2821004,
		"money": 320,
		"initial_coordinate_x": 3,
		"initial_coordinate_y": 11,
		"reinforcement_BattleReinforcement": 0,
		"initial_direction": 180.0,
		"ai_move_group": 0,
		"ai_target_move_x": -1,
		"ai_target_move_y": -1,
		"ai_skill_function": "",
		"ai_attack": "",
		"ai_move": "",
		"ai_heal": "",
		"ai_skill": "",
		"ai_use": "",
		"skill_group_id": 20592,
		"gear_GearGear": 25001,
		"gear_rank": 10,
		"proficiency_UnitProficiency": 5,
		"level": 64,
		"hp": 110,
		"strength": 78,
		"vitality": 72,
		"intelligence": 6,
		"mind": 20,
		"agility": 44,
		"dexterity": 60,
		"lucky": 16,
		"parameter_table_BattleEnemyParameterTable": 0,
		"parameter_deviation_table_BattleEnemyParameterDeviationTable": 0,
		"acquire_skill_group_id": 0,
		"level_correction": 0,
		"group_id": 0,
		"ai_script_id_BattleAIScript": 0
	},
	{
		"ID": 88899,
		"stage_BattleStage": 243011023,
		"unit_UnitUnit": 2811004,
		"money": 320,
		"initial_coordinate_x": 11,
		"initial_coordinate_y": 4,
		"reinforcement_BattleReinforcement": 0,
		"initial_direction": 180.0,
		"ai_move_group": 0,
		"ai_target_move_x": -1,
		"ai_target_move_y": -1,
		"ai_skill_function": "",
		"ai_attack": "",
		"ai_move": "",
		"ai_heal": "",
		"ai_skill": "",
		"ai_use": "",
		"skill_group_id": 20592,
		"gear_GearGear": 15002,
		"gear_rank": 10,
		"proficiency_UnitProficiency": 5,
		"level": 64,
		"hp": 93,
		"strength": 83,
		"vitality": 44,
		"intelligence": 7,
		"mind": 27,
		"agility": 52,
		"dexterity": 69,
		"lucky": 17,
		"parameter_table_BattleEnemyParameterTable": 0,
		"parameter_deviation_table_BattleEnemyParameterDeviationTable": 0,
		"acquire_skill_group_id": 0,
		"level_correction": 0,
		"group_id": 0,
		"ai_script_id_BattleAIScript": 0
	},
	{
		"ID": 88900,
		"stage_BattleStage": 243011023,
		"unit_UnitUnit": 2811004,
		"money": 320,
		"initial_coordinate_x": 9,
		"initial_coordinate_y": 2,
		"reinforcement_BattleReinforcement": 0,
		"initial_direction": 270.0,
		"ai_move_group": 0,
		"ai_target_move_x": -1,
		"ai_target_move_y": -1,
		"ai_skill_function": "",
		"ai_attack": "",
		"ai_move": "",
		"ai_heal": "",
		"ai_skill": "",
		"ai_use": "",
		"skill_group_id": 20592,
		"gear_GearGear": 15002,
		"gear_rank": 10,
		"proficiency_UnitProficiency": 5,
		"level": 64,
		"hp": 92,
		"strength": 81,
		"vitality": 45,
		"intelligence": 6,
		"mind": 29,
		"agility": 53,
		"dexterity": 69,
		"lucky": 16,
		"parameter_table_BattleEnemyParameterTable": 0,
		"parameter_deviation_table_BattleEnemyParameterDeviationTable": 0,
		"acquire_skill_group_id": 0,
		"level_correction": 0,
		"group_id": 0,
		"ai_script_id_BattleAIScript": 0
	},
	{
		"ID": 88901,
		"stage_BattleStage": 243011023,
		"unit_UnitUnit": 2811004,
		"money": 310,
		"initial_coordinate_x": 7,
		"initial_coordinate_y": 6,
		"reinforcement_BattleReinforcement": 0,
		"initial_direction": 180.0,
		"ai_move_group": 0,
		"ai_target_move_x": -1,
		"ai_target_move_y": -1,
		"ai_skill_function": "",
		"ai_attack": "",
		"ai_move": "",
		"ai_heal": "",
		"ai_skill": "",
		"ai_use": "",
		"skill_group_id": 20592,
		"gear_GearGear": 15002,
		"gear_rank": 10,
		"proficiency_UnitProficiency": 5,
		"level": 62,
		"hp": 95,
		"strength": 76,
		"vitality": 48,
		"intelligence": 7,
		"mind": 29,
		"agility": 56,
		"dexterity": 67,
		"lucky": 18,
		"parameter_table_BattleEnemyParameterTable": 0,
		"parameter_deviation_table_BattleEnemyParameterDeviationTable": 0,
		"acquire_skill_group_id": 0,
		"level_correction": 0,
		"group_id": 0,
		"ai_script_id_BattleAIScript": 0
	},
	{
		"ID": 88902,
		"stage_BattleStage": 243011023,
		"unit_UnitUnit": 2811004,
		"money": 310,
		"initial_coordinate_x": 6,
		"initial_coordinate_y": 7,
		"reinforcement_BattleReinforcement": 0,
		"initial_direction": 180.0,
		"ai_move_group": 0,
		"ai_target_move_x": -1,
		"ai_target_move_y": -1,
		"ai_skill_function": "",
		"ai_attack": "",
		"ai_move": "",
		"ai_heal": "",
		"ai_skill": "",
		"ai_use": "",
		"skill_group_id": 20592,
		"gear_GearGear": 15002,
		"gear_rank": 10,
		"proficiency_UnitProficiency": 5,
		"level": 62,
		"hp": 94,
		"strength": 76,
		"vitality": 48,
		"intelligence": 7,
		"mind": 29,
		"agility": 58,
		"dexterity": 67,
		"lucky": 17,
		"parameter_table_BattleEnemyParameterTable": 0,
		"parameter_deviation_table_BattleEnemyParameterDeviationTable": 0,
		"acquire_skill_group_id": 0,
		"level_correction": 0,
		"group_id": 0,
		"ai_script_id_BattleAIScript": 0
	},
	{
		"ID": 88903,
		"stage_BattleStage": 243011023,
		"unit_UnitUnit": 2841004,
		"money": 310,
		"initial_coordinate_x": 10,
		"initial_coordinate_y": 11,
		"reinforcement_BattleReinforcement": 0,
		"initial_direction": 180.0,
		"ai_move_group": 0,
		"ai_target_move_x": -1,
		"ai_target_move_y": -1,
		"ai_skill_function": "",
		"ai_attack": "",
		"ai_move": "IF(turn < 3,0,1)",
		"ai_heal": "",
		"ai_skill": "",
		"ai_use": "",
		"skill_group_id": 20593,
		"gear_GearGear": 45001,
		"gear_rank": 10,
		"proficiency_UnitProficiency": 5,
		"level": 62,
		"hp": 96,
		"strength": 75,
		"vitality": 50,
		"intelligence": 7,
		"mind": 31,
		"agility": 58,
		"dexterity": 68,
		"lucky": 18,
		"parameter_table_BattleEnemyParameterTable": 0,
		"parameter_deviation_table_BattleEnemyParameterDeviationTable": 0,
		"acquire_skill_group_id": 0,
		"level_correction": 0,
		"group_id": 0,
		"ai_script_id_BattleAIScript": 0
	},
	{
		"ID": 88904,
		"stage_BattleStage": 243011023,
		"unit_UnitUnit": 2841004,
		"money": 310,
		"initial_coordinate_x": 9,
		"initial_coordinate_y": 9,
		"reinforcement_BattleReinforcement": 0,
		"initial_direction": 180.0,
		"ai_move_group": 0,
		"ai_target_move_x": -1,
		"ai_target_move_y": -1,
		"ai_skill_function": "",
		"ai_attack": "",
		"ai_move": "IF(turn < 3,0,1)",
		"ai_heal": "",
		"ai_skill": "",
		"ai_use": "",
		"skill_group_id": 20593,
		"gear_GearGear": 45001,
		"gear_rank": 10,
		"proficiency_UnitProficiency": 5,
		"level": 62,
		"hp": 96,
		"strength": 75,
		"vitality": 49,
		"intelligence": 7,
		"mind": 30,
		"agility": 56,
		"dexterity": 69,
		"lucky": 18,
		"parameter_table_BattleEnemyParameterTable": 0,
		"parameter_deviation_table_BattleEnemyParameterDeviationTable": 0,
		"acquire_skill_group_id": 0,
		"level_correction": 0,
		"group_id": 0,
		"ai_script_id_BattleAIScript": 0
	},
	{
		"ID": 88905,
		"stage_BattleStage": 243011023,
		"unit_UnitUnit": 2841004,
		"money": 315,
		"initial_coordinate_x": 4,
		"initial_coordinate_y": 10,
		"reinforcement_BattleReinforcement": 0,
		"initial_direction": 180.0,
		"ai_move_group": 0,
		"ai_target_move_x": -1,
		"ai_target_move_y": -1,
		"ai_skill_function": "",
		"ai_attack": "",
		"ai_move": "IF(turn < 3,0,1)",
		"ai_heal": "",
		"ai_skill": "",
		"ai_use": "",
		"skill_group_id": 20593,
		"gear_GearGear": 45001,
		"gear_rank": 10,
		"proficiency_UnitProficiency": 5,
		"level": 63,
		"hp": 91,
		"strength": 81,
		"vitality": 43,
		"intelligence": 6,
		"mind": 27,
		"agility": 53,
		"dexterity": 69,
		"lucky": 17,
		"parameter_table_BattleEnemyParameterTable": 0,
		"parameter_deviation_table_BattleEnemyParameterDeviationTable": 0,
		"acquire_skill_group_id": 0,
		"level_correction": 0,
		"group_id": 0,
		"ai_script_id_BattleAIScript": 0
	},
	{
		"ID": 88906,
		"stage_BattleStage": 243011023,
		"unit_UnitUnit": 2841004,
		"money": 315,
		"initial_coordinate_x": 3,
		"initial_coordinate_y": 7,
		"reinforcement_BattleReinforcement": 0,
		"initial_direction": 180.0,
		"ai_move_group": 0,
		"ai_target_move_x": -1,
		"ai_target_move_y": -1,
		"ai_skill_function": "",
		"ai_attack": "",
		"ai_move": "IF(turn < 3,0,1)",
		"ai_heal": "",
		"ai_skill": "",
		"ai_use": "",
		"skill_group_id": 20593,
		"gear_GearGear": 45001,
		"gear_rank": 10,
		"proficiency_UnitProficiency": 5,
		"level": 63,
		"hp": 92,
		"strength": 81,
		"vitality": 44,
		"intelligence": 6,
		"mind": 26,
		"agility": 54,
		"dexterity": 69,
		"lucky": 16,
		"parameter_table_BattleEnemyParameterTable": 0,
		"parameter_deviation_table_BattleEnemyParameterDeviationTable": 0,
		"acquire_skill_group_id": 0,
		"level_correction": 0,
		"group_id": 0,
		"ai_script_id_BattleAIScript": 0
	},
	{
		"ID": 88907,
		"stage_BattleStage": 243011023,
		"unit_UnitUnit": 2841004,
		"money": 315,
		"initial_coordinate_x": 8,
		"initial_coordinate_y": 8,
		"reinforcement_BattleReinforcement": 0,
		"initial_direction": 180.0,
		"ai_move_group": 0,
		"ai_target_move_x": -1,
		"ai_target_move_y": -1,
		"ai_skill_function": "",
		"ai_attack": "",
		"ai_move": "IF(turn < 3,0,1)",
		"ai_heal": "",
		"ai_skill": "",
		"ai_use": "",
		"skill_group_id": 20593,
		"gear_GearGear": 45001,
		"gear_rank": 10,
		"proficiency_UnitProficiency": 5,
		"level": 63,
		"hp": 91,
		"strength": 82,
		"vitality": 43,
		"intelligence": 6,
		"mind": 26,
		"agility": 54,
		"dexterity": 69,
		"lucky": 16,
		"parameter_table_BattleEnemyParameterTable": 0,
		"parameter_deviation_table_BattleEnemyParameterDeviationTable": 0,
		"acquire_skill_group_id": 0,
		"level_correction": 0,
		"group_id": 0,
		"ai_script_id_BattleAIScript": 0
	},
	{
		"ID": 88908,
		"stage_BattleStage": 243011023,
		"unit_UnitUnit": 2841004,
		"money": 320,
		"initial_coordinate_x": 9,
		"initial_coordinate_y": 12,
		"reinforcement_BattleReinforcement": 0,
		"initial_direction": 180.0,
		"ai_move_group": 0,
		"ai_target_move_x": -1,
		"ai_target_move_y": -1,
		"ai_skill_function": "",
		"ai_attack": "",
		"ai_move": "IF(turn < 3,0,1)",
		"ai_heal": "",
		"ai_skill": "",
		"ai_use": "",
		"skill_group_id": 20593,
		"gear_GearGear": 45001,
		"gear_rank": 10,
		"proficiency_UnitProficiency": 5,
		"level": 64,
		"hp": 98,
		"strength": 77,
		"vitality": 50,
		"intelligence": 8,
		"mind": 31,
		"agility": 58,
		"dexterity": 71,
		"lucky": 17,
		"parameter_table_BattleEnemyParameterTable": 0,
		"parameter_deviation_table_BattleEnemyParameterDeviationTable": 0,
		"acquire_skill_group_id": 0,
		"level_correction": 0,
		"group_id": 0,
		"ai_script_id_BattleAIScript": 0
	},
	{
		"ID": 88909,
		"stage_BattleStage": 243011023,
		"unit_UnitUnit": 2841004,
		"money": 320,
		"initial_coordinate_x": 5,
		"initial_coordinate_y": 12,
		"reinforcement_BattleReinforcement": 0,
		"initial_direction": 180.0,
		"ai_move_group": 0,
		"ai_target_move_x": -1,
		"ai_target_move_y": -1,
		"ai_skill_function": "",
		"ai_attack": "",
		"ai_move": "IF(turn < 3,0,1)",
		"ai_heal": "",
		"ai_skill": "",
		"ai_use": "",
		"skill_group_id": 20593,
		"gear_GearGear": 45001,
		"gear_rank": 10,
		"proficiency_UnitProficiency": 5,
		"level": 64,
		"hp": 98,
		"strength": 78,
		"vitality": 51,
		"intelligence": 8,
		"mind": 32,
		"agility": 58,
		"dexterity": 71,
		"lucky": 16,
		"parameter_table_BattleEnemyParameterTable": 0,
		"parameter_deviation_table_BattleEnemyParameterDeviationTable": 0,
		"acquire_skill_group_id": 0,
		"level_correction": 0,
		"group_id": 0,
		"ai_script_id_BattleAIScript": 0
	},
	{
		"ID": 88910,
		"stage_BattleStage": 243011023,
		"unit_UnitUnit": 2502613,
		"money": 400,
		"initial_coordinate_x": 11,
		"initial_coordinate_y": 10,
		"reinforcement_BattleReinforcement": 2,
		"initial_direction": 180.0,
		"ai_move_group": 0,
		"ai_target_move_x": -1,
		"ai_target_move_y": -1,
		"ai_skill_function": "",
		"ai_attack": "",
		"ai_move": "IF(turn < 4,0,1)",
		"ai_heal": "",
		"ai_skill": "",
		"ai_use": "",
		"skill_group_id": 20594,
		"gear_GearGear": 54002,
		"gear_rank": 10,
		"proficiency_UnitProficiency": 4,
		"level": 80,
		"hp": 106,
		"strength": 12,
		"vitality": 61,
		"intelligence": 86,
		"mind": 73,
		"agility": 63,
		"dexterity": 84,
		"lucky": 23,
		"parameter_table_BattleEnemyParameterTable": 0,
		"parameter_deviation_table_BattleEnemyParameterDeviationTable": 0,
		"acquire_skill_group_id": 0,
		"level_correction": 0,
		"group_id": 0,
		"ai_script_id_BattleAIScript": 0
	},
	{
		"ID": 88911,
		"stage_BattleStage": 243011023,
		"unit_UnitUnit": 2601813,
		"money": 400,
		"initial_coordinate_x": 7,
		"initial_coordinate_y": 11,
		"reinforcement_BattleReinforcement": 3,
		"initial_direction": 180.0,
		"ai_move_group": 0,
		"ai_target_move_x": -1,
		"ai_target_move_y": -1,
		"ai_skill_function": "",
		"ai_attack": "",
		"ai_move": "IF(turn < 4,0,1)",
		"ai_heal": "",
		"ai_skill": "",
		"ai_use": "",
		"skill_group_id": 20595,
		"gear_GearGear": 65001,
		"gear_rank": 10,
		"proficiency_UnitProficiency": 5,
		"level": 80,
		"hp": 226,
		"strength": 15,
		"vitality": 33,
		"intelligence": 115,
		"mind": 43,
		"agility": 70,
		"dexterity": 95,
		"lucky": 37,
		"parameter_table_BattleEnemyParameterTable": 0,
		"parameter_deviation_table_BattleEnemyParameterDeviationTable": 0,
		"acquire_skill_group_id": 0,
		"level_correction": 0,
		"group_id": 0,
		"ai_script_id_BattleAIScript": 0
	}
]