[
	{
		"ID": 27751,
		"stage_BattleStage": 271002119,
		"unit_UnitUnit": 830003,
		"money": 35,
		"initial_coordinate_x": 1,
		"initial_coordinate_y": 8,
		"reinforcement_BattleReinforcement": 0,
		"initial_direction": 0.0,
		"ai_move_group": 0,
		"ai_target_move_x": -1,
		"ai_target_move_y": -1,
		"ai_skill_function": "",
		"ai_attack": "",
		"ai_move": "",
		"ai_heal": "",
		"ai_skill": "",
		"ai_use": "",
		"skill_group_id": 0,
		"gear_GearGear": 32002,
		"gear_rank": 1,
		"proficiency_UnitProficiency": 2,
		"level": 7,
		"hp": 42,
		"strength": 25,
		"vitality": 28,
		"intelligence": 0,
		"mind": 1,
		"agility": 11,
		"dexterity": 18,
		"lucky": 4,
		"parameter_table_BattleEnemyParameterTable": 18300033,
		"parameter_deviation_table_BattleEnemyParameterDeviationTable": 1,
		"acquire_skill_group_id": 130,
		"level_correction": -1,
		"group_id": 0,
		"ai_script_id_BattleAIScript": 0
	},
	{
		"ID": 27752,
		"stage_BattleStage": 271002119,
		"unit_UnitUnit": 830003,
		"money": 40,
		"initial_coordinate_x": 2,
		"initial_coordinate_y": 8,
		"reinforcement_BattleReinforcement": 0,
		"initial_direction": 0.0,
		"ai_move_group": 0,
		"ai_target_move_x": -1,
		"ai_target_move_y": -1,
		"ai_skill_function": "",
		"ai_attack": "",
		"ai_move": "",
		"ai_heal": "",
		"ai_skill": "",
		"ai_use": "",
		"skill_group_id": 0,
		"gear_GearGear": 32001,
		"gear_rank": 1,
		"proficiency_UnitProficiency": 2,
		"level": 8,
		"hp": 42,
		"strength": 26,
		"vitality": 29,
		"intelligence": 0,
		"mind": 1,
		"agility": 11,
		"dexterity": 19,
		"lucky": 4,
		"parameter_table_BattleEnemyParameterTable": 18300033,
		"parameter_deviation_table_BattleEnemyParameterDeviationTable": 1,
		"acquire_skill_group_id": 130,
		"level_correction": -2,
		"group_id": 0,
		"ai_script_id_BattleAIScript": 0
	},
	{
		"ID": 27753,
		"stage_BattleStage": 271002119,
		"unit_UnitUnit": 830003,
		"money": 45,
		"initial_coordinate_x": 3,
		"initial_coordinate_y": 7,
		"reinforcement_BattleReinforcement": 0,
		"initial_direction": 0.0,
		"ai_move_group": 0,
		"ai_target_move_x": -1,
		"ai_target_move_y": -1,
		"ai_skill_function": "",
		"ai_attack": "",
		"ai_move": "",
		"ai_heal": "",
		"ai_skill": "",
		"ai_use": "",
		"skill_group_id": 0,
		"gear_GearGear": 32003,
		"gear_rank": 1,
		"proficiency_UnitProficiency": 2,
		"level": 9,
		"hp": 43,
		"strength": 27,
		"vitality": 30,
		"intelligence": 0,
		"mind": 2,
		"agility": 12,
		"dexterity": 20,
		"lucky": 4,
		"parameter_table_BattleEnemyParameterTable": 18300033,
		"parameter_deviation_table_BattleEnemyParameterDeviationTable": 1,
		"acquire_skill_group_id": 130,
		"level_correction": -1,
		"group_id": 0,
		"ai_script_id_BattleAIScript": 0
	},
	{
		"ID": 27754,
		"stage_BattleStage": 271002119,
		"unit_UnitUnit": 830003,
		"money": 50,
		"initial_coordinate_x": 4,
		"initial_coordinate_y": 7,
		"reinforcement_BattleReinforcement": 0,
		"initial_direction": 0.0,
		"ai_move_group": 0,
		"ai_target_move_x": -1,
		"ai_target_move_y": -1,
		"ai_skill_function": "",
		"ai_attack": "",
		"ai_move": "",
		"ai_heal": "",
		"ai_skill": "",
		"ai_use": "",
		"skill_group_id": 0,
		"gear_GearGear": 32001,
		"gear_rank": 1,
		"proficiency_UnitProficiency": 2,
		"level": 10,
		"hp": 44,
		"strength": 28,
		"vitality": 30,
		"intelligence": 0,
		"mind": 2,
		"agility": 12,
		"dexterity": 20,
		"lucky": 4,
		"parameter_table_BattleEnemyParameterTable": 18300033,
		"parameter_deviation_table_BattleEnemyParameterDeviationTable": 1,
		"acquire_skill_group_id": 130,
		"level_correction": 0,
		"group_id": 0,
		"ai_script_id_BattleAIScript": 0
	},
	{
		"ID": 27755,
		"stage_BattleStage": 271002119,
		"unit_UnitUnit": 830003,
		"money": 45,
		"initial_coordinate_x": 5,
		"initial_coordinate_y": 6,
		"reinforcement_BattleReinforcement": 0,
		"initial_direction": 0.0,
		"ai_move_group": 0,
		"ai_target_move_x": -1,
		"ai_target_move_y": -1,
		"ai_skill_function": "",
		"ai_attack": "",
		"ai_move": "",
		"ai_heal": "",
		"ai_skill": "",
		"ai_use": "",
		"skill_group_id": 0,
		"gear_GearGear": 32003,
		"gear_rank": 1,
		"proficiency_UnitProficiency": 2,
		"level": 9,
		"hp": 45,
		"strength": 29,
		"vitality": 31,
		"intelligence": 0,
		"mind": 2,
		"agility": 13,
		"dexterity": 21,
		"lucky": 4,
		"parameter_table_BattleEnemyParameterTable": 18300033,
		"parameter_deviation_table_BattleEnemyParameterDeviationTable": 1,
		"acquire_skill_group_id": 130,
		"level_correction": -1,
		"group_id": 0,
		"ai_script_id_BattleAIScript": 0
	},
	{
		"ID": 27756,
		"stage_BattleStage": 271002119,
		"unit_UnitUnit": 830003,
		"money": 40,
		"initial_coordinate_x": 6,
		"initial_coordinate_y": 6,
		"reinforcement_BattleReinforcement": 0,
		"initial_direction": 0.0,
		"ai_move_group": 0,
		"ai_target_move_x": -1,
		"ai_target_move_y": -1,
		"ai_skill_function": "",
		"ai_attack": "",
		"ai_move": "",
		"ai_heal": "",
		"ai_skill": "",
		"ai_use": "",
		"skill_group_id": 0,
		"gear_GearGear": 32001,
		"gear_rank": 1,
		"proficiency_UnitProficiency": 2,
		"level": 8,
		"hp": 46,
		"strength": 29,
		"vitality": 32,
		"intelligence": 0,
		"mind": 2,
		"agility": 13,
		"dexterity": 22,
		"lucky": 4,
		"parameter_table_BattleEnemyParameterTable": 18300033,
		"parameter_deviation_table_BattleEnemyParameterDeviationTable": 1,
		"acquire_skill_group_id": 130,
		"level_correction": -2,
		"group_id": 0,
		"ai_script_id_BattleAIScript": 0
	},
	{
		"ID": 27757,
		"stage_BattleStage": 271002119,
		"unit_UnitUnit": 900029,
		"money": 35,
		"initial_coordinate_x": 1,
		"initial_coordinate_y": 5,
		"reinforcement_BattleReinforcement": 0,
		"initial_direction": 0.0,
		"ai_move_group": 0,
		"ai_target_move_x": -1,
		"ai_target_move_y": -1,
		"ai_skill_function": "",
		"ai_attack": "",
		"ai_move": "",
		"ai_heal": "",
		"ai_skill": "",
		"ai_use": "",
		"skill_group_id": 0,
		"gear_GearGear": 33003,
		"gear_rank": 1,
		"proficiency_UnitProficiency": 3,
		"level": 7,
		"hp": 45,
		"strength": 29,
		"vitality": 31,
		"intelligence": 0,
		"mind": 2,
		"agility": 13,
		"dexterity": 21,
		"lucky": 4,
		"parameter_table_BattleEnemyParameterTable": 19000292,
		"parameter_deviation_table_BattleEnemyParameterDeviationTable": 1,
		"acquire_skill_group_id": 46,
		"level_correction": -1,
		"group_id": 0,
		"ai_script_id_BattleAIScript": 0
	},
	{
		"ID": 27758,
		"stage_BattleStage": 271002119,
		"unit_UnitUnit": 830003,
		"money": 30,
		"initial_coordinate_x": 2,
		"initial_coordinate_y": 5,
		"reinforcement_BattleReinforcement": 0,
		"initial_direction": 0.0,
		"ai_move_group": 0,
		"ai_target_move_x": -1,
		"ai_target_move_y": -1,
		"ai_skill_function": "",
		"ai_attack": "",
		"ai_move": "",
		"ai_heal": "",
		"ai_skill": "",
		"ai_use": "",
		"skill_group_id": 0,
		"gear_GearGear": 32002,
		"gear_rank": 1,
		"proficiency_UnitProficiency": 2,
		"level": 6,
		"hp": 44,
		"strength": 28,
		"vitality": 30,
		"intelligence": 0,
		"mind": 2,
		"agility": 12,
		"dexterity": 20,
		"lucky": 4,
		"parameter_table_BattleEnemyParameterTable": 18300033,
		"parameter_deviation_table_BattleEnemyParameterDeviationTable": 1,
		"acquire_skill_group_id": 130,
		"level_correction": 0,
		"group_id": 0,
		"ai_script_id_BattleAIScript": 0
	},
	{
		"ID": 27759,
		"stage_BattleStage": 271002119,
		"unit_UnitUnit": 840004,
		"money": 25,
		"initial_coordinate_x": 1,
		"initial_coordinate_y": 7,
		"reinforcement_BattleReinforcement": 0,
		"initial_direction": 0.0,
		"ai_move_group": 0,
		"ai_target_move_x": -1,
		"ai_target_move_y": -1,
		"ai_skill_function": "",
		"ai_attack": "",
		"ai_move": "IF(turn <=3,0,1)",
		"ai_heal": "",
		"ai_skill": "",
		"ai_use": "",
		"skill_group_id": 6,
		"gear_GearGear": 42001,
		"gear_rank": 1,
		"proficiency_UnitProficiency": 2,
		"level": 5,
		"hp": 36,
		"strength": 25,
		"vitality": 21,
		"intelligence": 0,
		"mind": 7,
		"agility": 21,
		"dexterity": 25,
		"lucky": 4,
		"parameter_table_BattleEnemyParameterTable": 18400043,
		"parameter_deviation_table_BattleEnemyParameterDeviationTable": 1,
		"acquire_skill_group_id": 131,
		"level_correction": -1,
		"group_id": 0,
		"ai_script_id_BattleAIScript": 0
	},
	{
		"ID": 27760,
		"stage_BattleStage": 271002119,
		"unit_UnitUnit": 840004,
		"money": 30,
		"initial_coordinate_x": 2,
		"initial_coordinate_y": 7,
		"reinforcement_BattleReinforcement": 0,
		"initial_direction": 0.0,
		"ai_move_group": 0,
		"ai_target_move_x": -1,
		"ai_target_move_y": -1,
		"ai_skill_function": "",
		"ai_attack": "",
		"ai_move": "IF(turn <=3,0,1)",
		"ai_heal": "",
		"ai_skill": "",
		"ai_use": "",
		"skill_group_id": 6,
		"gear_GearGear": 42002,
		"gear_rank": 1,
		"proficiency_UnitProficiency": 2,
		"level": 6,
		"hp": 35,
		"strength": 24,
		"vitality": 20,
		"intelligence": 0,
		"mind": 7,
		"agility": 20,
		"dexterity": 24,
		"lucky": 4,
		"parameter_table_BattleEnemyParameterTable": 18400043,
		"parameter_deviation_table_BattleEnemyParameterDeviationTable": 1,
		"acquire_skill_group_id": 131,
		"level_correction": 0,
		"group_id": 0,
		"ai_script_id_BattleAIScript": 0
	},
	{
		"ID": 27761,
		"stage_BattleStage": 271002119,
		"unit_UnitUnit": 840004,
		"money": 35,
		"initial_coordinate_x": 3,
		"initial_coordinate_y": 6,
		"reinforcement_BattleReinforcement": 0,
		"initial_direction": 0.0,
		"ai_move_group": 0,
		"ai_target_move_x": -1,
		"ai_target_move_y": -1,
		"ai_skill_function": "",
		"ai_attack": "",
		"ai_move": "IF(turn <=3,0,1)",
		"ai_heal": "",
		"ai_skill": "",
		"ai_use": "",
		"skill_group_id": 6,
		"gear_GearGear": 41002,
		"gear_rank": 1,
		"proficiency_UnitProficiency": 1,
		"level": 7,
		"hp": 34,
		"strength": 23,
		"vitality": 20,
		"intelligence": 0,
		"mind": 7,
		"agility": 19,
		"dexterity": 23,
		"lucky": 4,
		"parameter_table_BattleEnemyParameterTable": 18400043,
		"parameter_deviation_table_BattleEnemyParameterDeviationTable": 1,
		"acquire_skill_group_id": 131,
		"level_correction": -1,
		"group_id": 0,
		"ai_script_id_BattleAIScript": 0
	},
	{
		"ID": 27762,
		"stage_BattleStage": 271002119,
		"unit_UnitUnit": 840004,
		"money": 40,
		"initial_coordinate_x": 5,
		"initial_coordinate_y": 5,
		"reinforcement_BattleReinforcement": 0,
		"initial_direction": 0.0,
		"ai_move_group": 0,
		"ai_target_move_x": -1,
		"ai_target_move_y": -1,
		"ai_skill_function": "",
		"ai_attack": "",
		"ai_move": "IF(turn <=3,0,1)",
		"ai_heal": "",
		"ai_skill": "",
		"ai_use": "",
		"skill_group_id": 6,
		"gear_GearGear": 43001,
		"gear_rank": 1,
		"proficiency_UnitProficiency": 3,
		"level": 8,
		"hp": 35,
		"strength": 24,
		"vitality": 20,
		"intelligence": 0,
		"mind": 7,
		"agility": 20,
		"dexterity": 24,
		"lucky": 4,
		"parameter_table_BattleEnemyParameterTable": 18400043,
		"parameter_deviation_table_BattleEnemyParameterDeviationTable": 1,
		"acquire_skill_group_id": 131,
		"level_correction": -2,
		"group_id": 0,
		"ai_script_id_BattleAIScript": 0
	},
	{
		"ID": 27763,
		"stage_BattleStage": 271002119,
		"unit_UnitUnit": 900030,
		"money": 45,
		"initial_coordinate_x": 6,
		"initial_coordinate_y": 5,
		"reinforcement_BattleReinforcement": 0,
		"initial_direction": 0.0,
		"ai_move_group": 0,
		"ai_target_move_x": -1,
		"ai_target_move_y": -1,
		"ai_skill_function": "",
		"ai_attack": "",
		"ai_move": "IF(turn <=3,0,1)",
		"ai_heal": "",
		"ai_skill": "",
		"ai_use": "",
		"skill_group_id": 0,
		"gear_GearGear": 22005,
		"gear_rank": 1,
		"proficiency_UnitProficiency": 2,
		"level": 9,
		"hp": 36,
		"strength": 25,
		"vitality": 21,
		"intelligence": 0,
		"mind": 7,
		"agility": 21,
		"dexterity": 25,
		"lucky": 4,
		"parameter_table_BattleEnemyParameterTable": 19000302,
		"parameter_deviation_table_BattleEnemyParameterDeviationTable": 1,
		"acquire_skill_group_id": 47,
		"level_correction": -1,
		"group_id": 0,
		"ai_script_id_BattleAIScript": 0
	},
	{
		"ID": 27764,
		"stage_BattleStage": 271002119,
		"unit_UnitUnit": 840004,
		"money": 40,
		"initial_coordinate_x": 1,
		"initial_coordinate_y": 1,
		"reinforcement_BattleReinforcement": 0,
		"initial_direction": 0.0,
		"ai_move_group": 0,
		"ai_target_move_x": -1,
		"ai_target_move_y": -1,
		"ai_skill_function": "",
		"ai_attack": "",
		"ai_move": "",
		"ai_heal": "",
		"ai_skill": "",
		"ai_use": "",
		"skill_group_id": 6,
		"gear_GearGear": 42001,
		"gear_rank": 1,
		"proficiency_UnitProficiency": 2,
		"level": 8,
		"hp": 36,
		"strength": 26,
		"vitality": 21,
		"intelligence": 0,
		"mind": 7,
		"agility": 21,
		"dexterity": 25,
		"lucky": 4,
		"parameter_table_BattleEnemyParameterTable": 18400043,
		"parameter_deviation_table_BattleEnemyParameterDeviationTable": 1,
		"acquire_skill_group_id": 131,
		"level_correction": 0,
		"group_id": 0,
		"ai_script_id_BattleAIScript": 0
	},
	{
		"ID": 27765,
		"stage_BattleStage": 271002119,
		"unit_UnitUnit": 840004,
		"money": 35,
		"initial_coordinate_x": 4,
		"initial_coordinate_y": 1,
		"reinforcement_BattleReinforcement": 0,
		"initial_direction": 0.0,
		"ai_move_group": 0,
		"ai_target_move_x": -1,
		"ai_target_move_y": -1,
		"ai_skill_function": "",
		"ai_attack": "",
		"ai_move": "",
		"ai_heal": "",
		"ai_skill": "",
		"ai_use": "",
		"skill_group_id": 6,
		"gear_GearGear": 43001,
		"gear_rank": 1,
		"proficiency_UnitProficiency": 3,
		"level": 7,
		"hp": 37,
		"strength": 27,
		"vitality": 22,
		"intelligence": 0,
		"mind": 8,
		"agility": 22,
		"dexterity": 26,
		"lucky": 4,
		"parameter_table_BattleEnemyParameterTable": 18400043,
		"parameter_deviation_table_BattleEnemyParameterDeviationTable": 1,
		"acquire_skill_group_id": 131,
		"level_correction": -1,
		"group_id": 0,
		"ai_script_id_BattleAIScript": 0
	},
	{
		"ID": 27766,
		"stage_BattleStage": 271002119,
		"unit_UnitUnit": 840004,
		"money": 30,
		"initial_coordinate_x": 6,
		"initial_coordinate_y": 1,
		"reinforcement_BattleReinforcement": 0,
		"initial_direction": 0.0,
		"ai_move_group": 0,
		"ai_target_move_x": -1,
		"ai_target_move_y": -1,
		"ai_skill_function": "",
		"ai_attack": "",
		"ai_move": "",
		"ai_heal": "",
		"ai_skill": "",
		"ai_use": "",
		"skill_group_id": 6,
		"gear_GearGear": 42001,
		"gear_rank": 1,
		"proficiency_UnitProficiency": 2,
		"level": 6,
		"hp": 38,
		"strength": 27,
		"vitality": 22,
		"intelligence": 0,
		"mind": 8,
		"agility": 22,
		"dexterity": 27,
		"lucky": 4,
		"parameter_table_BattleEnemyParameterTable": 18400043,
		"parameter_deviation_table_BattleEnemyParameterDeviationTable": 1,
		"acquire_skill_group_id": 131,
		"level_correction": -2,
		"group_id": 0,
		"ai_script_id_BattleAIScript": 0
	}
]