[
	{
		"ID": 27015,
		"stage_BattleStage": 271002201,
		"unit_UnitUnit": 820003,
		"money": 30,
		"initial_coordinate_x": 5,
		"initial_coordinate_y": 5,
		"reinforcement_BattleReinforcement": 0,
		"initial_direction": 90.0,
		"ai_move_group": 0,
		"ai_target_move_x": -1,
		"ai_target_move_y": -1,
		"ai_skill_function": "",
		"ai_attack": "",
		"ai_move": "",
		"ai_heal": "",
		"ai_skill": "",
		"ai_use": "",
		"skill_group_id": 0,
		"gear_GearGear": 21002,
		"gear_rank": 1,
		"proficiency_UnitProficiency": 1,
		"level": 6,
		"hp": 35,
		"strength": 19,
		"vitality": 22,
		"intelligence": 0,
		"mind": 1,
		"agility": 6,
		"dexterity": 12,
		"lucky": 3,
		"parameter_table_BattleEnemyParameterTable": 18200031,
		"parameter_deviation_table_BattleEnemyParameterDeviationTable": 6,
		"acquire_skill_group_id": 49,
		"level_correction": -3,
		"group_id": 0,
		"ai_script_id_BattleAIScript": 0
	},
	{
		"ID": 27016,
		"stage_BattleStage": 271002201,
		"unit_UnitUnit": 820003,
		"money": 35,
		"initial_coordinate_x": 5,
		"initial_coordinate_y": 4,
		"reinforcement_BattleReinforcement": 0,
		"initial_direction": 90.0,
		"ai_move_group": 0,
		"ai_target_move_x": -1,
		"ai_target_move_y": -1,
		"ai_skill_function": "",
		"ai_attack": "",
		"ai_move": "",
		"ai_heal": "",
		"ai_skill": "",
		"ai_use": "",
		"skill_group_id": 0,
		"gear_GearGear": 22001,
		"gear_rank": 1,
		"proficiency_UnitProficiency": 2,
		"level": 7,
		"hp": 36,
		"strength": 20,
		"vitality": 23,
		"intelligence": 0,
		"mind": 1,
		"agility": 6,
		"dexterity": 13,
		"lucky": 3,
		"parameter_table_BattleEnemyParameterTable": 18200031,
		"parameter_deviation_table_BattleEnemyParameterDeviationTable": 6,
		"acquire_skill_group_id": 49,
		"level_correction": -4,
		"group_id": 0,
		"ai_script_id_BattleAIScript": 0
	},
	{
		"ID": 27017,
		"stage_BattleStage": 271002201,
		"unit_UnitUnit": 820003,
		"money": 40,
		"initial_coordinate_x": 5,
		"initial_coordinate_y": 3,
		"reinforcement_BattleReinforcement": 0,
		"initial_direction": 90.0,
		"ai_move_group": 0,
		"ai_target_move_x": -1,
		"ai_target_move_y": -1,
		"ai_skill_function": "",
		"ai_attack": "",
		"ai_move": "",
		"ai_heal": "",
		"ai_skill": "",
		"ai_use": "",
		"skill_group_id": 0,
		"gear_GearGear": 22002,
		"gear_rank": 1,
		"proficiency_UnitProficiency": 2,
		"level": 8,
		"hp": 36,
		"strength": 20,
		"vitality": 24,
		"intelligence": 0,
		"mind": 1,
		"agility": 6,
		"dexterity": 14,
		"lucky": 3,
		"parameter_table_BattleEnemyParameterTable": 18200031,
		"parameter_deviation_table_BattleEnemyParameterDeviationTable": 6,
		"acquire_skill_group_id": 49,
		"level_correction": -3,
		"group_id": 0,
		"ai_script_id_BattleAIScript": 0
	},
	{
		"ID": 27018,
		"stage_BattleStage": 271002201,
		"unit_UnitUnit": 900029,
		"money": 45,
		"initial_coordinate_x": 3,
		"initial_coordinate_y": 5,
		"reinforcement_BattleReinforcement": 0,
		"initial_direction": 90.0,
		"ai_move_group": 0,
		"ai_target_move_x": -1,
		"ai_target_move_y": -1,
		"ai_skill_function": "",
		"ai_attack": "",
		"ai_move": "",
		"ai_heal": "",
		"ai_skill": "",
		"ai_use": "",
		"skill_group_id": 0,
		"gear_GearGear": 33003,
		"gear_rank": 1,
		"proficiency_UnitProficiency": 3,
		"level": 9,
		"hp": 37,
		"strength": 21,
		"vitality": 24,
		"intelligence": 0,
		"mind": 1,
		"agility": 7,
		"dexterity": 14,
		"lucky": 3,
		"parameter_table_BattleEnemyParameterTable": 19000291,
		"parameter_deviation_table_BattleEnemyParameterDeviationTable": 6,
		"acquire_skill_group_id": 46,
		"level_correction": -4,
		"group_id": 0,
		"ai_script_id_BattleAIScript": 0
	},
	{
		"ID": 27019,
		"stage_BattleStage": 271002201,
		"unit_UnitUnit": 830003,
		"money": 50,
		"initial_coordinate_x": 3,
		"initial_coordinate_y": 4,
		"reinforcement_BattleReinforcement": 0,
		"initial_direction": 90.0,
		"ai_move_group": 0,
		"ai_target_move_x": -1,
		"ai_target_move_y": -1,
		"ai_skill_function": "",
		"ai_attack": "",
		"ai_move": "",
		"ai_heal": "",
		"ai_skill": "",
		"ai_use": "",
		"skill_group_id": 0,
		"gear_GearGear": 32001,
		"gear_rank": 1,
		"proficiency_UnitProficiency": 2,
		"level": 10,
		"hp": 38,
		"strength": 21,
		"vitality": 25,
		"intelligence": 0,
		"mind": 1,
		"agility": 9,
		"dexterity": 15,
		"lucky": 3,
		"parameter_table_BattleEnemyParameterTable": 18300031,
		"parameter_deviation_table_BattleEnemyParameterDeviationTable": 6,
		"acquire_skill_group_id": 50,
		"level_correction": -3,
		"group_id": 0,
		"ai_script_id_BattleAIScript": 0
	},
	{
		"ID": 27020,
		"stage_BattleStage": 271002201,
		"unit_UnitUnit": 830003,
		"money": 45,
		"initial_coordinate_x": 4,
		"initial_coordinate_y": 2,
		"reinforcement_BattleReinforcement": 0,
		"initial_direction": 90.0,
		"ai_move_group": 0,
		"ai_target_move_x": -1,
		"ai_target_move_y": -1,
		"ai_skill_function": "",
		"ai_attack": "",
		"ai_move": "",
		"ai_heal": "",
		"ai_skill": "",
		"ai_use": "",
		"skill_group_id": 0,
		"gear_GearGear": 31002,
		"gear_rank": 1,
		"proficiency_UnitProficiency": 1,
		"level": 9,
		"hp": 39,
		"strength": 22,
		"vitality": 26,
		"intelligence": 0,
		"mind": 1,
		"agility": 9,
		"dexterity": 16,
		"lucky": 3,
		"parameter_table_BattleEnemyParameterTable": 18300031,
		"parameter_deviation_table_BattleEnemyParameterDeviationTable": 6,
		"acquire_skill_group_id": 50,
		"level_correction": -4,
		"group_id": 0,
		"ai_script_id_BattleAIScript": 0
	},
	{
		"ID": 27021,
		"stage_BattleStage": 271002201,
		"unit_UnitUnit": 900026,
		"money": 40,
		"initial_coordinate_x": 4,
		"initial_coordinate_y": 1,
		"reinforcement_BattleReinforcement": 0,
		"initial_direction": 90.0,
		"ai_move_group": 0,
		"ai_target_move_x": -1,
		"ai_target_move_y": -1,
		"ai_skill_function": "",
		"ai_attack": "",
		"ai_move": "",
		"ai_heal": "",
		"ai_skill": "",
		"ai_use": "",
		"skill_group_id": 0,
		"gear_GearGear": 42002,
		"gear_rank": 1,
		"proficiency_UnitProficiency": 2,
		"level": 8,
		"hp": 38,
		"strength": 21,
		"vitality": 25,
		"intelligence": 0,
		"mind": 1,
		"agility": 9,
		"dexterity": 15,
		"lucky": 3,
		"parameter_table_BattleEnemyParameterTable": 19000261,
		"parameter_deviation_table_BattleEnemyParameterDeviationTable": 6,
		"acquire_skill_group_id": 43,
		"level_correction": -3,
		"group_id": 0,
		"ai_script_id_BattleAIScript": 0
	},
	{
		"ID": 27022,
		"stage_BattleStage": 271002201,
		"unit_UnitUnit": 830003,
		"money": 35,
		"initial_coordinate_x": 1,
		"initial_coordinate_y": 4,
		"reinforcement_BattleReinforcement": 0,
		"initial_direction": 90.0,
		"ai_move_group": 0,
		"ai_target_move_x": -1,
		"ai_target_move_y": -1,
		"ai_skill_function": "",
		"ai_attack": "",
		"ai_move": "",
		"ai_heal": "",
		"ai_skill": "",
		"ai_use": "",
		"skill_group_id": 0,
		"gear_GearGear": 31002,
		"gear_rank": 1,
		"proficiency_UnitProficiency": 1,
		"level": 7,
		"hp": 37,
		"strength": 20,
		"vitality": 24,
		"intelligence": 0,
		"mind": 1,
		"agility": 8,
		"dexterity": 15,
		"lucky": 3,
		"parameter_table_BattleEnemyParameterTable": 18300031,
		"parameter_deviation_table_BattleEnemyParameterDeviationTable": 6,
		"acquire_skill_group_id": 50,
		"level_correction": -4,
		"group_id": 0,
		"ai_script_id_BattleAIScript": 0
	},
	{
		"ID": 27023,
		"stage_BattleStage": 271002201,
		"unit_UnitUnit": 810004,
		"money": 30,
		"initial_coordinate_x": 1,
		"initial_coordinate_y": 3,
		"reinforcement_BattleReinforcement": 0,
		"initial_direction": 90.0,
		"ai_move_group": 0,
		"ai_target_move_x": -1,
		"ai_target_move_y": -1,
		"ai_skill_function": "",
		"ai_attack": "",
		"ai_move": "",
		"ai_heal": "",
		"ai_skill": "",
		"ai_use": "",
		"skill_group_id": 0,
		"gear_GearGear": 12002,
		"gear_rank": 1,
		"proficiency_UnitProficiency": 2,
		"level": 6,
		"hp": 30,
		"strength": 18,
		"vitality": 16,
		"intelligence": 0,
		"mind": 6,
		"agility": 15,
		"dexterity": 18,
		"lucky": 3,
		"parameter_table_BattleEnemyParameterTable": 18100041,
		"parameter_deviation_table_BattleEnemyParameterDeviationTable": 6,
		"acquire_skill_group_id": 48,
		"level_correction": -3,
		"group_id": 0,
		"ai_script_id_BattleAIScript": 0
	},
	{
		"ID": 27024,
		"stage_BattleStage": 271002201,
		"unit_UnitUnit": 810004,
		"money": 25,
		"initial_coordinate_x": 1,
		"initial_coordinate_y": 2,
		"reinforcement_BattleReinforcement": 0,
		"initial_direction": 90.0,
		"ai_move_group": 0,
		"ai_target_move_x": -1,
		"ai_target_move_y": -1,
		"ai_skill_function": "",
		"ai_attack": "",
		"ai_move": "",
		"ai_heal": "",
		"ai_skill": "",
		"ai_use": "",
		"skill_group_id": 0,
		"gear_GearGear": 11002,
		"gear_rank": 1,
		"proficiency_UnitProficiency": 1,
		"level": 5,
		"hp": 29,
		"strength": 17,
		"vitality": 16,
		"intelligence": 0,
		"mind": 5,
		"agility": 15,
		"dexterity": 17,
		"lucky": 3,
		"parameter_table_BattleEnemyParameterTable": 18100041,
		"parameter_deviation_table_BattleEnemyParameterDeviationTable": 6,
		"acquire_skill_group_id": 48,
		"level_correction": -4,
		"group_id": 0,
		"ai_script_id_BattleAIScript": 0
	},
	{
		"ID": 27025,
		"stage_BattleStage": 271002201,
		"unit_UnitUnit": 810004,
		"money": 30,
		"initial_coordinate_x": 1,
		"initial_coordinate_y": 1,
		"reinforcement_BattleReinforcement": 0,
		"initial_direction": 90.0,
		"ai_move_group": 0,
		"ai_target_move_x": -1,
		"ai_target_move_y": -1,
		"ai_skill_function": "",
		"ai_attack": "",
		"ai_move": "",
		"ai_heal": "",
		"ai_skill": "",
		"ai_use": "",
		"skill_group_id": 0,
		"gear_GearGear": 12001,
		"gear_rank": 1,
		"proficiency_UnitProficiency": 2,
		"level": 6,
		"hp": 28,
		"strength": 16,
		"vitality": 15,
		"intelligence": 0,
		"mind": 5,
		"agility": 14,
		"dexterity": 17,
		"lucky": 3,
		"parameter_table_BattleEnemyParameterTable": 18100041,
		"parameter_deviation_table_BattleEnemyParameterDeviationTable": 6,
		"acquire_skill_group_id": 48,
		"level_correction": -3,
		"group_id": 0,
		"ai_script_id_BattleAIScript": 0
	}
]