[
	{
		"ID": 47968,
		"stage_BattleStage": 278001004,
		"unit_UnitUnit": 900012,
		"money": 200,
		"initial_coordinate_x": 9,
		"initial_coordinate_y": 16,
		"reinforcement_BattleReinforcement": 5,
		"initial_direction": 180.0,
		"ai_move_group": 0,
		"ai_target_move_x": -1,
		"ai_target_move_y": -1,
		"ai_skill_function": "",
		"ai_attack": "IF(panel_move_distance <= 1, 1, 0)",
		"ai_move": "0.0",
		"ai_heal": "",
		"ai_skill": "",
		"ai_use": "",
		"skill_group_id": 9061,
		"gear_GearGear": 80005,
		"gear_rank": 1,
		"proficiency_UnitProficiency": 1,
		"level": 40,
		"hp": 67,
		"strength": 53,
		"vitality": 49,
		"intelligence": 12,
		"mind": 22,
		"agility": 46,
		"dexterity": 53,
		"lucky": 36,
		"parameter_table_BattleEnemyParameterTable": 0,
		"parameter_deviation_table_BattleEnemyParameterDeviationTable": 0,
		"acquire_skill_group_id": 0,
		"level_correction": 0,
		"group_id": 0,
		"ai_script_id_BattleAIScript": 0
	},
	{
		"ID": 47969,
		"stage_BattleStage": 278001004,
		"unit_UnitUnit": 900012,
		"money": 200,
		"initial_coordinate_x": 10,
		"initial_coordinate_y": 16,
		"reinforcement_BattleReinforcement": 5,
		"initial_direction": 180.0,
		"ai_move_group": 0,
		"ai_target_move_x": -1,
		"ai_target_move_y": -1,
		"ai_skill_function": "",
		"ai_attack": "IF(panel_move_distance <= 1, 1, 0)",
		"ai_move": "0.0",
		"ai_heal": "",
		"ai_skill": "",
		"ai_use": "",
		"skill_group_id": 9061,
		"gear_GearGear": 80005,
		"gear_rank": 1,
		"proficiency_UnitProficiency": 1,
		"level": 40,
		"hp": 68,
		"strength": 55,
		"vitality": 44,
		"intelligence": 13,
		"mind": 23,
		"agility": 44,
		"dexterity": 55,
		"lucky": 36,
		"parameter_table_BattleEnemyParameterTable": 0,
		"parameter_deviation_table_BattleEnemyParameterDeviationTable": 0,
		"acquire_skill_group_id": 0,
		"level_correction": 0,
		"group_id": 0,
		"ai_script_id_BattleAIScript": 0
	},
	{
		"ID": 47970,
		"stage_BattleStage": 278001004,
		"unit_UnitUnit": 810002,
		"money": 200,
		"initial_coordinate_x": 9,
		"initial_coordinate_y": 15,
		"reinforcement_BattleReinforcement": 4,
		"initial_direction": 180.0,
		"ai_move_group": 0,
		"ai_target_move_x": -1,
		"ai_target_move_y": -1,
		"ai_skill_function": "",
		"ai_attack": "IF( turn <=6 ,IF(panel_move_distance <= 7, 1, 0),1)",
		"ai_move": "IF(turn <=6,0,1)",
		"ai_heal": "",
		"ai_skill": "",
		"ai_use": "",
		"skill_group_id": 561,
		"gear_GearGear": 13003,
		"gear_rank": 1,
		"proficiency_UnitProficiency": 3,
		"level": 40,
		"hp": 75,
		"strength": 53,
		"vitality": 33,
		"intelligence": 6,
		"mind": 17,
		"agility": 41,
		"dexterity": 44,
		"lucky": 12,
		"parameter_table_BattleEnemyParameterTable": 0,
		"parameter_deviation_table_BattleEnemyParameterDeviationTable": 0,
		"acquire_skill_group_id": 0,
		"level_correction": 0,
		"group_id": 0,
		"ai_script_id_BattleAIScript": 0
	},
	{
		"ID": 47971,
		"stage_BattleStage": 278001004,
		"unit_UnitUnit": 830002,
		"money": 200,
		"initial_coordinate_x": 10,
		"initial_coordinate_y": 15,
		"reinforcement_BattleReinforcement": 4,
		"initial_direction": 180.0,
		"ai_move_group": 0,
		"ai_target_move_x": -1,
		"ai_target_move_y": -1,
		"ai_skill_function": "",
		"ai_attack": "IF( turn <=6 ,IF(panel_move_distance <= 7, 1, 0),1)",
		"ai_move": "IF(turn <=6,0,1)",
		"ai_heal": "",
		"ai_skill": "",
		"ai_use": "",
		"skill_group_id": 9625,
		"gear_GearGear": 33001,
		"gear_rank": 1,
		"proficiency_UnitProficiency": 3,
		"level": 40,
		"hp": 74,
		"strength": 52,
		"vitality": 34,
		"intelligence": 4,
		"mind": 18,
		"agility": 39,
		"dexterity": 41,
		"lucky": 12,
		"parameter_table_BattleEnemyParameterTable": 0,
		"parameter_deviation_table_BattleEnemyParameterDeviationTable": 0,
		"acquire_skill_group_id": 0,
		"level_correction": 0,
		"group_id": 0,
		"ai_script_id_BattleAIScript": 0
	},
	{
		"ID": 47972,
		"stage_BattleStage": 278001004,
		"unit_UnitUnit": 820004,
		"money": 200,
		"initial_coordinate_x": 9,
		"initial_coordinate_y": 14,
		"reinforcement_BattleReinforcement": 3,
		"initial_direction": 180.0,
		"ai_move_group": 0,
		"ai_target_move_x": -1,
		"ai_target_move_y": -1,
		"ai_skill_function": "",
		"ai_attack": "IF( turn <=6 ,IF(panel_move_distance <= 7, 1, 0),1)",
		"ai_move": "IF(turn <=6,0,1)",
		"ai_heal": "",
		"ai_skill": "",
		"ai_use": "",
		"skill_group_id": 441,
		"gear_GearGear": 22002,
		"gear_rank": 1,
		"proficiency_UnitProficiency": 2,
		"level": 40,
		"hp": 69,
		"strength": 55,
		"vitality": 31,
		"intelligence": 6,
		"mind": 19,
		"agility": 38,
		"dexterity": 49,
		"lucky": 14,
		"parameter_table_BattleEnemyParameterTable": 0,
		"parameter_deviation_table_BattleEnemyParameterDeviationTable": 0,
		"acquire_skill_group_id": 0,
		"level_correction": 0,
		"group_id": 0,
		"ai_script_id_BattleAIScript": 0
	},
	{
		"ID": 47973,
		"stage_BattleStage": 278001004,
		"unit_UnitUnit": 810008,
		"money": 200,
		"initial_coordinate_x": 10,
		"initial_coordinate_y": 14,
		"reinforcement_BattleReinforcement": 3,
		"initial_direction": 180.0,
		"ai_move_group": 0,
		"ai_target_move_x": -1,
		"ai_target_move_y": -1,
		"ai_skill_function": "",
		"ai_attack": "IF( turn <=5 ,IF(panel_move_distance <= 7, 1, 0),1)",
		"ai_move": "IF(turn <=5,0,1)",
		"ai_heal": "",
		"ai_skill": "",
		"ai_use": "",
		"skill_group_id": 431,
		"gear_GearGear": 12003,
		"gear_rank": 1,
		"proficiency_UnitProficiency": 2,
		"level": 40,
		"hp": 99,
		"strength": 58,
		"vitality": 49,
		"intelligence": 4,
		"mind": 20,
		"agility": 32,
		"dexterity": 54,
		"lucky": 5,
		"parameter_table_BattleEnemyParameterTable": 0,
		"parameter_deviation_table_BattleEnemyParameterDeviationTable": 0,
		"acquire_skill_group_id": 0,
		"level_correction": 0,
		"group_id": 0,
		"ai_script_id_BattleAIScript": 0
	},
	{
		"ID": 47974,
		"stage_BattleStage": 278001004,
		"unit_UnitUnit": 830001,
		"money": 200,
		"initial_coordinate_x": 2,
		"initial_coordinate_y": 15,
		"reinforcement_BattleReinforcement": 0,
		"initial_direction": 180.0,
		"ai_move_group": 0,
		"ai_target_move_x": -1,
		"ai_target_move_y": -1,
		"ai_skill_function": "",
		"ai_attack": "IF( turn <=5 ,IF(panel_move_distance <= 7, 1, 0),1)",
		"ai_move": "IF(turn <=5,0,1)",
		"ai_heal": "",
		"ai_skill": "",
		"ai_use": "",
		"skill_group_id": 9625,
		"gear_GearGear": 33001,
		"gear_rank": 1,
		"proficiency_UnitProficiency": 3,
		"level": 40,
		"hp": 63,
		"strength": 40,
		"vitality": 35,
		"intelligence": 13,
		"mind": 27,
		"agility": 44,
		"dexterity": 43,
		"lucky": 12,
		"parameter_table_BattleEnemyParameterTable": 0,
		"parameter_deviation_table_BattleEnemyParameterDeviationTable": 0,
		"acquire_skill_group_id": 0,
		"level_correction": 0,
		"group_id": 0,
		"ai_script_id_BattleAIScript": 0
	},
	{
		"ID": 47975,
		"stage_BattleStage": 278001004,
		"unit_UnitUnit": 860001,
		"money": 200,
		"initial_coordinate_x": 2,
		"initial_coordinate_y": 14,
		"reinforcement_BattleReinforcement": 0,
		"initial_direction": 180.0,
		"ai_move_group": 0,
		"ai_target_move_x": -1,
		"ai_target_move_y": -1,
		"ai_skill_function": "",
		"ai_attack": "IF( turn <=5 ,IF(panel_move_distance <= 7, 1, 0),1)",
		"ai_move": "IF(turn <=5,0,1)",
		"ai_heal": "",
		"ai_skill": "",
		"ai_use": "",
		"skill_group_id": 5710,
		"gear_GearGear": 80009,
		"gear_rank": 1,
		"proficiency_UnitProficiency": 2,
		"level": 40,
		"hp": 59,
		"strength": 9,
		"vitality": 27,
		"intelligence": 41,
		"mind": 33,
		"agility": 43,
		"dexterity": 44,
		"lucky": 13,
		"parameter_table_BattleEnemyParameterTable": 0,
		"parameter_deviation_table_BattleEnemyParameterDeviationTable": 0,
		"acquire_skill_group_id": 0,
		"level_correction": 0,
		"group_id": 0,
		"ai_script_id_BattleAIScript": 0
	},
	{
		"ID": 47976,
		"stage_BattleStage": 278001004,
		"unit_UnitUnit": 840004,
		"money": 200,
		"initial_coordinate_x": 9,
		"initial_coordinate_y": 10,
		"reinforcement_BattleReinforcement": 0,
		"initial_direction": 180.0,
		"ai_move_group": 0,
		"ai_target_move_x": -1,
		"ai_target_move_y": -1,
		"ai_skill_function": "",
		"ai_attack": "IF(panel_move_distance <= 5, 1, 0)",
		"ai_move": "0.0",
		"ai_heal": "",
		"ai_skill": "",
		"ai_use": "",
		"skill_group_id": 465,
		"gear_GearGear": 42001,
		"gear_rank": 1,
		"proficiency_UnitProficiency": 2,
		"level": 40,
		"hp": 67,
		"strength": 51,
		"vitality": 32,
		"intelligence": 4,
		"mind": 20,
		"agility": 42,
		"dexterity": 51,
		"lucky": 14,
		"parameter_table_BattleEnemyParameterTable": 0,
		"parameter_deviation_table_BattleEnemyParameterDeviationTable": 0,
		"acquire_skill_group_id": 0,
		"level_correction": 0,
		"group_id": 0,
		"ai_script_id_BattleAIScript": 0
	},
	{
		"ID": 47977,
		"stage_BattleStage": 278001004,
		"unit_UnitUnit": 840018,
		"money": 200,
		"initial_coordinate_x": 10,
		"initial_coordinate_y": 10,
		"reinforcement_BattleReinforcement": 0,
		"initial_direction": 180.0,
		"ai_move_group": 0,
		"ai_target_move_x": -1,
		"ai_target_move_y": -1,
		"ai_skill_function": "",
		"ai_attack": "IF(panel_move_distance <= 5, 1, 0)",
		"ai_move": "0.0",
		"ai_heal": "",
		"ai_skill": "",
		"ai_use": "",
		"skill_group_id": 275,
		"gear_GearGear": 43001,
		"gear_rank": 1,
		"proficiency_UnitProficiency": 3,
		"level": 40,
		"hp": 73,
		"strength": 52,
		"vitality": 36,
		"intelligence": 4,
		"mind": 22,
		"agility": 39,
		"dexterity": 47,
		"lucky": 14,
		"parameter_table_BattleEnemyParameterTable": 0,
		"parameter_deviation_table_BattleEnemyParameterDeviationTable": 0,
		"acquire_skill_group_id": 0,
		"level_correction": 0,
		"group_id": 0,
		"ai_script_id_BattleAIScript": 0
	},
	{
		"ID": 47978,
		"stage_BattleStage": 278001004,
		"unit_UnitUnit": 820003,
		"money": 200,
		"initial_coordinate_x": 9,
		"initial_coordinate_y": 9,
		"reinforcement_BattleReinforcement": 0,
		"initial_direction": 180.0,
		"ai_move_group": 0,
		"ai_target_move_x": -1,
		"ai_target_move_y": -1,
		"ai_skill_function": "",
		"ai_attack": "IF(panel_move_distance <= 5, 1, 0)",
		"ai_move": "0.0",
		"ai_heal": "",
		"ai_skill": "",
		"ai_use": "",
		"skill_group_id": 261,
		"gear_GearGear": 22005,
		"gear_rank": 1,
		"proficiency_UnitProficiency": 2,
		"level": 40,
		"hp": 83,
		"strength": 55,
		"vitality": 49,
		"intelligence": 5,
		"mind": 12,
		"agility": 23,
		"dexterity": 38,
		"lucky": 14,
		"parameter_table_BattleEnemyParameterTable": 0,
		"parameter_deviation_table_BattleEnemyParameterDeviationTable": 0,
		"acquire_skill_group_id": 0,
		"level_correction": 0,
		"group_id": 0,
		"ai_script_id_BattleAIScript": 0
	},
	{
		"ID": 47979,
		"stage_BattleStage": 278001004,
		"unit_UnitUnit": 810008,
		"money": 200,
		"initial_coordinate_x": 10,
		"initial_coordinate_y": 9,
		"reinforcement_BattleReinforcement": 0,
		"initial_direction": 180.0,
		"ai_move_group": 0,
		"ai_target_move_x": -1,
		"ai_target_move_y": -1,
		"ai_skill_function": "",
		"ai_attack": "IF(panel_move_distance <= 5, 1, 0)",
		"ai_move": "0.0",
		"ai_heal": "",
		"ai_skill": "",
		"ai_use": "",
		"skill_group_id": 431,
		"gear_GearGear": 12003,
		"gear_rank": 1,
		"proficiency_UnitProficiency": 2,
		"level": 40,
		"hp": 99,
		"strength": 58,
		"vitality": 49,
		"intelligence": 4,
		"mind": 21,
		"agility": 32,
		"dexterity": 54,
		"lucky": 6,
		"parameter_table_BattleEnemyParameterTable": 0,
		"parameter_deviation_table_BattleEnemyParameterDeviationTable": 0,
		"acquire_skill_group_id": 0,
		"level_correction": 0,
		"group_id": 0,
		"ai_script_id_BattleAIScript": 0
	},
	{
		"ID": 47980,
		"stage_BattleStage": 278001004,
		"unit_UnitUnit": 810002,
		"money": 200,
		"initial_coordinate_x": 4,
		"initial_coordinate_y": 9,
		"reinforcement_BattleReinforcement": 0,
		"initial_direction": 180.0,
		"ai_move_group": 0,
		"ai_target_move_x": -1,
		"ai_target_move_y": -1,
		"ai_skill_function": "",
		"ai_attack": "IF( turn <=3 ,IF(panel_move_distance <= 7, 1, 0),1)",
		"ai_move": "IF(turn <=3,0,1)",
		"ai_heal": "",
		"ai_skill": "",
		"ai_use": "",
		"skill_group_id": 435,
		"gear_GearGear": 13003,
		"gear_rank": 1,
		"proficiency_UnitProficiency": 3,
		"level": 40,
		"hp": 75,
		"strength": 52,
		"vitality": 31,
		"intelligence": 4,
		"mind": 17,
		"agility": 41,
		"dexterity": 44,
		"lucky": 13,
		"parameter_table_BattleEnemyParameterTable": 0,
		"parameter_deviation_table_BattleEnemyParameterDeviationTable": 0,
		"acquire_skill_group_id": 0,
		"level_correction": 0,
		"group_id": 0,
		"ai_script_id_BattleAIScript": 0
	},
	{
		"ID": 47981,
		"stage_BattleStage": 278001004,
		"unit_UnitUnit": 830002,
		"money": 200,
		"initial_coordinate_x": 4,
		"initial_coordinate_y": 8,
		"reinforcement_BattleReinforcement": 0,
		"initial_direction": 180.0,
		"ai_move_group": 0,
		"ai_target_move_x": -1,
		"ai_target_move_y": -1,
		"ai_skill_function": "",
		"ai_attack": "IF( turn <=3 ,IF(panel_move_distance <= 7, 1, 0),1)",
		"ai_move": "IF(turn <=3,0,1)",
		"ai_heal": "",
		"ai_skill": "",
		"ai_use": "",
		"skill_group_id": 425,
		"gear_GearGear": 33001,
		"gear_rank": 1,
		"proficiency_UnitProficiency": 3,
		"level": 40,
		"hp": 73,
		"strength": 51,
		"vitality": 34,
		"intelligence": 6,
		"mind": 18,
		"agility": 40,
		"dexterity": 41,
		"lucky": 14,
		"parameter_table_BattleEnemyParameterTable": 0,
		"parameter_deviation_table_BattleEnemyParameterDeviationTable": 0,
		"acquire_skill_group_id": 0,
		"level_correction": 0,
		"group_id": 0,
		"ai_script_id_BattleAIScript": 0
	},
	{
		"ID": 47982,
		"stage_BattleStage": 278001004,
		"unit_UnitUnit": 810002,
		"money": 200,
		"initial_coordinate_x": 14,
		"initial_coordinate_y": 9,
		"reinforcement_BattleReinforcement": 0,
		"initial_direction": 180.0,
		"ai_move_group": 0,
		"ai_target_move_x": -1,
		"ai_target_move_y": -1,
		"ai_skill_function": "",
		"ai_attack": "IF( turn <=3 ,IF(panel_move_distance <= 7, 1, 0),1)",
		"ai_move": "IF(turn <=3,0,1)",
		"ai_heal": "",
		"ai_skill": "",
		"ai_use": "",
		"skill_group_id": 561,
		"gear_GearGear": 13003,
		"gear_rank": 1,
		"proficiency_UnitProficiency": 3,
		"level": 40,
		"hp": 74,
		"strength": 51,
		"vitality": 33,
		"intelligence": 5,
		"mind": 17,
		"agility": 40,
		"dexterity": 44,
		"lucky": 14,
		"parameter_table_BattleEnemyParameterTable": 0,
		"parameter_deviation_table_BattleEnemyParameterDeviationTable": 0,
		"acquire_skill_group_id": 0,
		"level_correction": 0,
		"group_id": 0,
		"ai_script_id_BattleAIScript": 0
	},
	{
		"ID": 47983,
		"stage_BattleStage": 278001004,
		"unit_UnitUnit": 830002,
		"money": 200,
		"initial_coordinate_x": 14,
		"initial_coordinate_y": 8,
		"reinforcement_BattleReinforcement": 0,
		"initial_direction": 180.0,
		"ai_move_group": 0,
		"ai_target_move_x": -1,
		"ai_target_move_y": -1,
		"ai_skill_function": "",
		"ai_attack": "IF( turn <=3 ,IF(panel_move_distance <= 7, 1, 0),1)",
		"ai_move": "IF(turn <=3,0,1)",
		"ai_heal": "",
		"ai_skill": "",
		"ai_use": "",
		"skill_group_id": 421,
		"gear_GearGear": 33001,
		"gear_rank": 1,
		"proficiency_UnitProficiency": 3,
		"level": 40,
		"hp": 75,
		"strength": 52,
		"vitality": 33,
		"intelligence": 4,
		"mind": 18,
		"agility": 39,
		"dexterity": 43,
		"lucky": 14,
		"parameter_table_BattleEnemyParameterTable": 0,
		"parameter_deviation_table_BattleEnemyParameterDeviationTable": 0,
		"acquire_skill_group_id": 0,
		"level_correction": 0,
		"group_id": 0,
		"ai_script_id_BattleAIScript": 0
	},
	{
		"ID": 47984,
		"stage_BattleStage": 278001004,
		"unit_UnitUnit": 820003,
		"money": 200,
		"initial_coordinate_x": 8,
		"initial_coordinate_y": 5,
		"reinforcement_BattleReinforcement": 0,
		"initial_direction": 180.0,
		"ai_move_group": 0,
		"ai_target_move_x": -1,
		"ai_target_move_y": -1,
		"ai_skill_function": "",
		"ai_attack": "",
		"ai_move": "",
		"ai_heal": "",
		"ai_skill": "",
		"ai_use": "",
		"skill_group_id": 261,
		"gear_GearGear": 22005,
		"gear_rank": 1,
		"proficiency_UnitProficiency": 2,
		"level": 40,
		"hp": 84,
		"strength": 56,
		"vitality": 51,
		"intelligence": 5,
		"mind": 11,
		"agility": 25,
		"dexterity": 37,
		"lucky": 13,
		"parameter_table_BattleEnemyParameterTable": 0,
		"parameter_deviation_table_BattleEnemyParameterDeviationTable": 0,
		"acquire_skill_group_id": 0,
		"level_correction": 0,
		"group_id": 0,
		"ai_script_id_BattleAIScript": 0
	},
	{
		"ID": 47985,
		"stage_BattleStage": 278001004,
		"unit_UnitUnit": 820004,
		"money": 200,
		"initial_coordinate_x": 9,
		"initial_coordinate_y": 5,
		"reinforcement_BattleReinforcement": 0,
		"initial_direction": 180.0,
		"ai_move_group": 0,
		"ai_target_move_x": -1,
		"ai_target_move_y": -1,
		"ai_skill_function": "",
		"ai_attack": "",
		"ai_move": "",
		"ai_heal": "",
		"ai_skill": "",
		"ai_use": "",
		"skill_group_id": 441,
		"gear_GearGear": 22002,
		"gear_rank": 1,
		"proficiency_UnitProficiency": 2,
		"level": 40,
		"hp": 68,
		"strength": 54,
		"vitality": 32,
		"intelligence": 6,
		"mind": 17,
		"agility": 37,
		"dexterity": 48,
		"lucky": 12,
		"parameter_table_BattleEnemyParameterTable": 0,
		"parameter_deviation_table_BattleEnemyParameterDeviationTable": 0,
		"acquire_skill_group_id": 0,
		"level_correction": 0,
		"group_id": 0,
		"ai_script_id_BattleAIScript": 0
	},
	{
		"ID": 47986,
		"stage_BattleStage": 278001004,
		"unit_UnitUnit": 830004,
		"money": 200,
		"initial_coordinate_x": 10,
		"initial_coordinate_y": 5,
		"reinforcement_BattleReinforcement": 0,
		"initial_direction": 180.0,
		"ai_move_group": 0,
		"ai_target_move_x": -1,
		"ai_target_move_y": -1,
		"ai_skill_function": "",
		"ai_attack": "",
		"ai_move": "",
		"ai_heal": "",
		"ai_skill": "",
		"ai_use": "",
		"skill_group_id": 561,
		"gear_GearGear": 33002,
		"gear_rank": 1,
		"proficiency_UnitProficiency": 3,
		"level": 40,
		"hp": 68,
		"strength": 51,
		"vitality": 33,
		"intelligence": 5,
		"mind": 17,
		"agility": 42,
		"dexterity": 49,
		"lucky": 14,
		"parameter_table_BattleEnemyParameterTable": 0,
		"parameter_deviation_table_BattleEnemyParameterDeviationTable": 0,
		"acquire_skill_group_id": 0,
		"level_correction": 0,
		"group_id": 0,
		"ai_script_id_BattleAIScript": 0
	}
]