[
	{
		"ID": 1145,
		"stage_BattleStage": 320041302,
		"unit_UnitUnit": 820004,
		"money": 18,
		"initial_coordinate_x": 13,
		"initial_coordinate_y": 7,
		"reinforcement_BattleReinforcement": 0,
		"initial_direction": 180.0,
		"ai_move_group": 0,
		"ai_target_move_x": -1,
		"ai_target_move_y": -1,
		"ai_skill_function": "",
		"ai_attack": "",
		"ai_move": "IF(turn <=2,0,1)",
		"ai_heal": "",
		"ai_skill": "",
		"ai_use": "",
		"skill_group_id": 0,
		"gear_GearGear": 22001,
		"gear_rank": 1,
		"proficiency_UnitProficiency": 2,
		"level": 36,
		"hp": 47,
		"strength": 26,
		"vitality": 24,
		"intelligence": 5,
		"mind": 13,
		"agility": 18,
		"dexterity": 18,
		"lucky": 4,
		"parameter_table_BattleEnemyParameterTable": 0,
		"parameter_deviation_table_BattleEnemyParameterDeviationTable": 0,
		"acquire_skill_group_id": 0,
		"level_correction": 0,
		"group_id": 0,
		"ai_script_id_BattleAIScript": 0
	},
	{
		"ID": 1146,
		"stage_BattleStage": 320041302,
		"unit_UnitUnit": 820004,
		"money": 18,
		"initial_coordinate_x": 12,
		"initial_coordinate_y": 4,
		"reinforcement_BattleReinforcement": 0,
		"initial_direction": 90.0,
		"ai_move_group": 0,
		"ai_target_move_x": -1,
		"ai_target_move_y": -1,
		"ai_skill_function": "",
		"ai_attack": "",
		"ai_move": "IF(turn <=2,0,1)",
		"ai_heal": "",
		"ai_skill": "",
		"ai_use": "",
		"skill_group_id": 0,
		"gear_GearGear": 22001,
		"gear_rank": 1,
		"proficiency_UnitProficiency": 2,
		"level": 37,
		"hp": 48,
		"strength": 25,
		"vitality": 25,
		"intelligence": 5,
		"mind": 14,
		"agility": 19,
		"dexterity": 19,
		"lucky": 5,
		"parameter_table_BattleEnemyParameterTable": 0,
		"parameter_deviation_table_BattleEnemyParameterDeviationTable": 0,
		"acquire_skill_group_id": 0,
		"level_correction": 0,
		"group_id": 0,
		"ai_script_id_BattleAIScript": 0
	},
	{
		"ID": 1147,
		"stage_BattleStage": 320041302,
		"unit_UnitUnit": 820004,
		"money": 18,
		"initial_coordinate_x": 12,
		"initial_coordinate_y": 8,
		"reinforcement_BattleReinforcement": 0,
		"initial_direction": 180.0,
		"ai_move_group": 0,
		"ai_target_move_x": -1,
		"ai_target_move_y": -1,
		"ai_skill_function": "",
		"ai_attack": "",
		"ai_move": "IF(turn <=2,0,1)",
		"ai_heal": "",
		"ai_skill": "",
		"ai_use": "",
		"skill_group_id": 0,
		"gear_GearGear": 22001,
		"gear_rank": 1,
		"proficiency_UnitProficiency": 2,
		"level": 36,
		"hp": 48,
		"strength": 26,
		"vitality": 24,
		"intelligence": 4,
		"mind": 14,
		"agility": 18,
		"dexterity": 18,
		"lucky": 4,
		"parameter_table_BattleEnemyParameterTable": 0,
		"parameter_deviation_table_BattleEnemyParameterDeviationTable": 0,
		"acquire_skill_group_id": 0,
		"level_correction": 0,
		"group_id": 0,
		"ai_script_id_BattleAIScript": 0
	},
	{
		"ID": 1148,
		"stage_BattleStage": 320041302,
		"unit_UnitUnit": 820004,
		"money": 18,
		"initial_coordinate_x": 11,
		"initial_coordinate_y": 3,
		"reinforcement_BattleReinforcement": 0,
		"initial_direction": 90.0,
		"ai_move_group": 0,
		"ai_target_move_x": -1,
		"ai_target_move_y": -1,
		"ai_skill_function": "",
		"ai_attack": "",
		"ai_move": "IF(turn <=2,0,1)",
		"ai_heal": "",
		"ai_skill": "",
		"ai_use": "",
		"skill_group_id": 0,
		"gear_GearGear": 22001,
		"gear_rank": 1,
		"proficiency_UnitProficiency": 2,
		"level": 37,
		"hp": 47,
		"strength": 26,
		"vitality": 23,
		"intelligence": 5,
		"mind": 13,
		"agility": 18,
		"dexterity": 17,
		"lucky": 5,
		"parameter_table_BattleEnemyParameterTable": 0,
		"parameter_deviation_table_BattleEnemyParameterDeviationTable": 0,
		"acquire_skill_group_id": 0,
		"level_correction": 0,
		"group_id": 0,
		"ai_script_id_BattleAIScript": 0
	},
	{
		"ID": 1149,
		"stage_BattleStage": 320041302,
		"unit_UnitUnit": 820004,
		"money": 18,
		"initial_coordinate_x": 5,
		"initial_coordinate_y": 11,
		"reinforcement_BattleReinforcement": 0,
		"initial_direction": 90.0,
		"ai_move_group": 0,
		"ai_target_move_x": -1,
		"ai_target_move_y": -1,
		"ai_skill_function": "",
		"ai_attack": "IF(panel_move_distance <= 2, 1, 0)",
		"ai_move": "IF(turn <=15,0,1)",
		"ai_heal": "",
		"ai_skill": "",
		"ai_use": "",
		"skill_group_id": 0,
		"gear_GearGear": 22001,
		"gear_rank": 1,
		"proficiency_UnitProficiency": 2,
		"level": 36,
		"hp": 48,
		"strength": 25,
		"vitality": 24,
		"intelligence": 5,
		"mind": 14,
		"agility": 17,
		"dexterity": 18,
		"lucky": 3,
		"parameter_table_BattleEnemyParameterTable": 0,
		"parameter_deviation_table_BattleEnemyParameterDeviationTable": 0,
		"acquire_skill_group_id": 0,
		"level_correction": 0,
		"group_id": 0,
		"ai_script_id_BattleAIScript": 0
	},
	{
		"ID": 1150,
		"stage_BattleStage": 320041302,
		"unit_UnitUnit": 820004,
		"money": 18,
		"initial_coordinate_x": 4,
		"initial_coordinate_y": 10,
		"reinforcement_BattleReinforcement": 0,
		"initial_direction": 90.0,
		"ai_move_group": 0,
		"ai_target_move_x": -1,
		"ai_target_move_y": -1,
		"ai_skill_function": "",
		"ai_attack": "IF(panel_move_distance <= 2, 1, 0)",
		"ai_move": "IF(turn <=15,0,1)",
		"ai_heal": "",
		"ai_skill": "",
		"ai_use": "",
		"skill_group_id": 0,
		"gear_GearGear": 22001,
		"gear_rank": 1,
		"proficiency_UnitProficiency": 2,
		"level": 36,
		"hp": 47,
		"strength": 26,
		"vitality": 25,
		"intelligence": 6,
		"mind": 13,
		"agility": 18,
		"dexterity": 17,
		"lucky": 5,
		"parameter_table_BattleEnemyParameterTable": 0,
		"parameter_deviation_table_BattleEnemyParameterDeviationTable": 0,
		"acquire_skill_group_id": 0,
		"level_correction": 0,
		"group_id": 0,
		"ai_script_id_BattleAIScript": 0
	},
	{
		"ID": 1151,
		"stage_BattleStage": 320041302,
		"unit_UnitUnit": 820007,
		"money": 19,
		"initial_coordinate_x": 1,
		"initial_coordinate_y": 1,
		"reinforcement_BattleReinforcement": 6,
		"initial_direction": 90.0,
		"ai_move_group": 0,
		"ai_target_move_x": -1,
		"ai_target_move_y": -1,
		"ai_skill_function": "",
		"ai_attack": "",
		"ai_move": "",
		"ai_heal": "",
		"ai_skill": "",
		"ai_use": "",
		"skill_group_id": 0,
		"gear_GearGear": 22001,
		"gear_rank": 1,
		"proficiency_UnitProficiency": 2,
		"level": 38,
		"hp": 54,
		"strength": 27,
		"vitality": 29,
		"intelligence": 5,
		"mind": 12,
		"agility": 13,
		"dexterity": 14,
		"lucky": 6,
		"parameter_table_BattleEnemyParameterTable": 0,
		"parameter_deviation_table_BattleEnemyParameterDeviationTable": 0,
		"acquire_skill_group_id": 0,
		"level_correction": 0,
		"group_id": 0,
		"ai_script_id_BattleAIScript": 0
	},
	{
		"ID": 1152,
		"stage_BattleStage": 320041302,
		"unit_UnitUnit": 820007,
		"money": 19,
		"initial_coordinate_x": 1,
		"initial_coordinate_y": 1,
		"reinforcement_BattleReinforcement": 7,
		"initial_direction": 90.0,
		"ai_move_group": 0,
		"ai_target_move_x": -1,
		"ai_target_move_y": -1,
		"ai_skill_function": "",
		"ai_attack": "",
		"ai_move": "",
		"ai_heal": "",
		"ai_skill": "",
		"ai_use": "",
		"skill_group_id": 0,
		"gear_GearGear": 22001,
		"gear_rank": 1,
		"proficiency_UnitProficiency": 2,
		"level": 39,
		"hp": 55,
		"strength": 27,
		"vitality": 29,
		"intelligence": 6,
		"mind": 12,
		"agility": 12,
		"dexterity": 15,
		"lucky": 5,
		"parameter_table_BattleEnemyParameterTable": 0,
		"parameter_deviation_table_BattleEnemyParameterDeviationTable": 0,
		"acquire_skill_group_id": 0,
		"level_correction": 0,
		"group_id": 0,
		"ai_script_id_BattleAIScript": 0
	},
	{
		"ID": 1153,
		"stage_BattleStage": 320041302,
		"unit_UnitUnit": 810004,
		"money": 18,
		"initial_coordinate_x": 17,
		"initial_coordinate_y": 9,
		"reinforcement_BattleReinforcement": 0,
		"initial_direction": 180.0,
		"ai_move_group": 0,
		"ai_target_move_x": -1,
		"ai_target_move_y": -1,
		"ai_skill_function": "",
		"ai_attack": "",
		"ai_move": "IF(turn <=1,0,1)",
		"ai_heal": "",
		"ai_skill": "",
		"ai_use": "",
		"skill_group_id": 0,
		"gear_GearGear": 12001,
		"gear_rank": 1,
		"proficiency_UnitProficiency": 2,
		"level": 37,
		"hp": 48,
		"strength": 26,
		"vitality": 24,
		"intelligence": 5,
		"mind": 10,
		"agility": 22,
		"dexterity": 27,
		"lucky": 4,
		"parameter_table_BattleEnemyParameterTable": 0,
		"parameter_deviation_table_BattleEnemyParameterDeviationTable": 0,
		"acquire_skill_group_id": 0,
		"level_correction": 0,
		"group_id": 0,
		"ai_script_id_BattleAIScript": 0
	},
	{
		"ID": 1154,
		"stage_BattleStage": 320041302,
		"unit_UnitUnit": 810004,
		"money": 18,
		"initial_coordinate_x": 19,
		"initial_coordinate_y": 8,
		"reinforcement_BattleReinforcement": 0,
		"initial_direction": 180.0,
		"ai_move_group": 0,
		"ai_target_move_x": -1,
		"ai_target_move_y": -1,
		"ai_skill_function": "",
		"ai_attack": "",
		"ai_move": "IF(turn <=1,0,1)",
		"ai_heal": "",
		"ai_skill": "",
		"ai_use": "",
		"skill_group_id": 0,
		"gear_GearGear": 12001,
		"gear_rank": 1,
		"proficiency_UnitProficiency": 2,
		"level": 36,
		"hp": 47,
		"strength": 25,
		"vitality": 25,
		"intelligence": 5,
		"mind": 10,
		"agility": 23,
		"dexterity": 27,
		"lucky": 4,
		"parameter_table_BattleEnemyParameterTable": 0,
		"parameter_deviation_table_BattleEnemyParameterDeviationTable": 0,
		"acquire_skill_group_id": 0,
		"level_correction": 0,
		"group_id": 0,
		"ai_script_id_BattleAIScript": 0
	},
	{
		"ID": 1155,
		"stage_BattleStage": 320041302,
		"unit_UnitUnit": 830001,
		"money": 18,
		"initial_coordinate_x": 14,
		"initial_coordinate_y": 12,
		"reinforcement_BattleReinforcement": 6,
		"initial_direction": 90.0,
		"ai_move_group": 0,
		"ai_target_move_x": -1,
		"ai_target_move_y": -1,
		"ai_skill_function": "",
		"ai_attack": "",
		"ai_move": "",
		"ai_heal": "",
		"ai_skill": "",
		"ai_use": "",
		"skill_group_id": 0,
		"gear_GearGear": 32001,
		"gear_rank": 1,
		"proficiency_UnitProficiency": 2,
		"level": 36,
		"hp": 42,
		"strength": 24,
		"vitality": 27,
		"intelligence": 6,
		"mind": 15,
		"agility": 30,
		"dexterity": 27,
		"lucky": 5,
		"parameter_table_BattleEnemyParameterTable": 0,
		"parameter_deviation_table_BattleEnemyParameterDeviationTable": 0,
		"acquire_skill_group_id": 0,
		"level_correction": 0,
		"group_id": 0,
		"ai_script_id_BattleAIScript": 0
	},
	{
		"ID": 1156,
		"stage_BattleStage": 320041302,
		"unit_UnitUnit": 830001,
		"money": 17,
		"initial_coordinate_x": 14,
		"initial_coordinate_y": 12,
		"reinforcement_BattleReinforcement": 7,
		"initial_direction": 90.0,
		"ai_move_group": 0,
		"ai_target_move_x": -1,
		"ai_target_move_y": -1,
		"ai_skill_function": "",
		"ai_attack": "",
		"ai_move": "",
		"ai_heal": "",
		"ai_skill": "",
		"ai_use": "",
		"skill_group_id": 0,
		"gear_GearGear": 32001,
		"gear_rank": 1,
		"proficiency_UnitProficiency": 2,
		"level": 35,
		"hp": 43,
		"strength": 24,
		"vitality": 26,
		"intelligence": 5,
		"mind": 14,
		"agility": 30,
		"dexterity": 26,
		"lucky": 4,
		"parameter_table_BattleEnemyParameterTable": 0,
		"parameter_deviation_table_BattleEnemyParameterDeviationTable": 0,
		"acquire_skill_group_id": 0,
		"level_correction": 0,
		"group_id": 0,
		"ai_script_id_BattleAIScript": 0
	},
	{
		"ID": 1157,
		"stage_BattleStage": 320041302,
		"unit_UnitUnit": 840004,
		"money": 18,
		"initial_coordinate_x": 14,
		"initial_coordinate_y": 9,
		"reinforcement_BattleReinforcement": 0,
		"initial_direction": 180.0,
		"ai_move_group": 0,
		"ai_target_move_x": -1,
		"ai_target_move_y": -1,
		"ai_skill_function": "",
		"ai_attack": "",
		"ai_move": "IF(turn <=2,0,1)",
		"ai_heal": "",
		"ai_skill": "",
		"ai_use": "",
		"skill_group_id": 0,
		"gear_GearGear": 42001,
		"gear_rank": 1,
		"proficiency_UnitProficiency": 2,
		"level": 36,
		"hp": 37,
		"strength": 25,
		"vitality": 17,
		"intelligence": 5,
		"mind": 16,
		"agility": 29,
		"dexterity": 27,
		"lucky": 5,
		"parameter_table_BattleEnemyParameterTable": 0,
		"parameter_deviation_table_BattleEnemyParameterDeviationTable": 0,
		"acquire_skill_group_id": 0,
		"level_correction": 0,
		"group_id": 0,
		"ai_script_id_BattleAIScript": 0
	},
	{
		"ID": 1158,
		"stage_BattleStage": 320041302,
		"unit_UnitUnit": 840004,
		"money": 17,
		"initial_coordinate_x": 1,
		"initial_coordinate_y": 12,
		"reinforcement_BattleReinforcement": 0,
		"initial_direction": 90.0,
		"ai_move_group": 0,
		"ai_target_move_x": -1,
		"ai_target_move_y": -1,
		"ai_skill_function": "",
		"ai_attack": "IF(panel_move_distance <= 2, 1, 0)",
		"ai_move": "IF(turn <=15,0,1)",
		"ai_heal": "",
		"ai_skill": "",
		"ai_use": "",
		"skill_group_id": 0,
		"gear_GearGear": 42001,
		"gear_rank": 1,
		"proficiency_UnitProficiency": 2,
		"level": 35,
		"hp": 36,
		"strength": 26,
		"vitality": 16,
		"intelligence": 4,
		"mind": 17,
		"agility": 28,
		"dexterity": 26,
		"lucky": 3,
		"parameter_table_BattleEnemyParameterTable": 0,
		"parameter_deviation_table_BattleEnemyParameterDeviationTable": 0,
		"acquire_skill_group_id": 0,
		"level_correction": 0,
		"group_id": 0,
		"ai_script_id_BattleAIScript": 0
	},
	{
		"ID": 1159,
		"stage_BattleStage": 320041302,
		"unit_UnitUnit": 860010,
		"money": 19,
		"initial_coordinate_x": 9,
		"initial_coordinate_y": 5,
		"reinforcement_BattleReinforcement": 0,
		"initial_direction": 90.0,
		"ai_move_group": 0,
		"ai_target_move_x": -1,
		"ai_target_move_y": -1,
		"ai_skill_function": "",
		"ai_attack": "",
		"ai_move": "IF(turn <=2,0,1)",
		"ai_heal": "",
		"ai_skill": "",
		"ai_use": "",
		"skill_group_id": 140,
		"gear_GearGear": 80009,
		"gear_rank": 1,
		"proficiency_UnitProficiency": 2,
		"level": 38,
		"hp": 38,
		"strength": 9,
		"vitality": 15,
		"intelligence": 24,
		"mind": 27,
		"agility": 19,
		"dexterity": 21,
		"lucky": 4,
		"parameter_table_BattleEnemyParameterTable": 0,
		"parameter_deviation_table_BattleEnemyParameterDeviationTable": 0,
		"acquire_skill_group_id": 0,
		"level_correction": 0,
		"group_id": 0,
		"ai_script_id_BattleAIScript": 0
	},
	{
		"ID": 1160,
		"stage_BattleStage": 320041302,
		"unit_UnitUnit": 860010,
		"money": 19,
		"initial_coordinate_x": 3,
		"initial_coordinate_y": 12,
		"reinforcement_BattleReinforcement": 0,
		"initial_direction": 90.0,
		"ai_move_group": 0,
		"ai_target_move_x": -1,
		"ai_target_move_y": -1,
		"ai_skill_function": "",
		"ai_attack": "IF(panel_move_distance <= 2, 1, 0)",
		"ai_move": "IF(turn <=15,0,1)",
		"ai_heal": "",
		"ai_skill": "",
		"ai_use": "",
		"skill_group_id": 140,
		"gear_GearGear": 80009,
		"gear_rank": 1,
		"proficiency_UnitProficiency": 2,
		"level": 39,
		"hp": 37,
		"strength": 8,
		"vitality": 14,
		"intelligence": 23,
		"mind": 28,
		"agility": 18,
		"dexterity": 22,
		"lucky": 5,
		"parameter_table_BattleEnemyParameterTable": 0,
		"parameter_deviation_table_BattleEnemyParameterDeviationTable": 0,
		"acquire_skill_group_id": 0,
		"level_correction": 0,
		"group_id": 0,
		"ai_script_id_BattleAIScript": 0
	},
	{
		"ID": 1161,
		"stage_BattleStage": 320041302,
		"unit_UnitUnit": 860010,
		"money": 19,
		"initial_coordinate_x": 2,
		"initial_coordinate_y": 11,
		"reinforcement_BattleReinforcement": 0,
		"initial_direction": 90.0,
		"ai_move_group": 0,
		"ai_target_move_x": -1,
		"ai_target_move_y": -1,
		"ai_skill_function": "",
		"ai_attack": "IF(panel_move_distance <= 2, 1, 0)",
		"ai_move": "IF(turn <=15,0,1)",
		"ai_heal": "",
		"ai_skill": "",
		"ai_use": "",
		"skill_group_id": 140,
		"gear_GearGear": 80009,
		"gear_rank": 1,
		"proficiency_UnitProficiency": 2,
		"level": 38,
		"hp": 37,
		"strength": 9,
		"vitality": 15,
		"intelligence": 23,
		"mind": 27,
		"agility": 17,
		"dexterity": 23,
		"lucky": 6,
		"parameter_table_BattleEnemyParameterTable": 0,
		"parameter_deviation_table_BattleEnemyParameterDeviationTable": 0,
		"acquire_skill_group_id": 0,
		"level_correction": 0,
		"group_id": 0,
		"ai_script_id_BattleAIScript": 0
	},
	{
		"ID": 1162,
		"stage_BattleStage": 320041302,
		"unit_UnitUnit": 860010,
		"money": 19,
		"initial_coordinate_x": 1,
		"initial_coordinate_y": 10,
		"reinforcement_BattleReinforcement": 0,
		"initial_direction": 90.0,
		"ai_move_group": 0,
		"ai_target_move_x": -1,
		"ai_target_move_y": -1,
		"ai_skill_function": "",
		"ai_attack": "IF(panel_move_distance <= 2, 1, 0)",
		"ai_move": "IF(turn <=15,0,1)",
		"ai_heal": "",
		"ai_skill": "",
		"ai_use": "",
		"skill_group_id": 140,
		"gear_GearGear": 80009,
		"gear_rank": 1,
		"proficiency_UnitProficiency": 2,
		"level": 39,
		"hp": 38,
		"strength": 9,
		"vitality": 16,
		"intelligence": 24,
		"mind": 28,
		"agility": 19,
		"dexterity": 23,
		"lucky": 5,
		"parameter_table_BattleEnemyParameterTable": 0,
		"parameter_deviation_table_BattleEnemyParameterDeviationTable": 0,
		"acquire_skill_group_id": 0,
		"level_correction": 0,
		"group_id": 0,
		"ai_script_id_BattleAIScript": 0
	}
]