[
	{
		"ID": 48769,
		"stage_BattleStage": 321012121,
		"unit_UnitUnit": 2810004,
		"money": 110,
		"initial_coordinate_x": 14,
		"initial_coordinate_y": 7,
		"reinforcement_BattleReinforcement": 0,
		"initial_direction": 270.0,
		"ai_move_group": 0,
		"ai_target_move_x": -1,
		"ai_target_move_y": -1,
		"ai_skill_function": "",
		"ai_attack": "IF( turn <=5 ,IF(panel_move_distance <= 2, 1, 0),1)",
		"ai_move": "IF(turn <=5,0,1)",
		"ai_heal": "",
		"ai_skill": "",
		"ai_use": "",
		"skill_group_id": 0,
		"gear_GearGear": 11002,
		"gear_rank": 1,
		"proficiency_UnitProficiency": 1,
		"level": 22,
		"hp": 50,
		"strength": 34,
		"vitality": 21,
		"intelligence": 2,
		"mind": 9,
		"agility": 28,
		"dexterity": 33,
		"lucky": 11,
		"parameter_table_BattleEnemyParameterTable": 0,
		"parameter_deviation_table_BattleEnemyParameterDeviationTable": 0,
		"acquire_skill_group_id": 0,
		"level_correction": 0,
		"group_id": 0,
		"ai_script_id_BattleAIScript": 0
	},
	{
		"ID": 48770,
		"stage_BattleStage": 321012121,
		"unit_UnitUnit": 2810004,
		"money": 110,
		"initial_coordinate_x": 14,
		"initial_coordinate_y": 6,
		"reinforcement_BattleReinforcement": 0,
		"initial_direction": 270.0,
		"ai_move_group": 0,
		"ai_target_move_x": -1,
		"ai_target_move_y": -1,
		"ai_skill_function": "",
		"ai_attack": "IF( turn <=5 ,IF(panel_move_distance <= 2, 1, 0),1)",
		"ai_move": "IF(turn <=5,0,1)",
		"ai_heal": "",
		"ai_skill": "",
		"ai_use": "",
		"skill_group_id": 0,
		"gear_GearGear": 11002,
		"gear_rank": 1,
		"proficiency_UnitProficiency": 1,
		"level": 22,
		"hp": 51,
		"strength": 32,
		"vitality": 22,
		"intelligence": 3,
		"mind": 9,
		"agility": 29,
		"dexterity": 33,
		"lucky": 11,
		"parameter_table_BattleEnemyParameterTable": 0,
		"parameter_deviation_table_BattleEnemyParameterDeviationTable": 0,
		"acquire_skill_group_id": 0,
		"level_correction": 0,
		"group_id": 0,
		"ai_script_id_BattleAIScript": 0
	},
	{
		"ID": 48771,
		"stage_BattleStage": 321012121,
		"unit_UnitUnit": 2820004,
		"money": 105,
		"initial_coordinate_x": 11,
		"initial_coordinate_y": 7,
		"reinforcement_BattleReinforcement": 0,
		"initial_direction": 270.0,
		"ai_move_group": 0,
		"ai_target_move_x": -1,
		"ai_target_move_y": -1,
		"ai_skill_function": "",
		"ai_attack": "IF( turn <=3 ,IF(panel_move_distance <= 2, 1, 0),1)",
		"ai_move": "IF(turn <=3,0,1)",
		"ai_heal": "",
		"ai_skill": "",
		"ai_use": "",
		"skill_group_id": 0,
		"gear_GearGear": 21002,
		"gear_rank": 1,
		"proficiency_UnitProficiency": 1,
		"level": 21,
		"hp": 49,
		"strength": 33,
		"vitality": 20,
		"intelligence": 4,
		"mind": 10,
		"agility": 26,
		"dexterity": 30,
		"lucky": 11,
		"parameter_table_BattleEnemyParameterTable": 0,
		"parameter_deviation_table_BattleEnemyParameterDeviationTable": 0,
		"acquire_skill_group_id": 0,
		"level_correction": 0,
		"group_id": 0,
		"ai_script_id_BattleAIScript": 0
	},
	{
		"ID": 48772,
		"stage_BattleStage": 321012121,
		"unit_UnitUnit": 2820004,
		"money": 100,
		"initial_coordinate_x": 11,
		"initial_coordinate_y": 6,
		"reinforcement_BattleReinforcement": 0,
		"initial_direction": 270.0,
		"ai_move_group": 0,
		"ai_target_move_x": -1,
		"ai_target_move_y": -1,
		"ai_skill_function": "",
		"ai_attack": "IF( turn <=3 ,IF(panel_move_distance <= 2, 1, 0),1)",
		"ai_move": "IF(turn <=3,0,1)",
		"ai_heal": "",
		"ai_skill": "",
		"ai_use": "",
		"skill_group_id": 0,
		"gear_GearGear": 21002,
		"gear_rank": 1,
		"proficiency_UnitProficiency": 1,
		"level": 20,
		"hp": 48,
		"strength": 32,
		"vitality": 19,
		"intelligence": 3,
		"mind": 11,
		"agility": 26,
		"dexterity": 30,
		"lucky": 11,
		"parameter_table_BattleEnemyParameterTable": 0,
		"parameter_deviation_table_BattleEnemyParameterDeviationTable": 0,
		"acquire_skill_group_id": 0,
		"level_correction": 0,
		"group_id": 0,
		"ai_script_id_BattleAIScript": 0
	},
	{
		"ID": 48773,
		"stage_BattleStage": 321012121,
		"unit_UnitUnit": 2820004,
		"money": 95,
		"initial_coordinate_x": 8,
		"initial_coordinate_y": 6,
		"reinforcement_BattleReinforcement": 0,
		"initial_direction": 270.0,
		"ai_move_group": 0,
		"ai_target_move_x": -1,
		"ai_target_move_y": -1,
		"ai_skill_function": "",
		"ai_attack": "IF( turn <=2 ,IF(panel_move_distance <= 2, 1, 0),1)",
		"ai_move": "IF(turn <=2,0,1)",
		"ai_heal": "",
		"ai_skill": "",
		"ai_use": "",
		"skill_group_id": 0,
		"gear_GearGear": 21002,
		"gear_rank": 1,
		"proficiency_UnitProficiency": 1,
		"level": 19,
		"hp": 48,
		"strength": 32,
		"vitality": 19,
		"intelligence": 1,
		"mind": 9,
		"agility": 26,
		"dexterity": 30,
		"lucky": 11,
		"parameter_table_BattleEnemyParameterTable": 0,
		"parameter_deviation_table_BattleEnemyParameterDeviationTable": 0,
		"acquire_skill_group_id": 0,
		"level_correction": 0,
		"group_id": 0,
		"ai_script_id_BattleAIScript": 0
	},
	{
		"ID": 48774,
		"stage_BattleStage": 321012121,
		"unit_UnitUnit": 2820004,
		"money": 95,
		"initial_coordinate_x": 8,
		"initial_coordinate_y": 5,
		"reinforcement_BattleReinforcement": 0,
		"initial_direction": 270.0,
		"ai_move_group": 0,
		"ai_target_move_x": -1,
		"ai_target_move_y": -1,
		"ai_skill_function": "",
		"ai_attack": "IF( turn <=2 ,IF(panel_move_distance <= 2, 1, 0),1)",
		"ai_move": "IF(turn <=2,0,1)",
		"ai_heal": "",
		"ai_skill": "",
		"ai_use": "",
		"skill_group_id": 0,
		"gear_GearGear": 21002,
		"gear_rank": 1,
		"proficiency_UnitProficiency": 1,
		"level": 19,
		"hp": 47,
		"strength": 30,
		"vitality": 18,
		"intelligence": 3,
		"mind": 9,
		"agility": 24,
		"dexterity": 28,
		"lucky": 11,
		"parameter_table_BattleEnemyParameterTable": 0,
		"parameter_deviation_table_BattleEnemyParameterDeviationTable": 0,
		"acquire_skill_group_id": 0,
		"level_correction": 0,
		"group_id": 0,
		"ai_script_id_BattleAIScript": 0
	},
	{
		"ID": 48775,
		"stage_BattleStage": 321012121,
		"unit_UnitUnit": 860001,
		"money": 90,
		"initial_coordinate_x": 6,
		"initial_coordinate_y": 1,
		"reinforcement_BattleReinforcement": 0,
		"initial_direction": 0.0,
		"ai_move_group": 0,
		"ai_target_move_x": -1,
		"ai_target_move_y": -1,
		"ai_skill_function": "",
		"ai_attack": "IF( turn <=2 ,IF(panel_move_distance <= 2, 1, 0),1)",
		"ai_move": "IF(turn <=2,0,1)",
		"ai_heal": "",
		"ai_skill": "",
		"ai_use": "",
		"skill_group_id": 10096,
		"gear_GearGear": 80008,
		"gear_rank": 1,
		"proficiency_UnitProficiency": 1,
		"level": 18,
		"hp": 41,
		"strength": 6,
		"vitality": 18,
		"intelligence": 21,
		"mind": 20,
		"agility": 27,
		"dexterity": 26,
		"lucky": 9,
		"parameter_table_BattleEnemyParameterTable": 0,
		"parameter_deviation_table_BattleEnemyParameterDeviationTable": 0,
		"acquire_skill_group_id": 0,
		"level_correction": 0,
		"group_id": 0,
		"ai_script_id_BattleAIScript": 0
	},
	{
		"ID": 48776,
		"stage_BattleStage": 321012121,
		"unit_UnitUnit": 860001,
		"money": 90,
		"initial_coordinate_x": 7,
		"initial_coordinate_y": 1,
		"reinforcement_BattleReinforcement": 0,
		"initial_direction": 0.0,
		"ai_move_group": 0,
		"ai_target_move_x": -1,
		"ai_target_move_y": -1,
		"ai_skill_function": "",
		"ai_attack": "IF( turn <=2 ,IF(panel_move_distance <= 2, 1, 0),1)",
		"ai_move": "IF(turn <=2,0,1)",
		"ai_heal": "",
		"ai_skill": "",
		"ai_use": "",
		"skill_group_id": 10096,
		"gear_GearGear": 80008,
		"gear_rank": 1,
		"proficiency_UnitProficiency": 1,
		"level": 18,
		"hp": 40,
		"strength": 6,
		"vitality": 18,
		"intelligence": 21,
		"mind": 20,
		"agility": 26,
		"dexterity": 26,
		"lucky": 9,
		"parameter_table_BattleEnemyParameterTable": 0,
		"parameter_deviation_table_BattleEnemyParameterDeviationTable": 0,
		"acquire_skill_group_id": 0,
		"level_correction": 0,
		"group_id": 0,
		"ai_script_id_BattleAIScript": 0
	},
	{
		"ID": 48777,
		"stage_BattleStage": 321012121,
		"unit_UnitUnit": 860001,
		"money": 90,
		"initial_coordinate_x": 8,
		"initial_coordinate_y": 10,
		"reinforcement_BattleReinforcement": 0,
		"initial_direction": 270.0,
		"ai_move_group": 0,
		"ai_target_move_x": -1,
		"ai_target_move_y": -1,
		"ai_skill_function": "",
		"ai_attack": "",
		"ai_move": "",
		"ai_heal": "",
		"ai_skill": "",
		"ai_use": "",
		"skill_group_id": 10096,
		"gear_GearGear": 80008,
		"gear_rank": 1,
		"proficiency_UnitProficiency": 1,
		"level": 18,
		"hp": 41,
		"strength": 5,
		"vitality": 17,
		"intelligence": 19,
		"mind": 21,
		"agility": 28,
		"dexterity": 24,
		"lucky": 10,
		"parameter_table_BattleEnemyParameterTable": 0,
		"parameter_deviation_table_BattleEnemyParameterDeviationTable": 0,
		"acquire_skill_group_id": 0,
		"level_correction": 0,
		"group_id": 0,
		"ai_script_id_BattleAIScript": 0
	},
	{
		"ID": 48778,
		"stage_BattleStage": 321012121,
		"unit_UnitUnit": 860001,
		"money": 90,
		"initial_coordinate_x": 8,
		"initial_coordinate_y": 11,
		"reinforcement_BattleReinforcement": 0,
		"initial_direction": 270.0,
		"ai_move_group": 0,
		"ai_target_move_x": -1,
		"ai_target_move_y": -1,
		"ai_skill_function": "",
		"ai_attack": "",
		"ai_move": "",
		"ai_heal": "",
		"ai_skill": "",
		"ai_use": "",
		"skill_group_id": 10096,
		"gear_GearGear": 80008,
		"gear_rank": 1,
		"proficiency_UnitProficiency": 1,
		"level": 18,
		"hp": 41,
		"strength": 5,
		"vitality": 17,
		"intelligence": 19,
		"mind": 19,
		"agility": 27,
		"dexterity": 26,
		"lucky": 9,
		"parameter_table_BattleEnemyParameterTable": 0,
		"parameter_deviation_table_BattleEnemyParameterDeviationTable": 0,
		"acquire_skill_group_id": 0,
		"level_correction": 0,
		"group_id": 0,
		"ai_script_id_BattleAIScript": 0
	}
]