[
	{
		"ID": 41122,
		"stage_BattleStage": 330202301,
		"unit_UnitUnit": 830004,
		"money": 275,
		"initial_coordinate_x": 1,
		"initial_coordinate_y": 14,
		"reinforcement_BattleReinforcement": 0,
		"initial_direction": 90.0,
		"ai_move_group": 0,
		"ai_target_move_x": -1,
		"ai_target_move_y": -1,
		"ai_skill_function": "",
		"ai_attack": "",
		"ai_move": "",
		"ai_heal": "",
		"ai_skill": "",
		"ai_use": "",
		"skill_group_id": 470,
		"gear_GearGear": 33001,
		"gear_rank": 1,
		"proficiency_UnitProficiency": 3,
		"level": 55,
		"hp": 82,
		"strength": 62,
		"vitality": 40,
		"intelligence": 7,
		"mind": 24,
		"agility": 54,
		"dexterity": 55,
		"lucky": 15,
		"parameter_table_BattleEnemyParameterTable": 0,
		"parameter_deviation_table_BattleEnemyParameterDeviationTable": 0,
		"acquire_skill_group_id": 0,
		"level_correction": 0,
		"group_id": 0,
		"ai_script_id_BattleAIScript": 0
	},
	{
		"ID": 41123,
		"stage_BattleStage": 330202301,
		"unit_UnitUnit": 830004,
		"money": 280,
		"initial_coordinate_x": 1,
		"initial_coordinate_y": 13,
		"reinforcement_BattleReinforcement": 0,
		"initial_direction": 90.0,
		"ai_move_group": 0,
		"ai_target_move_x": -1,
		"ai_target_move_y": -1,
		"ai_skill_function": "",
		"ai_attack": "",
		"ai_move": "",
		"ai_heal": "",
		"ai_skill": "",
		"ai_use": "",
		"skill_group_id": 470,
		"gear_GearGear": 33001,
		"gear_rank": 1,
		"proficiency_UnitProficiency": 3,
		"level": 56,
		"hp": 83,
		"strength": 61,
		"vitality": 42,
		"intelligence": 6,
		"mind": 24,
		"agility": 55,
		"dexterity": 57,
		"lucky": 17,
		"parameter_table_BattleEnemyParameterTable": 0,
		"parameter_deviation_table_BattleEnemyParameterDeviationTable": 0,
		"acquire_skill_group_id": 0,
		"level_correction": 0,
		"group_id": 0,
		"ai_script_id_BattleAIScript": 0
	},
	{
		"ID": 41124,
		"stage_BattleStage": 330202301,
		"unit_UnitUnit": 830004,
		"money": 275,
		"initial_coordinate_x": 10,
		"initial_coordinate_y": 4,
		"reinforcement_BattleReinforcement": 0,
		"initial_direction": 0.0,
		"ai_move_group": 0,
		"ai_target_move_x": -1,
		"ai_target_move_y": -1,
		"ai_skill_function": "",
		"ai_attack": "",
		"ai_move": "",
		"ai_heal": "",
		"ai_skill": "",
		"ai_use": "",
		"skill_group_id": 470,
		"gear_GearGear": 33001,
		"gear_rank": 1,
		"proficiency_UnitProficiency": 3,
		"level": 55,
		"hp": 82,
		"strength": 62,
		"vitality": 42,
		"intelligence": 7,
		"mind": 26,
		"agility": 52,
		"dexterity": 57,
		"lucky": 17,
		"parameter_table_BattleEnemyParameterTable": 0,
		"parameter_deviation_table_BattleEnemyParameterDeviationTable": 0,
		"acquire_skill_group_id": 0,
		"level_correction": 0,
		"group_id": 0,
		"ai_script_id_BattleAIScript": 0
	},
	{
		"ID": 41125,
		"stage_BattleStage": 330202301,
		"unit_UnitUnit": 830004,
		"money": 280,
		"initial_coordinate_x": 11,
		"initial_coordinate_y": 4,
		"reinforcement_BattleReinforcement": 0,
		"initial_direction": 0.0,
		"ai_move_group": 0,
		"ai_target_move_x": -1,
		"ai_target_move_y": -1,
		"ai_skill_function": "",
		"ai_attack": "",
		"ai_move": "",
		"ai_heal": "",
		"ai_skill": "",
		"ai_use": "",
		"skill_group_id": 470,
		"gear_GearGear": 33001,
		"gear_rank": 1,
		"proficiency_UnitProficiency": 3,
		"level": 56,
		"hp": 82,
		"strength": 63,
		"vitality": 42,
		"intelligence": 7,
		"mind": 24,
		"agility": 55,
		"dexterity": 56,
		"lucky": 17,
		"parameter_table_BattleEnemyParameterTable": 0,
		"parameter_deviation_table_BattleEnemyParameterDeviationTable": 0,
		"acquire_skill_group_id": 0,
		"level_correction": 0,
		"group_id": 0,
		"ai_script_id_BattleAIScript": 0
	},
	{
		"ID": 41126,
		"stage_BattleStage": 330202301,
		"unit_UnitUnit": 860010,
		"money": 285,
		"initial_coordinate_x": 3,
		"initial_coordinate_y": 10,
		"reinforcement_BattleReinforcement": 0,
		"initial_direction": 90.0,
		"ai_move_group": 0,
		"ai_target_move_x": -1,
		"ai_target_move_y": -1,
		"ai_skill_function": "",
		"ai_attack": "IF(panel_move_distance <= 2, 1, 0)",
		"ai_move": "0.0",
		"ai_heal": "",
		"ai_skill": "",
		"ai_use": "",
		"skill_group_id": 610,
		"gear_GearGear": 80010,
		"gear_rank": 1,
		"proficiency_UnitProficiency": 3,
		"level": 57,
		"hp": 73,
		"strength": 9,
		"vitality": 35,
		"intelligence": 64,
		"mind": 55,
		"agility": 46,
		"dexterity": 54,
		"lucky": 15,
		"parameter_table_BattleEnemyParameterTable": 0,
		"parameter_deviation_table_BattleEnemyParameterDeviationTable": 0,
		"acquire_skill_group_id": 0,
		"level_correction": 0,
		"group_id": 0,
		"ai_script_id_BattleAIScript": 0
	},
	{
		"ID": 41127,
		"stage_BattleStage": 330202301,
		"unit_UnitUnit": 820004,
		"money": 290,
		"initial_coordinate_x": 5,
		"initial_coordinate_y": 10,
		"reinforcement_BattleReinforcement": 0,
		"initial_direction": 90.0,
		"ai_move_group": 0,
		"ai_target_move_x": -1,
		"ai_target_move_y": -1,
		"ai_skill_function": "",
		"ai_attack": "IF(panel_move_distance <= 2, 1, 0)",
		"ai_move": "0.0",
		"ai_heal": "",
		"ai_skill": "",
		"ai_use": "",
		"skill_group_id": 470,
		"gear_GearGear": 23001,
		"gear_rank": 1,
		"proficiency_UnitProficiency": 3,
		"level": 58,
		"hp": 87,
		"strength": 66,
		"vitality": 42,
		"intelligence": 6,
		"mind": 26,
		"agility": 50,
		"dexterity": 56,
		"lucky": 17,
		"parameter_table_BattleEnemyParameterTable": 0,
		"parameter_deviation_table_BattleEnemyParameterDeviationTable": 0,
		"acquire_skill_group_id": 0,
		"level_correction": 0,
		"group_id": 0,
		"ai_script_id_BattleAIScript": 0
	},
	{
		"ID": 41128,
		"stage_BattleStage": 330202301,
		"unit_UnitUnit": 820004,
		"money": 290,
		"initial_coordinate_x": 6,
		"initial_coordinate_y": 9,
		"reinforcement_BattleReinforcement": 0,
		"initial_direction": 0.0,
		"ai_move_group": 0,
		"ai_target_move_x": -1,
		"ai_target_move_y": -1,
		"ai_skill_function": "",
		"ai_attack": "IF(panel_move_distance <= 2, 1, 0)",
		"ai_move": "0.0",
		"ai_heal": "",
		"ai_skill": "",
		"ai_use": "",
		"skill_group_id": 470,
		"gear_GearGear": 23001,
		"gear_rank": 1,
		"proficiency_UnitProficiency": 3,
		"level": 58,
		"hp": 88,
		"strength": 68,
		"vitality": 40,
		"intelligence": 5,
		"mind": 24,
		"agility": 48,
		"dexterity": 58,
		"lucky": 17,
		"parameter_table_BattleEnemyParameterTable": 0,
		"parameter_deviation_table_BattleEnemyParameterDeviationTable": 0,
		"acquire_skill_group_id": 0,
		"level_correction": 0,
		"group_id": 0,
		"ai_script_id_BattleAIScript": 0
	},
	{
		"ID": 41129,
		"stage_BattleStage": 330202301,
		"unit_UnitUnit": 860010,
		"money": 285,
		"initial_coordinate_x": 6,
		"initial_coordinate_y": 7,
		"reinforcement_BattleReinforcement": 0,
		"initial_direction": 0.0,
		"ai_move_group": 0,
		"ai_target_move_x": -1,
		"ai_target_move_y": -1,
		"ai_skill_function": "",
		"ai_attack": "IF(panel_move_distance <= 2, 1, 0)",
		"ai_move": "0.0",
		"ai_heal": "",
		"ai_skill": "",
		"ai_use": "",
		"skill_group_id": 610,
		"gear_GearGear": 80010,
		"gear_rank": 1,
		"proficiency_UnitProficiency": 3,
		"level": 57,
		"hp": 73,
		"strength": 7,
		"vitality": 35,
		"intelligence": 65,
		"mind": 55,
		"agility": 45,
		"dexterity": 55,
		"lucky": 15,
		"parameter_table_BattleEnemyParameterTable": 0,
		"parameter_deviation_table_BattleEnemyParameterDeviationTable": 0,
		"acquire_skill_group_id": 0,
		"level_correction": 0,
		"group_id": 0,
		"ai_script_id_BattleAIScript": 0
	},
	{
		"ID": 41130,
		"stage_BattleStage": 330202301,
		"unit_UnitUnit": 820007,
		"money": 295,
		"initial_coordinate_x": 2,
		"initial_coordinate_y": 9,
		"reinforcement_BattleReinforcement": 0,
		"initial_direction": 90.0,
		"ai_move_group": 0,
		"ai_target_move_x": -1,
		"ai_target_move_y": -1,
		"ai_skill_function": "",
		"ai_attack": "IF( turn <=4 ,IF(panel_move_distance <= 2, 1, 0),1)",
		"ai_move": "IF(turn <4,0,1)",
		"ai_heal": "",
		"ai_skill": "",
		"ai_use": "",
		"skill_group_id": 470,
		"gear_GearGear": 24006,
		"gear_rank": 1,
		"proficiency_UnitProficiency": 4,
		"level": 59,
		"hp": 97,
		"strength": 71,
		"vitality": 59,
		"intelligence": 6,
		"mind": 18,
		"agility": 36,
		"dexterity": 51,
		"lucky": 17,
		"parameter_table_BattleEnemyParameterTable": 0,
		"parameter_deviation_table_BattleEnemyParameterDeviationTable": 0,
		"acquire_skill_group_id": 0,
		"level_correction": 0,
		"group_id": 0,
		"ai_script_id_BattleAIScript": 0
	},
	{
		"ID": 41131,
		"stage_BattleStage": 330202301,
		"unit_UnitUnit": 820007,
		"money": 300,
		"initial_coordinate_x": 2,
		"initial_coordinate_y": 8,
		"reinforcement_BattleReinforcement": 0,
		"initial_direction": 90.0,
		"ai_move_group": 0,
		"ai_target_move_x": -1,
		"ai_target_move_y": -1,
		"ai_skill_function": "",
		"ai_attack": "IF( turn <=4 ,IF(panel_move_distance <= 2, 1, 0),1)",
		"ai_move": "IF(turn <4,0,1)",
		"ai_heal": "",
		"ai_skill": "",
		"ai_use": "",
		"skill_group_id": 470,
		"gear_GearGear": 24006,
		"gear_rank": 1,
		"proficiency_UnitProficiency": 4,
		"level": 60,
		"hp": 98,
		"strength": 74,
		"vitality": 58,
		"intelligence": 7,
		"mind": 19,
		"agility": 38,
		"dexterity": 49,
		"lucky": 16,
		"parameter_table_BattleEnemyParameterTable": 0,
		"parameter_deviation_table_BattleEnemyParameterDeviationTable": 0,
		"acquire_skill_group_id": 0,
		"level_correction": 0,
		"group_id": 0,
		"ai_script_id_BattleAIScript": 0
	},
	{
		"ID": 41132,
		"stage_BattleStage": 330202301,
		"unit_UnitUnit": 860006,
		"money": 300,
		"initial_coordinate_x": 4,
		"initial_coordinate_y": 6,
		"reinforcement_BattleReinforcement": 0,
		"initial_direction": 0.0,
		"ai_move_group": 0,
		"ai_target_move_x": -1,
		"ai_target_move_y": -1,
		"ai_skill_function": "",
		"ai_attack": "IF( turn <=7 ,IF(panel_move_distance <= 2, 1, 0),1)",
		"ai_move": "IF(turn <7,0,1)",
		"ai_heal": "",
		"ai_skill": "",
		"ai_use": "",
		"skill_group_id": 541,
		"gear_GearGear": 80010,
		"gear_rank": 1,
		"proficiency_UnitProficiency": 3,
		"level": 60,
		"hp": 81,
		"strength": 10,
		"vitality": 27,
		"intelligence": 66,
		"mind": 46,
		"agility": 51,
		"dexterity": 54,
		"lucky": 16,
		"parameter_table_BattleEnemyParameterTable": 0,
		"parameter_deviation_table_BattleEnemyParameterDeviationTable": 0,
		"acquire_skill_group_id": 0,
		"level_correction": 0,
		"group_id": 0,
		"ai_script_id_BattleAIScript": 0
	},
	{
		"ID": 41133,
		"stage_BattleStage": 330202301,
		"unit_UnitUnit": 860006,
		"money": 305,
		"initial_coordinate_x": 5,
		"initial_coordinate_y": 6,
		"reinforcement_BattleReinforcement": 0,
		"initial_direction": 0.0,
		"ai_move_group": 0,
		"ai_target_move_x": -1,
		"ai_target_move_y": -1,
		"ai_skill_function": "",
		"ai_attack": "IF( turn <=7 ,IF(panel_move_distance <= 2, 1, 0),1)",
		"ai_move": "IF(turn <7,0,1)",
		"ai_heal": "",
		"ai_skill": "",
		"ai_use": "",
		"skill_group_id": 541,
		"gear_GearGear": 80010,
		"gear_rank": 1,
		"proficiency_UnitProficiency": 3,
		"level": 61,
		"hp": 80,
		"strength": 9,
		"vitality": 28,
		"intelligence": 67,
		"mind": 44,
		"agility": 52,
		"dexterity": 55,
		"lucky": 18,
		"parameter_table_BattleEnemyParameterTable": 0,
		"parameter_deviation_table_BattleEnemyParameterDeviationTable": 0,
		"acquire_skill_group_id": 0,
		"level_correction": 0,
		"group_id": 0,
		"ai_script_id_BattleAIScript": 0
	},
	{
		"ID": 41134,
		"stage_BattleStage": 330202301,
		"unit_UnitUnit": 860006,
		"money": 300,
		"initial_coordinate_x": 8,
		"initial_coordinate_y": 4,
		"reinforcement_BattleReinforcement": 0,
		"initial_direction": 0.0,
		"ai_move_group": 0,
		"ai_target_move_x": -1,
		"ai_target_move_y": -1,
		"ai_skill_function": "",
		"ai_attack": "IF( turn <=7 ,IF(panel_move_distance <= 2, 1, 0),1)",
		"ai_move": "IF(turn <7,0,1)",
		"ai_heal": "",
		"ai_skill": "",
		"ai_use": "",
		"skill_group_id": 541,
		"gear_GearGear": 80010,
		"gear_rank": 1,
		"proficiency_UnitProficiency": 3,
		"level": 60,
		"hp": 81,
		"strength": 11,
		"vitality": 27,
		"intelligence": 66,
		"mind": 45,
		"agility": 51,
		"dexterity": 54,
		"lucky": 16,
		"parameter_table_BattleEnemyParameterTable": 0,
		"parameter_deviation_table_BattleEnemyParameterDeviationTable": 0,
		"acquire_skill_group_id": 0,
		"level_correction": 0,
		"group_id": 0,
		"ai_script_id_BattleAIScript": 0
	},
	{
		"ID": 41135,
		"stage_BattleStage": 330202301,
		"unit_UnitUnit": 860006,
		"money": 305,
		"initial_coordinate_x": 7,
		"initial_coordinate_y": 4,
		"reinforcement_BattleReinforcement": 0,
		"initial_direction": 0.0,
		"ai_move_group": 0,
		"ai_target_move_x": -1,
		"ai_target_move_y": -1,
		"ai_skill_function": "",
		"ai_attack": "IF( turn <=7 ,IF(panel_move_distance <= 2, 1, 0),1)",
		"ai_move": "IF(turn <7,0,1)",
		"ai_heal": "",
		"ai_skill": "",
		"ai_use": "",
		"skill_group_id": 541,
		"gear_GearGear": 80010,
		"gear_rank": 1,
		"proficiency_UnitProficiency": 3,
		"level": 61,
		"hp": 80,
		"strength": 11,
		"vitality": 27,
		"intelligence": 68,
		"mind": 44,
		"agility": 51,
		"dexterity": 55,
		"lucky": 16,
		"parameter_table_BattleEnemyParameterTable": 0,
		"parameter_deviation_table_BattleEnemyParameterDeviationTable": 0,
		"acquire_skill_group_id": 0,
		"level_correction": 0,
		"group_id": 0,
		"ai_script_id_BattleAIScript": 0
	},
	{
		"ID": 41136,
		"stage_BattleStage": 330202301,
		"unit_UnitUnit": 820004,
		"money": 305,
		"initial_coordinate_x": 5,
		"initial_coordinate_y": 3,
		"reinforcement_BattleReinforcement": 0,
		"initial_direction": 0.0,
		"ai_move_group": 0,
		"ai_target_move_x": -1,
		"ai_target_move_y": -1,
		"ai_skill_function": "",
		"ai_attack": "IF( turn <=5 ,IF(panel_move_distance <= 2, 1, 0),1)",
		"ai_move": "IF(turn <5,0,1)",
		"ai_heal": "",
		"ai_skill": "",
		"ai_use": "",
		"skill_group_id": 470,
		"gear_GearGear": 24006,
		"gear_rank": 1,
		"proficiency_UnitProficiency": 4,
		"level": 61,
		"hp": 91,
		"strength": 71,
		"vitality": 44,
		"intelligence": 7,
		"mind": 27,
		"agility": 52,
		"dexterity": 59,
		"lucky": 16,
		"parameter_table_BattleEnemyParameterTable": 0,
		"parameter_deviation_table_BattleEnemyParameterDeviationTable": 0,
		"acquire_skill_group_id": 0,
		"level_correction": 0,
		"group_id": 0,
		"ai_script_id_BattleAIScript": 0
	},
	{
		"ID": 41137,
		"stage_BattleStage": 330202301,
		"unit_UnitUnit": 820004,
		"money": 310,
		"initial_coordinate_x": 4,
		"initial_coordinate_y": 3,
		"reinforcement_BattleReinforcement": 0,
		"initial_direction": 0.0,
		"ai_move_group": 0,
		"ai_target_move_x": -1,
		"ai_target_move_y": -1,
		"ai_skill_function": "",
		"ai_attack": "IF( turn <=5 ,IF(panel_move_distance <= 2, 1, 0),1)",
		"ai_move": "IF(turn <5,0,1)",
		"ai_heal": "",
		"ai_skill": "",
		"ai_use": "",
		"skill_group_id": 470,
		"gear_GearGear": 24006,
		"gear_rank": 1,
		"proficiency_UnitProficiency": 4,
		"level": 62,
		"hp": 91,
		"strength": 72,
		"vitality": 43,
		"intelligence": 8,
		"mind": 26,
		"agility": 53,
		"dexterity": 60,
		"lucky": 16,
		"parameter_table_BattleEnemyParameterTable": 0,
		"parameter_deviation_table_BattleEnemyParameterDeviationTable": 0,
		"acquire_skill_group_id": 0,
		"level_correction": 0,
		"group_id": 0,
		"ai_script_id_BattleAIScript": 0
	},
	{
		"ID": 41138,
		"stage_BattleStage": 330202301,
		"unit_UnitUnit": 830008,
		"money": 315,
		"initial_coordinate_x": 5,
		"initial_coordinate_y": 2,
		"reinforcement_BattleReinforcement": 0,
		"initial_direction": 0.0,
		"ai_move_group": 0,
		"ai_target_move_x": -1,
		"ai_target_move_y": -1,
		"ai_skill_function": "",
		"ai_attack": "IF( turn <=5 ,IF(panel_move_distance <= 2, 1, 0),1)",
		"ai_move": "IF(turn <5,0,1)",
		"ai_heal": "",
		"ai_skill": "",
		"ai_use": "",
		"skill_group_id": 470,
		"gear_GearGear": 33001,
		"gear_rank": 1,
		"proficiency_UnitProficiency": 3,
		"level": 63,
		"hp": 123,
		"strength": 72,
		"vitality": 68,
		"intelligence": 6,
		"mind": 31,
		"agility": 50,
		"dexterity": 65,
		"lucky": 7,
		"parameter_table_BattleEnemyParameterTable": 0,
		"parameter_deviation_table_BattleEnemyParameterDeviationTable": 0,
		"acquire_skill_group_id": 0,
		"level_correction": 0,
		"group_id": 0,
		"ai_script_id_BattleAIScript": 0
	},
	{
		"ID": 41139,
		"stage_BattleStage": 330202301,
		"unit_UnitUnit": 302021,
		"money": 375,
		"initial_coordinate_x": 4,
		"initial_coordinate_y": 2,
		"reinforcement_BattleReinforcement": 0,
		"initial_direction": 0.0,
		"ai_move_group": 0,
		"ai_target_move_x": -1,
		"ai_target_move_y": -1,
		"ai_skill_function": "",
		"ai_attack": "IF( turn <=5 ,IF(panel_move_distance <= 2, 1, 0),1)",
		"ai_move": "IF(turn <5,0,1)",
		"ai_heal": "",
		"ai_skill": "",
		"ai_use": "",
		"skill_group_id": 470,
		"gear_GearGear": 33002,
		"gear_rank": 1,
		"proficiency_UnitProficiency": 3,
		"level": 75,
		"hp": 94,
		"strength": 78,
		"vitality": 69,
		"intelligence": 16,
		"mind": 49,
		"agility": 68,
		"dexterity": 75,
		"lucky": 16,
		"parameter_table_BattleEnemyParameterTable": 0,
		"parameter_deviation_table_BattleEnemyParameterDeviationTable": 0,
		"acquire_skill_group_id": 0,
		"level_correction": 0,
		"group_id": 0,
		"ai_script_id_BattleAIScript": 0
	},
	{
		"ID": 41140,
		"stage_BattleStage": 330202301,
		"unit_UnitUnit": 302022,
		"money": 400,
		"initial_coordinate_x": 5,
		"initial_coordinate_y": 1,
		"reinforcement_BattleReinforcement": 3,
		"initial_direction": 0.0,
		"ai_move_group": 0,
		"ai_target_move_x": -1,
		"ai_target_move_y": -1,
		"ai_skill_function": "",
		"ai_attack": "IF( turn <=7 ,IF(panel_move_distance <= 3, 1, 0),1)",
		"ai_move": "IF(turn <7,0,1)",
		"ai_heal": "",
		"ai_skill": "",
		"ai_use": "",
		"skill_group_id": 560,
		"gear_GearGear": 34005,
		"gear_rank": 1,
		"proficiency_UnitProficiency": 4,
		"level": 80,
		"hp": 103,
		"strength": 83,
		"vitality": 78,
		"intelligence": 19,
		"mind": 56,
		"agility": 75,
		"dexterity": 80,
		"lucky": 18,
		"parameter_table_BattleEnemyParameterTable": 0,
		"parameter_deviation_table_BattleEnemyParameterDeviationTable": 0,
		"acquire_skill_group_id": 0,
		"level_correction": 0,
		"group_id": 0,
		"ai_script_id_BattleAIScript": 0
	},
	{
		"ID": 41141,
		"stage_BattleStage": 330202301,
		"unit_UnitUnit": 302023,
		"money": 425,
		"initial_coordinate_x": 4,
		"initial_coordinate_y": 1,
		"reinforcement_BattleReinforcement": 5,
		"initial_direction": 0.0,
		"ai_move_group": 0,
		"ai_target_move_x": -1,
		"ai_target_move_y": -1,
		"ai_skill_function": "",
		"ai_attack": "IF( turn <=7 ,IF(panel_move_distance <= 3, 1, 0),1)",
		"ai_move": "IF(turn <7,0,1)",
		"ai_heal": "",
		"ai_skill": "",
		"ai_use": "",
		"skill_group_id": 12381,
		"gear_GearGear": 35003,
		"gear_rank": 1,
		"proficiency_UnitProficiency": 5,
		"level": 85,
		"hp": 112,
		"strength": 88,
		"vitality": 87,
		"intelligence": 22,
		"mind": 63,
		"agility": 82,
		"dexterity": 85,
		"lucky": 20,
		"parameter_table_BattleEnemyParameterTable": 0,
		"parameter_deviation_table_BattleEnemyParameterDeviationTable": 0,
		"acquire_skill_group_id": 0,
		"level_correction": 0,
		"group_id": 0,
		"ai_script_id_BattleAIScript": 0
	}
]