[
	{
		"ID": 77016,
		"stage_BattleStage": 331003131,
		"unit_UnitUnit": 3820001,
		"money": 290,
		"initial_coordinate_x": 6,
		"initial_coordinate_y": 8,
		"reinforcement_BattleReinforcement": 0,
		"initial_direction": 0.0,
		"ai_move_group": 0,
		"ai_target_move_x": -1,
		"ai_target_move_y": -1,
		"ai_skill_function": "",
		"ai_attack": "IF(panel_move_distance <= 5, 1, 0)",
		"ai_move": "0.0",
		"ai_heal": "",
		"ai_skill": "",
		"ai_use": "",
		"skill_group_id": 16625,
		"gear_GearGear": 14006,
		"gear_rank": 1,
		"proficiency_UnitProficiency": 4,
		"level": 58,
		"hp": 68,
		"strength": 58,
		"vitality": 45,
		"intelligence": 7,
		"mind": 37,
		"agility": 63,
		"dexterity": 63,
		"lucky": 32,
		"parameter_table_BattleEnemyParameterTable": 0,
		"parameter_deviation_table_BattleEnemyParameterDeviationTable": 0,
		"acquire_skill_group_id": 0,
		"level_correction": 0,
		"group_id": 0,
		"ai_script_id_BattleAIScript": 0
	},
	{
		"ID": 77017,
		"stage_BattleStage": 331003131,
		"unit_UnitUnit": 3820001,
		"money": 290,
		"initial_coordinate_x": 5,
		"initial_coordinate_y": 8,
		"reinforcement_BattleReinforcement": 0,
		"initial_direction": 0.0,
		"ai_move_group": 0,
		"ai_target_move_x": -1,
		"ai_target_move_y": -1,
		"ai_skill_function": "",
		"ai_attack": "IF(panel_move_distance <= 5, 1, 0)",
		"ai_move": "0.0",
		"ai_heal": "",
		"ai_skill": "",
		"ai_use": "",
		"skill_group_id": 16625,
		"gear_GearGear": 14006,
		"gear_rank": 1,
		"proficiency_UnitProficiency": 4,
		"level": 58,
		"hp": 68,
		"strength": 53,
		"vitality": 46,
		"intelligence": 9,
		"mind": 37,
		"agility": 60,
		"dexterity": 60,
		"lucky": 31,
		"parameter_table_BattleEnemyParameterTable": 0,
		"parameter_deviation_table_BattleEnemyParameterDeviationTable": 0,
		"acquire_skill_group_id": 0,
		"level_correction": 0,
		"group_id": 0,
		"ai_script_id_BattleAIScript": 0
	},
	{
		"ID": 77018,
		"stage_BattleStage": 331003131,
		"unit_UnitUnit": 3820006,
		"money": 310,
		"initial_coordinate_x": 6,
		"initial_coordinate_y": 7,
		"reinforcement_BattleReinforcement": 0,
		"initial_direction": 0.0,
		"ai_move_group": 0,
		"ai_target_move_x": -1,
		"ai_target_move_y": -1,
		"ai_skill_function": "",
		"ai_attack": "IF(panel_move_distance <= 5, 1, 0)",
		"ai_move": "0.0",
		"ai_heal": "",
		"ai_skill": "",
		"ai_use": "",
		"skill_group_id": 18735,
		"gear_GearGear": 64003,
		"gear_rank": 1,
		"proficiency_UnitProficiency": 4,
		"level": 62,
		"hp": 65,
		"strength": 7,
		"vitality": 49,
		"intelligence": 55,
		"mind": 61,
		"agility": 55,
		"dexterity": 58,
		"lucky": 36,
		"parameter_table_BattleEnemyParameterTable": 0,
		"parameter_deviation_table_BattleEnemyParameterDeviationTable": 0,
		"acquire_skill_group_id": 0,
		"level_correction": 0,
		"group_id": 0,
		"ai_script_id_BattleAIScript": 0
	},
	{
		"ID": 77019,
		"stage_BattleStage": 331003131,
		"unit_UnitUnit": 3820006,
		"money": 310,
		"initial_coordinate_x": 5,
		"initial_coordinate_y": 7,
		"reinforcement_BattleReinforcement": 0,
		"initial_direction": 0.0,
		"ai_move_group": 0,
		"ai_target_move_x": -1,
		"ai_target_move_y": -1,
		"ai_skill_function": "",
		"ai_attack": "IF(panel_move_distance <= 5, 1, 0)",
		"ai_move": "0.0",
		"ai_heal": "",
		"ai_skill": "",
		"ai_use": "",
		"skill_group_id": 18735,
		"gear_GearGear": 64003,
		"gear_rank": 1,
		"proficiency_UnitProficiency": 4,
		"level": 62,
		"hp": 62,
		"strength": 6,
		"vitality": 47,
		"intelligence": 55,
		"mind": 61,
		"agility": 55,
		"dexterity": 58,
		"lucky": 36,
		"parameter_table_BattleEnemyParameterTable": 0,
		"parameter_deviation_table_BattleEnemyParameterDeviationTable": 0,
		"acquire_skill_group_id": 0,
		"level_correction": 0,
		"group_id": 0,
		"ai_script_id_BattleAIScript": 0
	},
	{
		"ID": 77020,
		"stage_BattleStage": 331003131,
		"unit_UnitUnit": 3820001,
		"money": 290,
		"initial_coordinate_x": 10,
		"initial_coordinate_y": 3,
		"reinforcement_BattleReinforcement": 546,
		"initial_direction": 270.0,
		"ai_move_group": 0,
		"ai_target_move_x": -1,
		"ai_target_move_y": -1,
		"ai_skill_function": "",
		"ai_attack": "1.0",
		"ai_move": "1.0",
		"ai_heal": "",
		"ai_skill": "",
		"ai_use": "",
		"skill_group_id": 16625,
		"gear_GearGear": 14006,
		"gear_rank": 1,
		"proficiency_UnitProficiency": 4,
		"level": 58,
		"hp": 69,
		"strength": 55,
		"vitality": 43,
		"intelligence": 9,
		"mind": 40,
		"agility": 62,
		"dexterity": 63,
		"lucky": 32,
		"parameter_table_BattleEnemyParameterTable": 0,
		"parameter_deviation_table_BattleEnemyParameterDeviationTable": 0,
		"acquire_skill_group_id": 0,
		"level_correction": 0,
		"group_id": 0,
		"ai_script_id_BattleAIScript": 0
	},
	{
		"ID": 77021,
		"stage_BattleStage": 331003131,
		"unit_UnitUnit": 3820001,
		"money": 290,
		"initial_coordinate_x": 10,
		"initial_coordinate_y": 2,
		"reinforcement_BattleReinforcement": 546,
		"initial_direction": 270.0,
		"ai_move_group": 0,
		"ai_target_move_x": -1,
		"ai_target_move_y": -1,
		"ai_skill_function": "",
		"ai_attack": "1.0",
		"ai_move": "1.0",
		"ai_heal": "",
		"ai_skill": "",
		"ai_use": "",
		"skill_group_id": 16625,
		"gear_GearGear": 14006,
		"gear_rank": 1,
		"proficiency_UnitProficiency": 4,
		"level": 58,
		"hp": 67,
		"strength": 54,
		"vitality": 46,
		"intelligence": 8,
		"mind": 37,
		"agility": 59,
		"dexterity": 62,
		"lucky": 30,
		"parameter_table_BattleEnemyParameterTable": 0,
		"parameter_deviation_table_BattleEnemyParameterDeviationTable": 0,
		"acquire_skill_group_id": 0,
		"level_correction": 0,
		"group_id": 0,
		"ai_script_id_BattleAIScript": 0
	},
	{
		"ID": 77022,
		"stage_BattleStage": 331003131,
		"unit_UnitUnit": 3820001,
		"money": 290,
		"initial_coordinate_x": 9,
		"initial_coordinate_y": 3,
		"reinforcement_BattleReinforcement": 546,
		"initial_direction": 270.0,
		"ai_move_group": 0,
		"ai_target_move_x": -1,
		"ai_target_move_y": -1,
		"ai_skill_function": "",
		"ai_attack": "1.0",
		"ai_move": "1.0",
		"ai_heal": "",
		"ai_skill": "",
		"ai_use": "",
		"skill_group_id": 16625,
		"gear_GearGear": 14006,
		"gear_rank": 1,
		"proficiency_UnitProficiency": 4,
		"level": 58,
		"hp": 68,
		"strength": 56,
		"vitality": 43,
		"intelligence": 4,
		"mind": 41,
		"agility": 63,
		"dexterity": 63,
		"lucky": 33,
		"parameter_table_BattleEnemyParameterTable": 0,
		"parameter_deviation_table_BattleEnemyParameterDeviationTable": 0,
		"acquire_skill_group_id": 0,
		"level_correction": 0,
		"group_id": 0,
		"ai_script_id_BattleAIScript": 0
	},
	{
		"ID": 77023,
		"stage_BattleStage": 331003131,
		"unit_UnitUnit": 3820001,
		"money": 290,
		"initial_coordinate_x": 11,
		"initial_coordinate_y": 3,
		"reinforcement_BattleReinforcement": 546,
		"initial_direction": 270.0,
		"ai_move_group": 0,
		"ai_target_move_x": -1,
		"ai_target_move_y": -1,
		"ai_skill_function": "",
		"ai_attack": "1.0",
		"ai_move": "1.0",
		"ai_heal": "",
		"ai_skill": "",
		"ai_use": "",
		"skill_group_id": 16625,
		"gear_GearGear": 14006,
		"gear_rank": 1,
		"proficiency_UnitProficiency": 4,
		"level": 58,
		"hp": 71,
		"strength": 55,
		"vitality": 43,
		"intelligence": 9,
		"mind": 39,
		"agility": 62,
		"dexterity": 58,
		"lucky": 29,
		"parameter_table_BattleEnemyParameterTable": 0,
		"parameter_deviation_table_BattleEnemyParameterDeviationTable": 0,
		"acquire_skill_group_id": 0,
		"level_correction": 0,
		"group_id": 0,
		"ai_script_id_BattleAIScript": 0
	},
	{
		"ID": 77024,
		"stage_BattleStage": 331003131,
		"unit_UnitUnit": 3820006,
		"money": 310,
		"initial_coordinate_x": 12,
		"initial_coordinate_y": 4,
		"reinforcement_BattleReinforcement": 546,
		"initial_direction": 270.0,
		"ai_move_group": 0,
		"ai_target_move_x": -1,
		"ai_target_move_y": -1,
		"ai_skill_function": "",
		"ai_attack": "1.0",
		"ai_move": "1.0",
		"ai_heal": "",
		"ai_skill": "",
		"ai_use": "",
		"skill_group_id": 18735,
		"gear_GearGear": 64003,
		"gear_rank": 1,
		"proficiency_UnitProficiency": 4,
		"level": 62,
		"hp": 66,
		"strength": 6,
		"vitality": 51,
		"intelligence": 52,
		"mind": 63,
		"agility": 58,
		"dexterity": 54,
		"lucky": 32,
		"parameter_table_BattleEnemyParameterTable": 0,
		"parameter_deviation_table_BattleEnemyParameterDeviationTable": 0,
		"acquire_skill_group_id": 0,
		"level_correction": 0,
		"group_id": 0,
		"ai_script_id_BattleAIScript": 0
	},
	{
		"ID": 77025,
		"stage_BattleStage": 331003131,
		"unit_UnitUnit": 3820006,
		"money": 310,
		"initial_coordinate_x": 13,
		"initial_coordinate_y": 4,
		"reinforcement_BattleReinforcement": 546,
		"initial_direction": 270.0,
		"ai_move_group": 0,
		"ai_target_move_x": -1,
		"ai_target_move_y": -1,
		"ai_skill_function": "",
		"ai_attack": "1.0",
		"ai_move": "1.0",
		"ai_heal": "",
		"ai_skill": "",
		"ai_use": "",
		"skill_group_id": 18735,
		"gear_GearGear": 64003,
		"gear_rank": 1,
		"proficiency_UnitProficiency": 4,
		"level": 62,
		"hp": 63,
		"strength": 4,
		"vitality": 52,
		"intelligence": 54,
		"mind": 65,
		"agility": 57,
		"dexterity": 54,
		"lucky": 34,
		"parameter_table_BattleEnemyParameterTable": 0,
		"parameter_deviation_table_BattleEnemyParameterDeviationTable": 0,
		"acquire_skill_group_id": 0,
		"level_correction": 0,
		"group_id": 0,
		"ai_script_id_BattleAIScript": 0
	},
	{
		"ID": 77026,
		"stage_BattleStage": 331003131,
		"unit_UnitUnit": 3820001,
		"money": 290,
		"initial_coordinate_x": 14,
		"initial_coordinate_y": 12,
		"reinforcement_BattleReinforcement": 546,
		"initial_direction": 270.0,
		"ai_move_group": 0,
		"ai_target_move_x": -1,
		"ai_target_move_y": -1,
		"ai_skill_function": "",
		"ai_attack": "1.0",
		"ai_move": "1.0",
		"ai_heal": "",
		"ai_skill": "",
		"ai_use": "",
		"skill_group_id": 16625,
		"gear_GearGear": 14006,
		"gear_rank": 1,
		"proficiency_UnitProficiency": 4,
		"level": 58,
		"hp": 72,
		"strength": 57,
		"vitality": 45,
		"intelligence": 9,
		"mind": 37,
		"agility": 58,
		"dexterity": 61,
		"lucky": 34,
		"parameter_table_BattleEnemyParameterTable": 0,
		"parameter_deviation_table_BattleEnemyParameterDeviationTable": 0,
		"acquire_skill_group_id": 0,
		"level_correction": 0,
		"group_id": 0,
		"ai_script_id_BattleAIScript": 0
	},
	{
		"ID": 77027,
		"stage_BattleStage": 331003131,
		"unit_UnitUnit": 3820001,
		"money": 290,
		"initial_coordinate_x": 14,
		"initial_coordinate_y": 11,
		"reinforcement_BattleReinforcement": 546,
		"initial_direction": 270.0,
		"ai_move_group": 0,
		"ai_target_move_x": -1,
		"ai_target_move_y": -1,
		"ai_skill_function": "",
		"ai_attack": "1.0",
		"ai_move": "1.0",
		"ai_heal": "",
		"ai_skill": "",
		"ai_use": "",
		"skill_group_id": 16625,
		"gear_GearGear": 14006,
		"gear_rank": 1,
		"proficiency_UnitProficiency": 4,
		"level": 58,
		"hp": 67,
		"strength": 54,
		"vitality": 48,
		"intelligence": 9,
		"mind": 40,
		"agility": 61,
		"dexterity": 60,
		"lucky": 29,
		"parameter_table_BattleEnemyParameterTable": 0,
		"parameter_deviation_table_BattleEnemyParameterDeviationTable": 0,
		"acquire_skill_group_id": 0,
		"level_correction": 0,
		"group_id": 0,
		"ai_script_id_BattleAIScript": 0
	},
	{
		"ID": 77028,
		"stage_BattleStage": 331003131,
		"unit_UnitUnit": 3820001,
		"money": 290,
		"initial_coordinate_x": 15,
		"initial_coordinate_y": 12,
		"reinforcement_BattleReinforcement": 546,
		"initial_direction": 270.0,
		"ai_move_group": 0,
		"ai_target_move_x": -1,
		"ai_target_move_y": -1,
		"ai_skill_function": "",
		"ai_attack": "1.0",
		"ai_move": "1.0",
		"ai_heal": "",
		"ai_skill": "",
		"ai_use": "",
		"skill_group_id": 16625,
		"gear_GearGear": 14006,
		"gear_rank": 1,
		"proficiency_UnitProficiency": 4,
		"level": 58,
		"hp": 70,
		"strength": 58,
		"vitality": 43,
		"intelligence": 7,
		"mind": 41,
		"agility": 63,
		"dexterity": 62,
		"lucky": 31,
		"parameter_table_BattleEnemyParameterTable": 0,
		"parameter_deviation_table_BattleEnemyParameterDeviationTable": 0,
		"acquire_skill_group_id": 0,
		"level_correction": 0,
		"group_id": 0,
		"ai_script_id_BattleAIScript": 0
	},
	{
		"ID": 77029,
		"stage_BattleStage": 331003131,
		"unit_UnitUnit": 3820001,
		"money": 290,
		"initial_coordinate_x": 15,
		"initial_coordinate_y": 11,
		"reinforcement_BattleReinforcement": 546,
		"initial_direction": 270.0,
		"ai_move_group": 0,
		"ai_target_move_x": -1,
		"ai_target_move_y": -1,
		"ai_skill_function": "",
		"ai_attack": "1.0",
		"ai_move": "1.0",
		"ai_heal": "",
		"ai_skill": "",
		"ai_use": "",
		"skill_group_id": 16625,
		"gear_GearGear": 14006,
		"gear_rank": 1,
		"proficiency_UnitProficiency": 4,
		"level": 58,
		"hp": 70,
		"strength": 58,
		"vitality": 43,
		"intelligence": 4,
		"mind": 40,
		"agility": 60,
		"dexterity": 60,
		"lucky": 34,
		"parameter_table_BattleEnemyParameterTable": 0,
		"parameter_deviation_table_BattleEnemyParameterDeviationTable": 0,
		"acquire_skill_group_id": 0,
		"level_correction": 0,
		"group_id": 0,
		"ai_script_id_BattleAIScript": 0
	},
	{
		"ID": 77030,
		"stage_BattleStage": 331003131,
		"unit_UnitUnit": 3820006,
		"money": 310,
		"initial_coordinate_x": 14,
		"initial_coordinate_y": 9,
		"reinforcement_BattleReinforcement": 546,
		"initial_direction": 270.0,
		"ai_move_group": 0,
		"ai_target_move_x": -1,
		"ai_target_move_y": -1,
		"ai_skill_function": "",
		"ai_attack": "1.0",
		"ai_move": "1.0",
		"ai_heal": "",
		"ai_skill": "",
		"ai_use": "",
		"skill_group_id": 18735,
		"gear_GearGear": 64003,
		"gear_rank": 1,
		"proficiency_UnitProficiency": 4,
		"level": 62,
		"hp": 63,
		"strength": 4,
		"vitality": 50,
		"intelligence": 57,
		"mind": 60,
		"agility": 57,
		"dexterity": 57,
		"lucky": 36,
		"parameter_table_BattleEnemyParameterTable": 0,
		"parameter_deviation_table_BattleEnemyParameterDeviationTable": 0,
		"acquire_skill_group_id": 0,
		"level_correction": 0,
		"group_id": 0,
		"ai_script_id_BattleAIScript": 0
	},
	{
		"ID": 77031,
		"stage_BattleStage": 331003131,
		"unit_UnitUnit": 3820006,
		"money": 310,
		"initial_coordinate_x": 15,
		"initial_coordinate_y": 9,
		"reinforcement_BattleReinforcement": 546,
		"initial_direction": 270.0,
		"ai_move_group": 0,
		"ai_target_move_x": -1,
		"ai_target_move_y": -1,
		"ai_skill_function": "",
		"ai_attack": "1.0",
		"ai_move": "1.0",
		"ai_heal": "",
		"ai_skill": "",
		"ai_use": "",
		"skill_group_id": 18735,
		"gear_GearGear": 64003,
		"gear_rank": 1,
		"proficiency_UnitProficiency": 4,
		"level": 62,
		"hp": 66,
		"strength": 6,
		"vitality": 50,
		"intelligence": 54,
		"mind": 64,
		"agility": 58,
		"dexterity": 55,
		"lucky": 32,
		"parameter_table_BattleEnemyParameterTable": 0,
		"parameter_deviation_table_BattleEnemyParameterDeviationTable": 0,
		"acquire_skill_group_id": 0,
		"level_correction": 0,
		"group_id": 0,
		"ai_script_id_BattleAIScript": 0
	},
	{
		"ID": 77032,
		"stage_BattleStage": 331003131,
		"unit_UnitUnit": 3820006,
		"money": 310,
		"initial_coordinate_x": 15,
		"initial_coordinate_y": 8,
		"reinforcement_BattleReinforcement": 546,
		"initial_direction": 270.0,
		"ai_move_group": 0,
		"ai_target_move_x": -1,
		"ai_target_move_y": -1,
		"ai_skill_function": "",
		"ai_attack": "1.0",
		"ai_move": "1.0",
		"ai_heal": "",
		"ai_skill": "",
		"ai_use": "",
		"skill_group_id": 18735,
		"gear_GearGear": 64003,
		"gear_rank": 1,
		"proficiency_UnitProficiency": 4,
		"level": 62,
		"hp": 62,
		"strength": 4,
		"vitality": 47,
		"intelligence": 55,
		"mind": 65,
		"agility": 56,
		"dexterity": 54,
		"lucky": 36,
		"parameter_table_BattleEnemyParameterTable": 0,
		"parameter_deviation_table_BattleEnemyParameterDeviationTable": 0,
		"acquire_skill_group_id": 0,
		"level_correction": 0,
		"group_id": 0,
		"ai_script_id_BattleAIScript": 0
	},
	{
		"ID": 77033,
		"stage_BattleStage": 331003131,
		"unit_UnitUnit": 3100311,
		"money": 300,
		"initial_coordinate_x": 6,
		"initial_coordinate_y": 6,
		"reinforcement_BattleReinforcement": 0,
		"initial_direction": 0.0,
		"ai_move_group": 0,
		"ai_target_move_x": -1,
		"ai_target_move_y": -1,
		"ai_skill_function": "",
		"ai_attack": "IF(panel_move_distance <= 5, 1, 0)",
		"ai_move": "0.0",
		"ai_heal": "",
		"ai_skill": "",
		"ai_use": "",
		"skill_group_id": 18938,
		"gear_GearGear": 14040,
		"gear_rank": 1,
		"proficiency_UnitProficiency": 4,
		"level": 60,
		"hp": 77,
		"strength": 57,
		"vitality": 45,
		"intelligence": 21,
		"mind": 34,
		"agility": 66,
		"dexterity": 62,
		"lucky": 54,
		"parameter_table_BattleEnemyParameterTable": 0,
		"parameter_deviation_table_BattleEnemyParameterDeviationTable": 0,
		"acquire_skill_group_id": 0,
		"level_correction": 0,
		"group_id": 1,
		"ai_script_id_BattleAIScript": 0
	},
	{
		"ID": 77034,
		"stage_BattleStage": 331003131,
		"unit_UnitUnit": 3100312,
		"money": 350,
		"initial_coordinate_x": 12,
		"initial_coordinate_y": 3,
		"reinforcement_BattleReinforcement": 546,
		"initial_direction": 270.0,
		"ai_move_group": 0,
		"ai_target_move_x": -1,
		"ai_target_move_y": -1,
		"ai_skill_function": "",
		"ai_attack": "1.0",
		"ai_move": "1.0",
		"ai_heal": "",
		"ai_skill": "",
		"ai_use": "",
		"skill_group_id": 18939,
		"gear_GearGear": 14040,
		"gear_rank": 1,
		"proficiency_UnitProficiency": 4,
		"level": 70,
		"hp": 93,
		"strength": 69,
		"vitality": 57,
		"intelligence": 22,
		"mind": 40,
		"agility": 84,
		"dexterity": 77,
		"lucky": 56,
		"parameter_table_BattleEnemyParameterTable": 0,
		"parameter_deviation_table_BattleEnemyParameterDeviationTable": 0,
		"acquire_skill_group_id": 0,
		"level_correction": 0,
		"group_id": 0,
		"ai_script_id_BattleAIScript": 0
	},
	{
		"ID": 77035,
		"stage_BattleStage": 331003131,
		"unit_UnitUnit": 3100313,
		"money": 400,
		"initial_coordinate_x": 15,
		"initial_coordinate_y": 10,
		"reinforcement_BattleReinforcement": 546,
		"initial_direction": 0.0,
		"ai_move_group": 0,
		"ai_target_move_x": -1,
		"ai_target_move_y": -1,
		"ai_skill_function": "",
		"ai_attack": "1.0",
		"ai_move": "1.0",
		"ai_heal": "",
		"ai_skill": "",
		"ai_use": "",
		"skill_group_id": 18940,
		"gear_GearGear": 14040,
		"gear_rank": 1,
		"proficiency_UnitProficiency": 4,
		"level": 80,
		"hp": 118,
		"strength": 82,
		"vitality": 62,
		"intelligence": 23,
		"mind": 42,
		"agility": 99,
		"dexterity": 98,
		"lucky": 58,
		"parameter_table_BattleEnemyParameterTable": 0,
		"parameter_deviation_table_BattleEnemyParameterDeviationTable": 0,
		"acquire_skill_group_id": 0,
		"level_correction": 0,
		"group_id": 0,
		"ai_script_id_BattleAIScript": 0
	}
]