[
	{
		"ID": 30750,
		"stage_BattleStage": 416004012,
		"unit_UnitUnit": 910019,
		"money": 55,
		"initial_coordinate_x": 8,
		"initial_coordinate_y": 33,
		"reinforcement_BattleReinforcement": 0,
		"initial_direction": 180.0,
		"ai_move_group": 0,
		"ai_target_move_x": -1,
		"ai_target_move_y": -1,
		"ai_skill_function": "",
		"ai_attack": "IF(panel_move_distance <= 3, 1, 0)",
		"ai_move": "0.0",
		"ai_heal": "",
		"ai_skill": "",
		"ai_use": "",
		"skill_group_id": 9294,
		"gear_GearGear": 15006,
		"gear_rank": 1,
		"proficiency_UnitProficiency": 5,
		"level": 55,
		"hp": 97,
		"strength": 53,
		"vitality": 66,
		"intelligence": 16,
		"mind": 46,
		"agility": 72,
		"dexterity": 57,
		"lucky": 27,
		"parameter_table_BattleEnemyParameterTable": 0,
		"parameter_deviation_table_BattleEnemyParameterDeviationTable": 0,
		"acquire_skill_group_id": 0,
		"level_correction": 0,
		"group_id": 0,
		"ai_script_id_BattleAIScript": 0
	},
	{
		"ID": 30751,
		"stage_BattleStage": 416004012,
		"unit_UnitUnit": 920019,
		"money": 55,
		"initial_coordinate_x": 8,
		"initial_coordinate_y": 27,
		"reinforcement_BattleReinforcement": 0,
		"initial_direction": 180.0,
		"ai_move_group": 0,
		"ai_target_move_x": -1,
		"ai_target_move_y": -1,
		"ai_skill_function": "",
		"ai_attack": "IF(panel_move_distance <= 3, 1, 0)",
		"ai_move": "0.0",
		"ai_heal": "",
		"ai_skill": "",
		"ai_use": "",
		"skill_group_id": 9304,
		"gear_GearGear": 25004,
		"gear_rank": 1,
		"proficiency_UnitProficiency": 5,
		"level": 55,
		"hp": 86,
		"strength": 49,
		"vitality": 47,
		"intelligence": 16,
		"mind": 42,
		"agility": 58,
		"dexterity": 61,
		"lucky": 23,
		"parameter_table_BattleEnemyParameterTable": 0,
		"parameter_deviation_table_BattleEnemyParameterDeviationTable": 0,
		"acquire_skill_group_id": 0,
		"level_correction": 0,
		"group_id": 0,
		"ai_script_id_BattleAIScript": 0
	},
	{
		"ID": 30752,
		"stage_BattleStage": 416004012,
		"unit_UnitUnit": 930019,
		"money": 55,
		"initial_coordinate_x": 8,
		"initial_coordinate_y": 11,
		"reinforcement_BattleReinforcement": 0,
		"initial_direction": 180.0,
		"ai_move_group": 0,
		"ai_target_move_x": -1,
		"ai_target_move_y": -1,
		"ai_skill_function": "",
		"ai_attack": "IF(panel_move_distance <= 3, 1, 0)",
		"ai_move": "0.0",
		"ai_heal": "",
		"ai_skill": "",
		"ai_use": "",
		"skill_group_id": 9314,
		"gear_GearGear": 35003,
		"gear_rank": 1,
		"proficiency_UnitProficiency": 5,
		"level": 55,
		"hp": 73,
		"strength": 54,
		"vitality": 59,
		"intelligence": 15,
		"mind": 43,
		"agility": 60,
		"dexterity": 54,
		"lucky": 29,
		"parameter_table_BattleEnemyParameterTable": 0,
		"parameter_deviation_table_BattleEnemyParameterDeviationTable": 0,
		"acquire_skill_group_id": 0,
		"level_correction": 0,
		"group_id": 0,
		"ai_script_id_BattleAIScript": 0
	},
	{
		"ID": 30753,
		"stage_BattleStage": 416004012,
		"unit_UnitUnit": 960015,
		"money": 55,
		"initial_coordinate_x": 6,
		"initial_coordinate_y": 32,
		"reinforcement_BattleReinforcement": 0,
		"initial_direction": 180.0,
		"ai_move_group": 0,
		"ai_target_move_x": -1,
		"ai_target_move_y": -1,
		"ai_skill_function": "",
		"ai_attack": "IF(panel_move_distance <= 3, 1, 0)",
		"ai_move": "0.0",
		"ai_heal": "",
		"ai_skill": "",
		"ai_use": "",
		"skill_group_id": 9324,
		"gear_GearGear": 64003,
		"gear_rank": 1,
		"proficiency_UnitProficiency": 4,
		"level": 55,
		"hp": 73,
		"strength": 3,
		"vitality": 22,
		"intelligence": 52,
		"mind": 63,
		"agility": 49,
		"dexterity": 64,
		"lucky": 32,
		"parameter_table_BattleEnemyParameterTable": 0,
		"parameter_deviation_table_BattleEnemyParameterDeviationTable": 0,
		"acquire_skill_group_id": 0,
		"level_correction": 0,
		"group_id": 0,
		"ai_script_id_BattleAIScript": 0
	},
	{
		"ID": 30754,
		"stage_BattleStage": 416004012,
		"unit_UnitUnit": 960015,
		"money": 55,
		"initial_coordinate_x": 6,
		"initial_coordinate_y": 26,
		"reinforcement_BattleReinforcement": 0,
		"initial_direction": 180.0,
		"ai_move_group": 0,
		"ai_target_move_x": -1,
		"ai_target_move_y": -1,
		"ai_skill_function": "",
		"ai_attack": "IF(panel_move_distance <= 3, 1, 0)",
		"ai_move": "0.0",
		"ai_heal": "",
		"ai_skill": "",
		"ai_use": "",
		"skill_group_id": 9324,
		"gear_GearGear": 64003,
		"gear_rank": 1,
		"proficiency_UnitProficiency": 4,
		"level": 55,
		"hp": 68,
		"strength": 2,
		"vitality": 17,
		"intelligence": 57,
		"mind": 64,
		"agility": 47,
		"dexterity": 62,
		"lucky": 30,
		"parameter_table_BattleEnemyParameterTable": 0,
		"parameter_deviation_table_BattleEnemyParameterDeviationTable": 0,
		"acquire_skill_group_id": 0,
		"level_correction": 0,
		"group_id": 0,
		"ai_script_id_BattleAIScript": 0
	},
	{
		"ID": 30755,
		"stage_BattleStage": 416004012,
		"unit_UnitUnit": 960015,
		"money": 55,
		"initial_coordinate_x": 6,
		"initial_coordinate_y": 10,
		"reinforcement_BattleReinforcement": 0,
		"initial_direction": 180.0,
		"ai_move_group": 0,
		"ai_target_move_x": -1,
		"ai_target_move_y": -1,
		"ai_skill_function": "",
		"ai_attack": "IF(panel_move_distance <= 3, 1, 0)",
		"ai_move": "0.0",
		"ai_heal": "",
		"ai_skill": "",
		"ai_use": "",
		"skill_group_id": 9324,
		"gear_GearGear": 64003,
		"gear_rank": 1,
		"proficiency_UnitProficiency": 4,
		"level": 55,
		"hp": 59,
		"strength": 2,
		"vitality": 22,
		"intelligence": 50,
		"mind": 72,
		"agility": 49,
		"dexterity": 56,
		"lucky": 25,
		"parameter_table_BattleEnemyParameterTable": 0,
		"parameter_deviation_table_BattleEnemyParameterDeviationTable": 0,
		"acquire_skill_group_id": 0,
		"level_correction": 0,
		"group_id": 0,
		"ai_script_id_BattleAIScript": 0
	},
	{
		"ID": 30756,
		"stage_BattleStage": 416004012,
		"unit_UnitUnit": 960016,
		"money": 55,
		"initial_coordinate_x": 10,
		"initial_coordinate_y": 32,
		"reinforcement_BattleReinforcement": 0,
		"initial_direction": 180.0,
		"ai_move_group": 0,
		"ai_target_move_x": -1,
		"ai_target_move_y": -1,
		"ai_skill_function": "",
		"ai_attack": "IF(panel_move_distance <= 3, 1, 0)",
		"ai_move": "0.0",
		"ai_heal": "",
		"ai_skill": "",
		"ai_use": "",
		"skill_group_id": 9334,
		"gear_GearGear": 64001,
		"gear_rank": 1,
		"proficiency_UnitProficiency": 4,
		"level": 55,
		"hp": 80,
		"strength": 1,
		"vitality": 19,
		"intelligence": 32,
		"mind": 74,
		"agility": 47,
		"dexterity": 47,
		"lucky": 28,
		"parameter_table_BattleEnemyParameterTable": 0,
		"parameter_deviation_table_BattleEnemyParameterDeviationTable": 0,
		"acquire_skill_group_id": 0,
		"level_correction": 0,
		"group_id": 0,
		"ai_script_id_BattleAIScript": 0
	},
	{
		"ID": 30757,
		"stage_BattleStage": 416004012,
		"unit_UnitUnit": 960016,
		"money": 55,
		"initial_coordinate_x": 10,
		"initial_coordinate_y": 26,
		"reinforcement_BattleReinforcement": 0,
		"initial_direction": 180.0,
		"ai_move_group": 0,
		"ai_target_move_x": -1,
		"ai_target_move_y": -1,
		"ai_skill_function": "",
		"ai_attack": "IF(panel_move_distance <= 3, 1, 0)",
		"ai_move": "0.0",
		"ai_heal": "",
		"ai_skill": "",
		"ai_use": "",
		"skill_group_id": 9334,
		"gear_GearGear": 64001,
		"gear_rank": 1,
		"proficiency_UnitProficiency": 4,
		"level": 55,
		"hp": 82,
		"strength": 4,
		"vitality": 17,
		"intelligence": 34,
		"mind": 64,
		"agility": 42,
		"dexterity": 46,
		"lucky": 29,
		"parameter_table_BattleEnemyParameterTable": 0,
		"parameter_deviation_table_BattleEnemyParameterDeviationTable": 0,
		"acquire_skill_group_id": 0,
		"level_correction": 0,
		"group_id": 0,
		"ai_script_id_BattleAIScript": 0
	},
	{
		"ID": 30758,
		"stage_BattleStage": 416004012,
		"unit_UnitUnit": 960016,
		"money": 55,
		"initial_coordinate_x": 10,
		"initial_coordinate_y": 10,
		"reinforcement_BattleReinforcement": 0,
		"initial_direction": 180.0,
		"ai_move_group": 0,
		"ai_target_move_x": -1,
		"ai_target_move_y": -1,
		"ai_skill_function": "",
		"ai_attack": "IF(panel_move_distance <= 3, 1, 0)",
		"ai_move": "0.0",
		"ai_heal": "",
		"ai_skill": "",
		"ai_use": "",
		"skill_group_id": 9334,
		"gear_GearGear": 64001,
		"gear_rank": 1,
		"proficiency_UnitProficiency": 4,
		"level": 55,
		"hp": 75,
		"strength": 3,
		"vitality": 21,
		"intelligence": 37,
		"mind": 75,
		"agility": 43,
		"dexterity": 38,
		"lucky": 28,
		"parameter_table_BattleEnemyParameterTable": 0,
		"parameter_deviation_table_BattleEnemyParameterDeviationTable": 0,
		"acquire_skill_group_id": 0,
		"level_correction": 0,
		"group_id": 0,
		"ai_script_id_BattleAIScript": 0
	},
	{
		"ID": 30759,
		"stage_BattleStage": 416004012,
		"unit_UnitUnit": 861006,
		"money": 55,
		"initial_coordinate_x": 7,
		"initial_coordinate_y": 30,
		"reinforcement_BattleReinforcement": 0,
		"initial_direction": 180.0,
		"ai_move_group": 0,
		"ai_target_move_x": -1,
		"ai_target_move_y": -1,
		"ai_skill_function": "",
		"ai_attack": "IF(panel_move_distance <= 2, 1, 0)",
		"ai_move": "0.0",
		"ai_heal": "",
		"ai_skill": "",
		"ai_use": "",
		"skill_group_id": 9324,
		"gear_GearGear": 64003,
		"gear_rank": 1,
		"proficiency_UnitProficiency": 4,
		"level": 55,
		"hp": 68,
		"strength": 4,
		"vitality": 15,
		"intelligence": 54,
		"mind": 46,
		"agility": 56,
		"dexterity": 58,
		"lucky": 21,
		"parameter_table_BattleEnemyParameterTable": 0,
		"parameter_deviation_table_BattleEnemyParameterDeviationTable": 0,
		"acquire_skill_group_id": 0,
		"level_correction": 0,
		"group_id": 0,
		"ai_script_id_BattleAIScript": 0
	},
	{
		"ID": 30760,
		"stage_BattleStage": 416004012,
		"unit_UnitUnit": 810008,
		"money": 55,
		"initial_coordinate_x": 8,
		"initial_coordinate_y": 29,
		"reinforcement_BattleReinforcement": 0,
		"initial_direction": 180.0,
		"ai_move_group": 0,
		"ai_target_move_x": -1,
		"ai_target_move_y": -1,
		"ai_skill_function": "",
		"ai_attack": "IF(panel_move_distance <= 3, 1, 0)",
		"ai_move": "0.0",
		"ai_heal": "",
		"ai_skill": "",
		"ai_use": "",
		"skill_group_id": 9464,
		"gear_GearGear": 14006,
		"gear_rank": 1,
		"proficiency_UnitProficiency": 4,
		"level": 55,
		"hp": 73,
		"strength": 51,
		"vitality": 36,
		"intelligence": 5,
		"mind": 12,
		"agility": 55,
		"dexterity": 52,
		"lucky": 24,
		"parameter_table_BattleEnemyParameterTable": 0,
		"parameter_deviation_table_BattleEnemyParameterDeviationTable": 0,
		"acquire_skill_group_id": 0,
		"level_correction": 0,
		"group_id": 0,
		"ai_script_id_BattleAIScript": 0
	},
	{
		"ID": 30761,
		"stage_BattleStage": 416004012,
		"unit_UnitUnit": 860010,
		"money": 55,
		"initial_coordinate_x": 9,
		"initial_coordinate_y": 30,
		"reinforcement_BattleReinforcement": 0,
		"initial_direction": 180.0,
		"ai_move_group": 0,
		"ai_target_move_x": -1,
		"ai_target_move_y": -1,
		"ai_skill_function": "",
		"ai_attack": "IF(panel_move_distance <= 2, 1, 0)",
		"ai_move": "0.0",
		"ai_heal": "",
		"ai_skill": "",
		"ai_use": "",
		"skill_group_id": 9334,
		"gear_GearGear": 64001,
		"gear_rank": 1,
		"proficiency_UnitProficiency": 4,
		"level": 55,
		"hp": 58,
		"strength": 5,
		"vitality": 17,
		"intelligence": 38,
		"mind": 77,
		"agility": 54,
		"dexterity": 61,
		"lucky": 23,
		"parameter_table_BattleEnemyParameterTable": 0,
		"parameter_deviation_table_BattleEnemyParameterDeviationTable": 0,
		"acquire_skill_group_id": 0,
		"level_correction": 0,
		"group_id": 0,
		"ai_script_id_BattleAIScript": 0
	},
	{
		"ID": 30762,
		"stage_BattleStage": 416004012,
		"unit_UnitUnit": 861006,
		"money": 55,
		"initial_coordinate_x": 7,
		"initial_coordinate_y": 24,
		"reinforcement_BattleReinforcement": 0,
		"initial_direction": 180.0,
		"ai_move_group": 0,
		"ai_target_move_x": -1,
		"ai_target_move_y": -1,
		"ai_skill_function": "",
		"ai_attack": "IF(panel_move_distance <= 2, 1, 0)",
		"ai_move": "0.0",
		"ai_heal": "",
		"ai_skill": "",
		"ai_use": "",
		"skill_group_id": 9324,
		"gear_GearGear": 64003,
		"gear_rank": 1,
		"proficiency_UnitProficiency": 4,
		"level": 55,
		"hp": 76,
		"strength": 8,
		"vitality": 19,
		"intelligence": 41,
		"mind": 59,
		"agility": 53,
		"dexterity": 56,
		"lucky": 28,
		"parameter_table_BattleEnemyParameterTable": 0,
		"parameter_deviation_table_BattleEnemyParameterDeviationTable": 0,
		"acquire_skill_group_id": 0,
		"level_correction": 0,
		"group_id": 0,
		"ai_script_id_BattleAIScript": 0
	},
	{
		"ID": 30763,
		"stage_BattleStage": 416004012,
		"unit_UnitUnit": 820008,
		"money": 55,
		"initial_coordinate_x": 8,
		"initial_coordinate_y": 23,
		"reinforcement_BattleReinforcement": 0,
		"initial_direction": 180.0,
		"ai_move_group": 0,
		"ai_target_move_x": -1,
		"ai_target_move_y": -1,
		"ai_skill_function": "",
		"ai_attack": "IF(panel_move_distance <= 3, 1, 0)",
		"ai_move": "0.0",
		"ai_heal": "",
		"ai_skill": "",
		"ai_use": "",
		"skill_group_id": 9354,
		"gear_GearGear": 24006,
		"gear_rank": 1,
		"proficiency_UnitProficiency": 4,
		"level": 55,
		"hp": 82,
		"strength": 64,
		"vitality": 45,
		"intelligence": 1,
		"mind": 22,
		"agility": 53,
		"dexterity": 52,
		"lucky": 34,
		"parameter_table_BattleEnemyParameterTable": 0,
		"parameter_deviation_table_BattleEnemyParameterDeviationTable": 0,
		"acquire_skill_group_id": 0,
		"level_correction": 0,
		"group_id": 0,
		"ai_script_id_BattleAIScript": 0
	},
	{
		"ID": 30764,
		"stage_BattleStage": 416004012,
		"unit_UnitUnit": 860010,
		"money": 55,
		"initial_coordinate_x": 9,
		"initial_coordinate_y": 24,
		"reinforcement_BattleReinforcement": 0,
		"initial_direction": 180.0,
		"ai_move_group": 0,
		"ai_target_move_x": -1,
		"ai_target_move_y": -1,
		"ai_skill_function": "",
		"ai_attack": "IF(panel_move_distance <= 2, 1, 0)",
		"ai_move": "0.0",
		"ai_heal": "",
		"ai_skill": "",
		"ai_use": "",
		"skill_group_id": 9334,
		"gear_GearGear": 64001,
		"gear_rank": 1,
		"proficiency_UnitProficiency": 4,
		"level": 55,
		"hp": 59,
		"strength": 1,
		"vitality": 14,
		"intelligence": 28,
		"mind": 76,
		"agility": 56,
		"dexterity": 59,
		"lucky": 23,
		"parameter_table_BattleEnemyParameterTable": 0,
		"parameter_deviation_table_BattleEnemyParameterDeviationTable": 0,
		"acquire_skill_group_id": 0,
		"level_correction": 0,
		"group_id": 0,
		"ai_script_id_BattleAIScript": 0
	},
	{
		"ID": 30765,
		"stage_BattleStage": 416004012,
		"unit_UnitUnit": 861006,
		"money": 55,
		"initial_coordinate_x": 7,
		"initial_coordinate_y": 8,
		"reinforcement_BattleReinforcement": 0,
		"initial_direction": 180.0,
		"ai_move_group": 0,
		"ai_target_move_x": -1,
		"ai_target_move_y": -1,
		"ai_skill_function": "",
		"ai_attack": "IF(panel_move_distance <= 2, 1, 0)",
		"ai_move": "0.0",
		"ai_heal": "",
		"ai_skill": "",
		"ai_use": "",
		"skill_group_id": 9324,
		"gear_GearGear": 64003,
		"gear_rank": 1,
		"proficiency_UnitProficiency": 4,
		"level": 55,
		"hp": 76,
		"strength": 1,
		"vitality": 14,
		"intelligence": 41,
		"mind": 48,
		"agility": 55,
		"dexterity": 62,
		"lucky": 24,
		"parameter_table_BattleEnemyParameterTable": 0,
		"parameter_deviation_table_BattleEnemyParameterDeviationTable": 0,
		"acquire_skill_group_id": 0,
		"level_correction": 0,
		"group_id": 0,
		"ai_script_id_BattleAIScript": 0
	},
	{
		"ID": 30766,
		"stage_BattleStage": 416004012,
		"unit_UnitUnit": 830008,
		"money": 55,
		"initial_coordinate_x": 8,
		"initial_coordinate_y": 7,
		"reinforcement_BattleReinforcement": 0,
		"initial_direction": 180.0,
		"ai_move_group": 0,
		"ai_target_move_x": -1,
		"ai_target_move_y": -1,
		"ai_skill_function": "",
		"ai_attack": "IF(panel_move_distance <= 3, 1, 0)",
		"ai_move": "0.0",
		"ai_heal": "",
		"ai_skill": "",
		"ai_use": "",
		"skill_group_id": 9364,
		"gear_GearGear": 34006,
		"gear_rank": 1,
		"proficiency_UnitProficiency": 4,
		"level": 55,
		"hp": 79,
		"strength": 48,
		"vitality": 49,
		"intelligence": 2,
		"mind": 12,
		"agility": 62,
		"dexterity": 55,
		"lucky": 31,
		"parameter_table_BattleEnemyParameterTable": 0,
		"parameter_deviation_table_BattleEnemyParameterDeviationTable": 0,
		"acquire_skill_group_id": 0,
		"level_correction": 0,
		"group_id": 0,
		"ai_script_id_BattleAIScript": 0
	},
	{
		"ID": 30767,
		"stage_BattleStage": 416004012,
		"unit_UnitUnit": 860010,
		"money": 55,
		"initial_coordinate_x": 9,
		"initial_coordinate_y": 8,
		"reinforcement_BattleReinforcement": 0,
		"initial_direction": 180.0,
		"ai_move_group": 0,
		"ai_target_move_x": -1,
		"ai_target_move_y": -1,
		"ai_skill_function": "",
		"ai_attack": "IF(panel_move_distance <= 2, 1, 0)",
		"ai_move": "0.0",
		"ai_heal": "",
		"ai_skill": "",
		"ai_use": "",
		"skill_group_id": 9334,
		"gear_GearGear": 64001,
		"gear_rank": 1,
		"proficiency_UnitProficiency": 4,
		"level": 55,
		"hp": 59,
		"strength": 1,
		"vitality": 11,
		"intelligence": 47,
		"mind": 79,
		"agility": 56,
		"dexterity": 54,
		"lucky": 32,
		"parameter_table_BattleEnemyParameterTable": 0,
		"parameter_deviation_table_BattleEnemyParameterDeviationTable": 0,
		"acquire_skill_group_id": 0,
		"level_correction": 0,
		"group_id": 0,
		"ai_script_id_BattleAIScript": 0
	},
	{
		"ID": 30768,
		"stage_BattleStage": 416004012,
		"unit_UnitUnit": 840018,
		"money": 55,
		"initial_coordinate_x": 4,
		"initial_coordinate_y": 22,
		"reinforcement_BattleReinforcement": 0,
		"initial_direction": 180.0,
		"ai_move_group": 0,
		"ai_target_move_x": -1,
		"ai_target_move_y": -1,
		"ai_skill_function": "",
		"ai_attack": "IF(panel_move_distance <= 6, 1, 0)",
		"ai_move": "0.0",
		"ai_heal": "",
		"ai_skill": "",
		"ai_use": "",
		"skill_group_id": 9374,
		"gear_GearGear": 45007,
		"gear_rank": 1,
		"proficiency_UnitProficiency": 5,
		"level": 55,
		"hp": 68,
		"strength": 24,
		"vitality": 52,
		"intelligence": 2,
		"mind": 13,
		"agility": 55,
		"dexterity": 59,
		"lucky": 20,
		"parameter_table_BattleEnemyParameterTable": 0,
		"parameter_deviation_table_BattleEnemyParameterDeviationTable": 0,
		"acquire_skill_group_id": 0,
		"level_correction": 0,
		"group_id": 0,
		"ai_script_id_BattleAIScript": 0
	},
	{
		"ID": 30769,
		"stage_BattleStage": 416004012,
		"unit_UnitUnit": 840018,
		"money": 55,
		"initial_coordinate_x": 5,
		"initial_coordinate_y": 21,
		"reinforcement_BattleReinforcement": 0,
		"initial_direction": 180.0,
		"ai_move_group": 0,
		"ai_target_move_x": -1,
		"ai_target_move_y": -1,
		"ai_skill_function": "",
		"ai_attack": "IF(panel_move_distance <= 6, 1, 0)",
		"ai_move": "0.0",
		"ai_heal": "",
		"ai_skill": "",
		"ai_use": "",
		"skill_group_id": 9374,
		"gear_GearGear": 45007,
		"gear_rank": 1,
		"proficiency_UnitProficiency": 5,
		"level": 55,
		"hp": 55,
		"strength": 18,
		"vitality": 35,
		"intelligence": 1,
		"mind": 23,
		"agility": 66,
		"dexterity": 54,
		"lucky": 24,
		"parameter_table_BattleEnemyParameterTable": 0,
		"parameter_deviation_table_BattleEnemyParameterDeviationTable": 0,
		"acquire_skill_group_id": 0,
		"level_correction": 0,
		"group_id": 0,
		"ai_script_id_BattleAIScript": 0
	},
	{
		"ID": 30770,
		"stage_BattleStage": 416004012,
		"unit_UnitUnit": 840018,
		"money": 55,
		"initial_coordinate_x": 11,
		"initial_coordinate_y": 21,
		"reinforcement_BattleReinforcement": 0,
		"initial_direction": 180.0,
		"ai_move_group": 0,
		"ai_target_move_x": -1,
		"ai_target_move_y": -1,
		"ai_skill_function": "",
		"ai_attack": "IF(panel_move_distance <= 6, 1, 0)",
		"ai_move": "0.0",
		"ai_heal": "",
		"ai_skill": "",
		"ai_use": "",
		"skill_group_id": 9374,
		"gear_GearGear": 45008,
		"gear_rank": 1,
		"proficiency_UnitProficiency": 5,
		"level": 55,
		"hp": 96,
		"strength": 19,
		"vitality": 64,
		"intelligence": 1,
		"mind": 21,
		"agility": 62,
		"dexterity": 57,
		"lucky": 33,
		"parameter_table_BattleEnemyParameterTable": 0,
		"parameter_deviation_table_BattleEnemyParameterDeviationTable": 0,
		"acquire_skill_group_id": 0,
		"level_correction": 0,
		"group_id": 0,
		"ai_script_id_BattleAIScript": 0
	},
	{
		"ID": 30771,
		"stage_BattleStage": 416004012,
		"unit_UnitUnit": 840018,
		"money": 55,
		"initial_coordinate_x": 12,
		"initial_coordinate_y": 22,
		"reinforcement_BattleReinforcement": 0,
		"initial_direction": 180.0,
		"ai_move_group": 0,
		"ai_target_move_x": -1,
		"ai_target_move_y": -1,
		"ai_skill_function": "",
		"ai_attack": "IF(panel_move_distance <= 6, 1, 0)",
		"ai_move": "0.0",
		"ai_heal": "",
		"ai_skill": "",
		"ai_use": "",
		"skill_group_id": 9374,
		"gear_GearGear": 45008,
		"gear_rank": 1,
		"proficiency_UnitProficiency": 5,
		"level": 55,
		"hp": 87,
		"strength": 24,
		"vitality": 42,
		"intelligence": 1,
		"mind": 20,
		"agility": 69,
		"dexterity": 50,
		"lucky": 23,
		"parameter_table_BattleEnemyParameterTable": 0,
		"parameter_deviation_table_BattleEnemyParameterDeviationTable": 0,
		"acquire_skill_group_id": 0,
		"level_correction": 0,
		"group_id": 0,
		"ai_script_id_BattleAIScript": 0
	},
	{
		"ID": 30772,
		"stage_BattleStage": 416004012,
		"unit_UnitUnit": 840018,
		"money": 55,
		"initial_coordinate_x": 4,
		"initial_coordinate_y": 18,
		"reinforcement_BattleReinforcement": 0,
		"initial_direction": 180.0,
		"ai_move_group": 0,
		"ai_target_move_x": -1,
		"ai_target_move_y": -1,
		"ai_skill_function": "",
		"ai_attack": "IF(panel_move_distance <= 6, 1, 0)",
		"ai_move": "0.0",
		"ai_heal": "",
		"ai_skill": "",
		"ai_use": "",
		"skill_group_id": 9374,
		"gear_GearGear": 45007,
		"gear_rank": 1,
		"proficiency_UnitProficiency": 5,
		"level": 55,
		"hp": 80,
		"strength": 22,
		"vitality": 41,
		"intelligence": 1,
		"mind": 21,
		"agility": 52,
		"dexterity": 51,
		"lucky": 17,
		"parameter_table_BattleEnemyParameterTable": 0,
		"parameter_deviation_table_BattleEnemyParameterDeviationTable": 0,
		"acquire_skill_group_id": 0,
		"level_correction": 0,
		"group_id": 0,
		"ai_script_id_BattleAIScript": 0
	},
	{
		"ID": 30773,
		"stage_BattleStage": 416004012,
		"unit_UnitUnit": 840018,
		"money": 55,
		"initial_coordinate_x": 5,
		"initial_coordinate_y": 17,
		"reinforcement_BattleReinforcement": 0,
		"initial_direction": 180.0,
		"ai_move_group": 0,
		"ai_target_move_x": -1,
		"ai_target_move_y": -1,
		"ai_skill_function": "",
		"ai_attack": "IF(panel_move_distance <= 6, 1, 0)",
		"ai_move": "0.0",
		"ai_heal": "",
		"ai_skill": "",
		"ai_use": "",
		"skill_group_id": 9374,
		"gear_GearGear": 45007,
		"gear_rank": 1,
		"proficiency_UnitProficiency": 5,
		"level": 55,
		"hp": 86,
		"strength": 23,
		"vitality": 47,
		"intelligence": 1,
		"mind": 24,
		"agility": 53,
		"dexterity": 59,
		"lucky": 24,
		"parameter_table_BattleEnemyParameterTable": 0,
		"parameter_deviation_table_BattleEnemyParameterDeviationTable": 0,
		"acquire_skill_group_id": 0,
		"level_correction": 0,
		"group_id": 0,
		"ai_script_id_BattleAIScript": 0
	},
	{
		"ID": 30774,
		"stage_BattleStage": 416004012,
		"unit_UnitUnit": 840018,
		"money": 55,
		"initial_coordinate_x": 11,
		"initial_coordinate_y": 17,
		"reinforcement_BattleReinforcement": 0,
		"initial_direction": 180.0,
		"ai_move_group": 0,
		"ai_target_move_x": -1,
		"ai_target_move_y": -1,
		"ai_skill_function": "",
		"ai_attack": "IF(panel_move_distance <= 6, 1, 0)",
		"ai_move": "0.0",
		"ai_heal": "",
		"ai_skill": "",
		"ai_use": "",
		"skill_group_id": 9374,
		"gear_GearGear": 45008,
		"gear_rank": 1,
		"proficiency_UnitProficiency": 5,
		"level": 55,
		"hp": 70,
		"strength": 27,
		"vitality": 29,
		"intelligence": 7,
		"mind": 20,
		"agility": 67,
		"dexterity": 53,
		"lucky": 24,
		"parameter_table_BattleEnemyParameterTable": 0,
		"parameter_deviation_table_BattleEnemyParameterDeviationTable": 0,
		"acquire_skill_group_id": 0,
		"level_correction": 0,
		"group_id": 0,
		"ai_script_id_BattleAIScript": 0
	},
	{
		"ID": 30775,
		"stage_BattleStage": 416004012,
		"unit_UnitUnit": 840018,
		"money": 55,
		"initial_coordinate_x": 12,
		"initial_coordinate_y": 18,
		"reinforcement_BattleReinforcement": 0,
		"initial_direction": 180.0,
		"ai_move_group": 0,
		"ai_target_move_x": -1,
		"ai_target_move_y": -1,
		"ai_skill_function": "",
		"ai_attack": "IF(panel_move_distance <= 6, 1, 0)",
		"ai_move": "0.0",
		"ai_heal": "",
		"ai_skill": "",
		"ai_use": "",
		"skill_group_id": 9374,
		"gear_GearGear": 45008,
		"gear_rank": 1,
		"proficiency_UnitProficiency": 5,
		"level": 55,
		"hp": 67,
		"strength": 22,
		"vitality": 48,
		"intelligence": 3,
		"mind": 21,
		"agility": 53,
		"dexterity": 60,
		"lucky": 33,
		"parameter_table_BattleEnemyParameterTable": 0,
		"parameter_deviation_table_BattleEnemyParameterDeviationTable": 0,
		"acquire_skill_group_id": 0,
		"level_correction": 0,
		"group_id": 0,
		"ai_script_id_BattleAIScript": 0
	},
	{
		"ID": 30776,
		"stage_BattleStage": 416004012,
		"unit_UnitUnit": 860001,
		"money": 55,
		"initial_coordinate_x": 3,
		"initial_coordinate_y": 9,
		"reinforcement_BattleReinforcement": 3,
		"initial_direction": 180.0,
		"ai_move_group": 0,
		"ai_target_move_x": -1,
		"ai_target_move_y": -1,
		"ai_skill_function": "",
		"ai_attack": "",
		"ai_move": "1 / (panel_enemy_distance + 1)",
		"ai_heal": "",
		"ai_skill": "",
		"ai_use": "",
		"skill_group_id": 9384,
		"gear_GearGear": 64002,
		"gear_rank": 1,
		"proficiency_UnitProficiency": 4,
		"level": 55,
		"hp": 71,
		"strength": 4,
		"vitality": 23,
		"intelligence": 41,
		"mind": 57,
		"agility": 57,
		"dexterity": 54,
		"lucky": 29,
		"parameter_table_BattleEnemyParameterTable": 0,
		"parameter_deviation_table_BattleEnemyParameterDeviationTable": 0,
		"acquire_skill_group_id": 0,
		"level_correction": 0,
		"group_id": 0,
		"ai_script_id_BattleAIScript": 0
	},
	{
		"ID": 30777,
		"stage_BattleStage": 416004012,
		"unit_UnitUnit": 860001,
		"money": 55,
		"initial_coordinate_x": 3,
		"initial_coordinate_y": 9,
		"reinforcement_BattleReinforcement": 6,
		"initial_direction": 180.0,
		"ai_move_group": 0,
		"ai_target_move_x": -1,
		"ai_target_move_y": -1,
		"ai_skill_function": "",
		"ai_attack": "",
		"ai_move": "1 / (panel_enemy_distance + 1)",
		"ai_heal": "",
		"ai_skill": "",
		"ai_use": "",
		"skill_group_id": 9384,
		"gear_GearGear": 64002,
		"gear_rank": 1,
		"proficiency_UnitProficiency": 4,
		"level": 55,
		"hp": 64,
		"strength": 2,
		"vitality": 18,
		"intelligence": 37,
		"mind": 67,
		"agility": 50,
		"dexterity": 61,
		"lucky": 32,
		"parameter_table_BattleEnemyParameterTable": 0,
		"parameter_deviation_table_BattleEnemyParameterDeviationTable": 0,
		"acquire_skill_group_id": 0,
		"level_correction": 0,
		"group_id": 0,
		"ai_script_id_BattleAIScript": 0
	},
	{
		"ID": 30778,
		"stage_BattleStage": 416004012,
		"unit_UnitUnit": 860001,
		"money": 55,
		"initial_coordinate_x": 13,
		"initial_coordinate_y": 9,
		"reinforcement_BattleReinforcement": 3,
		"initial_direction": 180.0,
		"ai_move_group": 0,
		"ai_target_move_x": -1,
		"ai_target_move_y": -1,
		"ai_skill_function": "",
		"ai_attack": "",
		"ai_move": "1 / (panel_enemy_distance + 1)",
		"ai_heal": "",
		"ai_skill": "",
		"ai_use": "",
		"skill_group_id": 9384,
		"gear_GearGear": 64002,
		"gear_rank": 1,
		"proficiency_UnitProficiency": 4,
		"level": 55,
		"hp": 78,
		"strength": 5,
		"vitality": 25,
		"intelligence": 44,
		"mind": 56,
		"agility": 53,
		"dexterity": 62,
		"lucky": 30,
		"parameter_table_BattleEnemyParameterTable": 0,
		"parameter_deviation_table_BattleEnemyParameterDeviationTable": 0,
		"acquire_skill_group_id": 0,
		"level_correction": 0,
		"group_id": 0,
		"ai_script_id_BattleAIScript": 0
	},
	{
		"ID": 30779,
		"stage_BattleStage": 416004012,
		"unit_UnitUnit": 860001,
		"money": 55,
		"initial_coordinate_x": 13,
		"initial_coordinate_y": 9,
		"reinforcement_BattleReinforcement": 6,
		"initial_direction": 180.0,
		"ai_move_group": 0,
		"ai_target_move_x": -1,
		"ai_target_move_y": -1,
		"ai_skill_function": "",
		"ai_attack": "",
		"ai_move": "1 / (panel_enemy_distance + 1)",
		"ai_heal": "",
		"ai_skill": "",
		"ai_use": "",
		"skill_group_id": 9384,
		"gear_GearGear": 64002,
		"gear_rank": 1,
		"proficiency_UnitProficiency": 4,
		"level": 55,
		"hp": 50,
		"strength": 2,
		"vitality": 17,
		"intelligence": 43,
		"mind": 49,
		"agility": 49,
		"dexterity": 62,
		"lucky": 28,
		"parameter_table_BattleEnemyParameterTable": 0,
		"parameter_deviation_table_BattleEnemyParameterDeviationTable": 0,
		"acquire_skill_group_id": 0,
		"level_correction": 0,
		"group_id": 0,
		"ai_script_id_BattleAIScript": 0
	},
	{
		"ID": 30780,
		"stage_BattleStage": 416004012,
		"unit_UnitUnit": 860001,
		"money": 55,
		"initial_coordinate_x": 3,
		"initial_coordinate_y": 5,
		"reinforcement_BattleReinforcement": 3,
		"initial_direction": 180.0,
		"ai_move_group": 0,
		"ai_target_move_x": -1,
		"ai_target_move_y": -1,
		"ai_skill_function": "",
		"ai_attack": "",
		"ai_move": "1 / (panel_enemy_distance + 1)",
		"ai_heal": "",
		"ai_skill": "",
		"ai_use": "",
		"skill_group_id": 9384,
		"gear_GearGear": 64002,
		"gear_rank": 1,
		"proficiency_UnitProficiency": 4,
		"level": 55,
		"hp": 78,
		"strength": 1,
		"vitality": 24,
		"intelligence": 38,
		"mind": 49,
		"agility": 54,
		"dexterity": 59,
		"lucky": 32,
		"parameter_table_BattleEnemyParameterTable": 0,
		"parameter_deviation_table_BattleEnemyParameterDeviationTable": 0,
		"acquire_skill_group_id": 0,
		"level_correction": 0,
		"group_id": 0,
		"ai_script_id_BattleAIScript": 0
	},
	{
		"ID": 30781,
		"stage_BattleStage": 416004012,
		"unit_UnitUnit": 860001,
		"money": 55,
		"initial_coordinate_x": 3,
		"initial_coordinate_y": 5,
		"reinforcement_BattleReinforcement": 6,
		"initial_direction": 180.0,
		"ai_move_group": 0,
		"ai_target_move_x": -1,
		"ai_target_move_y": -1,
		"ai_skill_function": "",
		"ai_attack": "",
		"ai_move": "1 / (panel_enemy_distance + 1)",
		"ai_heal": "",
		"ai_skill": "",
		"ai_use": "",
		"skill_group_id": 9384,
		"gear_GearGear": 64002,
		"gear_rank": 1,
		"proficiency_UnitProficiency": 4,
		"level": 55,
		"hp": 62,
		"strength": 3,
		"vitality": 16,
		"intelligence": 46,
		"mind": 69,
		"agility": 50,
		"dexterity": 52,
		"lucky": 34,
		"parameter_table_BattleEnemyParameterTable": 0,
		"parameter_deviation_table_BattleEnemyParameterDeviationTable": 0,
		"acquire_skill_group_id": 0,
		"level_correction": 0,
		"group_id": 0,
		"ai_script_id_BattleAIScript": 0
	},
	{
		"ID": 30782,
		"stage_BattleStage": 416004012,
		"unit_UnitUnit": 860001,
		"money": 55,
		"initial_coordinate_x": 13,
		"initial_coordinate_y": 5,
		"reinforcement_BattleReinforcement": 3,
		"initial_direction": 180.0,
		"ai_move_group": 0,
		"ai_target_move_x": -1,
		"ai_target_move_y": -1,
		"ai_skill_function": "",
		"ai_attack": "",
		"ai_move": "1 / (panel_enemy_distance + 1)",
		"ai_heal": "",
		"ai_skill": "",
		"ai_use": "",
		"skill_group_id": 9384,
		"gear_GearGear": 64002,
		"gear_rank": 1,
		"proficiency_UnitProficiency": 4,
		"level": 55,
		"hp": 63,
		"strength": 1,
		"vitality": 22,
		"intelligence": 46,
		"mind": 58,
		"agility": 54,
		"dexterity": 63,
		"lucky": 27,
		"parameter_table_BattleEnemyParameterTable": 0,
		"parameter_deviation_table_BattleEnemyParameterDeviationTable": 0,
		"acquire_skill_group_id": 0,
		"level_correction": 0,
		"group_id": 0,
		"ai_script_id_BattleAIScript": 0
	},
	{
		"ID": 30783,
		"stage_BattleStage": 416004012,
		"unit_UnitUnit": 860001,
		"money": 55,
		"initial_coordinate_x": 13,
		"initial_coordinate_y": 5,
		"reinforcement_BattleReinforcement": 6,
		"initial_direction": 180.0,
		"ai_move_group": 0,
		"ai_target_move_x": -1,
		"ai_target_move_y": -1,
		"ai_skill_function": "",
		"ai_attack": "",
		"ai_move": "1 / (panel_enemy_distance + 1)",
		"ai_heal": "",
		"ai_skill": "",
		"ai_use": "",
		"skill_group_id": 9384,
		"gear_GearGear": 64002,
		"gear_rank": 1,
		"proficiency_UnitProficiency": 4,
		"level": 55,
		"hp": 66,
		"strength": 1,
		"vitality": 18,
		"intelligence": 39,
		"mind": 64,
		"agility": 57,
		"dexterity": 66,
		"lucky": 33,
		"parameter_table_BattleEnemyParameterTable": 0,
		"parameter_deviation_table_BattleEnemyParameterDeviationTable": 0,
		"acquire_skill_group_id": 0,
		"level_correction": 0,
		"group_id": 0,
		"ai_script_id_BattleAIScript": 0
	},
	{
		"ID": 30784,
		"stage_BattleStage": 416004012,
		"unit_UnitUnit": 810008,
		"money": 55,
		"initial_coordinate_x": 3,
		"initial_coordinate_y": 25,
		"reinforcement_BattleReinforcement": 12,
		"initial_direction": 180.0,
		"ai_move_group": 0,
		"ai_target_move_x": -1,
		"ai_target_move_y": -1,
		"ai_skill_function": "",
		"ai_attack": "",
		"ai_move": "1 / (panel_enemy_distance + 1)",
		"ai_heal": "",
		"ai_skill": "",
		"ai_use": "",
		"skill_group_id": 9394,
		"gear_GearGear": 13015,
		"gear_rank": 1,
		"proficiency_UnitProficiency": 3,
		"level": 55,
		"hp": 71,
		"strength": 21,
		"vitality": 55,
		"intelligence": 1,
		"mind": 24,
		"agility": 66,
		"dexterity": 60,
		"lucky": 17,
		"parameter_table_BattleEnemyParameterTable": 0,
		"parameter_deviation_table_BattleEnemyParameterDeviationTable": 0,
		"acquire_skill_group_id": 0,
		"level_correction": 0,
		"group_id": 0,
		"ai_script_id_BattleAIScript": 0
	},
	{
		"ID": 30785,
		"stage_BattleStage": 416004012,
		"unit_UnitUnit": 810008,
		"money": 55,
		"initial_coordinate_x": 3,
		"initial_coordinate_y": 25,
		"reinforcement_BattleReinforcement": 15,
		"initial_direction": 180.0,
		"ai_move_group": 0,
		"ai_target_move_x": -1,
		"ai_target_move_y": -1,
		"ai_skill_function": "",
		"ai_attack": "",
		"ai_move": "1 / (panel_enemy_distance + 1)",
		"ai_heal": "",
		"ai_skill": "",
		"ai_use": "",
		"skill_group_id": 9394,
		"gear_GearGear": 13015,
		"gear_rank": 1,
		"proficiency_UnitProficiency": 3,
		"level": 55,
		"hp": 74,
		"strength": 22,
		"vitality": 43,
		"intelligence": 4,
		"mind": 14,
		"agility": 60,
		"dexterity": 54,
		"lucky": 35,
		"parameter_table_BattleEnemyParameterTable": 0,
		"parameter_deviation_table_BattleEnemyParameterDeviationTable": 0,
		"acquire_skill_group_id": 0,
		"level_correction": 0,
		"group_id": 0,
		"ai_script_id_BattleAIScript": 0
	},
	{
		"ID": 30786,
		"stage_BattleStage": 416004012,
		"unit_UnitUnit": 810008,
		"money": 55,
		"initial_coordinate_x": 13,
		"initial_coordinate_y": 25,
		"reinforcement_BattleReinforcement": 12,
		"initial_direction": 180.0,
		"ai_move_group": 0,
		"ai_target_move_x": -1,
		"ai_target_move_y": -1,
		"ai_skill_function": "",
		"ai_attack": "",
		"ai_move": "1 / (panel_enemy_distance + 1)",
		"ai_heal": "",
		"ai_skill": "",
		"ai_use": "",
		"skill_group_id": 9344,
		"gear_GearGear": 14006,
		"gear_rank": 1,
		"proficiency_UnitProficiency": 4,
		"level": 55,
		"hp": 72,
		"strength": 54,
		"vitality": 44,
		"intelligence": 3,
		"mind": 25,
		"agility": 56,
		"dexterity": 57,
		"lucky": 27,
		"parameter_table_BattleEnemyParameterTable": 0,
		"parameter_deviation_table_BattleEnemyParameterDeviationTable": 0,
		"acquire_skill_group_id": 0,
		"level_correction": 0,
		"group_id": 0,
		"ai_script_id_BattleAIScript": 0
	},
	{
		"ID": 30787,
		"stage_BattleStage": 416004012,
		"unit_UnitUnit": 810008,
		"money": 55,
		"initial_coordinate_x": 13,
		"initial_coordinate_y": 25,
		"reinforcement_BattleReinforcement": 15,
		"initial_direction": 180.0,
		"ai_move_group": 0,
		"ai_target_move_x": -1,
		"ai_target_move_y": -1,
		"ai_skill_function": "",
		"ai_attack": "",
		"ai_move": "1 / (panel_enemy_distance + 1)",
		"ai_heal": "",
		"ai_skill": "",
		"ai_use": "",
		"skill_group_id": 9344,
		"gear_GearGear": 14006,
		"gear_rank": 1,
		"proficiency_UnitProficiency": 4,
		"level": 55,
		"hp": 100,
		"strength": 61,
		"vitality": 40,
		"intelligence": 1,
		"mind": 23,
		"agility": 47,
		"dexterity": 52,
		"lucky": 31,
		"parameter_table_BattleEnemyParameterTable": 0,
		"parameter_deviation_table_BattleEnemyParameterDeviationTable": 0,
		"acquire_skill_group_id": 0,
		"level_correction": 0,
		"group_id": 0,
		"ai_script_id_BattleAIScript": 0
	},
	{
		"ID": 30788,
		"stage_BattleStage": 416004012,
		"unit_UnitUnit": 820008,
		"money": 55,
		"initial_coordinate_x": 3,
		"initial_coordinate_y": 21,
		"reinforcement_BattleReinforcement": 12,
		"initial_direction": 180.0,
		"ai_move_group": 0,
		"ai_target_move_x": -1,
		"ai_target_move_y": -1,
		"ai_skill_function": "",
		"ai_attack": "",
		"ai_move": "1 / (panel_enemy_distance + 1)",
		"ai_heal": "",
		"ai_skill": "",
		"ai_use": "",
		"skill_group_id": 9394,
		"gear_GearGear": 9924001,
		"gear_rank": 1,
		"proficiency_UnitProficiency": 4,
		"level": 55,
		"hp": 82,
		"strength": 46,
		"vitality": 37,
		"intelligence": 3,
		"mind": 15,
		"agility": 58,
		"dexterity": 59,
		"lucky": 25,
		"parameter_table_BattleEnemyParameterTable": 0,
		"parameter_deviation_table_BattleEnemyParameterDeviationTable": 0,
		"acquire_skill_group_id": 0,
		"level_correction": 0,
		"group_id": 0,
		"ai_script_id_BattleAIScript": 0
	},
	{
		"ID": 30789,
		"stage_BattleStage": 416004012,
		"unit_UnitUnit": 820008,
		"money": 55,
		"initial_coordinate_x": 3,
		"initial_coordinate_y": 21,
		"reinforcement_BattleReinforcement": 15,
		"initial_direction": 180.0,
		"ai_move_group": 0,
		"ai_target_move_x": -1,
		"ai_target_move_y": -1,
		"ai_skill_function": "",
		"ai_attack": "",
		"ai_move": "1 / (panel_enemy_distance + 1)",
		"ai_heal": "",
		"ai_skill": "",
		"ai_use": "",
		"skill_group_id": 9394,
		"gear_GearGear": 9924001,
		"gear_rank": 1,
		"proficiency_UnitProficiency": 4,
		"level": 55,
		"hp": 116,
		"strength": 47,
		"vitality": 49,
		"intelligence": 1,
		"mind": 21,
		"agility": 56,
		"dexterity": 47,
		"lucky": 25,
		"parameter_table_BattleEnemyParameterTable": 0,
		"parameter_deviation_table_BattleEnemyParameterDeviationTable": 0,
		"acquire_skill_group_id": 0,
		"level_correction": 0,
		"group_id": 0,
		"ai_script_id_BattleAIScript": 0
	},
	{
		"ID": 30790,
		"stage_BattleStage": 416004012,
		"unit_UnitUnit": 820008,
		"money": 55,
		"initial_coordinate_x": 13,
		"initial_coordinate_y": 21,
		"reinforcement_BattleReinforcement": 12,
		"initial_direction": 180.0,
		"ai_move_group": 0,
		"ai_target_move_x": -1,
		"ai_target_move_y": -1,
		"ai_skill_function": "",
		"ai_attack": "",
		"ai_move": "1 / (panel_enemy_distance + 1)",
		"ai_heal": "",
		"ai_skill": "",
		"ai_use": "",
		"skill_group_id": 9354,
		"gear_GearGear": 24006,
		"gear_rank": 1,
		"proficiency_UnitProficiency": 4,
		"level": 55,
		"hp": 72,
		"strength": 56,
		"vitality": 39,
		"intelligence": 1,
		"mind": 18,
		"agility": 55,
		"dexterity": 56,
		"lucky": 32,
		"parameter_table_BattleEnemyParameterTable": 0,
		"parameter_deviation_table_BattleEnemyParameterDeviationTable": 0,
		"acquire_skill_group_id": 0,
		"level_correction": 0,
		"group_id": 0,
		"ai_script_id_BattleAIScript": 0
	},
	{
		"ID": 30791,
		"stage_BattleStage": 416004012,
		"unit_UnitUnit": 820008,
		"money": 55,
		"initial_coordinate_x": 13,
		"initial_coordinate_y": 21,
		"reinforcement_BattleReinforcement": 15,
		"initial_direction": 180.0,
		"ai_move_group": 0,
		"ai_target_move_x": -1,
		"ai_target_move_y": -1,
		"ai_skill_function": "",
		"ai_attack": "",
		"ai_move": "1 / (panel_enemy_distance + 1)",
		"ai_heal": "",
		"ai_skill": "",
		"ai_use": "",
		"skill_group_id": 9354,
		"gear_GearGear": 24006,
		"gear_rank": 1,
		"proficiency_UnitProficiency": 4,
		"level": 55,
		"hp": 89,
		"strength": 58,
		"vitality": 40,
		"intelligence": 1,
		"mind": 13,
		"agility": 54,
		"dexterity": 54,
		"lucky": 33,
		"parameter_table_BattleEnemyParameterTable": 0,
		"parameter_deviation_table_BattleEnemyParameterDeviationTable": 0,
		"acquire_skill_group_id": 0,
		"level_correction": 0,
		"group_id": 0,
		"ai_script_id_BattleAIScript": 0
	},
	{
		"ID": 30792,
		"stage_BattleStage": 416004012,
		"unit_UnitUnit": 830008,
		"money": 55,
		"initial_coordinate_x": 3,
		"initial_coordinate_y": 17,
		"reinforcement_BattleReinforcement": 12,
		"initial_direction": 180.0,
		"ai_move_group": 0,
		"ai_target_move_x": -1,
		"ai_target_move_y": -1,
		"ai_skill_function": "",
		"ai_attack": "",
		"ai_move": "1 / (panel_enemy_distance + 1)",
		"ai_heal": "",
		"ai_skill": "",
		"ai_use": "",
		"skill_group_id": 9394,
		"gear_GearGear": 34002,
		"gear_rank": 1,
		"proficiency_UnitProficiency": 4,
		"level": 55,
		"hp": 80,
		"strength": 56,
		"vitality": 38,
		"intelligence": 3,
		"mind": 13,
		"agility": 57,
		"dexterity": 47,
		"lucky": 23,
		"parameter_table_BattleEnemyParameterTable": 0,
		"parameter_deviation_table_BattleEnemyParameterDeviationTable": 0,
		"acquire_skill_group_id": 0,
		"level_correction": 0,
		"group_id": 0,
		"ai_script_id_BattleAIScript": 0
	},
	{
		"ID": 30793,
		"stage_BattleStage": 416004012,
		"unit_UnitUnit": 830008,
		"money": 55,
		"initial_coordinate_x": 3,
		"initial_coordinate_y": 17,
		"reinforcement_BattleReinforcement": 15,
		"initial_direction": 180.0,
		"ai_move_group": 0,
		"ai_target_move_x": -1,
		"ai_target_move_y": -1,
		"ai_skill_function": "",
		"ai_attack": "",
		"ai_move": "1 / (panel_enemy_distance + 1)",
		"ai_heal": "",
		"ai_skill": "",
		"ai_use": "",
		"skill_group_id": 9394,
		"gear_GearGear": 34002,
		"gear_rank": 1,
		"proficiency_UnitProficiency": 4,
		"level": 55,
		"hp": 92,
		"strength": 55,
		"vitality": 55,
		"intelligence": 5,
		"mind": 23,
		"agility": 46,
		"dexterity": 57,
		"lucky": 29,
		"parameter_table_BattleEnemyParameterTable": 0,
		"parameter_deviation_table_BattleEnemyParameterDeviationTable": 0,
		"acquire_skill_group_id": 0,
		"level_correction": 0,
		"group_id": 0,
		"ai_script_id_BattleAIScript": 0
	},
	{
		"ID": 30794,
		"stage_BattleStage": 416004012,
		"unit_UnitUnit": 830008,
		"money": 55,
		"initial_coordinate_x": 13,
		"initial_coordinate_y": 17,
		"reinforcement_BattleReinforcement": 12,
		"initial_direction": 180.0,
		"ai_move_group": 0,
		"ai_target_move_x": -1,
		"ai_target_move_y": -1,
		"ai_skill_function": "",
		"ai_attack": "",
		"ai_move": "1 / (panel_enemy_distance + 1)",
		"ai_heal": "",
		"ai_skill": "",
		"ai_use": "",
		"skill_group_id": 9364,
		"gear_GearGear": 34006,
		"gear_rank": 1,
		"proficiency_UnitProficiency": 4,
		"level": 55,
		"hp": 57,
		"strength": 60,
		"vitality": 62,
		"intelligence": 3,
		"mind": 27,
		"agility": 53,
		"dexterity": 58,
		"lucky": 29,
		"parameter_table_BattleEnemyParameterTable": 0,
		"parameter_deviation_table_BattleEnemyParameterDeviationTable": 0,
		"acquire_skill_group_id": 0,
		"level_correction": 0,
		"group_id": 0,
		"ai_script_id_BattleAIScript": 0
	},
	{
		"ID": 30795,
		"stage_BattleStage": 416004012,
		"unit_UnitUnit": 830008,
		"money": 55,
		"initial_coordinate_x": 13,
		"initial_coordinate_y": 17,
		"reinforcement_BattleReinforcement": 15,
		"initial_direction": 180.0,
		"ai_move_group": 0,
		"ai_target_move_x": -1,
		"ai_target_move_y": -1,
		"ai_skill_function": "",
		"ai_attack": "",
		"ai_move": "1 / (panel_enemy_distance + 1)",
		"ai_heal": "",
		"ai_skill": "",
		"ai_use": "",
		"skill_group_id": 9364,
		"gear_GearGear": 34006,
		"gear_rank": 1,
		"proficiency_UnitProficiency": 4,
		"level": 55,
		"hp": 104,
		"strength": 80,
		"vitality": 32,
		"intelligence": 3,
		"mind": 14,
		"agility": 61,
		"dexterity": 69,
		"lucky": 36,
		"parameter_table_BattleEnemyParameterTable": 0,
		"parameter_deviation_table_BattleEnemyParameterDeviationTable": 0,
		"acquire_skill_group_id": 0,
		"level_correction": 0,
		"group_id": 0,
		"ai_script_id_BattleAIScript": 0
	},
	{
		"ID": 30796,
		"stage_BattleStage": 416004012,
		"unit_UnitUnit": 940019,
		"money": 55,
		"initial_coordinate_x": 2,
		"initial_coordinate_y": 30,
		"reinforcement_BattleReinforcement": 20,
		"initial_direction": 180.0,
		"ai_move_group": 0,
		"ai_target_move_x": -1,
		"ai_target_move_y": -1,
		"ai_skill_function": "",
		"ai_attack": "",
		"ai_move": "1 / (panel_enemy_distance + 1)",
		"ai_heal": "",
		"ai_skill": "",
		"ai_use": "",
		"skill_group_id": 9404,
		"gear_GearGear": 45007,
		"gear_rank": 1,
		"proficiency_UnitProficiency": 5,
		"level": 55,
		"hp": 63,
		"strength": 65,
		"vitality": 47,
		"intelligence": 1,
		"mind": 11,
		"agility": 63,
		"dexterity": 49,
		"lucky": 25,
		"parameter_table_BattleEnemyParameterTable": 0,
		"parameter_deviation_table_BattleEnemyParameterDeviationTable": 0,
		"acquire_skill_group_id": 0,
		"level_correction": 0,
		"group_id": 0,
		"ai_script_id_BattleAIScript": 0
	},
	{
		"ID": 30797,
		"stage_BattleStage": 416004012,
		"unit_UnitUnit": 940019,
		"money": 55,
		"initial_coordinate_x": 14,
		"initial_coordinate_y": 30,
		"reinforcement_BattleReinforcement": 20,
		"initial_direction": 180.0,
		"ai_move_group": 0,
		"ai_target_move_x": -1,
		"ai_target_move_y": -1,
		"ai_skill_function": "",
		"ai_attack": "",
		"ai_move": "1 / (panel_enemy_distance + 1)",
		"ai_heal": "",
		"ai_skill": "",
		"ai_use": "",
		"skill_group_id": 9404,
		"gear_GearGear": 45008,
		"gear_rank": 1,
		"proficiency_UnitProficiency": 5,
		"level": 55,
		"hp": 70,
		"strength": 57,
		"vitality": 45,
		"intelligence": 3,
		"mind": 13,
		"agility": 67,
		"dexterity": 56,
		"lucky": 30,
		"parameter_table_BattleEnemyParameterTable": 0,
		"parameter_deviation_table_BattleEnemyParameterDeviationTable": 0,
		"acquire_skill_group_id": 0,
		"level_correction": 0,
		"group_id": 0,
		"ai_script_id_BattleAIScript": 0
	},
	{
		"ID": 30798,
		"stage_BattleStage": 416004012,
		"unit_UnitUnit": 940019,
		"money": 55,
		"initial_coordinate_x": 3,
		"initial_coordinate_y": 29,
		"reinforcement_BattleReinforcement": 20,
		"initial_direction": 180.0,
		"ai_move_group": 0,
		"ai_target_move_x": -1,
		"ai_target_move_y": -1,
		"ai_skill_function": "",
		"ai_attack": "",
		"ai_move": "1 / (panel_enemy_distance + 1)",
		"ai_heal": "",
		"ai_skill": "",
		"ai_use": "",
		"skill_group_id": 9404,
		"gear_GearGear": 45007,
		"gear_rank": 1,
		"proficiency_UnitProficiency": 5,
		"level": 55,
		"hp": 81,
		"strength": 58,
		"vitality": 45,
		"intelligence": 7,
		"mind": 17,
		"agility": 59,
		"dexterity": 56,
		"lucky": 21,
		"parameter_table_BattleEnemyParameterTable": 0,
		"parameter_deviation_table_BattleEnemyParameterDeviationTable": 0,
		"acquire_skill_group_id": 0,
		"level_correction": 0,
		"group_id": 0,
		"ai_script_id_BattleAIScript": 0
	},
	{
		"ID": 30799,
		"stage_BattleStage": 416004012,
		"unit_UnitUnit": 940019,
		"money": 55,
		"initial_coordinate_x": 13,
		"initial_coordinate_y": 29,
		"reinforcement_BattleReinforcement": 20,
		"initial_direction": 180.0,
		"ai_move_group": 0,
		"ai_target_move_x": -1,
		"ai_target_move_y": -1,
		"ai_skill_function": "",
		"ai_attack": "",
		"ai_move": "1 / (panel_enemy_distance + 1)",
		"ai_heal": "",
		"ai_skill": "",
		"ai_use": "",
		"skill_group_id": 9404,
		"gear_GearGear": 45008,
		"gear_rank": 1,
		"proficiency_UnitProficiency": 5,
		"level": 55,
		"hp": 89,
		"strength": 38,
		"vitality": 35,
		"intelligence": 4,
		"mind": 12,
		"agility": 60,
		"dexterity": 52,
		"lucky": 30,
		"parameter_table_BattleEnemyParameterTable": 0,
		"parameter_deviation_table_BattleEnemyParameterDeviationTable": 0,
		"acquire_skill_group_id": 0,
		"level_correction": 0,
		"group_id": 0,
		"ai_script_id_BattleAIScript": 0
	}
]