[
	{
		"ID": 88858,
		"stage_BattleStage": 531040101,
		"unit_UnitUnit": 3104011,
		"money": 250,
		"initial_coordinate_x": 5,
		"initial_coordinate_y": 2,
		"reinforcement_BattleReinforcement": 0,
		"initial_direction": 0.0,
		"ai_move_group": 0,
		"ai_target_move_x": -1,
		"ai_target_move_y": -1,
		"ai_skill_function": "",
		"ai_attack": "",
		"ai_move": "IF(turn <=1,0,1)",
		"ai_heal": "",
		"ai_skill": "",
		"ai_use": "",
		"skill_group_id": 20537,
		"gear_GearGear": 11002,
		"gear_rank": 1,
		"proficiency_UnitProficiency": 1,
		"level": 1,
		"hp": 27,
		"strength": 17,
		"vitality": 11,
		"intelligence": 10,
		"mind": 8,
		"agility": 15,
		"dexterity": 15,
		"lucky": 37,
		"parameter_table_BattleEnemyParameterTable": 0,
		"parameter_deviation_table_BattleEnemyParameterDeviationTable": 0,
		"acquire_skill_group_id": 0,
		"level_correction": 0,
		"group_id": 0,
		"ai_script_id_BattleAIScript": 0
	}
]