[
	{
		"ID": 59991,
		"stage_BattleStage": 810001093,
		"unit_UnitUnit": 840018,
		"money": 0,
		"initial_coordinate_x": 13,
		"initial_coordinate_y": 4,
		"reinforcement_BattleReinforcement": 0,
		"initial_direction": 270.0,
		"ai_move_group": 0,
		"ai_target_move_x": -1,
		"ai_target_move_y": -1,
		"ai_skill_function": "",
		"ai_attack": "IF(panel_move_distance <= 6, 1, 0)",
		"ai_move": "0.0",
		"ai_heal": "",
		"ai_skill": "",
		"ai_use": "",
		"skill_group_id": 17437,
		"gear_GearGear": 46009,
		"gear_rank": 10,
		"proficiency_UnitProficiency": 6,
		"level": 90,
		"hp": 135,
		"strength": 122,
		"vitality": 91,
		"intelligence": 16,
		"mind": 82,
		"agility": 114,
		"dexterity": 111,
		"lucky": 62,
		"parameter_table_BattleEnemyParameterTable": 0,
		"parameter_deviation_table_BattleEnemyParameterDeviationTable": 0,
		"acquire_skill_group_id": 0,
		"level_correction": 0,
		"group_id": 0,
		"ai_script_id_BattleAIScript": 0
	},
	{
		"ID": 59992,
		"stage_BattleStage": 810001093,
		"unit_UnitUnit": 840018,
		"money": 0,
		"initial_coordinate_x": 12,
		"initial_coordinate_y": 3,
		"reinforcement_BattleReinforcement": 0,
		"initial_direction": 270.0,
		"ai_move_group": 0,
		"ai_target_move_x": -1,
		"ai_target_move_y": -1,
		"ai_skill_function": "",
		"ai_attack": "IF(panel_move_distance <= 6, 1, 0)",
		"ai_move": "0.0",
		"ai_heal": "",
		"ai_skill": "",
		"ai_use": "",
		"skill_group_id": 17437,
		"gear_GearGear": 46009,
		"gear_rank": 10,
		"proficiency_UnitProficiency": 6,
		"level": 90,
		"hp": 133,
		"strength": 119,
		"vitality": 93,
		"intelligence": 16,
		"mind": 80,
		"agility": 119,
		"dexterity": 113,
		"lucky": 58,
		"parameter_table_BattleEnemyParameterTable": 0,
		"parameter_deviation_table_BattleEnemyParameterDeviationTable": 0,
		"acquire_skill_group_id": 0,
		"level_correction": 0,
		"group_id": 0,
		"ai_script_id_BattleAIScript": 0
	},
	{
		"ID": 59993,
		"stage_BattleStage": 810001093,
		"unit_UnitUnit": 840018,
		"money": 0,
		"initial_coordinate_x": 11,
		"initial_coordinate_y": 2,
		"reinforcement_BattleReinforcement": 0,
		"initial_direction": 270.0,
		"ai_move_group": 0,
		"ai_target_move_x": -1,
		"ai_target_move_y": -1,
		"ai_skill_function": "",
		"ai_attack": "IF(panel_move_distance <= 6, 1, 0)",
		"ai_move": "0.0",
		"ai_heal": "",
		"ai_skill": "",
		"ai_use": "",
		"skill_group_id": 17437,
		"gear_GearGear": 46009,
		"gear_rank": 10,
		"proficiency_UnitProficiency": 6,
		"level": 90,
		"hp": 136,
		"strength": 117,
		"vitality": 91,
		"intelligence": 12,
		"mind": 81,
		"agility": 118,
		"dexterity": 114,
		"lucky": 62,
		"parameter_table_BattleEnemyParameterTable": 0,
		"parameter_deviation_table_BattleEnemyParameterDeviationTable": 0,
		"acquire_skill_group_id": 0,
		"level_correction": 0,
		"group_id": 0,
		"ai_script_id_BattleAIScript": 0
	},
	{
		"ID": 59994,
		"stage_BattleStage": 810001093,
		"unit_UnitUnit": 840018,
		"money": 0,
		"initial_coordinate_x": 10,
		"initial_coordinate_y": 2,
		"reinforcement_BattleReinforcement": 0,
		"initial_direction": 270.0,
		"ai_move_group": 0,
		"ai_target_move_x": -1,
		"ai_target_move_y": -1,
		"ai_skill_function": "",
		"ai_attack": "IF(panel_move_distance <= 6, 1, 0)",
		"ai_move": "0.0",
		"ai_heal": "",
		"ai_skill": "",
		"ai_use": "",
		"skill_group_id": 17437,
		"gear_GearGear": 46009,
		"gear_rank": 10,
		"proficiency_UnitProficiency": 6,
		"level": 90,
		"hp": 134,
		"strength": 121,
		"vitality": 89,
		"intelligence": 12,
		"mind": 82,
		"agility": 119,
		"dexterity": 113,
		"lucky": 57,
		"parameter_table_BattleEnemyParameterTable": 0,
		"parameter_deviation_table_BattleEnemyParameterDeviationTable": 0,
		"acquire_skill_group_id": 0,
		"level_correction": 0,
		"group_id": 0,
		"ai_script_id_BattleAIScript": 0
	},
	{
		"ID": 59995,
		"stage_BattleStage": 810001093,
		"unit_UnitUnit": 920014,
		"money": 0,
		"initial_coordinate_x": 18,
		"initial_coordinate_y": 4,
		"reinforcement_BattleReinforcement": 0,
		"initial_direction": 270.0,
		"ai_move_group": 0,
		"ai_target_move_x": -1,
		"ai_target_move_y": -1,
		"ai_skill_function": "",
		"ai_attack": "IF( turn <=2 ,IF(panel_move_distance <= 6, 1, 0),1)",
		"ai_move": "1.0",
		"ai_heal": "",
		"ai_skill": "",
		"ai_use": "",
		"skill_group_id": 17439,
		"gear_GearGear": 26007,
		"gear_rank": 10,
		"proficiency_UnitProficiency": 6,
		"level": 90,
		"hp": 132,
		"strength": 131,
		"vitality": 96,
		"intelligence": 11,
		"mind": 73,
		"agility": 110,
		"dexterity": 114,
		"lucky": 57,
		"parameter_table_BattleEnemyParameterTable": 0,
		"parameter_deviation_table_BattleEnemyParameterDeviationTable": 0,
		"acquire_skill_group_id": 0,
		"level_correction": 0,
		"group_id": 0,
		"ai_script_id_BattleAIScript": 0
	},
	{
		"ID": 59996,
		"stage_BattleStage": 810001093,
		"unit_UnitUnit": 920014,
		"money": 0,
		"initial_coordinate_x": 17,
		"initial_coordinate_y": 3,
		"reinforcement_BattleReinforcement": 0,
		"initial_direction": 270.0,
		"ai_move_group": 0,
		"ai_target_move_x": -1,
		"ai_target_move_y": -1,
		"ai_skill_function": "",
		"ai_attack": "IF( turn <=2 ,IF(panel_move_distance <= 6, 1, 0),1)",
		"ai_move": "1.0",
		"ai_heal": "",
		"ai_skill": "",
		"ai_use": "",
		"skill_group_id": 17439,
		"gear_GearGear": 26007,
		"gear_rank": 10,
		"proficiency_UnitProficiency": 6,
		"level": 90,
		"hp": 133,
		"strength": 131,
		"vitality": 93,
		"intelligence": 10,
		"mind": 73,
		"agility": 109,
		"dexterity": 112,
		"lucky": 62,
		"parameter_table_BattleEnemyParameterTable": 0,
		"parameter_deviation_table_BattleEnemyParameterDeviationTable": 0,
		"acquire_skill_group_id": 0,
		"level_correction": 0,
		"group_id": 0,
		"ai_script_id_BattleAIScript": 0
	},
	{
		"ID": 59997,
		"stage_BattleStage": 810001093,
		"unit_UnitUnit": 920014,
		"money": 0,
		"initial_coordinate_x": 16,
		"initial_coordinate_y": 2,
		"reinforcement_BattleReinforcement": 0,
		"initial_direction": 270.0,
		"ai_move_group": 0,
		"ai_target_move_x": -1,
		"ai_target_move_y": -1,
		"ai_skill_function": "",
		"ai_attack": "IF( turn <=2 ,IF(panel_move_distance <= 6, 1, 0),1)",
		"ai_move": "1.0",
		"ai_heal": "",
		"ai_skill": "",
		"ai_use": "",
		"skill_group_id": 17439,
		"gear_GearGear": 26007,
		"gear_rank": 10,
		"proficiency_UnitProficiency": 6,
		"level": 90,
		"hp": 128,
		"strength": 131,
		"vitality": 93,
		"intelligence": 12,
		"mind": 77,
		"agility": 108,
		"dexterity": 109,
		"lucky": 60,
		"parameter_table_BattleEnemyParameterTable": 0,
		"parameter_deviation_table_BattleEnemyParameterDeviationTable": 0,
		"acquire_skill_group_id": 0,
		"level_correction": 0,
		"group_id": 0,
		"ai_script_id_BattleAIScript": 0
	},
	{
		"ID": 59998,
		"stage_BattleStage": 810001093,
		"unit_UnitUnit": 920014,
		"money": 0,
		"initial_coordinate_x": 15,
		"initial_coordinate_y": 1,
		"reinforcement_BattleReinforcement": 0,
		"initial_direction": 270.0,
		"ai_move_group": 0,
		"ai_target_move_x": -1,
		"ai_target_move_y": -1,
		"ai_skill_function": "",
		"ai_attack": "IF( turn <=2 ,IF(panel_move_distance <= 6, 1, 0),1)",
		"ai_move": "1.0",
		"ai_heal": "",
		"ai_skill": "",
		"ai_use": "",
		"skill_group_id": 17439,
		"gear_GearGear": 26007,
		"gear_rank": 10,
		"proficiency_UnitProficiency": 6,
		"level": 90,
		"hp": 133,
		"strength": 135,
		"vitality": 95,
		"intelligence": 12,
		"mind": 77,
		"agility": 110,
		"dexterity": 113,
		"lucky": 62,
		"parameter_table_BattleEnemyParameterTable": 0,
		"parameter_deviation_table_BattleEnemyParameterDeviationTable": 0,
		"acquire_skill_group_id": 0,
		"level_correction": 0,
		"group_id": 0,
		"ai_script_id_BattleAIScript": 0
	},
	{
		"ID": 59999,
		"stage_BattleStage": 810001093,
		"unit_UnitUnit": 860001,
		"money": 0,
		"initial_coordinate_x": 14,
		"initial_coordinate_y": 12,
		"reinforcement_BattleReinforcement": 0,
		"initial_direction": 180.0,
		"ai_move_group": 0,
		"ai_target_move_x": -1,
		"ai_target_move_y": -1,
		"ai_skill_function": "",
		"ai_attack": "IF( turn <=2 ,IF(panel_move_distance <= 6, 1, 0),1)",
		"ai_move": "IF(turn <8,0,1)",
		"ai_heal": "",
		"ai_skill": "",
		"ai_use": "",
		"skill_group_id": 17438,
		"gear_GearGear": 65004,
		"gear_rank": 10,
		"proficiency_UnitProficiency": 5,
		"level": 90,
		"hp": 105,
		"strength": 21,
		"vitality": 88,
		"intelligence": 108,
		"mind": 126,
		"agility": 115,
		"dexterity": 121,
		"lucky": 66,
		"parameter_table_BattleEnemyParameterTable": 0,
		"parameter_deviation_table_BattleEnemyParameterDeviationTable": 0,
		"acquire_skill_group_id": 0,
		"level_correction": 0,
		"group_id": 0,
		"ai_script_id_BattleAIScript": 0
	},
	{
		"ID": 60000,
		"stage_BattleStage": 810001093,
		"unit_UnitUnit": 860001,
		"money": 0,
		"initial_coordinate_x": 15,
		"initial_coordinate_y": 11,
		"reinforcement_BattleReinforcement": 0,
		"initial_direction": 180.0,
		"ai_move_group": 0,
		"ai_target_move_x": -1,
		"ai_target_move_y": -1,
		"ai_skill_function": "",
		"ai_attack": "IF( turn <=2 ,IF(panel_move_distance <= 6, 1, 0),1)",
		"ai_move": "IF(turn <8,0,1)",
		"ai_heal": "",
		"ai_skill": "",
		"ai_use": "",
		"skill_group_id": 17438,
		"gear_GearGear": 65004,
		"gear_rank": 10,
		"proficiency_UnitProficiency": 5,
		"level": 90,
		"hp": 104,
		"strength": 21,
		"vitality": 84,
		"intelligence": 113,
		"mind": 124,
		"agility": 115,
		"dexterity": 121,
		"lucky": 61,
		"parameter_table_BattleEnemyParameterTable": 0,
		"parameter_deviation_table_BattleEnemyParameterDeviationTable": 0,
		"acquire_skill_group_id": 0,
		"level_correction": 0,
		"group_id": 0,
		"ai_script_id_BattleAIScript": 0
	},
	{
		"ID": 60001,
		"stage_BattleStage": 810001093,
		"unit_UnitUnit": 860001,
		"money": 0,
		"initial_coordinate_x": 16,
		"initial_coordinate_y": 10,
		"reinforcement_BattleReinforcement": 0,
		"initial_direction": 180.0,
		"ai_move_group": 0,
		"ai_target_move_x": -1,
		"ai_target_move_y": -1,
		"ai_skill_function": "",
		"ai_attack": "IF( turn <=2 ,IF(panel_move_distance <= 6, 1, 0),1)",
		"ai_move": "IF(turn <8,0,1)",
		"ai_heal": "",
		"ai_skill": "",
		"ai_use": "",
		"skill_group_id": 17438,
		"gear_GearGear": 65004,
		"gear_rank": 10,
		"proficiency_UnitProficiency": 5,
		"level": 90,
		"hp": 107,
		"strength": 18,
		"vitality": 86,
		"intelligence": 111,
		"mind": 129,
		"agility": 119,
		"dexterity": 124,
		"lucky": 66,
		"parameter_table_BattleEnemyParameterTable": 0,
		"parameter_deviation_table_BattleEnemyParameterDeviationTable": 0,
		"acquire_skill_group_id": 0,
		"level_correction": 0,
		"group_id": 0,
		"ai_script_id_BattleAIScript": 0
	},
	{
		"ID": 60002,
		"stage_BattleStage": 810001093,
		"unit_UnitUnit": 860001,
		"money": 0,
		"initial_coordinate_x": 15,
		"initial_coordinate_y": 12,
		"reinforcement_BattleReinforcement": 0,
		"initial_direction": 180.0,
		"ai_move_group": 0,
		"ai_target_move_x": -1,
		"ai_target_move_y": -1,
		"ai_skill_function": "",
		"ai_attack": "IF( turn <=2 ,IF(panel_move_distance <= 6, 1, 0),1)",
		"ai_move": "IF(turn <8,0,1)",
		"ai_heal": "",
		"ai_skill": "",
		"ai_use": "",
		"skill_group_id": 17438,
		"gear_GearGear": 65004,
		"gear_rank": 10,
		"proficiency_UnitProficiency": 5,
		"level": 90,
		"hp": 108,
		"strength": 20,
		"vitality": 87,
		"intelligence": 110,
		"mind": 125,
		"agility": 116,
		"dexterity": 122,
		"lucky": 61,
		"parameter_table_BattleEnemyParameterTable": 0,
		"parameter_deviation_table_BattleEnemyParameterDeviationTable": 0,
		"acquire_skill_group_id": 0,
		"level_correction": 0,
		"group_id": 0,
		"ai_script_id_BattleAIScript": 0
	},
	{
		"ID": 60003,
		"stage_BattleStage": 810001093,
		"unit_UnitUnit": 860001,
		"money": 0,
		"initial_coordinate_x": 6,
		"initial_coordinate_y": 16,
		"reinforcement_BattleReinforcement": 0,
		"initial_direction": 180.0,
		"ai_move_group": 0,
		"ai_target_move_x": -1,
		"ai_target_move_y": -1,
		"ai_skill_function": "",
		"ai_attack": "IF( turn <=2 ,IF(panel_move_distance <= 6, 1, 0),1)",
		"ai_move": "IF(turn <5,0,1)",
		"ai_heal": "",
		"ai_skill": "",
		"ai_use": "",
		"skill_group_id": 17438,
		"gear_GearGear": 65004,
		"gear_rank": 10,
		"proficiency_UnitProficiency": 5,
		"level": 90,
		"hp": 107,
		"strength": 17,
		"vitality": 84,
		"intelligence": 111,
		"mind": 126,
		"agility": 115,
		"dexterity": 122,
		"lucky": 64,
		"parameter_table_BattleEnemyParameterTable": 0,
		"parameter_deviation_table_BattleEnemyParameterDeviationTable": 0,
		"acquire_skill_group_id": 0,
		"level_correction": 0,
		"group_id": 0,
		"ai_script_id_BattleAIScript": 0
	},
	{
		"ID": 60004,
		"stage_BattleStage": 810001093,
		"unit_UnitUnit": 860001,
		"money": 0,
		"initial_coordinate_x": 7,
		"initial_coordinate_y": 15,
		"reinforcement_BattleReinforcement": 0,
		"initial_direction": 180.0,
		"ai_move_group": 0,
		"ai_target_move_x": -1,
		"ai_target_move_y": -1,
		"ai_skill_function": "",
		"ai_attack": "IF( turn <=2 ,IF(panel_move_distance <= 6, 1, 0),1)",
		"ai_move": "IF(turn <5,0,1)",
		"ai_heal": "",
		"ai_skill": "",
		"ai_use": "",
		"skill_group_id": 17438,
		"gear_GearGear": 65004,
		"gear_rank": 10,
		"proficiency_UnitProficiency": 5,
		"level": 90,
		"hp": 109,
		"strength": 21,
		"vitality": 88,
		"intelligence": 112,
		"mind": 129,
		"agility": 114,
		"dexterity": 124,
		"lucky": 61,
		"parameter_table_BattleEnemyParameterTable": 0,
		"parameter_deviation_table_BattleEnemyParameterDeviationTable": 0,
		"acquire_skill_group_id": 0,
		"level_correction": 0,
		"group_id": 0,
		"ai_script_id_BattleAIScript": 0
	},
	{
		"ID": 60005,
		"stage_BattleStage": 810001093,
		"unit_UnitUnit": 860001,
		"money": 0,
		"initial_coordinate_x": 8,
		"initial_coordinate_y": 16,
		"reinforcement_BattleReinforcement": 0,
		"initial_direction": 180.0,
		"ai_move_group": 0,
		"ai_target_move_x": -1,
		"ai_target_move_y": -1,
		"ai_skill_function": "",
		"ai_attack": "IF( turn <=2 ,IF(panel_move_distance <= 6, 1, 0),1)",
		"ai_move": "IF(turn <5,0,1)",
		"ai_heal": "",
		"ai_skill": "",
		"ai_use": "",
		"skill_group_id": 17438,
		"gear_GearGear": 65004,
		"gear_rank": 10,
		"proficiency_UnitProficiency": 5,
		"level": 90,
		"hp": 109,
		"strength": 20,
		"vitality": 85,
		"intelligence": 112,
		"mind": 129,
		"agility": 115,
		"dexterity": 121,
		"lucky": 66,
		"parameter_table_BattleEnemyParameterTable": 0,
		"parameter_deviation_table_BattleEnemyParameterDeviationTable": 0,
		"acquire_skill_group_id": 0,
		"level_correction": 0,
		"group_id": 0,
		"ai_script_id_BattleAIScript": 0
	},
	{
		"ID": 60006,
		"stage_BattleStage": 810001093,
		"unit_UnitUnit": 502113,
		"money": 0,
		"initial_coordinate_x": 18,
		"initial_coordinate_y": 8,
		"reinforcement_BattleReinforcement": 0,
		"initial_direction": 180.0,
		"ai_move_group": 0,
		"ai_target_move_x": -1,
		"ai_target_move_y": -1,
		"ai_skill_function": "",
		"ai_attack": "IF( turn <=2 ,IF(panel_move_distance <= 6, 1, 0),1)",
		"ai_move": "IF(turn <3,0,1)",
		"ai_heal": "",
		"ai_skill": "",
		"ai_use": "",
		"skill_group_id": 13583,
		"gear_GearGear": 56019,
		"gear_rank": 10,
		"proficiency_UnitProficiency": 6,
		"level": 90,
		"hp": 429,
		"strength": 26,
		"vitality": 58,
		"intelligence": 105,
		"mind": 93,
		"agility": 99,
		"dexterity": 95,
		"lucky": 67,
		"parameter_table_BattleEnemyParameterTable": 0,
		"parameter_deviation_table_BattleEnemyParameterDeviationTable": 0,
		"acquire_skill_group_id": 0,
		"level_correction": 0,
		"group_id": 0,
		"ai_script_id_BattleAIScript": 0
	},
	{
		"ID": 60007,
		"stage_BattleStage": 810001093,
		"unit_UnitUnit": 300234,
		"money": 0,
		"initial_coordinate_x": 19,
		"initial_coordinate_y": 7,
		"reinforcement_BattleReinforcement": 0,
		"initial_direction": 180.0,
		"ai_move_group": 0,
		"ai_target_move_x": -1,
		"ai_target_move_y": -1,
		"ai_skill_function": "",
		"ai_attack": "IF( turn <=2 ,IF(panel_move_distance <= 6, 1, 0),1)",
		"ai_move": "IF(turn <3,0,1)",
		"ai_heal": "",
		"ai_skill": "",
		"ai_use": "",
		"skill_group_id": 13486,
		"gear_GearGear": 36020,
		"gear_rank": 10,
		"proficiency_UnitProficiency": 6,
		"level": 90,
		"hp": 463,
		"strength": 108,
		"vitality": 116,
		"intelligence": 39,
		"mind": 38,
		"agility": 78,
		"dexterity": 103,
		"lucky": 64,
		"parameter_table_BattleEnemyParameterTable": 0,
		"parameter_deviation_table_BattleEnemyParameterDeviationTable": 0,
		"acquire_skill_group_id": 0,
		"level_correction": 0,
		"group_id": 0,
		"ai_script_id_BattleAIScript": 0
	},
	{
		"ID": 60008,
		"stage_BattleStage": 810001093,
		"unit_UnitUnit": 200343,
		"money": 0,
		"initial_coordinate_x": 20,
		"initial_coordinate_y": 6,
		"reinforcement_BattleReinforcement": 0,
		"initial_direction": 180.0,
		"ai_move_group": 0,
		"ai_target_move_x": -1,
		"ai_target_move_y": -1,
		"ai_skill_function": "",
		"ai_attack": "IF( turn <=2 ,IF(panel_move_distance <= 6, 1, 0),1)",
		"ai_move": "IF(turn <5,0,1)",
		"ai_heal": "",
		"ai_skill": "",
		"ai_use": "",
		"skill_group_id": 16370,
		"gear_GearGear": 26007,
		"gear_rank": 10,
		"proficiency_UnitProficiency": 6,
		"level": 90,
		"hp": 461,
		"strength": 95,
		"vitality": 98,
		"intelligence": 30,
		"mind": 35,
		"agility": 53,
		"dexterity": 51,
		"lucky": 67,
		"parameter_table_BattleEnemyParameterTable": 0,
		"parameter_deviation_table_BattleEnemyParameterDeviationTable": 0,
		"acquire_skill_group_id": 0,
		"level_correction": 0,
		"group_id": 0,
		"ai_script_id_BattleAIScript": 0
	},
	{
		"ID": 60009,
		"stage_BattleStage": 810001093,
		"unit_UnitUnit": 300133,
		"money": 0,
		"initial_coordinate_x": 16,
		"initial_coordinate_y": 11,
		"reinforcement_BattleReinforcement": 0,
		"initial_direction": 180.0,
		"ai_move_group": 0,
		"ai_target_move_x": -1,
		"ai_target_move_y": -1,
		"ai_skill_function": "",
		"ai_attack": "IF( turn <=2 ,IF(panel_move_distance <= 6, 1, 0),1)",
		"ai_move": "IF(turn <3,0,1)",
		"ai_heal": "",
		"ai_skill": "",
		"ai_use": "",
		"skill_group_id": 17516,
		"gear_GearGear": 36020,
		"gear_rank": 10,
		"proficiency_UnitProficiency": 6,
		"level": 90,
		"hp": 450,
		"strength": 110,
		"vitality": 93,
		"intelligence": 33,
		"mind": 41,
		"agility": 98,
		"dexterity": 91,
		"lucky": 64,
		"parameter_table_BattleEnemyParameterTable": 0,
		"parameter_deviation_table_BattleEnemyParameterDeviationTable": 0,
		"acquire_skill_group_id": 0,
		"level_correction": 0,
		"group_id": 0,
		"ai_script_id_BattleAIScript": 0
	},
	{
		"ID": 60010,
		"stage_BattleStage": 810001093,
		"unit_UnitUnit": 100343,
		"money": 0,
		"initial_coordinate_x": 7,
		"initial_coordinate_y": 16,
		"reinforcement_BattleReinforcement": 0,
		"initial_direction": 180.0,
		"ai_move_group": 0,
		"ai_target_move_x": -1,
		"ai_target_move_y": -1,
		"ai_skill_function": "",
		"ai_attack": "IF( turn <=2 ,IF(panel_move_distance <= 6, 1, 0),1)",
		"ai_move": "IF(turn <5,0,1)",
		"ai_heal": "",
		"ai_skill": "",
		"ai_use": "",
		"skill_group_id": 17441,
		"gear_GearGear": 16035,
		"gear_rank": 10,
		"proficiency_UnitProficiency": 6,
		"level": 90,
		"hp": 429,
		"strength": 91,
		"vitality": 65,
		"intelligence": 40,
		"mind": 72,
		"agility": 110,
		"dexterity": 96,
		"lucky": 66,
		"parameter_table_BattleEnemyParameterTable": 0,
		"parameter_deviation_table_BattleEnemyParameterDeviationTable": 0,
		"acquire_skill_group_id": 0,
		"level_correction": 0,
		"group_id": 0,
		"ai_script_id_BattleAIScript": 0
	},
	{
		"ID": 60011,
		"stage_BattleStage": 810001093,
		"unit_UnitUnit": 30012010,
		"money": 0,
		"initial_coordinate_x": 17,
		"initial_coordinate_y": 7,
		"reinforcement_BattleReinforcement": 0,
		"initial_direction": 180.0,
		"ai_move_group": 0,
		"ai_target_move_x": -1,
		"ai_target_move_y": -1,
		"ai_skill_function": "",
		"ai_attack": "",
		"ai_move": "",
		"ai_heal": "",
		"ai_skill": "",
		"ai_use": "",
		"skill_group_id": 0,
		"gear_GearGear": 10001,
		"gear_rank": 10,
		"proficiency_UnitProficiency": 1,
		"level": 303,
		"hp": 42,
		"strength": 105,
		"vitality": 122,
		"intelligence": 241,
		"mind": 128,
		"agility": 114,
		"dexterity": 41,
		"lucky": 62,
		"parameter_table_BattleEnemyParameterTable": 0,
		"parameter_deviation_table_BattleEnemyParameterDeviationTable": 0,
		"acquire_skill_group_id": 0,
		"level_correction": 0,
		"group_id": 0,
		"ai_script_id_BattleAIScript": 0
	},
	{
		"ID": 60012,
		"stage_BattleStage": 810001093,
		"unit_UnitUnit": 30012010,
		"money": 0,
		"initial_coordinate_x": 14,
		"initial_coordinate_y": 9,
		"reinforcement_BattleReinforcement": 0,
		"initial_direction": 180.0,
		"ai_move_group": 0,
		"ai_target_move_x": -1,
		"ai_target_move_y": -1,
		"ai_skill_function": "",
		"ai_attack": "",
		"ai_move": "",
		"ai_heal": "",
		"ai_skill": "",
		"ai_use": "",
		"skill_group_id": 0,
		"gear_GearGear": 10001,
		"gear_rank": 10,
		"proficiency_UnitProficiency": 1,
		"level": 303,
		"hp": 41,
		"strength": 126,
		"vitality": 119,
		"intelligence": 271,
		"mind": 127,
		"agility": 116,
		"dexterity": 40,
		"lucky": 58,
		"parameter_table_BattleEnemyParameterTable": 0,
		"parameter_deviation_table_BattleEnemyParameterDeviationTable": 0,
		"acquire_skill_group_id": 0,
		"level_correction": 0,
		"group_id": 0,
		"ai_script_id_BattleAIScript": 0
	},
	{
		"ID": 60013,
		"stage_BattleStage": 810001093,
		"unit_UnitUnit": 30012010,
		"money": 0,
		"initial_coordinate_x": 11,
		"initial_coordinate_y": 11,
		"reinforcement_BattleReinforcement": 0,
		"initial_direction": 180.0,
		"ai_move_group": 0,
		"ai_target_move_x": -1,
		"ai_target_move_y": -1,
		"ai_skill_function": "",
		"ai_attack": "",
		"ai_move": "",
		"ai_heal": "",
		"ai_skill": "",
		"ai_use": "",
		"skill_group_id": 0,
		"gear_GearGear": 10001,
		"gear_rank": 1,
		"proficiency_UnitProficiency": 1,
		"level": 304,
		"hp": 42,
		"strength": 126,
		"vitality": 119,
		"intelligence": 269,
		"mind": 129,
		"agility": 115,
		"dexterity": 44,
		"lucky": 1,
		"parameter_table_BattleEnemyParameterTable": 0,
		"parameter_deviation_table_BattleEnemyParameterDeviationTable": 0,
		"acquire_skill_group_id": 0,
		"level_correction": 0,
		"group_id": 0,
		"ai_script_id_BattleAIScript": 0
	},
	{
		"ID": 60014,
		"stage_BattleStage": 810001093,
		"unit_UnitUnit": 30012010,
		"money": 0,
		"initial_coordinate_x": 8,
		"initial_coordinate_y": 13,
		"reinforcement_BattleReinforcement": 0,
		"initial_direction": 180.0,
		"ai_move_group": 0,
		"ai_target_move_x": -1,
		"ai_target_move_y": -1,
		"ai_skill_function": "",
		"ai_attack": "",
		"ai_move": "",
		"ai_heal": "",
		"ai_skill": "",
		"ai_use": "",
		"skill_group_id": 0,
		"gear_GearGear": 10001,
		"gear_rank": 1,
		"proficiency_UnitProficiency": 1,
		"level": 304,
		"hp": 44,
		"strength": 121,
		"vitality": 118,
		"intelligence": 239,
		"mind": 131,
		"agility": 116,
		"dexterity": 43,
		"lucky": 1,
		"parameter_table_BattleEnemyParameterTable": 0,
		"parameter_deviation_table_BattleEnemyParameterDeviationTable": 0,
		"acquire_skill_group_id": 0,
		"level_correction": 0,
		"group_id": 0,
		"ai_script_id_BattleAIScript": 0
	}
]