[
	{
		"ID": 81856,
		"stage_BattleStage": 810006018,
		"unit_UnitUnit": 3820005,
		"money": 0,
		"initial_coordinate_x": 1,
		"initial_coordinate_y": 12,
		"reinforcement_BattleReinforcement": 0,
		"initial_direction": 90.0,
		"ai_move_group": 0,
		"ai_target_move_x": -1,
		"ai_target_move_y": -1,
		"ai_skill_function": "",
		"ai_attack": "",
		"ai_move": "IF(turn < 5,0,1)",
		"ai_heal": "",
		"ai_skill": "",
		"ai_use": "",
		"skill_group_id": 19420,
		"gear_GearGear": 54024,
		"gear_rank": 1,
		"proficiency_UnitProficiency": 4,
		"level": 84,
		"hp": 426,
		"strength": 16,
		"vitality": 63,
		"intelligence": 118,
		"mind": 107,
		"agility": 104,
		"dexterity": 134,
		"lucky": 49,
		"parameter_table_BattleEnemyParameterTable": 0,
		"parameter_deviation_table_BattleEnemyParameterDeviationTable": 0,
		"acquire_skill_group_id": 0,
		"level_correction": 0,
		"group_id": 0,
		"ai_script_id_BattleAIScript": 0
	},
	{
		"ID": 81857,
		"stage_BattleStage": 810006018,
		"unit_UnitUnit": 3820005,
		"money": 0,
		"initial_coordinate_x": 1,
		"initial_coordinate_y": 11,
		"reinforcement_BattleReinforcement": 0,
		"initial_direction": 90.0,
		"ai_move_group": 0,
		"ai_target_move_x": -1,
		"ai_target_move_y": -1,
		"ai_skill_function": "",
		"ai_attack": "",
		"ai_move": "IF(turn < 5,0,1)",
		"ai_heal": "",
		"ai_skill": "",
		"ai_use": "",
		"skill_group_id": 19420,
		"gear_GearGear": 54024,
		"gear_rank": 1,
		"proficiency_UnitProficiency": 4,
		"level": 84,
		"hp": 432,
		"strength": 12,
		"vitality": 64,
		"intelligence": 118,
		"mind": 106,
		"agility": 104,
		"dexterity": 133,
		"lucky": 52,
		"parameter_table_BattleEnemyParameterTable": 0,
		"parameter_deviation_table_BattleEnemyParameterDeviationTable": 0,
		"acquire_skill_group_id": 0,
		"level_correction": 0,
		"group_id": 0,
		"ai_script_id_BattleAIScript": 0
	},
	{
		"ID": 81858,
		"stage_BattleStage": 810006018,
		"unit_UnitUnit": 3820005,
		"money": 0,
		"initial_coordinate_x": 1,
		"initial_coordinate_y": 10,
		"reinforcement_BattleReinforcement": 0,
		"initial_direction": 90.0,
		"ai_move_group": 0,
		"ai_target_move_x": -1,
		"ai_target_move_y": -1,
		"ai_skill_function": "",
		"ai_attack": "",
		"ai_move": "IF(turn < 5,0,1)",
		"ai_heal": "",
		"ai_skill": "",
		"ai_use": "",
		"skill_group_id": 19420,
		"gear_GearGear": 54024,
		"gear_rank": 1,
		"proficiency_UnitProficiency": 4,
		"level": 84,
		"hp": 420,
		"strength": 13,
		"vitality": 59,
		"intelligence": 118,
		"mind": 104,
		"agility": 102,
		"dexterity": 135,
		"lucky": 50,
		"parameter_table_BattleEnemyParameterTable": 0,
		"parameter_deviation_table_BattleEnemyParameterDeviationTable": 0,
		"acquire_skill_group_id": 0,
		"level_correction": 0,
		"group_id": 0,
		"ai_script_id_BattleAIScript": 0
	},
	{
		"ID": 81859,
		"stage_BattleStage": 810006018,
		"unit_UnitUnit": 3820004,
		"money": 0,
		"initial_coordinate_x": 3,
		"initial_coordinate_y": 5,
		"reinforcement_BattleReinforcement": 0,
		"initial_direction": 90.0,
		"ai_move_group": 0,
		"ai_target_move_x": -1,
		"ai_target_move_y": -1,
		"ai_skill_function": "",
		"ai_attack": "",
		"ai_move": "IF(turn < 4,0,1)",
		"ai_heal": "",
		"ai_skill": "",
		"ai_use": "",
		"skill_group_id": 19419,
		"gear_GearGear": 44019,
		"gear_rank": 1,
		"proficiency_UnitProficiency": 4,
		"level": 84,
		"hp": 414,
		"strength": 93,
		"vitality": 74,
		"intelligence": 10,
		"mind": 60,
		"agility": 110,
		"dexterity": 120,
		"lucky": 49,
		"parameter_table_BattleEnemyParameterTable": 0,
		"parameter_deviation_table_BattleEnemyParameterDeviationTable": 0,
		"acquire_skill_group_id": 0,
		"level_correction": 0,
		"group_id": 0,
		"ai_script_id_BattleAIScript": 0
	},
	{
		"ID": 81860,
		"stage_BattleStage": 810006018,
		"unit_UnitUnit": 3820004,
		"money": 0,
		"initial_coordinate_x": 3,
		"initial_coordinate_y": 4,
		"reinforcement_BattleReinforcement": 0,
		"initial_direction": 90.0,
		"ai_move_group": 0,
		"ai_target_move_x": -1,
		"ai_target_move_y": -1,
		"ai_skill_function": "",
		"ai_attack": "",
		"ai_move": "IF(turn < 4,0,1)",
		"ai_heal": "",
		"ai_skill": "",
		"ai_use": "",
		"skill_group_id": 19419,
		"gear_GearGear": 44019,
		"gear_rank": 1,
		"proficiency_UnitProficiency": 4,
		"level": 84,
		"hp": 419,
		"strength": 95,
		"vitality": 74,
		"intelligence": 14,
		"mind": 62,
		"agility": 111,
		"dexterity": 117,
		"lucky": 51,
		"parameter_table_BattleEnemyParameterTable": 0,
		"parameter_deviation_table_BattleEnemyParameterDeviationTable": 0,
		"acquire_skill_group_id": 0,
		"level_correction": 0,
		"group_id": 0,
		"ai_script_id_BattleAIScript": 0
	},
	{
		"ID": 81861,
		"stage_BattleStage": 810006018,
		"unit_UnitUnit": 3820004,
		"money": 0,
		"initial_coordinate_x": 3,
		"initial_coordinate_y": 3,
		"reinforcement_BattleReinforcement": 0,
		"initial_direction": 90.0,
		"ai_move_group": 0,
		"ai_target_move_x": -1,
		"ai_target_move_y": -1,
		"ai_skill_function": "",
		"ai_attack": "",
		"ai_move": "IF(turn < 4,0,1)",
		"ai_heal": "",
		"ai_skill": "",
		"ai_use": "",
		"skill_group_id": 19419,
		"gear_GearGear": 44019,
		"gear_rank": 1,
		"proficiency_UnitProficiency": 4,
		"level": 84,
		"hp": 412,
		"strength": 94,
		"vitality": 71,
		"intelligence": 13,
		"mind": 64,
		"agility": 113,
		"dexterity": 120,
		"lucky": 49,
		"parameter_table_BattleEnemyParameterTable": 0,
		"parameter_deviation_table_BattleEnemyParameterDeviationTable": 0,
		"acquire_skill_group_id": 0,
		"level_correction": 0,
		"group_id": 0,
		"ai_script_id_BattleAIScript": 0
	},
	{
		"ID": 81862,
		"stage_BattleStage": 810006018,
		"unit_UnitUnit": 3820004,
		"money": 0,
		"initial_coordinate_x": 4,
		"initial_coordinate_y": 11,
		"reinforcement_BattleReinforcement": 0,
		"initial_direction": 90.0,
		"ai_move_group": 0,
		"ai_target_move_x": -1,
		"ai_target_move_y": -1,
		"ai_skill_function": "",
		"ai_attack": "",
		"ai_move": "IF(turn < 4,0,1)",
		"ai_heal": "",
		"ai_skill": "",
		"ai_use": "",
		"skill_group_id": 19419,
		"gear_GearGear": 44019,
		"gear_rank": 1,
		"proficiency_UnitProficiency": 4,
		"level": 84,
		"hp": 420,
		"strength": 97,
		"vitality": 71,
		"intelligence": 12,
		"mind": 62,
		"agility": 113,
		"dexterity": 120,
		"lucky": 52,
		"parameter_table_BattleEnemyParameterTable": 0,
		"parameter_deviation_table_BattleEnemyParameterDeviationTable": 0,
		"acquire_skill_group_id": 0,
		"level_correction": 0,
		"group_id": 0,
		"ai_script_id_BattleAIScript": 0
	},
	{
		"ID": 81863,
		"stage_BattleStage": 810006018,
		"unit_UnitUnit": 3820004,
		"money": 0,
		"initial_coordinate_x": 5,
		"initial_coordinate_y": 10,
		"reinforcement_BattleReinforcement": 0,
		"initial_direction": 90.0,
		"ai_move_group": 0,
		"ai_target_move_x": -1,
		"ai_target_move_y": -1,
		"ai_skill_function": "",
		"ai_attack": "",
		"ai_move": "IF(turn < 4,0,1)",
		"ai_heal": "",
		"ai_skill": "",
		"ai_use": "",
		"skill_group_id": 19419,
		"gear_GearGear": 44019,
		"gear_rank": 1,
		"proficiency_UnitProficiency": 4,
		"level": 84,
		"hp": 418,
		"strength": 93,
		"vitality": 72,
		"intelligence": 10,
		"mind": 59,
		"agility": 112,
		"dexterity": 120,
		"lucky": 49,
		"parameter_table_BattleEnemyParameterTable": 0,
		"parameter_deviation_table_BattleEnemyParameterDeviationTable": 0,
		"acquire_skill_group_id": 0,
		"level_correction": 0,
		"group_id": 0,
		"ai_script_id_BattleAIScript": 0
	},
	{
		"ID": 81864,
		"stage_BattleStage": 810006018,
		"unit_UnitUnit": 3820004,
		"money": 0,
		"initial_coordinate_x": 4,
		"initial_coordinate_y": 9,
		"reinforcement_BattleReinforcement": 0,
		"initial_direction": 90.0,
		"ai_move_group": 0,
		"ai_target_move_x": -1,
		"ai_target_move_y": -1,
		"ai_skill_function": "",
		"ai_attack": "",
		"ai_move": "IF(turn < 4,0,1)",
		"ai_heal": "",
		"ai_skill": "",
		"ai_use": "",
		"skill_group_id": 19419,
		"gear_GearGear": 44019,
		"gear_rank": 1,
		"proficiency_UnitProficiency": 4,
		"level": 84,
		"hp": 410,
		"strength": 96,
		"vitality": 74,
		"intelligence": 11,
		"mind": 60,
		"agility": 112,
		"dexterity": 118,
		"lucky": 48,
		"parameter_table_BattleEnemyParameterTable": 0,
		"parameter_deviation_table_BattleEnemyParameterDeviationTable": 0,
		"acquire_skill_group_id": 0,
		"level_correction": 0,
		"group_id": 0,
		"ai_script_id_BattleAIScript": 0
	},
	{
		"ID": 81865,
		"stage_BattleStage": 810006018,
		"unit_UnitUnit": 3820002,
		"money": 0,
		"initial_coordinate_x": 7,
		"initial_coordinate_y": 6,
		"reinforcement_BattleReinforcement": 0,
		"initial_direction": 90.0,
		"ai_move_group": 0,
		"ai_target_move_x": -1,
		"ai_target_move_y": -1,
		"ai_skill_function": "",
		"ai_attack": "",
		"ai_move": "IF(turn < 3,0,1)",
		"ai_heal": "",
		"ai_skill": "",
		"ai_use": "",
		"skill_group_id": 19418,
		"gear_GearGear": 24026,
		"gear_rank": 1,
		"proficiency_UnitProficiency": 4,
		"level": 84,
		"hp": 569,
		"strength": 130,
		"vitality": 116,
		"intelligence": 12,
		"mind": 51,
		"agility": 111,
		"dexterity": 132,
		"lucky": 52,
		"parameter_table_BattleEnemyParameterTable": 0,
		"parameter_deviation_table_BattleEnemyParameterDeviationTable": 0,
		"acquire_skill_group_id": 0,
		"level_correction": 0,
		"group_id": 0,
		"ai_script_id_BattleAIScript": 0
	},
	{
		"ID": 81866,
		"stage_BattleStage": 810006018,
		"unit_UnitUnit": 3820002,
		"money": 0,
		"initial_coordinate_x": 7,
		"initial_coordinate_y": 5,
		"reinforcement_BattleReinforcement": 0,
		"initial_direction": 90.0,
		"ai_move_group": 0,
		"ai_target_move_x": -1,
		"ai_target_move_y": -1,
		"ai_skill_function": "",
		"ai_attack": "",
		"ai_move": "IF(turn < 3,0,1)",
		"ai_heal": "",
		"ai_skill": "",
		"ai_use": "",
		"skill_group_id": 19418,
		"gear_GearGear": 24026,
		"gear_rank": 1,
		"proficiency_UnitProficiency": 4,
		"level": 84,
		"hp": 568,
		"strength": 127,
		"vitality": 118,
		"intelligence": 9,
		"mind": 51,
		"agility": 110,
		"dexterity": 130,
		"lucky": 48,
		"parameter_table_BattleEnemyParameterTable": 0,
		"parameter_deviation_table_BattleEnemyParameterDeviationTable": 0,
		"acquire_skill_group_id": 0,
		"level_correction": 0,
		"group_id": 0,
		"ai_script_id_BattleAIScript": 0
	},
	{
		"ID": 81867,
		"stage_BattleStage": 810006018,
		"unit_UnitUnit": 3820002,
		"money": 0,
		"initial_coordinate_x": 7,
		"initial_coordinate_y": 4,
		"reinforcement_BattleReinforcement": 0,
		"initial_direction": 90.0,
		"ai_move_group": 0,
		"ai_target_move_x": -1,
		"ai_target_move_y": -1,
		"ai_skill_function": "",
		"ai_attack": "",
		"ai_move": "IF(turn < 3,0,1)",
		"ai_heal": "",
		"ai_skill": "",
		"ai_use": "",
		"skill_group_id": 19418,
		"gear_GearGear": 24026,
		"gear_rank": 1,
		"proficiency_UnitProficiency": 4,
		"level": 84,
		"hp": 577,
		"strength": 130,
		"vitality": 117,
		"intelligence": 9,
		"mind": 53,
		"agility": 110,
		"dexterity": 131,
		"lucky": 51,
		"parameter_table_BattleEnemyParameterTable": 0,
		"parameter_deviation_table_BattleEnemyParameterDeviationTable": 0,
		"acquire_skill_group_id": 0,
		"level_correction": 0,
		"group_id": 0,
		"ai_script_id_BattleAIScript": 0
	},
	{
		"ID": 81868,
		"stage_BattleStage": 810006018,
		"unit_UnitUnit": 3820005,
		"money": 0,
		"initial_coordinate_x": 9,
		"initial_coordinate_y": 1,
		"reinforcement_BattleReinforcement": 0,
		"initial_direction": 0.0,
		"ai_move_group": 0,
		"ai_target_move_x": -1,
		"ai_target_move_y": -1,
		"ai_skill_function": "",
		"ai_attack": "",
		"ai_move": "IF(turn < 3,0,1)",
		"ai_heal": "",
		"ai_skill": "",
		"ai_use": "",
		"skill_group_id": 19420,
		"gear_GearGear": 54024,
		"gear_rank": 1,
		"proficiency_UnitProficiency": 4,
		"level": 84,
		"hp": 424,
		"strength": 16,
		"vitality": 63,
		"intelligence": 119,
		"mind": 102,
		"agility": 104,
		"dexterity": 133,
		"lucky": 48,
		"parameter_table_BattleEnemyParameterTable": 0,
		"parameter_deviation_table_BattleEnemyParameterDeviationTable": 0,
		"acquire_skill_group_id": 0,
		"level_correction": 0,
		"group_id": 0,
		"ai_script_id_BattleAIScript": 0
	},
	{
		"ID": 81869,
		"stage_BattleStage": 810006018,
		"unit_UnitUnit": 3820005,
		"money": 0,
		"initial_coordinate_x": 10,
		"initial_coordinate_y": 1,
		"reinforcement_BattleReinforcement": 0,
		"initial_direction": 0.0,
		"ai_move_group": 0,
		"ai_target_move_x": -1,
		"ai_target_move_y": -1,
		"ai_skill_function": "",
		"ai_attack": "",
		"ai_move": "IF(turn < 3,0,1)",
		"ai_heal": "",
		"ai_skill": "",
		"ai_use": "",
		"skill_group_id": 19420,
		"gear_GearGear": 54024,
		"gear_rank": 1,
		"proficiency_UnitProficiency": 4,
		"level": 84,
		"hp": 425,
		"strength": 11,
		"vitality": 59,
		"intelligence": 116,
		"mind": 103,
		"agility": 103,
		"dexterity": 136,
		"lucky": 51,
		"parameter_table_BattleEnemyParameterTable": 0,
		"parameter_deviation_table_BattleEnemyParameterDeviationTable": 0,
		"acquire_skill_group_id": 0,
		"level_correction": 0,
		"group_id": 0,
		"ai_script_id_BattleAIScript": 0
	},
	{
		"ID": 81870,
		"stage_BattleStage": 810006018,
		"unit_UnitUnit": 3820005,
		"money": 0,
		"initial_coordinate_x": 9,
		"initial_coordinate_y": 9,
		"reinforcement_BattleReinforcement": 0,
		"initial_direction": 90.0,
		"ai_move_group": 0,
		"ai_target_move_x": -1,
		"ai_target_move_y": -1,
		"ai_skill_function": "",
		"ai_attack": "",
		"ai_move": "IF(turn < 3,0,1)",
		"ai_heal": "",
		"ai_skill": "",
		"ai_use": "",
		"skill_group_id": 19420,
		"gear_GearGear": 54024,
		"gear_rank": 1,
		"proficiency_UnitProficiency": 4,
		"level": 84,
		"hp": 420,
		"strength": 13,
		"vitality": 62,
		"intelligence": 115,
		"mind": 104,
		"agility": 101,
		"dexterity": 135,
		"lucky": 51,
		"parameter_table_BattleEnemyParameterTable": 0,
		"parameter_deviation_table_BattleEnemyParameterDeviationTable": 0,
		"acquire_skill_group_id": 0,
		"level_correction": 0,
		"group_id": 0,
		"ai_script_id_BattleAIScript": 0
	},
	{
		"ID": 81871,
		"stage_BattleStage": 810006018,
		"unit_UnitUnit": 3820005,
		"money": 0,
		"initial_coordinate_x": 9,
		"initial_coordinate_y": 8,
		"reinforcement_BattleReinforcement": 0,
		"initial_direction": 90.0,
		"ai_move_group": 0,
		"ai_target_move_x": -1,
		"ai_target_move_y": -1,
		"ai_skill_function": "",
		"ai_attack": "",
		"ai_move": "IF(turn < 3,0,1)",
		"ai_heal": "",
		"ai_skill": "",
		"ai_use": "",
		"skill_group_id": 19420,
		"gear_GearGear": 54024,
		"gear_rank": 1,
		"proficiency_UnitProficiency": 4,
		"level": 84,
		"hp": 422,
		"strength": 11,
		"vitality": 64,
		"intelligence": 118,
		"mind": 103,
		"agility": 102,
		"dexterity": 133,
		"lucky": 48,
		"parameter_table_BattleEnemyParameterTable": 0,
		"parameter_deviation_table_BattleEnemyParameterDeviationTable": 0,
		"acquire_skill_group_id": 0,
		"level_correction": 0,
		"group_id": 0,
		"ai_script_id_BattleAIScript": 0
	},
	{
		"ID": 81872,
		"stage_BattleStage": 810006018,
		"unit_UnitUnit": 3820003,
		"money": 0,
		"initial_coordinate_x": 11,
		"initial_coordinate_y": 6,
		"reinforcement_BattleReinforcement": 0,
		"initial_direction": 90.0,
		"ai_move_group": 0,
		"ai_target_move_x": -1,
		"ai_target_move_y": -1,
		"ai_skill_function": "",
		"ai_attack": "",
		"ai_move": "IF(turn < 2,0,1)",
		"ai_heal": "",
		"ai_skill": "",
		"ai_use": "",
		"skill_group_id": 19418,
		"gear_GearGear": 34031,
		"gear_rank": 1,
		"proficiency_UnitProficiency": 4,
		"level": 84,
		"hp": 524,
		"strength": 117,
		"vitality": 123,
		"intelligence": 13,
		"mind": 67,
		"agility": 122,
		"dexterity": 133,
		"lucky": 50,
		"parameter_table_BattleEnemyParameterTable": 0,
		"parameter_deviation_table_BattleEnemyParameterDeviationTable": 0,
		"acquire_skill_group_id": 0,
		"level_correction": 0,
		"group_id": 0,
		"ai_script_id_BattleAIScript": 0
	},
	{
		"ID": 81873,
		"stage_BattleStage": 810006018,
		"unit_UnitUnit": 3820003,
		"money": 0,
		"initial_coordinate_x": 12,
		"initial_coordinate_y": 5,
		"reinforcement_BattleReinforcement": 0,
		"initial_direction": 90.0,
		"ai_move_group": 0,
		"ai_target_move_x": -1,
		"ai_target_move_y": -1,
		"ai_skill_function": "",
		"ai_attack": "",
		"ai_move": "IF(turn < 2,0,1)",
		"ai_heal": "",
		"ai_skill": "",
		"ai_use": "",
		"skill_group_id": 19418,
		"gear_GearGear": 34031,
		"gear_rank": 1,
		"proficiency_UnitProficiency": 4,
		"level": 84,
		"hp": 527,
		"strength": 114,
		"vitality": 121,
		"intelligence": 13,
		"mind": 70,
		"agility": 121,
		"dexterity": 134,
		"lucky": 48,
		"parameter_table_BattleEnemyParameterTable": 0,
		"parameter_deviation_table_BattleEnemyParameterDeviationTable": 0,
		"acquire_skill_group_id": 0,
		"level_correction": 0,
		"group_id": 0,
		"ai_script_id_BattleAIScript": 0
	},
	{
		"ID": 81874,
		"stage_BattleStage": 810006018,
		"unit_UnitUnit": 3820003,
		"money": 0,
		"initial_coordinate_x": 13,
		"initial_coordinate_y": 4,
		"reinforcement_BattleReinforcement": 0,
		"initial_direction": 90.0,
		"ai_move_group": 0,
		"ai_target_move_x": -1,
		"ai_target_move_y": -1,
		"ai_skill_function": "",
		"ai_attack": "",
		"ai_move": "IF(turn < 2,0,1)",
		"ai_heal": "",
		"ai_skill": "",
		"ai_use": "",
		"skill_group_id": 19418,
		"gear_GearGear": 34031,
		"gear_rank": 1,
		"proficiency_UnitProficiency": 4,
		"level": 84,
		"hp": 523,
		"strength": 119,
		"vitality": 123,
		"intelligence": 10,
		"mind": 66,
		"agility": 122,
		"dexterity": 133,
		"lucky": 48,
		"parameter_table_BattleEnemyParameterTable": 0,
		"parameter_deviation_table_BattleEnemyParameterDeviationTable": 0,
		"acquire_skill_group_id": 0,
		"level_correction": 0,
		"group_id": 0,
		"ai_script_id_BattleAIScript": 0
	},
	{
		"ID": 81875,
		"stage_BattleStage": 810006018,
		"unit_UnitUnit": 3820001,
		"money": 0,
		"initial_coordinate_x": 15,
		"initial_coordinate_y": 5,
		"reinforcement_BattleReinforcement": 0,
		"initial_direction": 0.0,
		"ai_move_group": 0,
		"ai_target_move_x": -1,
		"ai_target_move_y": -1,
		"ai_skill_function": "",
		"ai_attack": "",
		"ai_move": "IF(turn < 2,0,1)",
		"ai_heal": "",
		"ai_skill": "",
		"ai_use": "",
		"skill_group_id": 19418,
		"gear_GearGear": 14040,
		"gear_rank": 1,
		"proficiency_UnitProficiency": 4,
		"level": 84,
		"hp": 514,
		"strength": 113,
		"vitality": 119,
		"intelligence": 15,
		"mind": 57,
		"agility": 129,
		"dexterity": 136,
		"lucky": 50,
		"parameter_table_BattleEnemyParameterTable": 0,
		"parameter_deviation_table_BattleEnemyParameterDeviationTable": 0,
		"acquire_skill_group_id": 0,
		"level_correction": 0,
		"group_id": 0,
		"ai_script_id_BattleAIScript": 0
	},
	{
		"ID": 81876,
		"stage_BattleStage": 810006018,
		"unit_UnitUnit": 3820001,
		"money": 0,
		"initial_coordinate_x": 16,
		"initial_coordinate_y": 5,
		"reinforcement_BattleReinforcement": 0,
		"initial_direction": 0.0,
		"ai_move_group": 0,
		"ai_target_move_x": -1,
		"ai_target_move_y": -1,
		"ai_skill_function": "",
		"ai_attack": "",
		"ai_move": "IF(turn < 2,0,1)",
		"ai_heal": "",
		"ai_skill": "",
		"ai_use": "",
		"skill_group_id": 19418,
		"gear_GearGear": 14040,
		"gear_rank": 1,
		"proficiency_UnitProficiency": 4,
		"level": 84,
		"hp": 517,
		"strength": 110,
		"vitality": 120,
		"intelligence": 10,
		"mind": 59,
		"agility": 126,
		"dexterity": 134,
		"lucky": 49,
		"parameter_table_BattleEnemyParameterTable": 0,
		"parameter_deviation_table_BattleEnemyParameterDeviationTable": 0,
		"acquire_skill_group_id": 0,
		"level_correction": 0,
		"group_id": 0,
		"ai_script_id_BattleAIScript": 0
	}
]