[
	{
		"ID": 45622,
		"stage_BattleStage": 810001023,
		"unit_UnitUnit": 820007,
		"money": 0,
		"initial_coordinate_x": 11,
		"initial_coordinate_y": 15,
		"reinforcement_BattleReinforcement": 0,
		"initial_direction": 180.0,
		"ai_move_group": 0,
		"ai_target_move_x": -1,
		"ai_target_move_y": -1,
		"ai_skill_function": "",
		"ai_attack": "IF( turn <=7 ,IF(panel_move_distance <= 2, 1, 0),1)",
		"ai_move": "IF(turn <7,0,1)",
		"ai_heal": "",
		"ai_skill": "",
		"ai_use": "",
		"skill_group_id": 12712,
		"gear_GearGear": 22003,
		"gear_rank": 3,
		"proficiency_UnitProficiency": 2,
		"level": 58,
		"hp": 106,
		"strength": 79,
		"vitality": 64,
		"intelligence": 8,
		"mind": 18,
		"agility": 41,
		"dexterity": 75,
		"lucky": 46,
		"parameter_table_BattleEnemyParameterTable": 0,
		"parameter_deviation_table_BattleEnemyParameterDeviationTable": 0,
		"acquire_skill_group_id": 0,
		"level_correction": 0,
		"group_id": 0,
		"ai_script_id_BattleAIScript": 0
	},
	{
		"ID": 45623,
		"stage_BattleStage": 810001023,
		"unit_UnitUnit": 820007,
		"money": 0,
		"initial_coordinate_x": 8,
		"initial_coordinate_y": 15,
		"reinforcement_BattleReinforcement": 0,
		"initial_direction": 180.0,
		"ai_move_group": 0,
		"ai_target_move_x": -1,
		"ai_target_move_y": -1,
		"ai_skill_function": "",
		"ai_attack": "IF( turn <=7 ,IF(panel_move_distance <= 2, 1, 0),1)",
		"ai_move": "IF(turn <7,0,1)",
		"ai_heal": "",
		"ai_skill": "",
		"ai_use": "",
		"skill_group_id": 12712,
		"gear_GearGear": 22003,
		"gear_rank": 3,
		"proficiency_UnitProficiency": 2,
		"level": 58,
		"hp": 106,
		"strength": 80,
		"vitality": 62,
		"intelligence": 8,
		"mind": 19,
		"agility": 40,
		"dexterity": 72,
		"lucky": 44,
		"parameter_table_BattleEnemyParameterTable": 0,
		"parameter_deviation_table_BattleEnemyParameterDeviationTable": 0,
		"acquire_skill_group_id": 0,
		"level_correction": 0,
		"group_id": 0,
		"ai_script_id_BattleAIScript": 0
	},
	{
		"ID": 45624,
		"stage_BattleStage": 810001023,
		"unit_UnitUnit": 820007,
		"money": 0,
		"initial_coordinate_x": 4,
		"initial_coordinate_y": 15,
		"reinforcement_BattleReinforcement": 0,
		"initial_direction": 180.0,
		"ai_move_group": 0,
		"ai_target_move_x": -1,
		"ai_target_move_y": -1,
		"ai_skill_function": "",
		"ai_attack": "IF( turn <=7 ,IF(panel_move_distance <= 2, 1, 0),1)",
		"ai_move": "IF(turn <7,0,1)",
		"ai_heal": "",
		"ai_skill": "",
		"ai_use": "",
		"skill_group_id": 12712,
		"gear_GearGear": 22003,
		"gear_rank": 3,
		"proficiency_UnitProficiency": 2,
		"level": 58,
		"hp": 107,
		"strength": 79,
		"vitality": 63,
		"intelligence": 8,
		"mind": 18,
		"agility": 42,
		"dexterity": 75,
		"lucky": 46,
		"parameter_table_BattleEnemyParameterTable": 0,
		"parameter_deviation_table_BattleEnemyParameterDeviationTable": 0,
		"acquire_skill_group_id": 0,
		"level_correction": 0,
		"group_id": 0,
		"ai_script_id_BattleAIScript": 0
	},
	{
		"ID": 45625,
		"stage_BattleStage": 810001023,
		"unit_UnitUnit": 960015,
		"money": 0,
		"initial_coordinate_x": 7,
		"initial_coordinate_y": 13,
		"reinforcement_BattleReinforcement": 0,
		"initial_direction": 180.0,
		"ai_move_group": 0,
		"ai_target_move_x": -1,
		"ai_target_move_y": -1,
		"ai_skill_function": "",
		"ai_attack": "IF( turn <=7 ,IF(panel_move_distance <= 2, 1, 0),1)",
		"ai_move": "IF(turn <7,0,1)",
		"ai_heal": "",
		"ai_skill": "",
		"ai_use": "",
		"skill_group_id": 12483,
		"gear_GearGear": 80010,
		"gear_rank": 3,
		"proficiency_UnitProficiency": 3,
		"level": 58,
		"hp": 86,
		"strength": 11,
		"vitality": 28,
		"intelligence": 65,
		"mind": 42,
		"agility": 55,
		"dexterity": 78,
		"lucky": 40,
		"parameter_table_BattleEnemyParameterTable": 0,
		"parameter_deviation_table_BattleEnemyParameterDeviationTable": 0,
		"acquire_skill_group_id": 0,
		"level_correction": 0,
		"group_id": 0,
		"ai_script_id_BattleAIScript": 0
	},
	{
		"ID": 45626,
		"stage_BattleStage": 810001023,
		"unit_UnitUnit": 960015,
		"money": 0,
		"initial_coordinate_x": 9,
		"initial_coordinate_y": 13,
		"reinforcement_BattleReinforcement": 0,
		"initial_direction": 180.0,
		"ai_move_group": 0,
		"ai_target_move_x": -1,
		"ai_target_move_y": -1,
		"ai_skill_function": "",
		"ai_attack": "IF( turn <=7 ,IF(panel_move_distance <= 2, 1, 0),1)",
		"ai_move": "IF(turn <7,0,1)",
		"ai_heal": "",
		"ai_skill": "",
		"ai_use": "",
		"skill_group_id": 12483,
		"gear_GearGear": 80010,
		"gear_rank": 3,
		"proficiency_UnitProficiency": 3,
		"level": 58,
		"hp": 87,
		"strength": 13,
		"vitality": 27,
		"intelligence": 65,
		"mind": 44,
		"agility": 56,
		"dexterity": 81,
		"lucky": 44,
		"parameter_table_BattleEnemyParameterTable": 0,
		"parameter_deviation_table_BattleEnemyParameterDeviationTable": 0,
		"acquire_skill_group_id": 0,
		"level_correction": 0,
		"group_id": 0,
		"ai_script_id_BattleAIScript": 0
	},
	{
		"ID": 45627,
		"stage_BattleStage": 810001023,
		"unit_UnitUnit": 910013,
		"money": 0,
		"initial_coordinate_x": 11,
		"initial_coordinate_y": 11,
		"reinforcement_BattleReinforcement": 0,
		"initial_direction": 180.0,
		"ai_move_group": 0,
		"ai_target_move_x": -1,
		"ai_target_move_y": -1,
		"ai_skill_function": "",
		"ai_attack": "IF( turn <=2 ,IF(panel_move_distance <= 2, 1, 0),1)",
		"ai_move": "IF(turn <2,0,1)",
		"ai_heal": "",
		"ai_skill": "",
		"ai_use": "",
		"skill_group_id": 562,
		"gear_GearGear": 13004,
		"gear_rank": 3,
		"proficiency_UnitProficiency": 3,
		"level": 58,
		"hp": 94,
		"strength": 71,
		"vitality": 46,
		"intelligence": 5,
		"mind": 23,
		"agility": 63,
		"dexterity": 91,
		"lucky": 40,
		"parameter_table_BattleEnemyParameterTable": 0,
		"parameter_deviation_table_BattleEnemyParameterDeviationTable": 0,
		"acquire_skill_group_id": 0,
		"level_correction": 0,
		"group_id": 0,
		"ai_script_id_BattleAIScript": 0
	},
	{
		"ID": 45628,
		"stage_BattleStage": 810001023,
		"unit_UnitUnit": 910013,
		"money": 0,
		"initial_coordinate_x": 8,
		"initial_coordinate_y": 11,
		"reinforcement_BattleReinforcement": 0,
		"initial_direction": 180.0,
		"ai_move_group": 0,
		"ai_target_move_x": -1,
		"ai_target_move_y": -1,
		"ai_skill_function": "",
		"ai_attack": "IF( turn <=2 ,IF(panel_move_distance <= 2, 1, 0),1)",
		"ai_move": "IF(turn <2,0,1)",
		"ai_heal": "",
		"ai_skill": "",
		"ai_use": "",
		"skill_group_id": 562,
		"gear_GearGear": 13004,
		"gear_rank": 3,
		"proficiency_UnitProficiency": 3,
		"level": 58,
		"hp": 95,
		"strength": 70,
		"vitality": 45,
		"intelligence": 7,
		"mind": 23,
		"agility": 62,
		"dexterity": 92,
		"lucky": 46,
		"parameter_table_BattleEnemyParameterTable": 0,
		"parameter_deviation_table_BattleEnemyParameterDeviationTable": 0,
		"acquire_skill_group_id": 0,
		"level_correction": 0,
		"group_id": 0,
		"ai_script_id_BattleAIScript": 0
	},
	{
		"ID": 45629,
		"stage_BattleStage": 810001023,
		"unit_UnitUnit": 910013,
		"money": 0,
		"initial_coordinate_x": 4,
		"initial_coordinate_y": 11,
		"reinforcement_BattleReinforcement": 0,
		"initial_direction": 180.0,
		"ai_move_group": 0,
		"ai_target_move_x": -1,
		"ai_target_move_y": -1,
		"ai_skill_function": "",
		"ai_attack": "IF( turn <=2 ,IF(panel_move_distance <= 2, 1, 0),1)",
		"ai_move": "IF(turn <2,0,1)",
		"ai_heal": "",
		"ai_skill": "",
		"ai_use": "",
		"skill_group_id": 562,
		"gear_GearGear": 13004,
		"gear_rank": 3,
		"proficiency_UnitProficiency": 3,
		"level": 58,
		"hp": 96,
		"strength": 72,
		"vitality": 45,
		"intelligence": 5,
		"mind": 23,
		"agility": 62,
		"dexterity": 92,
		"lucky": 46,
		"parameter_table_BattleEnemyParameterTable": 0,
		"parameter_deviation_table_BattleEnemyParameterDeviationTable": 0,
		"acquire_skill_group_id": 0,
		"level_correction": 0,
		"group_id": 0,
		"ai_script_id_BattleAIScript": 0
	},
	{
		"ID": 45630,
		"stage_BattleStage": 810001023,
		"unit_UnitUnit": 840004,
		"money": 0,
		"initial_coordinate_x": 8,
		"initial_coordinate_y": 9,
		"reinforcement_BattleReinforcement": 0,
		"initial_direction": 180.0,
		"ai_move_group": 0,
		"ai_target_move_x": -1,
		"ai_target_move_y": -1,
		"ai_skill_function": "",
		"ai_attack": "IF( turn <=2 ,IF(panel_move_distance <= 2, 1, 0),1)",
		"ai_move": "IF(turn <2,0,1)",
		"ai_heal": "",
		"ai_skill": "",
		"ai_use": "",
		"skill_group_id": 902,
		"gear_GearGear": 42002,
		"gear_rank": 3,
		"proficiency_UnitProficiency": 2,
		"level": 58,
		"hp": 91,
		"strength": 70,
		"vitality": 44,
		"intelligence": 6,
		"mind": 27,
		"agility": 62,
		"dexterity": 89,
		"lucky": 44,
		"parameter_table_BattleEnemyParameterTable": 0,
		"parameter_deviation_table_BattleEnemyParameterDeviationTable": 0,
		"acquire_skill_group_id": 0,
		"level_correction": 0,
		"group_id": 0,
		"ai_script_id_BattleAIScript": 0
	},
	{
		"ID": 45631,
		"stage_BattleStage": 810001023,
		"unit_UnitUnit": 830003,
		"money": 0,
		"initial_coordinate_x": 11,
		"initial_coordinate_y": 6,
		"reinforcement_BattleReinforcement": 0,
		"initial_direction": 180.0,
		"ai_move_group": 0,
		"ai_target_move_x": -1,
		"ai_target_move_y": -1,
		"ai_skill_function": "",
		"ai_attack": "",
		"ai_move": "",
		"ai_heal": "",
		"ai_skill": "",
		"ai_use": "",
		"skill_group_id": 12792,
		"gear_GearGear": 32003,
		"gear_rank": 3,
		"proficiency_UnitProficiency": 2,
		"level": 58,
		"hp": 114,
		"strength": 72,
		"vitality": 73,
		"intelligence": 7,
		"mind": 19,
		"agility": 42,
		"dexterity": 75,
		"lucky": 40,
		"parameter_table_BattleEnemyParameterTable": 0,
		"parameter_deviation_table_BattleEnemyParameterDeviationTable": 0,
		"acquire_skill_group_id": 0,
		"level_correction": 0,
		"group_id": 0,
		"ai_script_id_BattleAIScript": 0
	},
	{
		"ID": 45632,
		"stage_BattleStage": 810001023,
		"unit_UnitUnit": 820003,
		"money": 0,
		"initial_coordinate_x": 12,
		"initial_coordinate_y": 5,
		"reinforcement_BattleReinforcement": 0,
		"initial_direction": 180.0,
		"ai_move_group": 0,
		"ai_target_move_x": -1,
		"ai_target_move_y": -1,
		"ai_skill_function": "",
		"ai_attack": "",
		"ai_move": "",
		"ai_heal": "",
		"ai_skill": "",
		"ai_use": "",
		"skill_group_id": 12792,
		"gear_GearGear": 22003,
		"gear_rank": 3,
		"proficiency_UnitProficiency": 2,
		"level": 58,
		"hp": 115,
		"strength": 77,
		"vitality": 72,
		"intelligence": 7,
		"mind": 17,
		"agility": 36,
		"dexterity": 71,
		"lucky": 40,
		"parameter_table_BattleEnemyParameterTable": 0,
		"parameter_deviation_table_BattleEnemyParameterDeviationTable": 0,
		"acquire_skill_group_id": 0,
		"level_correction": 0,
		"group_id": 0,
		"ai_script_id_BattleAIScript": 0
	},
	{
		"ID": 45633,
		"stage_BattleStage": 810001023,
		"unit_UnitUnit": 830003,
		"money": 0,
		"initial_coordinate_x": 8,
		"initial_coordinate_y": 6,
		"reinforcement_BattleReinforcement": 0,
		"initial_direction": 180.0,
		"ai_move_group": 0,
		"ai_target_move_x": -1,
		"ai_target_move_y": -1,
		"ai_skill_function": "",
		"ai_attack": "",
		"ai_move": "",
		"ai_heal": "",
		"ai_skill": "",
		"ai_use": "",
		"skill_group_id": 12792,
		"gear_GearGear": 32003,
		"gear_rank": 3,
		"proficiency_UnitProficiency": 2,
		"level": 58,
		"hp": 113,
		"strength": 72,
		"vitality": 73,
		"intelligence": 5,
		"mind": 18,
		"agility": 43,
		"dexterity": 76,
		"lucky": 46,
		"parameter_table_BattleEnemyParameterTable": 0,
		"parameter_deviation_table_BattleEnemyParameterDeviationTable": 0,
		"acquire_skill_group_id": 0,
		"level_correction": 0,
		"group_id": 0,
		"ai_script_id_BattleAIScript": 0
	},
	{
		"ID": 45634,
		"stage_BattleStage": 810001023,
		"unit_UnitUnit": 820003,
		"money": 0,
		"initial_coordinate_x": 9,
		"initial_coordinate_y": 5,
		"reinforcement_BattleReinforcement": 0,
		"initial_direction": 180.0,
		"ai_move_group": 0,
		"ai_target_move_x": -1,
		"ai_target_move_y": -1,
		"ai_skill_function": "",
		"ai_attack": "",
		"ai_move": "",
		"ai_heal": "",
		"ai_skill": "",
		"ai_use": "",
		"skill_group_id": 12792,
		"gear_GearGear": 22003,
		"gear_rank": 3,
		"proficiency_UnitProficiency": 2,
		"level": 58,
		"hp": 113,
		"strength": 77,
		"vitality": 71,
		"intelligence": 6,
		"mind": 17,
		"agility": 36,
		"dexterity": 72,
		"lucky": 40,
		"parameter_table_BattleEnemyParameterTable": 0,
		"parameter_deviation_table_BattleEnemyParameterDeviationTable": 0,
		"acquire_skill_group_id": 0,
		"level_correction": 0,
		"group_id": 0,
		"ai_script_id_BattleAIScript": 0
	},
	{
		"ID": 45635,
		"stage_BattleStage": 810001023,
		"unit_UnitUnit": 820008,
		"money": 0,
		"initial_coordinate_x": 4,
		"initial_coordinate_y": 6,
		"reinforcement_BattleReinforcement": 0,
		"initial_direction": 180.0,
		"ai_move_group": 0,
		"ai_target_move_x": -1,
		"ai_target_move_y": -1,
		"ai_skill_function": "",
		"ai_attack": "",
		"ai_move": "",
		"ai_heal": "",
		"ai_skill": "",
		"ai_use": "",
		"skill_group_id": 12472,
		"gear_GearGear": 22003,
		"gear_rank": 3,
		"proficiency_UnitProficiency": 2,
		"level": 58,
		"hp": 132,
		"strength": 79,
		"vitality": 68,
		"intelligence": 5,
		"mind": 28,
		"agility": 43,
		"dexterity": 91,
		"lucky": 34,
		"parameter_table_BattleEnemyParameterTable": 0,
		"parameter_deviation_table_BattleEnemyParameterDeviationTable": 0,
		"acquire_skill_group_id": 0,
		"level_correction": 0,
		"group_id": 0,
		"ai_script_id_BattleAIScript": 0
	},
	{
		"ID": 45636,
		"stage_BattleStage": 810001023,
		"unit_UnitUnit": 830008,
		"money": 0,
		"initial_coordinate_x": 3,
		"initial_coordinate_y": 6,
		"reinforcement_BattleReinforcement": 0,
		"initial_direction": 180.0,
		"ai_move_group": 0,
		"ai_target_move_x": -1,
		"ai_target_move_y": -1,
		"ai_skill_function": "",
		"ai_attack": "",
		"ai_move": "",
		"ai_heal": "",
		"ai_skill": "",
		"ai_use": "",
		"skill_group_id": 12472,
		"gear_GearGear": 32003,
		"gear_rank": 3,
		"proficiency_UnitProficiency": 2,
		"level": 58,
		"hp": 129,
		"strength": 75,
		"vitality": 69,
		"intelligence": 4,
		"mind": 30,
		"agility": 51,
		"dexterity": 94,
		"lucky": 33,
		"parameter_table_BattleEnemyParameterTable": 0,
		"parameter_deviation_table_BattleEnemyParameterDeviationTable": 0,
		"acquire_skill_group_id": 0,
		"level_correction": 0,
		"group_id": 0,
		"ai_script_id_BattleAIScript": 0
	}
]