[
	{
		"ID": 45811,
		"stage_BattleStage": 810001034,
		"unit_UnitUnit": 301023,
		"money": 0,
		"initial_coordinate_x": 11,
		"initial_coordinate_y": 12,
		"reinforcement_BattleReinforcement": 0,
		"initial_direction": 180.0,
		"ai_move_group": 0,
		"ai_target_move_x": -1,
		"ai_target_move_y": -1,
		"ai_skill_function": "",
		"ai_attack": "IF( turn <=8 ,IF(panel_move_distance <= 3, 1, 0),1)",
		"ai_move": "IF(turn <8,0,1)",
		"ai_heal": "",
		"ai_skill": "",
		"ai_use": "",
		"skill_group_id": 13474,
		"gear_GearGear": 34004,
		"gear_rank": 5,
		"proficiency_UnitProficiency": 4,
		"level": 73,
		"hp": 121,
		"strength": 107,
		"vitality": 78,
		"intelligence": 43,
		"mind": 95,
		"agility": 98,
		"dexterity": 105,
		"lucky": 73,
		"parameter_table_BattleEnemyParameterTable": 0,
		"parameter_deviation_table_BattleEnemyParameterDeviationTable": 0,
		"acquire_skill_group_id": 0,
		"level_correction": 0,
		"group_id": 0,
		"ai_script_id_BattleAIScript": 0
	},
	{
		"ID": 45812,
		"stage_BattleStage": 810001034,
		"unit_UnitUnit": 820008,
		"money": 0,
		"initial_coordinate_x": 7,
		"initial_coordinate_y": 12,
		"reinforcement_BattleReinforcement": 0,
		"initial_direction": 180.0,
		"ai_move_group": 0,
		"ai_target_move_x": -1,
		"ai_target_move_y": -1,
		"ai_skill_function": "",
		"ai_attack": "IF( turn <=8 ,IF(panel_move_distance <= 3, 1, 0),1)",
		"ai_move": "IF(turn <8,0,1)",
		"ai_heal": "",
		"ai_skill": "",
		"ai_use": "",
		"skill_group_id": 13295,
		"gear_GearGear": 24003,
		"gear_rank": 5,
		"proficiency_UnitProficiency": 4,
		"level": 73,
		"hp": 148,
		"strength": 119,
		"vitality": 101,
		"intelligence": 10,
		"mind": 42,
		"agility": 75,
		"dexterity": 81,
		"lucky": 42,
		"parameter_table_BattleEnemyParameterTable": 0,
		"parameter_deviation_table_BattleEnemyParameterDeviationTable": 0,
		"acquire_skill_group_id": 0,
		"level_correction": 0,
		"group_id": 0,
		"ai_script_id_BattleAIScript": 0
	},
	{
		"ID": 45813,
		"stage_BattleStage": 810001034,
		"unit_UnitUnit": 101113,
		"money": 0,
		"initial_coordinate_x": 5,
		"initial_coordinate_y": 12,
		"reinforcement_BattleReinforcement": 0,
		"initial_direction": 180.0,
		"ai_move_group": 0,
		"ai_target_move_x": -1,
		"ai_target_move_y": -1,
		"ai_skill_function": "",
		"ai_attack": "IF( turn <=8 ,IF(panel_move_distance <= 3, 1, 0),1)",
		"ai_move": "IF(turn <8,0,1)",
		"ai_heal": "",
		"ai_skill": "",
		"ai_use": "",
		"skill_group_id": 13904,
		"gear_GearGear": 14001,
		"gear_rank": 5,
		"proficiency_UnitProficiency": 4,
		"level": 73,
		"hp": 124,
		"strength": 113,
		"vitality": 79,
		"intelligence": 35,
		"mind": 55,
		"agility": 120,
		"dexterity": 118,
		"lucky": 71,
		"parameter_table_BattleEnemyParameterTable": 0,
		"parameter_deviation_table_BattleEnemyParameterDeviationTable": 0,
		"acquire_skill_group_id": 0,
		"level_correction": 0,
		"group_id": 0,
		"ai_script_id_BattleAIScript": 0
	},
	{
		"ID": 45814,
		"stage_BattleStage": 810001034,
		"unit_UnitUnit": 830001,
		"money": 0,
		"initial_coordinate_x": 4,
		"initial_coordinate_y": 10,
		"reinforcement_BattleReinforcement": 0,
		"initial_direction": 180.0,
		"ai_move_group": 0,
		"ai_target_move_x": -1,
		"ai_target_move_y": -1,
		"ai_skill_function": "",
		"ai_attack": "IF( turn <=3 ,IF(panel_move_distance <= 4, 1, 0),1)",
		"ai_move": "IF(turn <=3,0,1)",
		"ai_heal": "",
		"ai_skill": "",
		"ai_use": "",
		"skill_group_id": 13285,
		"gear_GearGear": 34001,
		"gear_rank": 5,
		"proficiency_UnitProficiency": 4,
		"level": 73,
		"hp": 118,
		"strength": 113,
		"vitality": 111,
		"intelligence": 6,
		"mind": 47,
		"agility": 82,
		"dexterity": 90,
		"lucky": 44,
		"parameter_table_BattleEnemyParameterTable": 0,
		"parameter_deviation_table_BattleEnemyParameterDeviationTable": 0,
		"acquire_skill_group_id": 0,
		"level_correction": 0,
		"group_id": 0,
		"ai_script_id_BattleAIScript": 0
	},
	{
		"ID": 45815,
		"stage_BattleStage": 810001034,
		"unit_UnitUnit": 500723,
		"money": 0,
		"initial_coordinate_x": 3,
		"initial_coordinate_y": 9,
		"reinforcement_BattleReinforcement": 0,
		"initial_direction": 180.0,
		"ai_move_group": 0,
		"ai_target_move_x": -1,
		"ai_target_move_y": -1,
		"ai_skill_function": "",
		"ai_attack": "IF( turn <=3 ,IF(panel_move_distance <= 2, 1, 0),1)",
		"ai_move": "IF(turn <=3,0,1)",
		"ai_heal": "",
		"ai_skill": "",
		"ai_use": "",
		"skill_group_id": 13518,
		"gear_GearGear": 54003,
		"gear_rank": 5,
		"proficiency_UnitProficiency": 4,
		"level": 73,
		"hp": 127,
		"strength": 36,
		"vitality": 69,
		"intelligence": 124,
		"mind": 99,
		"agility": 93,
		"dexterity": 88,
		"lucky": 77,
		"parameter_table_BattleEnemyParameterTable": 0,
		"parameter_deviation_table_BattleEnemyParameterDeviationTable": 0,
		"acquire_skill_group_id": 0,
		"level_correction": 0,
		"group_id": 0,
		"ai_script_id_BattleAIScript": 0
	},
	{
		"ID": 45816,
		"stage_BattleStage": 810001034,
		"unit_UnitUnit": 830001,
		"money": 0,
		"initial_coordinate_x": 2,
		"initial_coordinate_y": 8,
		"reinforcement_BattleReinforcement": 0,
		"initial_direction": 180.0,
		"ai_move_group": 0,
		"ai_target_move_x": -1,
		"ai_target_move_y": -1,
		"ai_skill_function": "",
		"ai_attack": "IF( turn <=3 ,IF(panel_move_distance <= 4, 1, 0),1)",
		"ai_move": "IF(turn <=3,0,1)",
		"ai_heal": "",
		"ai_skill": "",
		"ai_use": "",
		"skill_group_id": 13285,
		"gear_GearGear": 34001,
		"gear_rank": 5,
		"proficiency_UnitProficiency": 4,
		"level": 73,
		"hp": 120,
		"strength": 112,
		"vitality": 106,
		"intelligence": 6,
		"mind": 47,
		"agility": 84,
		"dexterity": 92,
		"lucky": 44,
		"parameter_table_BattleEnemyParameterTable": 0,
		"parameter_deviation_table_BattleEnemyParameterDeviationTable": 0,
		"acquire_skill_group_id": 0,
		"level_correction": 0,
		"group_id": 0,
		"ai_script_id_BattleAIScript": 0
	},
	{
		"ID": 45817,
		"stage_BattleStage": 810001034,
		"unit_UnitUnit": 960015,
		"money": 0,
		"initial_coordinate_x": 7,
		"initial_coordinate_y": 10,
		"reinforcement_BattleReinforcement": 0,
		"initial_direction": 180.0,
		"ai_move_group": 0,
		"ai_target_move_x": -1,
		"ai_target_move_y": -1,
		"ai_skill_function": "",
		"ai_attack": "IF( turn <=3 ,IF(panel_move_distance <= 2, 1, 0),1)",
		"ai_move": "IF(turn <=3,0,1)",
		"ai_heal": "",
		"ai_skill": "",
		"ai_use": "",
		"skill_group_id": 1735,
		"gear_GearGear": 64005,
		"gear_rank": 5,
		"proficiency_UnitProficiency": 4,
		"level": 73,
		"hp": 100,
		"strength": 18,
		"vitality": 75,
		"intelligence": 92,
		"mind": 85,
		"agility": 75,
		"dexterity": 88,
		"lucky": 47,
		"parameter_table_BattleEnemyParameterTable": 0,
		"parameter_deviation_table_BattleEnemyParameterDeviationTable": 0,
		"acquire_skill_group_id": 0,
		"level_correction": 0,
		"group_id": 0,
		"ai_script_id_BattleAIScript": 0
	},
	{
		"ID": 45818,
		"stage_BattleStage": 810001034,
		"unit_UnitUnit": 810002,
		"money": 0,
		"initial_coordinate_x": 10,
		"initial_coordinate_y": 10,
		"reinforcement_BattleReinforcement": 0,
		"initial_direction": 180.0,
		"ai_move_group": 0,
		"ai_target_move_x": -1,
		"ai_target_move_y": -1,
		"ai_skill_function": "",
		"ai_attack": "IF( turn <=3 ,IF(panel_move_distance <= 4, 1, 0),1)",
		"ai_move": "IF(turn <=3,0,1)",
		"ai_heal": "",
		"ai_skill": "",
		"ai_use": "",
		"skill_group_id": 13615,
		"gear_GearGear": 14003,
		"gear_rank": 5,
		"proficiency_UnitProficiency": 4,
		"level": 73,
		"hp": 108,
		"strength": 102,
		"vitality": 97,
		"intelligence": 10,
		"mind": 38,
		"agility": 74,
		"dexterity": 95,
		"lucky": 42,
		"parameter_table_BattleEnemyParameterTable": 0,
		"parameter_deviation_table_BattleEnemyParameterDeviationTable": 0,
		"acquire_skill_group_id": 0,
		"level_correction": 0,
		"group_id": 0,
		"ai_script_id_BattleAIScript": 0
	},
	{
		"ID": 45819,
		"stage_BattleStage": 810001034,
		"unit_UnitUnit": 810002,
		"money": 0,
		"initial_coordinate_x": 9,
		"initial_coordinate_y": 9,
		"reinforcement_BattleReinforcement": 0,
		"initial_direction": 180.0,
		"ai_move_group": 0,
		"ai_target_move_x": -1,
		"ai_target_move_y": -1,
		"ai_skill_function": "",
		"ai_attack": "IF( turn <=3 ,IF(panel_move_distance <= 4, 1, 0),1)",
		"ai_move": "IF(turn <=3,0,1)",
		"ai_heal": "",
		"ai_skill": "",
		"ai_use": "",
		"skill_group_id": 13615,
		"gear_GearGear": 14003,
		"gear_rank": 5,
		"proficiency_UnitProficiency": 4,
		"level": 73,
		"hp": 108,
		"strength": 103,
		"vitality": 97,
		"intelligence": 8,
		"mind": 37,
		"agility": 74,
		"dexterity": 93,
		"lucky": 42,
		"parameter_table_BattleEnemyParameterTable": 0,
		"parameter_deviation_table_BattleEnemyParameterDeviationTable": 0,
		"acquire_skill_group_id": 0,
		"level_correction": 0,
		"group_id": 0,
		"ai_script_id_BattleAIScript": 0
	},
	{
		"ID": 45820,
		"stage_BattleStage": 810001034,
		"unit_UnitUnit": 810002,
		"money": 0,
		"initial_coordinate_x": 10,
		"initial_coordinate_y": 8,
		"reinforcement_BattleReinforcement": 0,
		"initial_direction": 180.0,
		"ai_move_group": 0,
		"ai_target_move_x": -1,
		"ai_target_move_y": -1,
		"ai_skill_function": "",
		"ai_attack": "IF( turn <=3 ,IF(panel_move_distance <= 4, 1, 0),1)",
		"ai_move": "IF(turn <=3,0,1)",
		"ai_heal": "",
		"ai_skill": "",
		"ai_use": "",
		"skill_group_id": 13615,
		"gear_GearGear": 14003,
		"gear_rank": 5,
		"proficiency_UnitProficiency": 4,
		"level": 73,
		"hp": 106,
		"strength": 103,
		"vitality": 96,
		"intelligence": 10,
		"mind": 37,
		"agility": 76,
		"dexterity": 93,
		"lucky": 42,
		"parameter_table_BattleEnemyParameterTable": 0,
		"parameter_deviation_table_BattleEnemyParameterDeviationTable": 0,
		"acquire_skill_group_id": 0,
		"level_correction": 0,
		"group_id": 0,
		"ai_script_id_BattleAIScript": 0
	},
	{
		"ID": 45821,
		"stage_BattleStage": 810001034,
		"unit_UnitUnit": 940013,
		"money": 0,
		"initial_coordinate_x": 12,
		"initial_coordinate_y": 10,
		"reinforcement_BattleReinforcement": 0,
		"initial_direction": 180.0,
		"ai_move_group": 0,
		"ai_target_move_x": -1,
		"ai_target_move_y": -1,
		"ai_skill_function": "",
		"ai_attack": "IF( turn <=3 ,IF(panel_move_distance <= 2, 1, 0),1)",
		"ai_move": "IF(turn <=3,0,1)",
		"ai_heal": "",
		"ai_skill": "",
		"ai_use": "",
		"skill_group_id": 13345,
		"gear_GearGear": 44001,
		"gear_rank": 5,
		"proficiency_UnitProficiency": 4,
		"level": 73,
		"hp": 102,
		"strength": 110,
		"vitality": 94,
		"intelligence": 11,
		"mind": 56,
		"agility": 76,
		"dexterity": 95,
		"lucky": 39,
		"parameter_table_BattleEnemyParameterTable": 0,
		"parameter_deviation_table_BattleEnemyParameterDeviationTable": 0,
		"acquire_skill_group_id": 0,
		"level_correction": 0,
		"group_id": 0,
		"ai_script_id_BattleAIScript": 0
	},
	{
		"ID": 45822,
		"stage_BattleStage": 810001034,
		"unit_UnitUnit": 940013,
		"money": 0,
		"initial_coordinate_x": 9,
		"initial_coordinate_y": 6,
		"reinforcement_BattleReinforcement": 0,
		"initial_direction": 180.0,
		"ai_move_group": 0,
		"ai_target_move_x": -1,
		"ai_target_move_y": -1,
		"ai_skill_function": "",
		"ai_attack": "",
		"ai_move": "",
		"ai_heal": "",
		"ai_skill": "",
		"ai_use": "",
		"skill_group_id": 13345,
		"gear_GearGear": 45008,
		"gear_rank": 5,
		"proficiency_UnitProficiency": 5,
		"level": 73,
		"hp": 101,
		"strength": 107,
		"vitality": 93,
		"intelligence": 12,
		"mind": 57,
		"agility": 77,
		"dexterity": 94,
		"lucky": 46,
		"parameter_table_BattleEnemyParameterTable": 0,
		"parameter_deviation_table_BattleEnemyParameterDeviationTable": 0,
		"acquire_skill_group_id": 0,
		"level_correction": 0,
		"group_id": 0,
		"ai_script_id_BattleAIScript": 0
	},
	{
		"ID": 45823,
		"stage_BattleStage": 810001034,
		"unit_UnitUnit": 820003,
		"money": 0,
		"initial_coordinate_x": 10,
		"initial_coordinate_y": 5,
		"reinforcement_BattleReinforcement": 0,
		"initial_direction": 180.0,
		"ai_move_group": 0,
		"ai_target_move_x": -1,
		"ai_target_move_y": -1,
		"ai_skill_function": "",
		"ai_attack": "",
		"ai_move": "",
		"ai_heal": "",
		"ai_skill": "",
		"ai_use": "",
		"skill_group_id": 13295,
		"gear_GearGear": 24001,
		"gear_rank": 5,
		"proficiency_UnitProficiency": 4,
		"level": 73,
		"hp": 147,
		"strength": 121,
		"vitality": 117,
		"intelligence": 5,
		"mind": 22,
		"agility": 53,
		"dexterity": 93,
		"lucky": 44,
		"parameter_table_BattleEnemyParameterTable": 0,
		"parameter_deviation_table_BattleEnemyParameterDeviationTable": 0,
		"acquire_skill_group_id": 0,
		"level_correction": 0,
		"group_id": 0,
		"ai_script_id_BattleAIScript": 0
	},
	{
		"ID": 45824,
		"stage_BattleStage": 810001034,
		"unit_UnitUnit": 820003,
		"money": 0,
		"initial_coordinate_x": 11,
		"initial_coordinate_y": 3,
		"reinforcement_BattleReinforcement": 0,
		"initial_direction": 180.0,
		"ai_move_group": 0,
		"ai_target_move_x": -1,
		"ai_target_move_y": -1,
		"ai_skill_function": "",
		"ai_attack": "",
		"ai_move": "",
		"ai_heal": "",
		"ai_skill": "",
		"ai_use": "",
		"skill_group_id": 13295,
		"gear_GearGear": 24001,
		"gear_rank": 5,
		"proficiency_UnitProficiency": 4,
		"level": 73,
		"hp": 150,
		"strength": 124,
		"vitality": 117,
		"intelligence": 5,
		"mind": 21,
		"agility": 53,
		"dexterity": 93,
		"lucky": 44,
		"parameter_table_BattleEnemyParameterTable": 0,
		"parameter_deviation_table_BattleEnemyParameterDeviationTable": 0,
		"acquire_skill_group_id": 0,
		"level_correction": 0,
		"group_id": 0,
		"ai_script_id_BattleAIScript": 0
	},
	{
		"ID": 45825,
		"stage_BattleStage": 810001034,
		"unit_UnitUnit": 910013,
		"money": 0,
		"initial_coordinate_x": 8,
		"initial_coordinate_y": 4,
		"reinforcement_BattleReinforcement": 0,
		"initial_direction": 180.0,
		"ai_move_group": 0,
		"ai_target_move_x": -1,
		"ai_target_move_y": -1,
		"ai_skill_function": "",
		"ai_attack": "",
		"ai_move": "",
		"ai_heal": "",
		"ai_skill": "",
		"ai_use": "",
		"skill_group_id": 13665,
		"gear_GearGear": 14002,
		"gear_rank": 5,
		"proficiency_UnitProficiency": 4,
		"level": 73,
		"hp": 128,
		"strength": 111,
		"vitality": 106,
		"intelligence": 6,
		"mind": 18,
		"agility": 92,
		"dexterity": 98,
		"lucky": 46,
		"parameter_table_BattleEnemyParameterTable": 0,
		"parameter_deviation_table_BattleEnemyParameterDeviationTable": 0,
		"acquire_skill_group_id": 0,
		"level_correction": 0,
		"group_id": 0,
		"ai_script_id_BattleAIScript": 0
	},
	{
		"ID": 45826,
		"stage_BattleStage": 810001034,
		"unit_UnitUnit": 910013,
		"money": 0,
		"initial_coordinate_x": 4,
		"initial_coordinate_y": 4,
		"reinforcement_BattleReinforcement": 0,
		"initial_direction": 180.0,
		"ai_move_group": 0,
		"ai_target_move_x": -1,
		"ai_target_move_y": -1,
		"ai_skill_function": "",
		"ai_attack": "",
		"ai_move": "",
		"ai_heal": "",
		"ai_skill": "",
		"ai_use": "",
		"skill_group_id": 13665,
		"gear_GearGear": 14002,
		"gear_rank": 5,
		"proficiency_UnitProficiency": 4,
		"level": 73,
		"hp": 128,
		"strength": 112,
		"vitality": 104,
		"intelligence": 7,
		"mind": 17,
		"agility": 90,
		"dexterity": 99,
		"lucky": 46,
		"parameter_table_BattleEnemyParameterTable": 0,
		"parameter_deviation_table_BattleEnemyParameterDeviationTable": 0,
		"acquire_skill_group_id": 0,
		"level_correction": 0,
		"group_id": 0,
		"ai_script_id_BattleAIScript": 0
	},
	{
		"ID": 45827,
		"stage_BattleStage": 810001034,
		"unit_UnitUnit": 820003,
		"money": 0,
		"initial_coordinate_x": 2,
		"initial_coordinate_y": 5,
		"reinforcement_BattleReinforcement": 0,
		"initial_direction": 180.0,
		"ai_move_group": 0,
		"ai_target_move_x": -1,
		"ai_target_move_y": -1,
		"ai_skill_function": "",
		"ai_attack": "",
		"ai_move": "",
		"ai_heal": "",
		"ai_skill": "",
		"ai_use": "",
		"skill_group_id": 13295,
		"gear_GearGear": 24006,
		"gear_rank": 5,
		"proficiency_UnitProficiency": 4,
		"level": 73,
		"hp": 148,
		"strength": 110,
		"vitality": 106,
		"intelligence": 6,
		"mind": 28,
		"agility": 52,
		"dexterity": 97,
		"lucky": 46,
		"parameter_table_BattleEnemyParameterTable": 0,
		"parameter_deviation_table_BattleEnemyParameterDeviationTable": 0,
		"acquire_skill_group_id": 0,
		"level_correction": 0,
		"group_id": 0,
		"ai_script_id_BattleAIScript": 0
	}
]