[
	{
		"ID": 71924,
		"stage_BattleStage": 810005030,
		"unit_UnitUnit": 802201,
		"money": 0,
		"initial_coordinate_x": 11,
		"initial_coordinate_y": 21,
		"reinforcement_BattleReinforcement": 0,
		"initial_direction": 180.0,
		"ai_move_group": 0,
		"ai_target_move_x": -1,
		"ai_target_move_y": -1,
		"ai_skill_function": "",
		"ai_attack": "IF( turn <=6 ,IF(panel_move_distance <= 4, 1, 0),1)",
		"ai_move": "IF(turn <6,0,1)",
		"ai_heal": "",
		"ai_skill": "",
		"ai_use": "",
		"skill_group_id": 13443,
		"gear_GearGear": 80011,
		"gear_rank": 5,
		"proficiency_UnitProficiency": 1,
		"level": 72,
		"hp": 235,
		"strength": 28,
		"vitality": 101,
		"intelligence": 86,
		"mind": 91,
		"agility": 86,
		"dexterity": 99,
		"lucky": 48,
		"parameter_table_BattleEnemyParameterTable": 0,
		"parameter_deviation_table_BattleEnemyParameterDeviationTable": 0,
		"acquire_skill_group_id": 0,
		"level_correction": 0,
		"group_id": 0,
		"ai_script_id_BattleAIScript": 0
	},
	{
		"ID": 71925,
		"stage_BattleStage": 810005030,
		"unit_UnitUnit": 802201,
		"money": 0,
		"initial_coordinate_x": 12,
		"initial_coordinate_y": 21,
		"reinforcement_BattleReinforcement": 0,
		"initial_direction": 180.0,
		"ai_move_group": 0,
		"ai_target_move_x": -1,
		"ai_target_move_y": -1,
		"ai_skill_function": "",
		"ai_attack": "IF( turn <=6 ,IF(panel_move_distance <= 4, 1, 0),1)",
		"ai_move": "IF(turn <6,0,1)",
		"ai_heal": "",
		"ai_skill": "",
		"ai_use": "",
		"skill_group_id": 13453,
		"gear_GearGear": 80011,
		"gear_rank": 5,
		"proficiency_UnitProficiency": 1,
		"level": 72,
		"hp": 235,
		"strength": 26,
		"vitality": 102,
		"intelligence": 85,
		"mind": 92,
		"agility": 85,
		"dexterity": 96,
		"lucky": 52,
		"parameter_table_BattleEnemyParameterTable": 0,
		"parameter_deviation_table_BattleEnemyParameterDeviationTable": 0,
		"acquire_skill_group_id": 0,
		"level_correction": 0,
		"group_id": 0,
		"ai_script_id_BattleAIScript": 0
	},
	{
		"ID": 71926,
		"stage_BattleStage": 810005030,
		"unit_UnitUnit": 860010,
		"money": 0,
		"initial_coordinate_x": 8,
		"initial_coordinate_y": 21,
		"reinforcement_BattleReinforcement": 0,
		"initial_direction": 180.0,
		"ai_move_group": 0,
		"ai_target_move_x": -1,
		"ai_target_move_y": -1,
		"ai_skill_function": "",
		"ai_attack": "IF( turn <=6 ,IF(panel_move_distance <= 3, 1, 0),1)",
		"ai_move": "IF(turn <6,0,1)",
		"ai_heal": "",
		"ai_skill": "",
		"ai_use": "",
		"skill_group_id": 556,
		"gear_GearGear": 64003,
		"gear_rank": 5,
		"proficiency_UnitProficiency": 4,
		"level": 72,
		"hp": 86,
		"strength": 13,
		"vitality": 57,
		"intelligence": 79,
		"mind": 65,
		"agility": 57,
		"dexterity": 79,
		"lucky": 47,
		"parameter_table_BattleEnemyParameterTable": 0,
		"parameter_deviation_table_BattleEnemyParameterDeviationTable": 0,
		"acquire_skill_group_id": 0,
		"level_correction": 0,
		"group_id": 0,
		"ai_script_id_BattleAIScript": 0
	},
	{
		"ID": 71927,
		"stage_BattleStage": 810005030,
		"unit_UnitUnit": 860010,
		"money": 0,
		"initial_coordinate_x": 15,
		"initial_coordinate_y": 21,
		"reinforcement_BattleReinforcement": 0,
		"initial_direction": 180.0,
		"ai_move_group": 0,
		"ai_target_move_x": -1,
		"ai_target_move_y": -1,
		"ai_skill_function": "",
		"ai_attack": "IF( turn <=6 ,IF(panel_move_distance <= 3, 1, 0),1)",
		"ai_move": "IF(turn <6,0,1)",
		"ai_heal": "",
		"ai_skill": "",
		"ai_use": "",
		"skill_group_id": 555,
		"gear_GearGear": 64003,
		"gear_rank": 5,
		"proficiency_UnitProficiency": 4,
		"level": 72,
		"hp": 86,
		"strength": 13,
		"vitality": 57,
		"intelligence": 77,
		"mind": 66,
		"agility": 55,
		"dexterity": 78,
		"lucky": 48,
		"parameter_table_BattleEnemyParameterTable": 0,
		"parameter_deviation_table_BattleEnemyParameterDeviationTable": 0,
		"acquire_skill_group_id": 0,
		"level_correction": 0,
		"group_id": 0,
		"ai_script_id_BattleAIScript": 0
	},
	{
		"ID": 71928,
		"stage_BattleStage": 810005030,
		"unit_UnitUnit": 860001,
		"money": 0,
		"initial_coordinate_x": 3,
		"initial_coordinate_y": 20,
		"reinforcement_BattleReinforcement": 0,
		"initial_direction": 180.0,
		"ai_move_group": 0,
		"ai_target_move_x": -1,
		"ai_target_move_y": -1,
		"ai_skill_function": "",
		"ai_attack": "IF( turn <=4 ,IF(panel_move_distance <= 4, 1, 0),1)",
		"ai_move": "IF(turn <4,0,1)",
		"ai_heal": "",
		"ai_skill": "",
		"ai_use": "",
		"skill_group_id": 7910,
		"gear_GearGear": 64005,
		"gear_rank": 5,
		"proficiency_UnitProficiency": 4,
		"level": 72,
		"hp": 87,
		"strength": 16,
		"vitality": 57,
		"intelligence": 71,
		"mind": 54,
		"agility": 67,
		"dexterity": 74,
		"lucky": 44,
		"parameter_table_BattleEnemyParameterTable": 0,
		"parameter_deviation_table_BattleEnemyParameterDeviationTable": 0,
		"acquire_skill_group_id": 0,
		"level_correction": 0,
		"group_id": 0,
		"ai_script_id_BattleAIScript": 0
	},
	{
		"ID": 71929,
		"stage_BattleStage": 810005030,
		"unit_UnitUnit": 860001,
		"money": 0,
		"initial_coordinate_x": 20,
		"initial_coordinate_y": 20,
		"reinforcement_BattleReinforcement": 0,
		"initial_direction": 180.0,
		"ai_move_group": 0,
		"ai_target_move_x": -1,
		"ai_target_move_y": -1,
		"ai_skill_function": "",
		"ai_attack": "IF( turn <=4 ,IF(panel_move_distance <= 4, 1, 0),1)",
		"ai_move": "IF(turn <4,0,1)",
		"ai_heal": "",
		"ai_skill": "",
		"ai_use": "",
		"skill_group_id": 1735,
		"gear_GearGear": 64005,
		"gear_rank": 5,
		"proficiency_UnitProficiency": 4,
		"level": 72,
		"hp": 87,
		"strength": 14,
		"vitality": 57,
		"intelligence": 72,
		"mind": 54,
		"agility": 68,
		"dexterity": 75,
		"lucky": 44,
		"parameter_table_BattleEnemyParameterTable": 0,
		"parameter_deviation_table_BattleEnemyParameterDeviationTable": 0,
		"acquire_skill_group_id": 0,
		"level_correction": 0,
		"group_id": 0,
		"ai_script_id_BattleAIScript": 0
	},
	{
		"ID": 71930,
		"stage_BattleStage": 810005030,
		"unit_UnitUnit": 802201,
		"money": 0,
		"initial_coordinate_x": 3,
		"initial_coordinate_y": 18,
		"reinforcement_BattleReinforcement": 0,
		"initial_direction": 180.0,
		"ai_move_group": 0,
		"ai_target_move_x": -1,
		"ai_target_move_y": -1,
		"ai_skill_function": "",
		"ai_attack": "IF( turn <=4 ,IF(panel_move_distance <= 4, 1, 0),1)",
		"ai_move": "IF(turn <4,0,1)",
		"ai_heal": "",
		"ai_skill": "",
		"ai_use": "",
		"skill_group_id": 2493,
		"gear_GearGear": 80011,
		"gear_rank": 5,
		"proficiency_UnitProficiency": 1,
		"level": 72,
		"hp": 181,
		"strength": 72,
		"vitality": 97,
		"intelligence": 81,
		"mind": 79,
		"agility": 71,
		"dexterity": 88,
		"lucky": 48,
		"parameter_table_BattleEnemyParameterTable": 0,
		"parameter_deviation_table_BattleEnemyParameterDeviationTable": 0,
		"acquire_skill_group_id": 0,
		"level_correction": 0,
		"group_id": 0,
		"ai_script_id_BattleAIScript": 0
	},
	{
		"ID": 71931,
		"stage_BattleStage": 810005030,
		"unit_UnitUnit": 940019,
		"money": 0,
		"initial_coordinate_x": 9,
		"initial_coordinate_y": 17,
		"reinforcement_BattleReinforcement": 0,
		"initial_direction": 180.0,
		"ai_move_group": 0,
		"ai_target_move_x": -1,
		"ai_target_move_y": -1,
		"ai_skill_function": "",
		"ai_attack": "IF( turn <=4 ,IF(panel_move_distance <= 4, 1, 0),1)",
		"ai_move": "IF(turn <4,0,1)",
		"ai_heal": "",
		"ai_skill": "",
		"ai_use": "",
		"skill_group_id": 13196,
		"gear_GearGear": 45007,
		"gear_rank": 5,
		"proficiency_UnitProficiency": 5,
		"level": 72,
		"hp": 104,
		"strength": 86,
		"vitality": 71,
		"intelligence": 7,
		"mind": 35,
		"agility": 64,
		"dexterity": 83,
		"lucky": 48,
		"parameter_table_BattleEnemyParameterTable": 0,
		"parameter_deviation_table_BattleEnemyParameterDeviationTable": 0,
		"acquire_skill_group_id": 0,
		"level_correction": 0,
		"group_id": 0,
		"ai_script_id_BattleAIScript": 0
	},
	{
		"ID": 71932,
		"stage_BattleStage": 810005030,
		"unit_UnitUnit": 940019,
		"money": 0,
		"initial_coordinate_x": 14,
		"initial_coordinate_y": 17,
		"reinforcement_BattleReinforcement": 0,
		"initial_direction": 180.0,
		"ai_move_group": 0,
		"ai_target_move_x": -1,
		"ai_target_move_y": -1,
		"ai_skill_function": "",
		"ai_attack": "IF( turn <=8 ,IF(panel_move_distance <= 2, 1, 0),1)",
		"ai_move": "IF(turn <8,0,1)",
		"ai_heal": "",
		"ai_skill": "",
		"ai_use": "",
		"skill_group_id": 13195,
		"gear_GearGear": 45007,
		"gear_rank": 5,
		"proficiency_UnitProficiency": 5,
		"level": 72,
		"hp": 106,
		"strength": 86,
		"vitality": 70,
		"intelligence": 7,
		"mind": 34,
		"agility": 63,
		"dexterity": 85,
		"lucky": 48,
		"parameter_table_BattleEnemyParameterTable": 0,
		"parameter_deviation_table_BattleEnemyParameterDeviationTable": 0,
		"acquire_skill_group_id": 0,
		"level_correction": 0,
		"group_id": 0,
		"ai_script_id_BattleAIScript": 0
	},
	{
		"ID": 71933,
		"stage_BattleStage": 810005030,
		"unit_UnitUnit": 802201,
		"money": 0,
		"initial_coordinate_x": 20,
		"initial_coordinate_y": 18,
		"reinforcement_BattleReinforcement": 0,
		"initial_direction": 180.0,
		"ai_move_group": 0,
		"ai_target_move_x": -1,
		"ai_target_move_y": -1,
		"ai_skill_function": "",
		"ai_attack": "IF( turn <=8 ,IF(panel_move_distance <= 4, 1, 0),1)",
		"ai_move": "IF(turn <8,0,1)",
		"ai_heal": "",
		"ai_skill": "",
		"ai_use": "",
		"skill_group_id": 2493,
		"gear_GearGear": 80011,
		"gear_rank": 5,
		"proficiency_UnitProficiency": 1,
		"level": 72,
		"hp": 179,
		"strength": 70,
		"vitality": 100,
		"intelligence": 83,
		"mind": 80,
		"agility": 73,
		"dexterity": 88,
		"lucky": 48,
		"parameter_table_BattleEnemyParameterTable": 0,
		"parameter_deviation_table_BattleEnemyParameterDeviationTable": 0,
		"acquire_skill_group_id": 0,
		"level_correction": 0,
		"group_id": 0,
		"ai_script_id_BattleAIScript": 0
	},
	{
		"ID": 71934,
		"stage_BattleStage": 810005030,
		"unit_UnitUnit": 860001,
		"money": 0,
		"initial_coordinate_x": 20,
		"initial_coordinate_y": 13,
		"reinforcement_BattleReinforcement": 0,
		"initial_direction": 180.0,
		"ai_move_group": 0,
		"ai_target_move_x": -1,
		"ai_target_move_y": -1,
		"ai_skill_function": "",
		"ai_attack": "IF( turn <=8 ,IF(panel_move_distance <= 2, 1, 0),1)",
		"ai_move": "IF(turn <8,0,1)",
		"ai_heal": "",
		"ai_skill": "",
		"ai_use": "",
		"skill_group_id": 1735,
		"gear_GearGear": 64003,
		"gear_rank": 5,
		"proficiency_UnitProficiency": 4,
		"level": 72,
		"hp": 88,
		"strength": 13,
		"vitality": 55,
		"intelligence": 72,
		"mind": 54,
		"agility": 67,
		"dexterity": 75,
		"lucky": 44,
		"parameter_table_BattleEnemyParameterTable": 0,
		"parameter_deviation_table_BattleEnemyParameterDeviationTable": 0,
		"acquire_skill_group_id": 0,
		"level_correction": 0,
		"group_id": 0,
		"ai_script_id_BattleAIScript": 0
	},
	{
		"ID": 71935,
		"stage_BattleStage": 810005030,
		"unit_UnitUnit": 820007,
		"money": 0,
		"initial_coordinate_x": 16,
		"initial_coordinate_y": 13,
		"reinforcement_BattleReinforcement": 0,
		"initial_direction": 180.0,
		"ai_move_group": 0,
		"ai_target_move_x": -1,
		"ai_target_move_y": -1,
		"ai_skill_function": "",
		"ai_attack": "IF( turn <=2 ,IF(panel_move_distance <= 4, 1, 0),1)",
		"ai_move": "IF(turn <2,0,1)",
		"ai_heal": "",
		"ai_skill": "",
		"ai_use": "",
		"skill_group_id": 13315,
		"gear_GearGear": 24001,
		"gear_rank": 5,
		"proficiency_UnitProficiency": 4,
		"level": 72,
		"hp": 111,
		"strength": 111,
		"vitality": 88,
		"intelligence": 8,
		"mind": 23,
		"agility": 43,
		"dexterity": 71,
		"lucky": 44,
		"parameter_table_BattleEnemyParameterTable": 0,
		"parameter_deviation_table_BattleEnemyParameterDeviationTable": 0,
		"acquire_skill_group_id": 0,
		"level_correction": 0,
		"group_id": 0,
		"ai_script_id_BattleAIScript": 0
	},
	{
		"ID": 71936,
		"stage_BattleStage": 810005030,
		"unit_UnitUnit": 820007,
		"money": 0,
		"initial_coordinate_x": 15,
		"initial_coordinate_y": 14,
		"reinforcement_BattleReinforcement": 0,
		"initial_direction": 180.0,
		"ai_move_group": 0,
		"ai_target_move_x": -1,
		"ai_target_move_y": -1,
		"ai_skill_function": "",
		"ai_attack": "IF( turn <=2 ,IF(panel_move_distance <= 4, 1, 0),1)",
		"ai_move": "IF(turn <2,0,1)",
		"ai_heal": "",
		"ai_skill": "",
		"ai_use": "",
		"skill_group_id": 13315,
		"gear_GearGear": 24001,
		"gear_rank": 5,
		"proficiency_UnitProficiency": 4,
		"level": 72,
		"hp": 111,
		"strength": 110,
		"vitality": 88,
		"intelligence": 8,
		"mind": 22,
		"agility": 45,
		"dexterity": 73,
		"lucky": 47,
		"parameter_table_BattleEnemyParameterTable": 0,
		"parameter_deviation_table_BattleEnemyParameterDeviationTable": 0,
		"acquire_skill_group_id": 0,
		"level_correction": 0,
		"group_id": 0,
		"ai_script_id_BattleAIScript": 0
	},
	{
		"ID": 71937,
		"stage_BattleStage": 810005030,
		"unit_UnitUnit": 820007,
		"money": 0,
		"initial_coordinate_x": 14,
		"initial_coordinate_y": 13,
		"reinforcement_BattleReinforcement": 0,
		"initial_direction": 180.0,
		"ai_move_group": 0,
		"ai_target_move_x": -1,
		"ai_target_move_y": -1,
		"ai_skill_function": "",
		"ai_attack": "IF( turn <=2 ,IF(panel_move_distance <= 4, 1, 0),1)",
		"ai_move": "IF(turn <2,0,1)",
		"ai_heal": "",
		"ai_skill": "",
		"ai_use": "",
		"skill_group_id": 13315,
		"gear_GearGear": 24001,
		"gear_rank": 5,
		"proficiency_UnitProficiency": 4,
		"level": 72,
		"hp": 113,
		"strength": 109,
		"vitality": 87,
		"intelligence": 10,
		"mind": 24,
		"agility": 44,
		"dexterity": 71,
		"lucky": 44,
		"parameter_table_BattleEnemyParameterTable": 0,
		"parameter_deviation_table_BattleEnemyParameterDeviationTable": 0,
		"acquire_skill_group_id": 0,
		"level_correction": 0,
		"group_id": 0,
		"ai_script_id_BattleAIScript": 0
	},
	{
		"ID": 71938,
		"stage_BattleStage": 810005030,
		"unit_UnitUnit": 920019,
		"money": 0,
		"initial_coordinate_x": 9,
		"initial_coordinate_y": 13,
		"reinforcement_BattleReinforcement": 0,
		"initial_direction": 180.0,
		"ai_move_group": 0,
		"ai_target_move_x": -1,
		"ai_target_move_y": -1,
		"ai_skill_function": "",
		"ai_attack": "IF( turn <=2 ,IF(panel_move_distance <= 4, 1, 0),1)",
		"ai_move": "IF(turn <2,0,1)",
		"ai_heal": "",
		"ai_skill": "",
		"ai_use": "",
		"skill_group_id": 13036,
		"gear_GearGear": 24006,
		"gear_rank": 5,
		"proficiency_UnitProficiency": 4,
		"level": 72,
		"hp": 134,
		"strength": 111,
		"vitality": 96,
		"intelligence": 4,
		"mind": 34,
		"agility": 48,
		"dexterity": 90,
		"lucky": 42,
		"parameter_table_BattleEnemyParameterTable": 0,
		"parameter_deviation_table_BattleEnemyParameterDeviationTable": 0,
		"acquire_skill_group_id": 0,
		"level_correction": 0,
		"group_id": 0,
		"ai_script_id_BattleAIScript": 0
	},
	{
		"ID": 71939,
		"stage_BattleStage": 810005030,
		"unit_UnitUnit": 930019,
		"money": 0,
		"initial_coordinate_x": 8,
		"initial_coordinate_y": 14,
		"reinforcement_BattleReinforcement": 0,
		"initial_direction": 180.0,
		"ai_move_group": 0,
		"ai_target_move_x": -1,
		"ai_target_move_y": -1,
		"ai_skill_function": "",
		"ai_attack": "IF( turn <=2 ,IF(panel_move_distance <= 2, 1, 0),1)",
		"ai_move": "IF(turn <2,0,1)",
		"ai_heal": "",
		"ai_skill": "",
		"ai_use": "",
		"skill_group_id": 13286,
		"gear_GearGear": 34006,
		"gear_rank": 5,
		"proficiency_UnitProficiency": 4,
		"level": 72,
		"hp": 133,
		"strength": 105,
		"vitality": 102,
		"intelligence": 5,
		"mind": 35,
		"agility": 56,
		"dexterity": 90,
		"lucky": 42,
		"parameter_table_BattleEnemyParameterTable": 0,
		"parameter_deviation_table_BattleEnemyParameterDeviationTable": 0,
		"acquire_skill_group_id": 0,
		"level_correction": 0,
		"group_id": 0,
		"ai_script_id_BattleAIScript": 0
	},
	{
		"ID": 71940,
		"stage_BattleStage": 810005030,
		"unit_UnitUnit": 910019,
		"money": 0,
		"initial_coordinate_x": 7,
		"initial_coordinate_y": 13,
		"reinforcement_BattleReinforcement": 0,
		"initial_direction": 180.0,
		"ai_move_group": 0,
		"ai_target_move_x": -1,
		"ai_target_move_y": -1,
		"ai_skill_function": "",
		"ai_attack": "IF( turn <=2 ,IF(panel_move_distance <= 2, 1, 0),1)",
		"ai_move": "IF(turn <2,0,1)",
		"ai_heal": "",
		"ai_skill": "",
		"ai_use": "",
		"skill_group_id": 13256,
		"gear_GearGear": 14001,
		"gear_rank": 5,
		"proficiency_UnitProficiency": 4,
		"level": 72,
		"hp": 135,
		"strength": 105,
		"vitality": 93,
		"intelligence": 5,
		"mind": 34,
		"agility": 56,
		"dexterity": 94,
		"lucky": 42,
		"parameter_table_BattleEnemyParameterTable": 0,
		"parameter_deviation_table_BattleEnemyParameterDeviationTable": 0,
		"acquire_skill_group_id": 0,
		"level_correction": 0,
		"group_id": 0,
		"ai_script_id_BattleAIScript": 0
	},
	{
		"ID": 71941,
		"stage_BattleStage": 810005030,
		"unit_UnitUnit": 860001,
		"money": 0,
		"initial_coordinate_x": 3,
		"initial_coordinate_y": 13,
		"reinforcement_BattleReinforcement": 0,
		"initial_direction": 180.0,
		"ai_move_group": 0,
		"ai_target_move_x": -1,
		"ai_target_move_y": -1,
		"ai_skill_function": "",
		"ai_attack": "IF( turn <=2 ,IF(panel_move_distance <= 4, 1, 0),1)",
		"ai_move": "IF(turn <2,0,1)",
		"ai_heal": "",
		"ai_skill": "",
		"ai_use": "",
		"skill_group_id": 7910,
		"gear_GearGear": 64003,
		"gear_rank": 5,
		"proficiency_UnitProficiency": 4,
		"level": 72,
		"hp": 87,
		"strength": 16,
		"vitality": 55,
		"intelligence": 72,
		"mind": 54,
		"agility": 67,
		"dexterity": 74,
		"lucky": 47,
		"parameter_table_BattleEnemyParameterTable": 0,
		"parameter_deviation_table_BattleEnemyParameterDeviationTable": 0,
		"acquire_skill_group_id": 0,
		"level_correction": 0,
		"group_id": 0,
		"ai_script_id_BattleAIScript": 0
	},
	{
		"ID": 71942,
		"stage_BattleStage": 810005030,
		"unit_UnitUnit": 830001,
		"money": 0,
		"initial_coordinate_x": 3,
		"initial_coordinate_y": 8,
		"reinforcement_BattleReinforcement": 0,
		"initial_direction": 180.0,
		"ai_move_group": 0,
		"ai_target_move_x": -1,
		"ai_target_move_y": -1,
		"ai_skill_function": "",
		"ai_attack": "",
		"ai_move": "",
		"ai_heal": "",
		"ai_skill": "",
		"ai_use": "",
		"skill_group_id": 13595,
		"gear_GearGear": 34001,
		"gear_rank": 5,
		"proficiency_UnitProficiency": 4,
		"level": 72,
		"hp": 100,
		"strength": 116,
		"vitality": 200,
		"intelligence": 7,
		"mind": 181,
		"agility": 100,
		"dexterity": 71,
		"lucky": 48,
		"parameter_table_BattleEnemyParameterTable": 0,
		"parameter_deviation_table_BattleEnemyParameterDeviationTable": 0,
		"acquire_skill_group_id": 0,
		"level_correction": 0,
		"group_id": 0,
		"ai_script_id_BattleAIScript": 0
	},
	{
		"ID": 71943,
		"stage_BattleStage": 810005030,
		"unit_UnitUnit": 830001,
		"money": 0,
		"initial_coordinate_x": 5,
		"initial_coordinate_y": 8,
		"reinforcement_BattleReinforcement": 0,
		"initial_direction": 180.0,
		"ai_move_group": 0,
		"ai_target_move_x": -1,
		"ai_target_move_y": -1,
		"ai_skill_function": "",
		"ai_attack": "",
		"ai_move": "",
		"ai_heal": "",
		"ai_skill": "",
		"ai_use": "",
		"skill_group_id": 13595,
		"gear_GearGear": 34001,
		"gear_rank": 5,
		"proficiency_UnitProficiency": 4,
		"level": 72,
		"hp": 101,
		"strength": 115,
		"vitality": 198,
		"intelligence": 8,
		"mind": 181,
		"agility": 101,
		"dexterity": 70,
		"lucky": 47,
		"parameter_table_BattleEnemyParameterTable": 0,
		"parameter_deviation_table_BattleEnemyParameterDeviationTable": 0,
		"acquire_skill_group_id": 0,
		"level_correction": 0,
		"group_id": 0,
		"ai_script_id_BattleAIScript": 0
	},
	{
		"ID": 71944,
		"stage_BattleStage": 810005030,
		"unit_UnitUnit": 840018,
		"money": 0,
		"initial_coordinate_x": 9,
		"initial_coordinate_y": 7,
		"reinforcement_BattleReinforcement": 0,
		"initial_direction": 180.0,
		"ai_move_group": 0,
		"ai_target_move_x": -1,
		"ai_target_move_y": -1,
		"ai_skill_function": "",
		"ai_attack": "IF( turn <=2 ,IF(panel_move_distance <= 4, 1, 0),1)",
		"ai_move": "IF(turn <2,0,1)",
		"ai_heal": "",
		"ai_skill": "",
		"ai_use": "",
		"skill_group_id": 13196,
		"gear_GearGear": 45007,
		"gear_rank": 5,
		"proficiency_UnitProficiency": 5,
		"level": 72,
		"hp": 104,
		"strength": 82,
		"vitality": 71,
		"intelligence": 9,
		"mind": 36,
		"agility": 65,
		"dexterity": 83,
		"lucky": 48,
		"parameter_table_BattleEnemyParameterTable": 0,
		"parameter_deviation_table_BattleEnemyParameterDeviationTable": 0,
		"acquire_skill_group_id": 0,
		"level_correction": 0,
		"group_id": 0,
		"ai_script_id_BattleAIScript": 0
	},
	{
		"ID": 71945,
		"stage_BattleStage": 810005030,
		"unit_UnitUnit": 840018,
		"money": 0,
		"initial_coordinate_x": 14,
		"initial_coordinate_y": 7,
		"reinforcement_BattleReinforcement": 0,
		"initial_direction": 180.0,
		"ai_move_group": 0,
		"ai_target_move_x": -1,
		"ai_target_move_y": -1,
		"ai_skill_function": "",
		"ai_attack": "IF( turn <=2 ,IF(panel_move_distance <= 4, 1, 0),1)",
		"ai_move": "IF(turn <2,0,1)",
		"ai_heal": "",
		"ai_skill": "",
		"ai_use": "",
		"skill_group_id": 13195,
		"gear_GearGear": 45007,
		"gear_rank": 5,
		"proficiency_UnitProficiency": 5,
		"level": 72,
		"hp": 106,
		"strength": 82,
		"vitality": 70,
		"intelligence": 9,
		"mind": 35,
		"agility": 63,
		"dexterity": 85,
		"lucky": 44,
		"parameter_table_BattleEnemyParameterTable": 0,
		"parameter_deviation_table_BattleEnemyParameterDeviationTable": 0,
		"acquire_skill_group_id": 0,
		"level_correction": 0,
		"group_id": 0,
		"ai_script_id_BattleAIScript": 0
	},
	{
		"ID": 71946,
		"stage_BattleStage": 810005030,
		"unit_UnitUnit": 830001,
		"money": 0,
		"initial_coordinate_x": 18,
		"initial_coordinate_y": 8,
		"reinforcement_BattleReinforcement": 0,
		"initial_direction": 180.0,
		"ai_move_group": 0,
		"ai_target_move_x": -1,
		"ai_target_move_y": -1,
		"ai_skill_function": "",
		"ai_attack": "",
		"ai_move": "",
		"ai_heal": "",
		"ai_skill": "",
		"ai_use": "",
		"skill_group_id": 13595,
		"gear_GearGear": 34001,
		"gear_rank": 5,
		"proficiency_UnitProficiency": 4,
		"level": 72,
		"hp": 110,
		"strength": 103,
		"vitality": 205,
		"intelligence": 7,
		"mind": 181,
		"agility": 109,
		"dexterity": 73,
		"lucky": 48,
		"parameter_table_BattleEnemyParameterTable": 0,
		"parameter_deviation_table_BattleEnemyParameterDeviationTable": 0,
		"acquire_skill_group_id": 0,
		"level_correction": 0,
		"group_id": 0,
		"ai_script_id_BattleAIScript": 0
	},
	{
		"ID": 71947,
		"stage_BattleStage": 810005030,
		"unit_UnitUnit": 830001,
		"money": 0,
		"initial_coordinate_x": 20,
		"initial_coordinate_y": 8,
		"reinforcement_BattleReinforcement": 0,
		"initial_direction": 180.0,
		"ai_move_group": 0,
		"ai_target_move_x": -1,
		"ai_target_move_y": -1,
		"ai_skill_function": "",
		"ai_attack": "",
		"ai_move": "",
		"ai_heal": "",
		"ai_skill": "",
		"ai_use": "",
		"skill_group_id": 13595,
		"gear_GearGear": 34001,
		"gear_rank": 5,
		"proficiency_UnitProficiency": 4,
		"level": 72,
		"hp": 112,
		"strength": 105,
		"vitality": 206,
		"intelligence": 8,
		"mind": 182,
		"agility": 108,
		"dexterity": 72,
		"lucky": 47,
		"parameter_table_BattleEnemyParameterTable": 0,
		"parameter_deviation_table_BattleEnemyParameterDeviationTable": 0,
		"acquire_skill_group_id": 0,
		"level_correction": 0,
		"group_id": 0,
		"ai_script_id_BattleAIScript": 0
	}
]