[
	{
		"ID": 57905,
		"stage_BattleStage": 810001077,
		"unit_UnitUnit": 860010,
		"money": 0,
		"initial_coordinate_x": 6,
		"initial_coordinate_y": 5,
		"reinforcement_BattleReinforcement": 0,
		"initial_direction": 180.0,
		"ai_move_group": 0,
		"ai_target_move_x": -1,
		"ai_target_move_y": -1,
		"ai_skill_function": "",
		"ai_attack": "0.0",
		"ai_move": "0.0",
		"ai_heal": "",
		"ai_skill": "",
		"ai_use": "",
		"skill_group_id": 15036,
		"gear_GearGear": 66004,
		"gear_rank": 7,
		"proficiency_UnitProficiency": 6,
		"level": 90,
		"hp": 210,
		"strength": 10,
		"vitality": 118,
		"intelligence": 93,
		"mind": 203,
		"agility": 99,
		"dexterity": 120,
		"lucky": 58,
		"parameter_table_BattleEnemyParameterTable": 0,
		"parameter_deviation_table_BattleEnemyParameterDeviationTable": 0,
		"acquire_skill_group_id": 0,
		"level_correction": 0,
		"group_id": 0,
		"ai_script_id_BattleAIScript": 0
	},
	{
		"ID": 57906,
		"stage_BattleStage": 810001077,
		"unit_UnitUnit": 860010,
		"money": 0,
		"initial_coordinate_x": 6,
		"initial_coordinate_y": 6,
		"reinforcement_BattleReinforcement": 0,
		"initial_direction": 180.0,
		"ai_move_group": 0,
		"ai_target_move_x": -1,
		"ai_target_move_y": -1,
		"ai_skill_function": "",
		"ai_attack": "0.0",
		"ai_move": "0.0",
		"ai_heal": "",
		"ai_skill": "",
		"ai_use": "",
		"skill_group_id": 15036,
		"gear_GearGear": 66004,
		"gear_rank": 7,
		"proficiency_UnitProficiency": 6,
		"level": 90,
		"hp": 203,
		"strength": 13,
		"vitality": 122,
		"intelligence": 96,
		"mind": 206,
		"agility": 96,
		"dexterity": 121,
		"lucky": 59,
		"parameter_table_BattleEnemyParameterTable": 0,
		"parameter_deviation_table_BattleEnemyParameterDeviationTable": 0,
		"acquire_skill_group_id": 0,
		"level_correction": 0,
		"group_id": 0,
		"ai_script_id_BattleAIScript": 0
	},
	{
		"ID": 57907,
		"stage_BattleStage": 810001077,
		"unit_UnitUnit": 802201,
		"money": 0,
		"initial_coordinate_x": 5,
		"initial_coordinate_y": 7,
		"reinforcement_BattleReinforcement": 0,
		"initial_direction": 180.0,
		"ai_move_group": 0,
		"ai_target_move_x": -1,
		"ai_target_move_y": -1,
		"ai_skill_function": "",
		"ai_attack": "IF(panel_move_distance <= 4, 1, 0)",
		"ai_move": "IF(turn <2,0,1)",
		"ai_heal": "",
		"ai_skill": "",
		"ai_use": "",
		"skill_group_id": 17023,
		"gear_GearGear": 80011,
		"gear_rank": 7,
		"proficiency_UnitProficiency": 1,
		"level": 90,
		"hp": 503,
		"strength": 10,
		"vitality": 111,
		"intelligence": 82,
		"mind": 198,
		"agility": 74,
		"dexterity": 114,
		"lucky": 10,
		"parameter_table_BattleEnemyParameterTable": 0,
		"parameter_deviation_table_BattleEnemyParameterDeviationTable": 0,
		"acquire_skill_group_id": 0,
		"level_correction": 0,
		"group_id": 0,
		"ai_script_id_BattleAIScript": 0
	},
	{
		"ID": 57908,
		"stage_BattleStage": 810001077,
		"unit_UnitUnit": 802201,
		"money": 0,
		"initial_coordinate_x": 6,
		"initial_coordinate_y": 7,
		"reinforcement_BattleReinforcement": 0,
		"initial_direction": 180.0,
		"ai_move_group": 0,
		"ai_target_move_x": -1,
		"ai_target_move_y": -1,
		"ai_skill_function": "",
		"ai_attack": "IF(panel_move_distance <= 4, 1, 0)",
		"ai_move": "IF(turn <2,0,1)",
		"ai_heal": "",
		"ai_skill": "",
		"ai_use": "",
		"skill_group_id": 17023,
		"gear_GearGear": 80011,
		"gear_rank": 7,
		"proficiency_UnitProficiency": 1,
		"level": 90,
		"hp": 501,
		"strength": 13,
		"vitality": 111,
		"intelligence": 85,
		"mind": 200,
		"agility": 74,
		"dexterity": 110,
		"lucky": 13,
		"parameter_table_BattleEnemyParameterTable": 0,
		"parameter_deviation_table_BattleEnemyParameterDeviationTable": 0,
		"acquire_skill_group_id": 0,
		"level_correction": 0,
		"group_id": 0,
		"ai_script_id_BattleAIScript": 0
	},
	{
		"ID": 57909,
		"stage_BattleStage": 810001077,
		"unit_UnitUnit": 802201,
		"money": 0,
		"initial_coordinate_x": 7,
		"initial_coordinate_y": 7,
		"reinforcement_BattleReinforcement": 0,
		"initial_direction": 180.0,
		"ai_move_group": 0,
		"ai_target_move_x": -1,
		"ai_target_move_y": -1,
		"ai_skill_function": "",
		"ai_attack": "IF(panel_move_distance <= 4, 1, 0)",
		"ai_move": "IF(turn <2,0,1)",
		"ai_heal": "",
		"ai_skill": "",
		"ai_use": "",
		"skill_group_id": 17023,
		"gear_GearGear": 80011,
		"gear_rank": 7,
		"proficiency_UnitProficiency": 1,
		"level": 90,
		"hp": 503,
		"strength": 10,
		"vitality": 110,
		"intelligence": 85,
		"mind": 197,
		"agility": 75,
		"dexterity": 109,
		"lucky": 12,
		"parameter_table_BattleEnemyParameterTable": 0,
		"parameter_deviation_table_BattleEnemyParameterDeviationTable": 0,
		"acquire_skill_group_id": 0,
		"level_correction": 0,
		"group_id": 0,
		"ai_script_id_BattleAIScript": 0
	},
	{
		"ID": 57910,
		"stage_BattleStage": 810001077,
		"unit_UnitUnit": 960015,
		"money": 0,
		"initial_coordinate_x": 8,
		"initial_coordinate_y": 7,
		"reinforcement_BattleReinforcement": 0,
		"initial_direction": 180.0,
		"ai_move_group": 0,
		"ai_target_move_x": -1,
		"ai_target_move_y": -1,
		"ai_skill_function": "",
		"ai_attack": "",
		"ai_move": "",
		"ai_heal": "",
		"ai_skill": "",
		"ai_use": "",
		"skill_group_id": 14966,
		"gear_GearGear": 66004,
		"gear_rank": 7,
		"proficiency_UnitProficiency": 6,
		"level": 90,
		"hp": 113,
		"strength": 10,
		"vitality": 127,
		"intelligence": 116,
		"mind": 224,
		"agility": 102,
		"dexterity": 127,
		"lucky": 56,
		"parameter_table_BattleEnemyParameterTable": 0,
		"parameter_deviation_table_BattleEnemyParameterDeviationTable": 0,
		"acquire_skill_group_id": 0,
		"level_correction": 0,
		"group_id": 0,
		"ai_script_id_BattleAIScript": 0
	},
	{
		"ID": 57911,
		"stage_BattleStage": 810001077,
		"unit_UnitUnit": 960015,
		"money": 0,
		"initial_coordinate_x": 4,
		"initial_coordinate_y": 7,
		"reinforcement_BattleReinforcement": 0,
		"initial_direction": 180.0,
		"ai_move_group": 0,
		"ai_target_move_x": -1,
		"ai_target_move_y": -1,
		"ai_skill_function": "",
		"ai_attack": "",
		"ai_move": "",
		"ai_heal": "",
		"ai_skill": "",
		"ai_use": "",
		"skill_group_id": 14966,
		"gear_GearGear": 66004,
		"gear_rank": 7,
		"proficiency_UnitProficiency": 6,
		"level": 90,
		"hp": 108,
		"strength": 10,
		"vitality": 125,
		"intelligence": 116,
		"mind": 223,
		"agility": 101,
		"dexterity": 129,
		"lucky": 59,
		"parameter_table_BattleEnemyParameterTable": 0,
		"parameter_deviation_table_BattleEnemyParameterDeviationTable": 0,
		"acquire_skill_group_id": 0,
		"level_correction": 0,
		"group_id": 0,
		"ai_script_id_BattleAIScript": 0
	},
	{
		"ID": 57912,
		"stage_BattleStage": 810001077,
		"unit_UnitUnit": 960015,
		"money": 0,
		"initial_coordinate_x": 3,
		"initial_coordinate_y": 7,
		"reinforcement_BattleReinforcement": 0,
		"initial_direction": 180.0,
		"ai_move_group": 0,
		"ai_target_move_x": -1,
		"ai_target_move_y": -1,
		"ai_skill_function": "",
		"ai_attack": "",
		"ai_move": "",
		"ai_heal": "",
		"ai_skill": "",
		"ai_use": "",
		"skill_group_id": 14966,
		"gear_GearGear": 66004,
		"gear_rank": 7,
		"proficiency_UnitProficiency": 6,
		"level": 90,
		"hp": 109,
		"strength": 12,
		"vitality": 130,
		"intelligence": 115,
		"mind": 223,
		"agility": 101,
		"dexterity": 127,
		"lucky": 57,
		"parameter_table_BattleEnemyParameterTable": 0,
		"parameter_deviation_table_BattleEnemyParameterDeviationTable": 0,
		"acquire_skill_group_id": 0,
		"level_correction": 0,
		"group_id": 0,
		"ai_script_id_BattleAIScript": 0
	},
	{
		"ID": 57913,
		"stage_BattleStage": 810001077,
		"unit_UnitUnit": 860010,
		"money": 0,
		"initial_coordinate_x": 1,
		"initial_coordinate_y": 10,
		"reinforcement_BattleReinforcement": 0,
		"initial_direction": 180.0,
		"ai_move_group": 0,
		"ai_target_move_x": -1,
		"ai_target_move_y": -1,
		"ai_skill_function": "",
		"ai_attack": "",
		"ai_move": "",
		"ai_heal": "",
		"ai_skill": "",
		"ai_use": "",
		"skill_group_id": 15036,
		"gear_GearGear": 66004,
		"gear_rank": 7,
		"proficiency_UnitProficiency": 6,
		"level": 90,
		"hp": 103,
		"strength": 10,
		"vitality": 118,
		"intelligence": 93,
		"mind": 204,
		"agility": 101,
		"dexterity": 123,
		"lucky": 58,
		"parameter_table_BattleEnemyParameterTable": 0,
		"parameter_deviation_table_BattleEnemyParameterDeviationTable": 0,
		"acquire_skill_group_id": 0,
		"level_correction": 0,
		"group_id": 0,
		"ai_script_id_BattleAIScript": 0
	},
	{
		"ID": 57914,
		"stage_BattleStage": 810001077,
		"unit_UnitUnit": 200733,
		"money": 0,
		"initial_coordinate_x": 2,
		"initial_coordinate_y": 10,
		"reinforcement_BattleReinforcement": 0,
		"initial_direction": 180.0,
		"ai_move_group": 0,
		"ai_target_move_x": -1,
		"ai_target_move_y": -1,
		"ai_skill_function": "",
		"ai_attack": "IF(panel_move_distance <= 5, 1, 0)",
		"ai_move": "IF(turn <2,0,1)",
		"ai_heal": "",
		"ai_skill": "",
		"ai_use": "",
		"skill_group_id": 17028,
		"gear_GearGear": 26007,
		"gear_rank": 7,
		"proficiency_UnitProficiency": 6,
		"level": 90,
		"hp": 449,
		"strength": 132,
		"vitality": 115,
		"intelligence": 31,
		"mind": 142,
		"agility": 104,
		"dexterity": 95,
		"lucky": 66,
		"parameter_table_BattleEnemyParameterTable": 0,
		"parameter_deviation_table_BattleEnemyParameterDeviationTable": 0,
		"acquire_skill_group_id": 0,
		"level_correction": 0,
		"group_id": 0,
		"ai_script_id_BattleAIScript": 0
	},
	{
		"ID": 57915,
		"stage_BattleStage": 810001077,
		"unit_UnitUnit": 300713,
		"money": 0,
		"initial_coordinate_x": 3,
		"initial_coordinate_y": 10,
		"reinforcement_BattleReinforcement": 0,
		"initial_direction": 180.0,
		"ai_move_group": 0,
		"ai_target_move_x": -1,
		"ai_target_move_y": -1,
		"ai_skill_function": "",
		"ai_attack": "IF(panel_move_distance <= 5, 1, 0)",
		"ai_move": "IF(turn <2,0,1)",
		"ai_heal": "",
		"ai_skill": "",
		"ai_use": "",
		"skill_group_id": 16779,
		"gear_GearGear": 36020,
		"gear_rank": 7,
		"proficiency_UnitProficiency": 6,
		"level": 90,
		"hp": 439,
		"strength": 113,
		"vitality": 125,
		"intelligence": 33,
		"mind": 148,
		"agility": 119,
		"dexterity": 109,
		"lucky": 59,
		"parameter_table_BattleEnemyParameterTable": 0,
		"parameter_deviation_table_BattleEnemyParameterDeviationTable": 0,
		"acquire_skill_group_id": 0,
		"level_correction": 0,
		"group_id": 0,
		"ai_script_id_BattleAIScript": 0
	},
	{
		"ID": 57916,
		"stage_BattleStage": 810001077,
		"unit_UnitUnit": 860001,
		"money": 0,
		"initial_coordinate_x": 9,
		"initial_coordinate_y": 1,
		"reinforcement_BattleReinforcement": 0,
		"initial_direction": 270.0,
		"ai_move_group": 0,
		"ai_target_move_x": -1,
		"ai_target_move_y": -1,
		"ai_skill_function": "",
		"ai_attack": "",
		"ai_move": "",
		"ai_heal": "",
		"ai_skill": "",
		"ai_use": "",
		"skill_group_id": 13176,
		"gear_GearGear": 66004,
		"gear_rank": 7,
		"proficiency_UnitProficiency": 6,
		"level": 90,
		"hp": 97,
		"strength": 18,
		"vitality": 122,
		"intelligence": 100,
		"mind": 208,
		"agility": 106,
		"dexterity": 134,
		"lucky": 59,
		"parameter_table_BattleEnemyParameterTable": 0,
		"parameter_deviation_table_BattleEnemyParameterDeviationTable": 0,
		"acquire_skill_group_id": 0,
		"level_correction": 0,
		"group_id": 0,
		"ai_script_id_BattleAIScript": 0
	},
	{
		"ID": 57917,
		"stage_BattleStage": 810001077,
		"unit_UnitUnit": 860001,
		"money": 0,
		"initial_coordinate_x": 9,
		"initial_coordinate_y": 2,
		"reinforcement_BattleReinforcement": 0,
		"initial_direction": 270.0,
		"ai_move_group": 0,
		"ai_target_move_x": -1,
		"ai_target_move_y": -1,
		"ai_skill_function": "",
		"ai_attack": "",
		"ai_move": "",
		"ai_heal": "",
		"ai_skill": "",
		"ai_use": "",
		"skill_group_id": 13176,
		"gear_GearGear": 66004,
		"gear_rank": 7,
		"proficiency_UnitProficiency": 6,
		"level": 90,
		"hp": 96,
		"strength": 18,
		"vitality": 125,
		"intelligence": 103,
		"mind": 209,
		"agility": 110,
		"dexterity": 131,
		"lucky": 57,
		"parameter_table_BattleEnemyParameterTable": 0,
		"parameter_deviation_table_BattleEnemyParameterDeviationTable": 0,
		"acquire_skill_group_id": 0,
		"level_correction": 0,
		"group_id": 0,
		"ai_script_id_BattleAIScript": 0
	},
	{
		"ID": 57918,
		"stage_BattleStage": 810001077,
		"unit_UnitUnit": 860001,
		"money": 0,
		"initial_coordinate_x": 9,
		"initial_coordinate_y": 3,
		"reinforcement_BattleReinforcement": 0,
		"initial_direction": 270.0,
		"ai_move_group": 0,
		"ai_target_move_x": -1,
		"ai_target_move_y": -1,
		"ai_skill_function": "",
		"ai_attack": "",
		"ai_move": "",
		"ai_heal": "",
		"ai_skill": "",
		"ai_use": "",
		"skill_group_id": 13176,
		"gear_GearGear": 66004,
		"gear_rank": 7,
		"proficiency_UnitProficiency": 6,
		"level": 90,
		"hp": 98,
		"strength": 18,
		"vitality": 121,
		"intelligence": 99,
		"mind": 213,
		"agility": 108,
		"dexterity": 130,
		"lucky": 58,
		"parameter_table_BattleEnemyParameterTable": 0,
		"parameter_deviation_table_BattleEnemyParameterDeviationTable": 0,
		"acquire_skill_group_id": 0,
		"level_correction": 0,
		"group_id": 0,
		"ai_script_id_BattleAIScript": 0
	},
	{
		"ID": 57919,
		"stage_BattleStage": 810001077,
		"unit_UnitUnit": 860001,
		"money": 0,
		"initial_coordinate_x": 9,
		"initial_coordinate_y": 4,
		"reinforcement_BattleReinforcement": 0,
		"initial_direction": 270.0,
		"ai_move_group": 0,
		"ai_target_move_x": -1,
		"ai_target_move_y": -1,
		"ai_skill_function": "",
		"ai_attack": "",
		"ai_move": "",
		"ai_heal": "",
		"ai_skill": "",
		"ai_use": "",
		"skill_group_id": 13176,
		"gear_GearGear": 66004,
		"gear_rank": 7,
		"proficiency_UnitProficiency": 6,
		"level": 90,
		"hp": 98,
		"strength": 18,
		"vitality": 121,
		"intelligence": 100,
		"mind": 209,
		"agility": 110,
		"dexterity": 132,
		"lucky": 59,
		"parameter_table_BattleEnemyParameterTable": 0,
		"parameter_deviation_table_BattleEnemyParameterDeviationTable": 0,
		"acquire_skill_group_id": 0,
		"level_correction": 0,
		"group_id": 0,
		"ai_script_id_BattleAIScript": 0
	},
	{
		"ID": 57920,
		"stage_BattleStage": 810001077,
		"unit_UnitUnit": 860010,
		"money": 0,
		"initial_coordinate_x": 9,
		"initial_coordinate_y": 14,
		"reinforcement_BattleReinforcement": 0,
		"initial_direction": 90.0,
		"ai_move_group": 0,
		"ai_target_move_x": -1,
		"ai_target_move_y": -1,
		"ai_skill_function": "",
		"ai_attack": "IF(panel_move_distance <= 6, 1, 0)",
		"ai_move": "IF(turn <2,0,1)",
		"ai_heal": "",
		"ai_skill": "",
		"ai_use": "",
		"skill_group_id": 15036,
		"gear_GearGear": 66004,
		"gear_rank": 7,
		"proficiency_UnitProficiency": 6,
		"level": 90,
		"hp": 209,
		"strength": 10,
		"vitality": 120,
		"intelligence": 99,
		"mind": 205,
		"agility": 97,
		"dexterity": 122,
		"lucky": 59,
		"parameter_table_BattleEnemyParameterTable": 0,
		"parameter_deviation_table_BattleEnemyParameterDeviationTable": 0,
		"acquire_skill_group_id": 0,
		"level_correction": 0,
		"group_id": 0,
		"ai_script_id_BattleAIScript": 0
	},
	{
		"ID": 57921,
		"stage_BattleStage": 810001077,
		"unit_UnitUnit": 860010,
		"money": 0,
		"initial_coordinate_x": 9,
		"initial_coordinate_y": 13,
		"reinforcement_BattleReinforcement": 0,
		"initial_direction": 90.0,
		"ai_move_group": 0,
		"ai_target_move_x": -1,
		"ai_target_move_y": -1,
		"ai_skill_function": "",
		"ai_attack": "IF(panel_move_distance <= 6, 1, 0)",
		"ai_move": "IF(turn <2,0,1)",
		"ai_heal": "",
		"ai_skill": "",
		"ai_use": "",
		"skill_group_id": 15036,
		"gear_GearGear": 66004,
		"gear_rank": 7,
		"proficiency_UnitProficiency": 6,
		"level": 90,
		"hp": 208,
		"strength": 10,
		"vitality": 121,
		"intelligence": 97,
		"mind": 203,
		"agility": 101,
		"dexterity": 124,
		"lucky": 56,
		"parameter_table_BattleEnemyParameterTable": 0,
		"parameter_deviation_table_BattleEnemyParameterDeviationTable": 0,
		"acquire_skill_group_id": 0,
		"level_correction": 0,
		"group_id": 0,
		"ai_script_id_BattleAIScript": 0
	},
	{
		"ID": 57922,
		"stage_BattleStage": 810001077,
		"unit_UnitUnit": 500423,
		"money": 0,
		"initial_coordinate_x": 8,
		"initial_coordinate_y": 13,
		"reinforcement_BattleReinforcement": 0,
		"initial_direction": 90.0,
		"ai_move_group": 0,
		"ai_target_move_x": -1,
		"ai_target_move_y": -1,
		"ai_skill_function": "",
		"ai_attack": "IF(panel_move_distance <= 6, 1, 0)",
		"ai_move": "IF(turn <2,0,1)",
		"ai_heal": "",
		"ai_skill": "",
		"ai_use": "",
		"skill_group_id": 16777,
		"gear_GearGear": 56019,
		"gear_rank": 7,
		"proficiency_UnitProficiency": 6,
		"level": 90,
		"hp": 426,
		"strength": 49,
		"vitality": 94,
		"intelligence": 102,
		"mind": 169,
		"agility": 102,
		"dexterity": 87,
		"lucky": 61,
		"parameter_table_BattleEnemyParameterTable": 0,
		"parameter_deviation_table_BattleEnemyParameterDeviationTable": 0,
		"acquire_skill_group_id": 0,
		"level_correction": 0,
		"group_id": 0,
		"ai_script_id_BattleAIScript": 0
	},
	{
		"ID": 57923,
		"stage_BattleStage": 810001077,
		"unit_UnitUnit": 600523,
		"money": 0,
		"initial_coordinate_x": 3,
		"initial_coordinate_y": 11,
		"reinforcement_BattleReinforcement": 0,
		"initial_direction": 180.0,
		"ai_move_group": 0,
		"ai_target_move_x": -1,
		"ai_target_move_y": -1,
		"ai_skill_function": "",
		"ai_attack": "IF(panel_move_distance <= 6, 1, 0)",
		"ai_move": "IF(turn <2,0,1)",
		"ai_heal": "",
		"ai_skill": "",
		"ai_use": "",
		"skill_group_id": 13938,
		"gear_GearGear": 66010,
		"gear_rank": 7,
		"proficiency_UnitProficiency": 6,
		"level": 90,
		"hp": 436,
		"strength": 27,
		"vitality": 93,
		"intelligence": 121,
		"mind": 182,
		"agility": 125,
		"dexterity": 105,
		"lucky": 59,
		"parameter_table_BattleEnemyParameterTable": 0,
		"parameter_deviation_table_BattleEnemyParameterDeviationTable": 0,
		"acquire_skill_group_id": 0,
		"level_correction": 0,
		"group_id": 0,
		"ai_script_id_BattleAIScript": 0
	},
	{
		"ID": 57924,
		"stage_BattleStage": 810001077,
		"unit_UnitUnit": 501733,
		"money": 0,
		"initial_coordinate_x": 4,
		"initial_coordinate_y": 11,
		"reinforcement_BattleReinforcement": 0,
		"initial_direction": 180.0,
		"ai_move_group": 0,
		"ai_target_move_x": -1,
		"ai_target_move_y": -1,
		"ai_skill_function": "",
		"ai_attack": "IF(panel_move_distance <= 6, 1, 0)",
		"ai_move": "IF(turn <2,0,1)",
		"ai_heal": "",
		"ai_skill": "",
		"ai_use": "",
		"skill_group_id": 17029,
		"gear_GearGear": 56019,
		"gear_rank": 7,
		"proficiency_UnitProficiency": 6,
		"level": 90,
		"hp": 403,
		"strength": 42,
		"vitality": 105,
		"intelligence": 142,
		"mind": 187,
		"agility": 132,
		"dexterity": 115,
		"lucky": 44,
		"parameter_table_BattleEnemyParameterTable": 0,
		"parameter_deviation_table_BattleEnemyParameterDeviationTable": 0,
		"acquire_skill_group_id": 0,
		"level_correction": 0,
		"group_id": 0,
		"ai_script_id_BattleAIScript": 0
	}
]