[
	{
		"ID": 71870,
		"stage_BattleStage": 810005027,
		"unit_UnitUnit": 820007,
		"money": 0,
		"initial_coordinate_x": 3,
		"initial_coordinate_y": 15,
		"reinforcement_BattleReinforcement": 0,
		"initial_direction": 180.0,
		"ai_move_group": 0,
		"ai_target_move_x": -1,
		"ai_target_move_y": -1,
		"ai_skill_function": "",
		"ai_attack": "IF( turn <=7 ,IF(panel_move_distance <= 2, 1, 0),1)",
		"ai_move": "IF(turn <7,0,1)",
		"ai_heal": "",
		"ai_skill": "",
		"ai_use": "",
		"skill_group_id": 12716,
		"gear_GearGear": 24001,
		"gear_rank": 5,
		"proficiency_UnitProficiency": 4,
		"level": 63,
		"hp": 123,
		"strength": 106,
		"vitality": 83,
		"intelligence": 9,
		"mind": 21,
		"agility": 47,
		"dexterity": 74,
		"lucky": 47,
		"parameter_table_BattleEnemyParameterTable": 0,
		"parameter_deviation_table_BattleEnemyParameterDeviationTable": 0,
		"acquire_skill_group_id": 0,
		"level_correction": 0,
		"group_id": 0,
		"ai_script_id_BattleAIScript": 0
	},
	{
		"ID": 71871,
		"stage_BattleStage": 810005027,
		"unit_UnitUnit": 820007,
		"money": 0,
		"initial_coordinate_x": 6,
		"initial_coordinate_y": 15,
		"reinforcement_BattleReinforcement": 0,
		"initial_direction": 180.0,
		"ai_move_group": 0,
		"ai_target_move_x": -1,
		"ai_target_move_y": -1,
		"ai_skill_function": "",
		"ai_attack": "IF( turn <=7 ,IF(panel_move_distance <= 2, 1, 0),1)",
		"ai_move": "IF(turn <7,0,1)",
		"ai_heal": "",
		"ai_skill": "",
		"ai_use": "",
		"skill_group_id": 12715,
		"gear_GearGear": 24001,
		"gear_rank": 5,
		"proficiency_UnitProficiency": 4,
		"level": 63,
		"hp": 122,
		"strength": 105,
		"vitality": 85,
		"intelligence": 7,
		"mind": 22,
		"agility": 46,
		"dexterity": 75,
		"lucky": 44,
		"parameter_table_BattleEnemyParameterTable": 0,
		"parameter_deviation_table_BattleEnemyParameterDeviationTable": 0,
		"acquire_skill_group_id": 0,
		"level_correction": 0,
		"group_id": 0,
		"ai_script_id_BattleAIScript": 0
	},
	{
		"ID": 71872,
		"stage_BattleStage": 810005027,
		"unit_UnitUnit": 860001,
		"money": 0,
		"initial_coordinate_x": 13,
		"initial_coordinate_y": 16,
		"reinforcement_BattleReinforcement": 0,
		"initial_direction": 180.0,
		"ai_move_group": 0,
		"ai_target_move_x": -1,
		"ai_target_move_y": -1,
		"ai_skill_function": "",
		"ai_attack": "IF( turn <=7 ,IF(panel_move_distance <= 2, 1, 0),1)",
		"ai_move": "IF(turn <7,0,1)",
		"ai_heal": "",
		"ai_skill": "",
		"ai_use": "",
		"skill_group_id": 551,
		"gear_GearGear": 80010,
		"gear_rank": 5,
		"proficiency_UnitProficiency": 3,
		"level": 63,
		"hp": 97,
		"strength": 16,
		"vitality": 55,
		"intelligence": 68,
		"mind": 53,
		"agility": 74,
		"dexterity": 78,
		"lucky": 44,
		"parameter_table_BattleEnemyParameterTable": 0,
		"parameter_deviation_table_BattleEnemyParameterDeviationTable": 0,
		"acquire_skill_group_id": 0,
		"level_correction": 0,
		"group_id": 0,
		"ai_script_id_BattleAIScript": 0
	},
	{
		"ID": 71873,
		"stage_BattleStage": 810005027,
		"unit_UnitUnit": 860001,
		"money": 0,
		"initial_coordinate_x": 12,
		"initial_coordinate_y": 15,
		"reinforcement_BattleReinforcement": 0,
		"initial_direction": 180.0,
		"ai_move_group": 0,
		"ai_target_move_x": -1,
		"ai_target_move_y": -1,
		"ai_skill_function": "",
		"ai_attack": "IF( turn <=7 ,IF(panel_move_distance <= 2, 1, 0),1)",
		"ai_move": "IF(turn <7,0,1)",
		"ai_heal": "",
		"ai_skill": "",
		"ai_use": "",
		"skill_group_id": 552,
		"gear_GearGear": 80010,
		"gear_rank": 5,
		"proficiency_UnitProficiency": 3,
		"level": 63,
		"hp": 95,
		"strength": 13,
		"vitality": 53,
		"intelligence": 68,
		"mind": 55,
		"agility": 75,
		"dexterity": 77,
		"lucky": 44,
		"parameter_table_BattleEnemyParameterTable": 0,
		"parameter_deviation_table_BattleEnemyParameterDeviationTable": 0,
		"acquire_skill_group_id": 0,
		"level_correction": 0,
		"group_id": 0,
		"ai_script_id_BattleAIScript": 0
	},
	{
		"ID": 71874,
		"stage_BattleStage": 810005027,
		"unit_UnitUnit": 860001,
		"money": 0,
		"initial_coordinate_x": 11,
		"initial_coordinate_y": 14,
		"reinforcement_BattleReinforcement": 0,
		"initial_direction": 180.0,
		"ai_move_group": 0,
		"ai_target_move_x": -1,
		"ai_target_move_y": -1,
		"ai_skill_function": "",
		"ai_attack": "IF( turn <=7 ,IF(panel_move_distance <= 2, 1, 0),1)",
		"ai_move": "IF(turn <7,0,1)",
		"ai_heal": "",
		"ai_skill": "",
		"ai_use": "",
		"skill_group_id": 553,
		"gear_GearGear": 80010,
		"gear_rank": 5,
		"proficiency_UnitProficiency": 3,
		"level": 63,
		"hp": 95,
		"strength": 13,
		"vitality": 55,
		"intelligence": 68,
		"mind": 55,
		"agility": 73,
		"dexterity": 77,
		"lucky": 48,
		"parameter_table_BattleEnemyParameterTable": 0,
		"parameter_deviation_table_BattleEnemyParameterDeviationTable": 0,
		"acquire_skill_group_id": 0,
		"level_correction": 0,
		"group_id": 0,
		"ai_script_id_BattleAIScript": 0
	},
	{
		"ID": 71875,
		"stage_BattleStage": 810005027,
		"unit_UnitUnit": 920019,
		"money": 0,
		"initial_coordinate_x": 15,
		"initial_coordinate_y": 12,
		"reinforcement_BattleReinforcement": 0,
		"initial_direction": 180.0,
		"ai_move_group": 0,
		"ai_target_move_x": -1,
		"ai_target_move_y": -1,
		"ai_skill_function": "",
		"ai_attack": "IF( turn <=4 ,IF(panel_move_distance <= 2, 1, 0),1)",
		"ai_move": "IF(turn <4,0,1)",
		"ai_heal": "",
		"ai_skill": "",
		"ai_use": "",
		"skill_group_id": 12473,
		"gear_GearGear": 24001,
		"gear_rank": 5,
		"proficiency_UnitProficiency": 4,
		"level": 63,
		"hp": 150,
		"strength": 108,
		"vitality": 90,
		"intelligence": 4,
		"mind": 33,
		"agility": 51,
		"dexterity": 90,
		"lucky": 33,
		"parameter_table_BattleEnemyParameterTable": 0,
		"parameter_deviation_table_BattleEnemyParameterDeviationTable": 0,
		"acquire_skill_group_id": 0,
		"level_correction": 0,
		"group_id": 0,
		"ai_script_id_BattleAIScript": 0
	},
	{
		"ID": 71876,
		"stage_BattleStage": 810005027,
		"unit_UnitUnit": 930019,
		"money": 0,
		"initial_coordinate_x": 17,
		"initial_coordinate_y": 12,
		"reinforcement_BattleReinforcement": 0,
		"initial_direction": 180.0,
		"ai_move_group": 0,
		"ai_target_move_x": -1,
		"ai_target_move_y": -1,
		"ai_skill_function": "",
		"ai_attack": "IF( turn <=4 ,IF(panel_move_distance <= 2, 1, 0),1)",
		"ai_move": "IF(turn <4,0,1)",
		"ai_heal": "",
		"ai_skill": "",
		"ai_use": "",
		"skill_group_id": 12472,
		"gear_GearGear": 34001,
		"gear_rank": 5,
		"proficiency_UnitProficiency": 4,
		"level": 63,
		"hp": 146,
		"strength": 104,
		"vitality": 93,
		"intelligence": 5,
		"mind": 33,
		"agility": 58,
		"dexterity": 93,
		"lucky": 33,
		"parameter_table_BattleEnemyParameterTable": 0,
		"parameter_deviation_table_BattleEnemyParameterDeviationTable": 0,
		"acquire_skill_group_id": 0,
		"level_correction": 0,
		"group_id": 0,
		"ai_script_id_BattleAIScript": 0
	},
	{
		"ID": 71877,
		"stage_BattleStage": 810005027,
		"unit_UnitUnit": 910019,
		"money": 0,
		"initial_coordinate_x": 16,
		"initial_coordinate_y": 11,
		"reinforcement_BattleReinforcement": 0,
		"initial_direction": 180.0,
		"ai_move_group": 0,
		"ai_target_move_x": -1,
		"ai_target_move_y": -1,
		"ai_skill_function": "",
		"ai_attack": "IF( turn <=4 ,IF(panel_move_distance <= 2, 1, 0),1)",
		"ai_move": "IF(turn <4,0,1)",
		"ai_heal": "",
		"ai_skill": "",
		"ai_use": "",
		"skill_group_id": 12471,
		"gear_GearGear": 14001,
		"gear_rank": 5,
		"proficiency_UnitProficiency": 4,
		"level": 63,
		"hp": 149,
		"strength": 104,
		"vitality": 90,
		"intelligence": 5,
		"mind": 32,
		"agility": 61,
		"dexterity": 95,
		"lucky": 31,
		"parameter_table_BattleEnemyParameterTable": 0,
		"parameter_deviation_table_BattleEnemyParameterDeviationTable": 0,
		"acquire_skill_group_id": 0,
		"level_correction": 0,
		"group_id": 0,
		"ai_script_id_BattleAIScript": 0
	},
	{
		"ID": 71878,
		"stage_BattleStage": 810005027,
		"unit_UnitUnit": 830001,
		"money": 0,
		"initial_coordinate_x": 13,
		"initial_coordinate_y": 8,
		"reinforcement_BattleReinforcement": 0,
		"initial_direction": 180.0,
		"ai_move_group": 0,
		"ai_target_move_x": -1,
		"ai_target_move_y": -1,
		"ai_skill_function": "",
		"ai_attack": "IF( turn <=2 ,IF(panel_move_distance <= 4, 1, 0),1)",
		"ai_move": "IF(turn <2,0,1)",
		"ai_heal": "",
		"ai_skill": "",
		"ai_use": "",
		"skill_group_id": 12714,
		"gear_GearGear": 34001,
		"gear_rank": 5,
		"proficiency_UnitProficiency": 4,
		"level": 63,
		"hp": 99,
		"strength": 77,
		"vitality": 65,
		"intelligence": 17,
		"mind": 41,
		"agility": 74,
		"dexterity": 82,
		"lucky": 47,
		"parameter_table_BattleEnemyParameterTable": 0,
		"parameter_deviation_table_BattleEnemyParameterDeviationTable": 0,
		"acquire_skill_group_id": 0,
		"level_correction": 0,
		"group_id": 0,
		"ai_script_id_BattleAIScript": 0
	},
	{
		"ID": 71879,
		"stage_BattleStage": 810005027,
		"unit_UnitUnit": 830001,
		"money": 0,
		"initial_coordinate_x": 14,
		"initial_coordinate_y": 7,
		"reinforcement_BattleReinforcement": 0,
		"initial_direction": 180.0,
		"ai_move_group": 0,
		"ai_target_move_x": -1,
		"ai_target_move_y": -1,
		"ai_skill_function": "",
		"ai_attack": "IF( turn <=2 ,IF(panel_move_distance <= 4, 1, 0),1)",
		"ai_move": "IF(turn <2,0,1)",
		"ai_heal": "",
		"ai_skill": "",
		"ai_use": "",
		"skill_group_id": 12715,
		"gear_GearGear": 34001,
		"gear_rank": 5,
		"proficiency_UnitProficiency": 4,
		"level": 63,
		"hp": 100,
		"strength": 75,
		"vitality": 63,
		"intelligence": 19,
		"mind": 42,
		"agility": 74,
		"dexterity": 80,
		"lucky": 44,
		"parameter_table_BattleEnemyParameterTable": 0,
		"parameter_deviation_table_BattleEnemyParameterDeviationTable": 0,
		"acquire_skill_group_id": 0,
		"level_correction": 0,
		"group_id": 0,
		"ai_script_id_BattleAIScript": 0
	},
	{
		"ID": 71880,
		"stage_BattleStage": 810005027,
		"unit_UnitUnit": 860001,
		"money": 0,
		"initial_coordinate_x": 13,
		"initial_coordinate_y": 6,
		"reinforcement_BattleReinforcement": 0,
		"initial_direction": 180.0,
		"ai_move_group": 0,
		"ai_target_move_x": -1,
		"ai_target_move_y": -1,
		"ai_skill_function": "",
		"ai_attack": "IF( turn <=2 ,IF(panel_move_distance <= 4, 1, 0),1)",
		"ai_move": "IF(turn <2,0,1)",
		"ai_heal": "",
		"ai_skill": "",
		"ai_use": "",
		"skill_group_id": 554,
		"gear_GearGear": 80010,
		"gear_rank": 5,
		"proficiency_UnitProficiency": 3,
		"level": 63,
		"hp": 95,
		"strength": 16,
		"vitality": 52,
		"intelligence": 68,
		"mind": 55,
		"agility": 75,
		"dexterity": 78,
		"lucky": 47,
		"parameter_table_BattleEnemyParameterTable": 0,
		"parameter_deviation_table_BattleEnemyParameterDeviationTable": 0,
		"acquire_skill_group_id": 0,
		"level_correction": 0,
		"group_id": 0,
		"ai_script_id_BattleAIScript": 0
	},
	{
		"ID": 71881,
		"stage_BattleStage": 810005027,
		"unit_UnitUnit": 860001,
		"money": 0,
		"initial_coordinate_x": 12,
		"initial_coordinate_y": 7,
		"reinforcement_BattleReinforcement": 0,
		"initial_direction": 180.0,
		"ai_move_group": 0,
		"ai_target_move_x": -1,
		"ai_target_move_y": -1,
		"ai_skill_function": "",
		"ai_attack": "IF( turn <=2 ,IF(panel_move_distance <= 4, 1, 0),1)",
		"ai_move": "IF(turn <2,0,1)",
		"ai_heal": "",
		"ai_skill": "",
		"ai_use": "",
		"skill_group_id": 555,
		"gear_GearGear": 80010,
		"gear_rank": 5,
		"proficiency_UnitProficiency": 3,
		"level": 63,
		"hp": 95,
		"strength": 14,
		"vitality": 53,
		"intelligence": 70,
		"mind": 55,
		"agility": 74,
		"dexterity": 77,
		"lucky": 44,
		"parameter_table_BattleEnemyParameterTable": 0,
		"parameter_deviation_table_BattleEnemyParameterDeviationTable": 0,
		"acquire_skill_group_id": 0,
		"level_correction": 0,
		"group_id": 0,
		"ai_script_id_BattleAIScript": 0
	},
	{
		"ID": 71882,
		"stage_BattleStage": 810005027,
		"unit_UnitUnit": 830003,
		"money": 0,
		"initial_coordinate_x": 11,
		"initial_coordinate_y": 4,
		"reinforcement_BattleReinforcement": 0,
		"initial_direction": 270.0,
		"ai_move_group": 0,
		"ai_target_move_x": -1,
		"ai_target_move_y": -1,
		"ai_skill_function": "",
		"ai_attack": "",
		"ai_move": "",
		"ai_heal": "",
		"ai_skill": "",
		"ai_use": "",
		"skill_group_id": 12793,
		"gear_GearGear": 34001,
		"gear_rank": 5,
		"proficiency_UnitProficiency": 4,
		"level": 63,
		"hp": 130,
		"strength": 98,
		"vitality": 95,
		"intelligence": 8,
		"mind": 22,
		"agility": 52,
		"dexterity": 75,
		"lucky": 48,
		"parameter_table_BattleEnemyParameterTable": 0,
		"parameter_deviation_table_BattleEnemyParameterDeviationTable": 0,
		"acquire_skill_group_id": 0,
		"level_correction": 0,
		"group_id": 0,
		"ai_script_id_BattleAIScript": 0
	},
	{
		"ID": 71883,
		"stage_BattleStage": 810005027,
		"unit_UnitUnit": 820003,
		"money": 0,
		"initial_coordinate_x": 10,
		"initial_coordinate_y": 3,
		"reinforcement_BattleReinforcement": 0,
		"initial_direction": 270.0,
		"ai_move_group": 0,
		"ai_target_move_x": -1,
		"ai_target_move_y": -1,
		"ai_skill_function": "",
		"ai_attack": "",
		"ai_move": "",
		"ai_heal": "",
		"ai_skill": "",
		"ai_use": "",
		"skill_group_id": 12794,
		"gear_GearGear": 24001,
		"gear_rank": 5,
		"proficiency_UnitProficiency": 4,
		"level": 63,
		"hp": 133,
		"strength": 102,
		"vitality": 95,
		"intelligence": 9,
		"mind": 21,
		"agility": 42,
		"dexterity": 74,
		"lucky": 48,
		"parameter_table_BattleEnemyParameterTable": 0,
		"parameter_deviation_table_BattleEnemyParameterDeviationTable": 0,
		"acquire_skill_group_id": 0,
		"level_correction": 0,
		"group_id": 0,
		"ai_script_id_BattleAIScript": 0
	},
	{
		"ID": 71884,
		"stage_BattleStage": 810005027,
		"unit_UnitUnit": 830003,
		"money": 0,
		"initial_coordinate_x": 11,
		"initial_coordinate_y": 2,
		"reinforcement_BattleReinforcement": 0,
		"initial_direction": 270.0,
		"ai_move_group": 0,
		"ai_target_move_x": -1,
		"ai_target_move_y": -1,
		"ai_skill_function": "",
		"ai_attack": "",
		"ai_move": "",
		"ai_heal": "",
		"ai_skill": "",
		"ai_use": "",
		"skill_group_id": 12796,
		"gear_GearGear": 34001,
		"gear_rank": 5,
		"proficiency_UnitProficiency": 4,
		"level": 63,
		"hp": 128,
		"strength": 96,
		"vitality": 95,
		"intelligence": 7,
		"mind": 21,
		"agility": 51,
		"dexterity": 73,
		"lucky": 48,
		"parameter_table_BattleEnemyParameterTable": 0,
		"parameter_deviation_table_BattleEnemyParameterDeviationTable": 0,
		"acquire_skill_group_id": 0,
		"level_correction": 0,
		"group_id": 0,
		"ai_script_id_BattleAIScript": 0
	},
	{
		"ID": 71885,
		"stage_BattleStage": 810005027,
		"unit_UnitUnit": 810004,
		"money": 0,
		"initial_coordinate_x": 7,
		"initial_coordinate_y": 5,
		"reinforcement_BattleReinforcement": 0,
		"initial_direction": 180.0,
		"ai_move_group": 0,
		"ai_target_move_x": -1,
		"ai_target_move_y": -1,
		"ai_skill_function": "",
		"ai_attack": "",
		"ai_move": "",
		"ai_heal": "",
		"ai_skill": "",
		"ai_use": "",
		"skill_group_id": 564,
		"gear_GearGear": 14002,
		"gear_rank": 5,
		"proficiency_UnitProficiency": 4,
		"level": 63,
		"hp": 111,
		"strength": 95,
		"vitality": 60,
		"intelligence": 8,
		"mind": 28,
		"agility": 74,
		"dexterity": 92,
		"lucky": 47,
		"parameter_table_BattleEnemyParameterTable": 0,
		"parameter_deviation_table_BattleEnemyParameterDeviationTable": 0,
		"acquire_skill_group_id": 0,
		"level_correction": 0,
		"group_id": 0,
		"ai_script_id_BattleAIScript": 0
	},
	{
		"ID": 71886,
		"stage_BattleStage": 810005027,
		"unit_UnitUnit": 910013,
		"money": 0,
		"initial_coordinate_x": 6,
		"initial_coordinate_y": 6,
		"reinforcement_BattleReinforcement": 0,
		"initial_direction": 180.0,
		"ai_move_group": 0,
		"ai_target_move_x": -1,
		"ai_target_move_y": -1,
		"ai_skill_function": "",
		"ai_attack": "",
		"ai_move": "",
		"ai_heal": "",
		"ai_skill": "",
		"ai_use": "",
		"skill_group_id": 566,
		"gear_GearGear": 14002,
		"gear_rank": 5,
		"proficiency_UnitProficiency": 4,
		"level": 63,
		"hp": 109,
		"strength": 95,
		"vitality": 61,
		"intelligence": 9,
		"mind": 29,
		"agility": 73,
		"dexterity": 93,
		"lucky": 44,
		"parameter_table_BattleEnemyParameterTable": 0,
		"parameter_deviation_table_BattleEnemyParameterDeviationTable": 0,
		"acquire_skill_group_id": 0,
		"level_correction": 0,
		"group_id": 0,
		"ai_script_id_BattleAIScript": 0
	},
	{
		"ID": 71887,
		"stage_BattleStage": 810005027,
		"unit_UnitUnit": 810004,
		"money": 0,
		"initial_coordinate_x": 5,
		"initial_coordinate_y": 7,
		"reinforcement_BattleReinforcement": 0,
		"initial_direction": 180.0,
		"ai_move_group": 0,
		"ai_target_move_x": -1,
		"ai_target_move_y": -1,
		"ai_skill_function": "",
		"ai_attack": "",
		"ai_move": "",
		"ai_heal": "",
		"ai_skill": "",
		"ai_use": "",
		"skill_group_id": 561,
		"gear_GearGear": 14002,
		"gear_rank": 5,
		"proficiency_UnitProficiency": 4,
		"level": 63,
		"hp": 111,
		"strength": 95,
		"vitality": 60,
		"intelligence": 7,
		"mind": 29,
		"agility": 74,
		"dexterity": 92,
		"lucky": 48,
		"parameter_table_BattleEnemyParameterTable": 0,
		"parameter_deviation_table_BattleEnemyParameterDeviationTable": 0,
		"acquire_skill_group_id": 0,
		"level_correction": 0,
		"group_id": 0,
		"ai_script_id_BattleAIScript": 0
	}
]