[
	{
		"ID": 72050,
		"stage_BattleStage": 810005037,
		"unit_UnitUnit": 200154,
		"money": 0,
		"initial_coordinate_x": 2,
		"initial_coordinate_y": 17,
		"reinforcement_BattleReinforcement": 0,
		"initial_direction": 180.0,
		"ai_move_group": 0,
		"ai_target_move_x": -1,
		"ai_target_move_y": -1,
		"ai_skill_function": "",
		"ai_attack": "IF( turn <=5 ,IF(panel_move_distance <= 3, 1, 0),1)",
		"ai_move": "IF(turn <5,0,1)",
		"ai_heal": "",
		"ai_skill": "",
		"ai_use": "",
		"skill_group_id": 13909,
		"gear_GearGear": 24001,
		"gear_rank": 5,
		"proficiency_UnitProficiency": 4,
		"level": 76,
		"hp": 160,
		"strength": 112,
		"vitality": 99,
		"intelligence": 19,
		"mind": 54,
		"agility": 109,
		"dexterity": 110,
		"lucky": 68,
		"parameter_table_BattleEnemyParameterTable": 0,
		"parameter_deviation_table_BattleEnemyParameterDeviationTable": 0,
		"acquire_skill_group_id": 0,
		"level_correction": 0,
		"group_id": 0,
		"ai_script_id_BattleAIScript": 0
	},
	{
		"ID": 72051,
		"stage_BattleStage": 810005037,
		"unit_UnitUnit": 820007,
		"money": 0,
		"initial_coordinate_x": 6,
		"initial_coordinate_y": 19,
		"reinforcement_BattleReinforcement": 0,
		"initial_direction": 180.0,
		"ai_move_group": 0,
		"ai_target_move_x": -1,
		"ai_target_move_y": -1,
		"ai_skill_function": "",
		"ai_attack": "IF( turn <=8 ,IF(panel_move_distance <= 4, 1, 0),1)",
		"ai_move": "IF(turn <8,0,1)",
		"ai_heal": "",
		"ai_skill": "",
		"ai_use": "",
		"skill_group_id": 13655,
		"gear_GearGear": 24001,
		"gear_rank": 5,
		"proficiency_UnitProficiency": 4,
		"level": 76,
		"hp": 127,
		"strength": 131,
		"vitality": 107,
		"intelligence": 11,
		"mind": 27,
		"agility": 51,
		"dexterity": 67,
		"lucky": 44,
		"parameter_table_BattleEnemyParameterTable": 0,
		"parameter_deviation_table_BattleEnemyParameterDeviationTable": 0,
		"acquire_skill_group_id": 0,
		"level_correction": 0,
		"group_id": 0,
		"ai_script_id_BattleAIScript": 0
	},
	{
		"ID": 72052,
		"stage_BattleStage": 810005037,
		"unit_UnitUnit": 600234,
		"money": 0,
		"initial_coordinate_x": 4,
		"initial_coordinate_y": 17,
		"reinforcement_BattleReinforcement": 0,
		"initial_direction": 180.0,
		"ai_move_group": 0,
		"ai_target_move_x": -1,
		"ai_target_move_y": -1,
		"ai_skill_function": "",
		"ai_attack": "IF( turn <=5 ,IF(panel_move_distance <= 4, 1, 0),1)",
		"ai_move": "IF(turn <5,0,1)",
		"ai_heal": "",
		"ai_skill": "",
		"ai_use": "",
		"skill_group_id": 13912,
		"gear_GearGear": 65004,
		"gear_rank": 5,
		"proficiency_UnitProficiency": 5,
		"level": 76,
		"hp": 138,
		"strength": 19,
		"vitality": 63,
		"intelligence": 82,
		"mind": 108,
		"agility": 108,
		"dexterity": 113,
		"lucky": 65,
		"parameter_table_BattleEnemyParameterTable": 0,
		"parameter_deviation_table_BattleEnemyParameterDeviationTable": 0,
		"acquire_skill_group_id": 0,
		"level_correction": 0,
		"group_id": 0,
		"ai_script_id_BattleAIScript": 0
	},
	{
		"ID": 72053,
		"stage_BattleStage": 810005037,
		"unit_UnitUnit": 840018,
		"money": 0,
		"initial_coordinate_x": 6,
		"initial_coordinate_y": 16,
		"reinforcement_BattleReinforcement": 0,
		"initial_direction": 180.0,
		"ai_move_group": 0,
		"ai_target_move_x": -1,
		"ai_target_move_y": -1,
		"ai_skill_function": "",
		"ai_attack": "IF( turn <=8 ,IF(panel_move_distance <= 2, 1, 0),1)",
		"ai_move": "IF(turn <8,0,1)",
		"ai_heal": "",
		"ai_skill": "",
		"ai_use": "",
		"skill_group_id": 12465,
		"gear_GearGear": 45008,
		"gear_rank": 5,
		"proficiency_UnitProficiency": 5,
		"level": 76,
		"hp": 121,
		"strength": 93,
		"vitality": 92,
		"intelligence": 9,
		"mind": 41,
		"agility": 73,
		"dexterity": 96,
		"lucky": 44,
		"parameter_table_BattleEnemyParameterTable": 0,
		"parameter_deviation_table_BattleEnemyParameterDeviationTable": 0,
		"acquire_skill_group_id": 0,
		"level_correction": 0,
		"group_id": 0,
		"ai_script_id_BattleAIScript": 0
	},
	{
		"ID": 72054,
		"stage_BattleStage": 810005037,
		"unit_UnitUnit": 940019,
		"money": 0,
		"initial_coordinate_x": 12,
		"initial_coordinate_y": 19,
		"reinforcement_BattleReinforcement": 0,
		"initial_direction": 180.0,
		"ai_move_group": 0,
		"ai_target_move_x": -1,
		"ai_target_move_y": -1,
		"ai_skill_function": "",
		"ai_attack": "IF( turn <=8 ,IF(panel_move_distance <= 2, 1, 0),1)",
		"ai_move": "IF(turn <8,0,1)",
		"ai_heal": "",
		"ai_skill": "",
		"ai_use": "",
		"skill_group_id": 12465,
		"gear_GearGear": 45008,
		"gear_rank": 5,
		"proficiency_UnitProficiency": 5,
		"level": 76,
		"hp": 126,
		"strength": 102,
		"vitality": 96,
		"intelligence": 10,
		"mind": 39,
		"agility": 73,
		"dexterity": 96,
		"lucky": 46,
		"parameter_table_BattleEnemyParameterTable": 0,
		"parameter_deviation_table_BattleEnemyParameterDeviationTable": 0,
		"acquire_skill_group_id": 0,
		"level_correction": 0,
		"group_id": 0,
		"ai_script_id_BattleAIScript": 0
	},
	{
		"ID": 72055,
		"stage_BattleStage": 810005037,
		"unit_UnitUnit": 201953,
		"money": 0,
		"initial_coordinate_x": 13,
		"initial_coordinate_y": 18,
		"reinforcement_BattleReinforcement": 0,
		"initial_direction": 180.0,
		"ai_move_group": 0,
		"ai_target_move_x": -1,
		"ai_target_move_y": -1,
		"ai_skill_function": "",
		"ai_attack": "IF( turn <=5 ,IF(panel_move_distance <= 3, 1, 0),1)",
		"ai_move": "IF(turn <5,0,1)",
		"ai_heal": "",
		"ai_skill": "",
		"ai_use": "",
		"skill_group_id": 13910,
		"gear_GearGear": 25002,
		"gear_rank": 5,
		"proficiency_UnitProficiency": 5,
		"level": 76,
		"hp": 205,
		"strength": 117,
		"vitality": 98,
		"intelligence": 61,
		"mind": 54,
		"agility": 116,
		"dexterity": 108,
		"lucky": 68,
		"parameter_table_BattleEnemyParameterTable": 0,
		"parameter_deviation_table_BattleEnemyParameterDeviationTable": 0,
		"acquire_skill_group_id": 0,
		"level_correction": 0,
		"group_id": 0,
		"ai_script_id_BattleAIScript": 0
	},
	{
		"ID": 72056,
		"stage_BattleStage": 810005037,
		"unit_UnitUnit": 940019,
		"money": 0,
		"initial_coordinate_x": 14,
		"initial_coordinate_y": 17,
		"reinforcement_BattleReinforcement": 0,
		"initial_direction": 180.0,
		"ai_move_group": 0,
		"ai_target_move_x": -1,
		"ai_target_move_y": -1,
		"ai_skill_function": "",
		"ai_attack": "IF( turn <=8 ,IF(panel_move_distance <= 2, 1, 0),1)",
		"ai_move": "IF(turn <8,0,1)",
		"ai_heal": "",
		"ai_skill": "",
		"ai_use": "",
		"skill_group_id": 12465,
		"gear_GearGear": 44003,
		"gear_rank": 5,
		"proficiency_UnitProficiency": 4,
		"level": 76,
		"hp": 120,
		"strength": 92,
		"vitality": 96,
		"intelligence": 8,
		"mind": 40,
		"agility": 74,
		"dexterity": 95,
		"lucky": 47,
		"parameter_table_BattleEnemyParameterTable": 0,
		"parameter_deviation_table_BattleEnemyParameterDeviationTable": 0,
		"acquire_skill_group_id": 0,
		"level_correction": 0,
		"group_id": 0,
		"ai_script_id_BattleAIScript": 0
	},
	{
		"ID": 72057,
		"stage_BattleStage": 810005037,
		"unit_UnitUnit": 301413,
		"money": 0,
		"initial_coordinate_x": 14,
		"initial_coordinate_y": 14,
		"reinforcement_BattleReinforcement": 0,
		"initial_direction": 180.0,
		"ai_move_group": 0,
		"ai_target_move_x": -1,
		"ai_target_move_y": -1,
		"ai_skill_function": "",
		"ai_attack": "IF( turn <=5 ,IF(panel_move_distance <= 3, 1, 0),1)",
		"ai_move": "IF(turn <5,0,1)",
		"ai_heal": "",
		"ai_skill": "",
		"ai_use": "",
		"skill_group_id": 13911,
		"gear_GearGear": 35003,
		"gear_rank": 5,
		"proficiency_UnitProficiency": 5,
		"level": 76,
		"hp": 162,
		"strength": 102,
		"vitality": 154,
		"intelligence": 19,
		"mind": 43,
		"agility": 109,
		"dexterity": 118,
		"lucky": 55,
		"parameter_table_BattleEnemyParameterTable": 0,
		"parameter_deviation_table_BattleEnemyParameterDeviationTable": 0,
		"acquire_skill_group_id": 0,
		"level_correction": 0,
		"group_id": 0,
		"ai_script_id_BattleAIScript": 0
	},
	{
		"ID": 72058,
		"stage_BattleStage": 810005037,
		"unit_UnitUnit": 840018,
		"money": 0,
		"initial_coordinate_x": 15,
		"initial_coordinate_y": 13,
		"reinforcement_BattleReinforcement": 0,
		"initial_direction": 180.0,
		"ai_move_group": 0,
		"ai_target_move_x": -1,
		"ai_target_move_y": -1,
		"ai_skill_function": "",
		"ai_attack": "IF( turn <=4 ,IF(panel_move_distance <= 2, 1, 0),1)",
		"ai_move": "IF(turn <4,0,1)",
		"ai_heal": "",
		"ai_skill": "",
		"ai_use": "",
		"skill_group_id": 12465,
		"gear_GearGear": 44003,
		"gear_rank": 5,
		"proficiency_UnitProficiency": 4,
		"level": 76,
		"hp": 120,
		"strength": 93,
		"vitality": 89,
		"intelligence": 10,
		"mind": 39,
		"agility": 73,
		"dexterity": 97,
		"lucky": 46,
		"parameter_table_BattleEnemyParameterTable": 0,
		"parameter_deviation_table_BattleEnemyParameterDeviationTable": 0,
		"acquire_skill_group_id": 0,
		"level_correction": 0,
		"group_id": 0,
		"ai_script_id_BattleAIScript": 0
	},
	{
		"ID": 72059,
		"stage_BattleStage": 810005037,
		"unit_UnitUnit": 820007,
		"money": 0,
		"initial_coordinate_x": 14,
		"initial_coordinate_y": 12,
		"reinforcement_BattleReinforcement": 0,
		"initial_direction": 180.0,
		"ai_move_group": 0,
		"ai_target_move_x": -1,
		"ai_target_move_y": -1,
		"ai_skill_function": "",
		"ai_attack": "IF( turn <=4 ,IF(panel_move_distance <= 4, 1, 0),1)",
		"ai_move": "IF(turn <4,0,1)",
		"ai_heal": "",
		"ai_skill": "",
		"ai_use": "",
		"skill_group_id": 13656,
		"gear_GearGear": 25001,
		"gear_rank": 5,
		"proficiency_UnitProficiency": 5,
		"level": 76,
		"hp": 129,
		"strength": 136,
		"vitality": 106,
		"intelligence": 11,
		"mind": 27,
		"agility": 52,
		"dexterity": 67,
		"lucky": 44,
		"parameter_table_BattleEnemyParameterTable": 0,
		"parameter_deviation_table_BattleEnemyParameterDeviationTable": 0,
		"acquire_skill_group_id": 0,
		"level_correction": 0,
		"group_id": 0,
		"ai_script_id_BattleAIScript": 0
	},
	{
		"ID": 72060,
		"stage_BattleStage": 810005037,
		"unit_UnitUnit": 940019,
		"money": 0,
		"initial_coordinate_x": 13,
		"initial_coordinate_y": 13,
		"reinforcement_BattleReinforcement": 0,
		"initial_direction": 180.0,
		"ai_move_group": 0,
		"ai_target_move_x": -1,
		"ai_target_move_y": -1,
		"ai_skill_function": "",
		"ai_attack": "IF( turn <=4 ,IF(panel_move_distance <= 2, 1, 0),1)",
		"ai_move": "IF(turn <4,0,1)",
		"ai_heal": "",
		"ai_skill": "",
		"ai_use": "",
		"skill_group_id": 12466,
		"gear_GearGear": 45007,
		"gear_rank": 5,
		"proficiency_UnitProficiency": 5,
		"level": 76,
		"hp": 123,
		"strength": 92,
		"vitality": 93,
		"intelligence": 9,
		"mind": 40,
		"agility": 74,
		"dexterity": 97,
		"lucky": 47,
		"parameter_table_BattleEnemyParameterTable": 0,
		"parameter_deviation_table_BattleEnemyParameterDeviationTable": 0,
		"acquire_skill_group_id": 0,
		"level_correction": 0,
		"group_id": 0,
		"ai_script_id_BattleAIScript": 0
	},
	{
		"ID": 72061,
		"stage_BattleStage": 810005037,
		"unit_UnitUnit": 940019,
		"money": 0,
		"initial_coordinate_x": 12,
		"initial_coordinate_y": 5,
		"reinforcement_BattleReinforcement": 0,
		"initial_direction": 270.0,
		"ai_move_group": 0,
		"ai_target_move_x": -1,
		"ai_target_move_y": -1,
		"ai_skill_function": "",
		"ai_attack": "IF( turn <=2 ,IF(panel_move_distance <= 2, 1, 0),1)",
		"ai_move": "IF(turn <2,0,1)",
		"ai_heal": "",
		"ai_skill": "",
		"ai_use": "",
		"skill_group_id": 13206,
		"gear_GearGear": 45007,
		"gear_rank": 5,
		"proficiency_UnitProficiency": 5,
		"level": 76,
		"hp": 124,
		"strength": 92,
		"vitality": 97,
		"intelligence": 10,
		"mind": 40,
		"agility": 75,
		"dexterity": 95,
		"lucky": 47,
		"parameter_table_BattleEnemyParameterTable": 0,
		"parameter_deviation_table_BattleEnemyParameterDeviationTable": 0,
		"acquire_skill_group_id": 0,
		"level_correction": 0,
		"group_id": 0,
		"ai_script_id_BattleAIScript": 0
	},
	{
		"ID": 72062,
		"stage_BattleStage": 810005037,
		"unit_UnitUnit": 500844,
		"money": 0,
		"initial_coordinate_x": 12,
		"initial_coordinate_y": 4,
		"reinforcement_BattleReinforcement": 0,
		"initial_direction": 270.0,
		"ai_move_group": 0,
		"ai_target_move_x": -1,
		"ai_target_move_y": -1,
		"ai_skill_function": "",
		"ai_attack": "IF( turn <=2 ,IF(panel_move_distance <= 2, 1, 0),1)",
		"ai_move": "IF(turn <2,0,1)",
		"ai_heal": "",
		"ai_skill": "",
		"ai_use": "",
		"skill_group_id": 13827,
		"gear_GearGear": 55003,
		"gear_rank": 5,
		"proficiency_UnitProficiency": 5,
		"level": 76,
		"hp": 131,
		"strength": 19,
		"vitality": 70,
		"intelligence": 118,
		"mind": 87,
		"agility": 108,
		"dexterity": 113,
		"lucky": 62,
		"parameter_table_BattleEnemyParameterTable": 0,
		"parameter_deviation_table_BattleEnemyParameterDeviationTable": 0,
		"acquire_skill_group_id": 0,
		"level_correction": 0,
		"group_id": 0,
		"ai_script_id_BattleAIScript": 0
	},
	{
		"ID": 72063,
		"stage_BattleStage": 810005037,
		"unit_UnitUnit": 840018,
		"money": 0,
		"initial_coordinate_x": 12,
		"initial_coordinate_y": 3,
		"reinforcement_BattleReinforcement": 0,
		"initial_direction": 270.0,
		"ai_move_group": 0,
		"ai_target_move_x": -1,
		"ai_target_move_y": -1,
		"ai_skill_function": "",
		"ai_attack": "IF( turn <=2 ,IF(panel_move_distance <= 2, 1, 0),1)",
		"ai_move": "IF(turn <2,0,1)",
		"ai_heal": "",
		"ai_skill": "",
		"ai_use": "",
		"skill_group_id": 13206,
		"gear_GearGear": 45007,
		"gear_rank": 5,
		"proficiency_UnitProficiency": 5,
		"level": 76,
		"hp": 120,
		"strength": 94,
		"vitality": 93,
		"intelligence": 9,
		"mind": 39,
		"agility": 75,
		"dexterity": 96,
		"lucky": 44,
		"parameter_table_BattleEnemyParameterTable": 0,
		"parameter_deviation_table_BattleEnemyParameterDeviationTable": 0,
		"acquire_skill_group_id": 0,
		"level_correction": 0,
		"group_id": 0,
		"ai_script_id_BattleAIScript": 0
	},
	{
		"ID": 72064,
		"stage_BattleStage": 810005037,
		"unit_UnitUnit": 860010,
		"money": 0,
		"initial_coordinate_x": 11,
		"initial_coordinate_y": 4,
		"reinforcement_BattleReinforcement": 0,
		"initial_direction": 270.0,
		"ai_move_group": 0,
		"ai_target_move_x": -1,
		"ai_target_move_y": -1,
		"ai_skill_function": "",
		"ai_attack": "IF( turn <=2 ,IF(panel_move_distance <= 2, 1, 0),1)",
		"ai_move": "IF(turn <2,0,1)",
		"ai_heal": "",
		"ai_skill": "",
		"ai_use": "",
		"skill_group_id": 556,
		"gear_GearGear": 65003,
		"gear_rank": 5,
		"proficiency_UnitProficiency": 5,
		"level": 76,
		"hp": 101,
		"strength": 14,
		"vitality": 76,
		"intelligence": 94,
		"mind": 84,
		"agility": 66,
		"dexterity": 85,
		"lucky": 44,
		"parameter_table_BattleEnemyParameterTable": 0,
		"parameter_deviation_table_BattleEnemyParameterDeviationTable": 0,
		"acquire_skill_group_id": 0,
		"level_correction": 0,
		"group_id": 0,
		"ai_script_id_BattleAIScript": 0
	},
	{
		"ID": 72065,
		"stage_BattleStage": 810005037,
		"unit_UnitUnit": 840018,
		"money": 0,
		"initial_coordinate_x": 4,
		"initial_coordinate_y": 11,
		"reinforcement_BattleReinforcement": 0,
		"initial_direction": 180.0,
		"ai_move_group": 0,
		"ai_target_move_x": -1,
		"ai_target_move_y": -1,
		"ai_skill_function": "",
		"ai_attack": "",
		"ai_move": "",
		"ai_heal": "",
		"ai_skill": "",
		"ai_use": "",
		"skill_group_id": 12466,
		"gear_GearGear": 45007,
		"gear_rank": 5,
		"proficiency_UnitProficiency": 5,
		"level": 76,
		"hp": 120,
		"strength": 94,
		"vitality": 91,
		"intelligence": 9,
		"mind": 41,
		"agility": 75,
		"dexterity": 95,
		"lucky": 44,
		"parameter_table_BattleEnemyParameterTable": 0,
		"parameter_deviation_table_BattleEnemyParameterDeviationTable": 0,
		"acquire_skill_group_id": 0,
		"level_correction": 0,
		"group_id": 0,
		"ai_script_id_BattleAIScript": 0
	},
	{
		"ID": 72066,
		"stage_BattleStage": 810005037,
		"unit_UnitUnit": 810008,
		"money": 0,
		"initial_coordinate_x": 3,
		"initial_coordinate_y": 12,
		"reinforcement_BattleReinforcement": 0,
		"initial_direction": 180.0,
		"ai_move_group": 0,
		"ai_target_move_x": -1,
		"ai_target_move_y": -1,
		"ai_skill_function": "",
		"ai_attack": "",
		"ai_move": "",
		"ai_heal": "",
		"ai_skill": "",
		"ai_use": "",
		"skill_group_id": 13266,
		"gear_GearGear": 15007,
		"gear_rank": 5,
		"proficiency_UnitProficiency": 5,
		"level": 76,
		"hp": 152,
		"strength": 110,
		"vitality": 114,
		"intelligence": 5,
		"mind": 38,
		"agility": 65,
		"dexterity": 99,
		"lucky": 46,
		"parameter_table_BattleEnemyParameterTable": 0,
		"parameter_deviation_table_BattleEnemyParameterDeviationTable": 0,
		"acquire_skill_group_id": 0,
		"level_correction": 0,
		"group_id": 0,
		"ai_script_id_BattleAIScript": 0
	},
	{
		"ID": 72067,
		"stage_BattleStage": 810005037,
		"unit_UnitUnit": 840018,
		"money": 0,
		"initial_coordinate_x": 2,
		"initial_coordinate_y": 11,
		"reinforcement_BattleReinforcement": 0,
		"initial_direction": 180.0,
		"ai_move_group": 0,
		"ai_target_move_x": -1,
		"ai_target_move_y": -1,
		"ai_skill_function": "",
		"ai_attack": "",
		"ai_move": "",
		"ai_heal": "",
		"ai_skill": "",
		"ai_use": "",
		"skill_group_id": 12466,
		"gear_GearGear": 45007,
		"gear_rank": 5,
		"proficiency_UnitProficiency": 5,
		"level": 76,
		"hp": 119,
		"strength": 92,
		"vitality": 92,
		"intelligence": 10,
		"mind": 39,
		"agility": 73,
		"dexterity": 97,
		"lucky": 44,
		"parameter_table_BattleEnemyParameterTable": 0,
		"parameter_deviation_table_BattleEnemyParameterDeviationTable": 0,
		"acquire_skill_group_id": 0,
		"level_correction": 0,
		"group_id": 0,
		"ai_script_id_BattleAIScript": 0
	},
	{
		"ID": 72068,
		"stage_BattleStage": 810005037,
		"unit_UnitUnit": 960015,
		"money": 0,
		"initial_coordinate_x": 4,
		"initial_coordinate_y": 1,
		"reinforcement_BattleReinforcement": 0,
		"initial_direction": 0.0,
		"ai_move_group": 0,
		"ai_target_move_x": -1,
		"ai_target_move_y": -1,
		"ai_skill_function": "",
		"ai_attack": "",
		"ai_move": "",
		"ai_heal": "",
		"ai_skill": "",
		"ai_use": "",
		"skill_group_id": 13696,
		"gear_GearGear": 65004,
		"gear_rank": 5,
		"proficiency_UnitProficiency": 5,
		"level": 76,
		"hp": 101,
		"strength": 14,
		"vitality": 71,
		"intelligence": 89,
		"mind": 85,
		"agility": 79,
		"dexterity": 83,
		"lucky": 42,
		"parameter_table_BattleEnemyParameterTable": 0,
		"parameter_deviation_table_BattleEnemyParameterDeviationTable": 0,
		"acquire_skill_group_id": 0,
		"level_correction": 0,
		"group_id": 0,
		"ai_script_id_BattleAIScript": 0
	},
	{
		"ID": 72069,
		"stage_BattleStage": 810005037,
		"unit_UnitUnit": 960015,
		"money": 0,
		"initial_coordinate_x": 6,
		"initial_coordinate_y": 6,
		"reinforcement_BattleReinforcement": 0,
		"initial_direction": 270.0,
		"ai_move_group": 0,
		"ai_target_move_x": -1,
		"ai_target_move_y": -1,
		"ai_skill_function": "",
		"ai_attack": "",
		"ai_move": "",
		"ai_heal": "",
		"ai_skill": "",
		"ai_use": "",
		"skill_group_id": 13696,
		"gear_GearGear": 65004,
		"gear_rank": 5,
		"proficiency_UnitProficiency": 5,
		"level": 76,
		"hp": 100,
		"strength": 15,
		"vitality": 70,
		"intelligence": 87,
		"mind": 84,
		"agility": 80,
		"dexterity": 82,
		"lucky": 44,
		"parameter_table_BattleEnemyParameterTable": 0,
		"parameter_deviation_table_BattleEnemyParameterDeviationTable": 0,
		"acquire_skill_group_id": 0,
		"level_correction": 0,
		"group_id": 0,
		"ai_script_id_BattleAIScript": 0
	}
]