[
	{
		"ID": 98526,
		"stage_BattleStage": 810008068,
		"unit_UnitUnit": 3820005,
		"money": 0,
		"initial_coordinate_x": 19,
		"initial_coordinate_y": 14,
		"reinforcement_BattleReinforcement": 0,
		"initial_direction": 270.0,
		"ai_move_group": 0,
		"ai_target_move_x": -1,
		"ai_target_move_y": -1,
		"ai_skill_function": "",
		"ai_attack": "",
		"ai_move": "IF(turn <= 6,0,1)",
		"ai_heal": "",
		"ai_skill": "",
		"ai_use": "",
		"skill_group_id": 22176,
		"gear_GearGear": 55021,
		"gear_rank": 10,
		"proficiency_UnitProficiency": 5,
		"level": 90,
		"hp": 437,
		"strength": 21,
		"vitality": 86,
		"intelligence": 156,
		"mind": 118,
		"agility": 119,
		"dexterity": 143,
		"lucky": 56,
		"parameter_table_BattleEnemyParameterTable": 0,
		"parameter_deviation_table_BattleEnemyParameterDeviationTable": 0,
		"acquire_skill_group_id": 0,
		"level_correction": 0,
		"group_id": 0,
		"ai_script_id_BattleAIScript": 0
	},
	{
		"ID": 98527,
		"stage_BattleStage": 810008068,
		"unit_UnitUnit": 3820005,
		"money": 0,
		"initial_coordinate_x": 20,
		"initial_coordinate_y": 13,
		"reinforcement_BattleReinforcement": 0,
		"initial_direction": 270.0,
		"ai_move_group": 0,
		"ai_target_move_x": -1,
		"ai_target_move_y": -1,
		"ai_skill_function": "",
		"ai_attack": "",
		"ai_move": "IF(turn <= 6,0,1)",
		"ai_heal": "",
		"ai_skill": "",
		"ai_use": "",
		"skill_group_id": 22176,
		"gear_GearGear": 55021,
		"gear_rank": 10,
		"proficiency_UnitProficiency": 5,
		"level": 90,
		"hp": 436,
		"strength": 19,
		"vitality": 84,
		"intelligence": 159,
		"mind": 117,
		"agility": 118,
		"dexterity": 142,
		"lucky": 56,
		"parameter_table_BattleEnemyParameterTable": 0,
		"parameter_deviation_table_BattleEnemyParameterDeviationTable": 0,
		"acquire_skill_group_id": 0,
		"level_correction": 0,
		"group_id": 0,
		"ai_script_id_BattleAIScript": 0
	},
	{
		"ID": 98528,
		"stage_BattleStage": 810008068,
		"unit_UnitUnit": 3820002,
		"money": 0,
		"initial_coordinate_x": 16,
		"initial_coordinate_y": 14,
		"reinforcement_BattleReinforcement": 0,
		"initial_direction": 270.0,
		"ai_move_group": 0,
		"ai_target_move_x": -1,
		"ai_target_move_y": -1,
		"ai_skill_function": "",
		"ai_attack": "",
		"ai_move": "IF(turn <= 6,0,1)",
		"ai_heal": "",
		"ai_skill": "",
		"ai_use": "",
		"skill_group_id": 22174,
		"gear_GearGear": 25020,
		"gear_rank": 10,
		"proficiency_UnitProficiency": 5,
		"level": 90,
		"hp": 650,
		"strength": 178,
		"vitality": 138,
		"intelligence": 18,
		"mind": 72,
		"agility": 131,
		"dexterity": 145,
		"lucky": 54,
		"parameter_table_BattleEnemyParameterTable": 0,
		"parameter_deviation_table_BattleEnemyParameterDeviationTable": 0,
		"acquire_skill_group_id": 0,
		"level_correction": 0,
		"group_id": 0,
		"ai_script_id_BattleAIScript": 0
	},
	{
		"ID": 98529,
		"stage_BattleStage": 810008068,
		"unit_UnitUnit": 3820002,
		"money": 0,
		"initial_coordinate_x": 17,
		"initial_coordinate_y": 13,
		"reinforcement_BattleReinforcement": 0,
		"initial_direction": 270.0,
		"ai_move_group": 0,
		"ai_target_move_x": -1,
		"ai_target_move_y": -1,
		"ai_skill_function": "",
		"ai_attack": "",
		"ai_move": "IF(turn <= 6,0,1)",
		"ai_heal": "",
		"ai_skill": "",
		"ai_use": "",
		"skill_group_id": 22174,
		"gear_GearGear": 25020,
		"gear_rank": 10,
		"proficiency_UnitProficiency": 5,
		"level": 90,
		"hp": 651,
		"strength": 175,
		"vitality": 141,
		"intelligence": 15,
		"mind": 73,
		"agility": 131,
		"dexterity": 145,
		"lucky": 57,
		"parameter_table_BattleEnemyParameterTable": 0,
		"parameter_deviation_table_BattleEnemyParameterDeviationTable": 0,
		"acquire_skill_group_id": 0,
		"level_correction": 0,
		"group_id": 0,
		"ai_script_id_BattleAIScript": 0
	},
	{
		"ID": 98530,
		"stage_BattleStage": 810008068,
		"unit_UnitUnit": 3820002,
		"money": 0,
		"initial_coordinate_x": 19,
		"initial_coordinate_y": 10,
		"reinforcement_BattleReinforcement": 0,
		"initial_direction": 270.0,
		"ai_move_group": 0,
		"ai_target_move_x": -1,
		"ai_target_move_y": -1,
		"ai_skill_function": "",
		"ai_attack": "",
		"ai_move": "IF(turn <= 6,0,1)",
		"ai_heal": "",
		"ai_skill": "",
		"ai_use": "",
		"skill_group_id": 22174,
		"gear_GearGear": 25020,
		"gear_rank": 10,
		"proficiency_UnitProficiency": 5,
		"level": 90,
		"hp": 649,
		"strength": 174,
		"vitality": 143,
		"intelligence": 18,
		"mind": 71,
		"agility": 133,
		"dexterity": 146,
		"lucky": 56,
		"parameter_table_BattleEnemyParameterTable": 0,
		"parameter_deviation_table_BattleEnemyParameterDeviationTable": 0,
		"acquire_skill_group_id": 0,
		"level_correction": 0,
		"group_id": 0,
		"ai_script_id_BattleAIScript": 0
	},
	{
		"ID": 98531,
		"stage_BattleStage": 810008068,
		"unit_UnitUnit": 3820005,
		"money": 0,
		"initial_coordinate_x": 14,
		"initial_coordinate_y": 11,
		"reinforcement_BattleReinforcement": 0,
		"initial_direction": 270.0,
		"ai_move_group": 0,
		"ai_target_move_x": -1,
		"ai_target_move_y": -1,
		"ai_skill_function": "",
		"ai_attack": "",
		"ai_move": "IF(turn <= 6,0,1)",
		"ai_heal": "",
		"ai_skill": "",
		"ai_use": "",
		"skill_group_id": 22176,
		"gear_GearGear": 55021,
		"gear_rank": 10,
		"proficiency_UnitProficiency": 5,
		"level": 90,
		"hp": 438,
		"strength": 16,
		"vitality": 86,
		"intelligence": 155,
		"mind": 116,
		"agility": 117,
		"dexterity": 143,
		"lucky": 55,
		"parameter_table_BattleEnemyParameterTable": 0,
		"parameter_deviation_table_BattleEnemyParameterDeviationTable": 0,
		"acquire_skill_group_id": 0,
		"level_correction": 0,
		"group_id": 0,
		"ai_script_id_BattleAIScript": 0
	},
	{
		"ID": 98532,
		"stage_BattleStage": 810008068,
		"unit_UnitUnit": 3820005,
		"money": 0,
		"initial_coordinate_x": 13,
		"initial_coordinate_y": 11,
		"reinforcement_BattleReinforcement": 0,
		"initial_direction": 270.0,
		"ai_move_group": 0,
		"ai_target_move_x": -1,
		"ai_target_move_y": -1,
		"ai_skill_function": "",
		"ai_attack": "",
		"ai_move": "IF(turn <= 6,0,1)",
		"ai_heal": "",
		"ai_skill": "",
		"ai_use": "",
		"skill_group_id": 22176,
		"gear_GearGear": 55021,
		"gear_rank": 10,
		"proficiency_UnitProficiency": 5,
		"level": 90,
		"hp": 432,
		"strength": 17,
		"vitality": 82,
		"intelligence": 154,
		"mind": 115,
		"agility": 119,
		"dexterity": 144,
		"lucky": 55,
		"parameter_table_BattleEnemyParameterTable": 0,
		"parameter_deviation_table_BattleEnemyParameterDeviationTable": 0,
		"acquire_skill_group_id": 0,
		"level_correction": 0,
		"group_id": 0,
		"ai_script_id_BattleAIScript": 0
	},
	{
		"ID": 98533,
		"stage_BattleStage": 810008068,
		"unit_UnitUnit": 3820005,
		"money": 0,
		"initial_coordinate_x": 19,
		"initial_coordinate_y": 7,
		"reinforcement_BattleReinforcement": 0,
		"initial_direction": 270.0,
		"ai_move_group": 0,
		"ai_target_move_x": -1,
		"ai_target_move_y": -1,
		"ai_skill_function": "",
		"ai_attack": "",
		"ai_move": "IF(turn <=5,0,1)",
		"ai_heal": "",
		"ai_skill": "",
		"ai_use": "",
		"skill_group_id": 22176,
		"gear_GearGear": 55021,
		"gear_rank": 10,
		"proficiency_UnitProficiency": 5,
		"level": 90,
		"hp": 434,
		"strength": 17,
		"vitality": 86,
		"intelligence": 156,
		"mind": 116,
		"agility": 116,
		"dexterity": 142,
		"lucky": 55,
		"parameter_table_BattleEnemyParameterTable": 0,
		"parameter_deviation_table_BattleEnemyParameterDeviationTable": 0,
		"acquire_skill_group_id": 0,
		"level_correction": 0,
		"group_id": 0,
		"ai_script_id_BattleAIScript": 0
	},
	{
		"ID": 98534,
		"stage_BattleStage": 810008068,
		"unit_UnitUnit": 3820005,
		"money": 0,
		"initial_coordinate_x": 20,
		"initial_coordinate_y": 4,
		"reinforcement_BattleReinforcement": 0,
		"initial_direction": 270.0,
		"ai_move_group": 0,
		"ai_target_move_x": -1,
		"ai_target_move_y": -1,
		"ai_skill_function": "",
		"ai_attack": "",
		"ai_move": "IF(turn <=5,0,1)",
		"ai_heal": "",
		"ai_skill": "",
		"ai_use": "",
		"skill_group_id": 22176,
		"gear_GearGear": 55021,
		"gear_rank": 10,
		"proficiency_UnitProficiency": 5,
		"level": 90,
		"hp": 431,
		"strength": 21,
		"vitality": 85,
		"intelligence": 154,
		"mind": 117,
		"agility": 118,
		"dexterity": 141,
		"lucky": 55,
		"parameter_table_BattleEnemyParameterTable": 0,
		"parameter_deviation_table_BattleEnemyParameterDeviationTable": 0,
		"acquire_skill_group_id": 0,
		"level_correction": 0,
		"group_id": 0,
		"ai_script_id_BattleAIScript": 0
	},
	{
		"ID": 98535,
		"stage_BattleStage": 810008068,
		"unit_UnitUnit": 3820005,
		"money": 0,
		"initial_coordinate_x": 18,
		"initial_coordinate_y": 2,
		"reinforcement_BattleReinforcement": 0,
		"initial_direction": 270.0,
		"ai_move_group": 0,
		"ai_target_move_x": -1,
		"ai_target_move_y": -1,
		"ai_skill_function": "",
		"ai_attack": "",
		"ai_move": "IF(turn <=5,0,1)",
		"ai_heal": "",
		"ai_skill": "",
		"ai_use": "",
		"skill_group_id": 22176,
		"gear_GearGear": 55021,
		"gear_rank": 10,
		"proficiency_UnitProficiency": 5,
		"level": 90,
		"hp": 433,
		"strength": 21,
		"vitality": 82,
		"intelligence": 154,
		"mind": 116,
		"agility": 118,
		"dexterity": 143,
		"lucky": 55,
		"parameter_table_BattleEnemyParameterTable": 0,
		"parameter_deviation_table_BattleEnemyParameterDeviationTable": 0,
		"acquire_skill_group_id": 0,
		"level_correction": 0,
		"group_id": 0,
		"ai_script_id_BattleAIScript": 0
	},
	{
		"ID": 98536,
		"stage_BattleStage": 810008068,
		"unit_UnitUnit": 3820001,
		"money": 0,
		"initial_coordinate_x": 16,
		"initial_coordinate_y": 4,
		"reinforcement_BattleReinforcement": 0,
		"initial_direction": 270.0,
		"ai_move_group": 0,
		"ai_target_move_x": -1,
		"ai_target_move_y": -1,
		"ai_skill_function": "",
		"ai_attack": "",
		"ai_move": "IF(turn <=5,0,1)",
		"ai_heal": "",
		"ai_skill": "",
		"ai_use": "",
		"skill_group_id": 22173,
		"gear_GearGear": 15040,
		"gear_rank": 10,
		"proficiency_UnitProficiency": 5,
		"level": 90,
		"hp": 579,
		"strength": 152,
		"vitality": 140,
		"intelligence": 18,
		"mind": 82,
		"agility": 142,
		"dexterity": 145,
		"lucky": 57,
		"parameter_table_BattleEnemyParameterTable": 0,
		"parameter_deviation_table_BattleEnemyParameterDeviationTable": 0,
		"acquire_skill_group_id": 0,
		"level_correction": 0,
		"group_id": 0,
		"ai_script_id_BattleAIScript": 0
	},
	{
		"ID": 98537,
		"stage_BattleStage": 810008068,
		"unit_UnitUnit": 3820005,
		"money": 0,
		"initial_coordinate_x": 7,
		"initial_coordinate_y": 14,
		"reinforcement_BattleReinforcement": 0,
		"initial_direction": 270.0,
		"ai_move_group": 0,
		"ai_target_move_x": -1,
		"ai_target_move_y": -1,
		"ai_skill_function": "",
		"ai_attack": "",
		"ai_move": "IF(turn <=4,0,1)",
		"ai_heal": "",
		"ai_skill": "",
		"ai_use": "",
		"skill_group_id": 22176,
		"gear_GearGear": 55021,
		"gear_rank": 10,
		"proficiency_UnitProficiency": 5,
		"level": 90,
		"hp": 433,
		"strength": 16,
		"vitality": 84,
		"intelligence": 156,
		"mind": 115,
		"agility": 116,
		"dexterity": 142,
		"lucky": 57,
		"parameter_table_BattleEnemyParameterTable": 0,
		"parameter_deviation_table_BattleEnemyParameterDeviationTable": 0,
		"acquire_skill_group_id": 0,
		"level_correction": 0,
		"group_id": 0,
		"ai_script_id_BattleAIScript": 0
	},
	{
		"ID": 98538,
		"stage_BattleStage": 810008068,
		"unit_UnitUnit": 3820005,
		"money": 0,
		"initial_coordinate_x": 4,
		"initial_coordinate_y": 13,
		"reinforcement_BattleReinforcement": 0,
		"initial_direction": 180.0,
		"ai_move_group": 0,
		"ai_target_move_x": -1,
		"ai_target_move_y": -1,
		"ai_skill_function": "",
		"ai_attack": "",
		"ai_move": "IF(turn <=4,0,1)",
		"ai_heal": "",
		"ai_skill": "",
		"ai_use": "",
		"skill_group_id": 22176,
		"gear_GearGear": 55021,
		"gear_rank": 10,
		"proficiency_UnitProficiency": 5,
		"level": 90,
		"hp": 431,
		"strength": 21,
		"vitality": 85,
		"intelligence": 158,
		"mind": 115,
		"agility": 119,
		"dexterity": 141,
		"lucky": 57,
		"parameter_table_BattleEnemyParameterTable": 0,
		"parameter_deviation_table_BattleEnemyParameterDeviationTable": 0,
		"acquire_skill_group_id": 0,
		"level_correction": 0,
		"group_id": 0,
		"ai_script_id_BattleAIScript": 0
	},
	{
		"ID": 98539,
		"stage_BattleStage": 810008068,
		"unit_UnitUnit": 3820005,
		"money": 0,
		"initial_coordinate_x": 3,
		"initial_coordinate_y": 12,
		"reinforcement_BattleReinforcement": 0,
		"initial_direction": 180.0,
		"ai_move_group": 0,
		"ai_target_move_x": -1,
		"ai_target_move_y": -1,
		"ai_skill_function": "",
		"ai_attack": "",
		"ai_move": "IF(turn <=4,0,1)",
		"ai_heal": "",
		"ai_skill": "",
		"ai_use": "",
		"skill_group_id": 22176,
		"gear_GearGear": 55021,
		"gear_rank": 10,
		"proficiency_UnitProficiency": 5,
		"level": 90,
		"hp": 438,
		"strength": 18,
		"vitality": 86,
		"intelligence": 159,
		"mind": 113,
		"agility": 117,
		"dexterity": 144,
		"lucky": 56,
		"parameter_table_BattleEnemyParameterTable": 0,
		"parameter_deviation_table_BattleEnemyParameterDeviationTable": 0,
		"acquire_skill_group_id": 0,
		"level_correction": 0,
		"group_id": 0,
		"ai_script_id_BattleAIScript": 0
	},
	{
		"ID": 98540,
		"stage_BattleStage": 810008068,
		"unit_UnitUnit": 3820005,
		"money": 0,
		"initial_coordinate_x": 2,
		"initial_coordinate_y": 9,
		"reinforcement_BattleReinforcement": 0,
		"initial_direction": 180.0,
		"ai_move_group": 0,
		"ai_target_move_x": -1,
		"ai_target_move_y": -1,
		"ai_skill_function": "",
		"ai_attack": "",
		"ai_move": "IF(turn <=4,0,1)",
		"ai_heal": "",
		"ai_skill": "",
		"ai_use": "",
		"skill_group_id": 22176,
		"gear_GearGear": 55021,
		"gear_rank": 10,
		"proficiency_UnitProficiency": 5,
		"level": 90,
		"hp": 432,
		"strength": 19,
		"vitality": 84,
		"intelligence": 154,
		"mind": 113,
		"agility": 117,
		"dexterity": 144,
		"lucky": 57,
		"parameter_table_BattleEnemyParameterTable": 0,
		"parameter_deviation_table_BattleEnemyParameterDeviationTable": 0,
		"acquire_skill_group_id": 0,
		"level_correction": 0,
		"group_id": 0,
		"ai_script_id_BattleAIScript": 0
	},
	{
		"ID": 98541,
		"stage_BattleStage": 810008068,
		"unit_UnitUnit": 3820005,
		"money": 0,
		"initial_coordinate_x": 4,
		"initial_coordinate_y": 9,
		"reinforcement_BattleReinforcement": 0,
		"initial_direction": 270.0,
		"ai_move_group": 0,
		"ai_target_move_x": -1,
		"ai_target_move_y": -1,
		"ai_skill_function": "",
		"ai_attack": "",
		"ai_move": "IF(turn <=3,0,1)",
		"ai_heal": "",
		"ai_skill": "",
		"ai_use": "",
		"skill_group_id": 22176,
		"gear_GearGear": 55021,
		"gear_rank": 10,
		"proficiency_UnitProficiency": 5,
		"level": 90,
		"hp": 436,
		"strength": 20,
		"vitality": 86,
		"intelligence": 155,
		"mind": 115,
		"agility": 117,
		"dexterity": 144,
		"lucky": 56,
		"parameter_table_BattleEnemyParameterTable": 0,
		"parameter_deviation_table_BattleEnemyParameterDeviationTable": 0,
		"acquire_skill_group_id": 0,
		"level_correction": 0,
		"group_id": 0,
		"ai_script_id_BattleAIScript": 0
	},
	{
		"ID": 98542,
		"stage_BattleStage": 810008068,
		"unit_UnitUnit": 3820005,
		"money": 0,
		"initial_coordinate_x": 7,
		"initial_coordinate_y": 9,
		"reinforcement_BattleReinforcement": 0,
		"initial_direction": 270.0,
		"ai_move_group": 0,
		"ai_target_move_x": -1,
		"ai_target_move_y": -1,
		"ai_skill_function": "",
		"ai_attack": "",
		"ai_move": "IF(turn <=3,0,1)",
		"ai_heal": "",
		"ai_skill": "",
		"ai_use": "",
		"skill_group_id": 22176,
		"gear_GearGear": 55021,
		"gear_rank": 10,
		"proficiency_UnitProficiency": 5,
		"level": 90,
		"hp": 436,
		"strength": 16,
		"vitality": 82,
		"intelligence": 158,
		"mind": 117,
		"agility": 119,
		"dexterity": 141,
		"lucky": 57,
		"parameter_table_BattleEnemyParameterTable": 0,
		"parameter_deviation_table_BattleEnemyParameterDeviationTable": 0,
		"acquire_skill_group_id": 0,
		"level_correction": 0,
		"group_id": 0,
		"ai_script_id_BattleAIScript": 0
	},
	{
		"ID": 98543,
		"stage_BattleStage": 810008068,
		"unit_UnitUnit": 3820004,
		"money": 0,
		"initial_coordinate_x": 5,
		"initial_coordinate_y": 6,
		"reinforcement_BattleReinforcement": 0,
		"initial_direction": 270.0,
		"ai_move_group": 0,
		"ai_target_move_x": -1,
		"ai_target_move_y": -1,
		"ai_skill_function": "",
		"ai_attack": "",
		"ai_move": "IF(turn <=3,0,1)",
		"ai_heal": "",
		"ai_skill": "",
		"ai_use": "",
		"skill_group_id": 22175,
		"gear_GearGear": 45019,
		"gear_rank": 10,
		"proficiency_UnitProficiency": 5,
		"level": 90,
		"hp": 473,
		"strength": 132,
		"vitality": 99,
		"intelligence": 16,
		"mind": 81,
		"agility": 134,
		"dexterity": 138,
		"lucky": 57,
		"parameter_table_BattleEnemyParameterTable": 0,
		"parameter_deviation_table_BattleEnemyParameterDeviationTable": 0,
		"acquire_skill_group_id": 0,
		"level_correction": 0,
		"group_id": 0,
		"ai_script_id_BattleAIScript": 0
	},
	{
		"ID": 98544,
		"stage_BattleStage": 810008068,
		"unit_UnitUnit": 3820004,
		"money": 0,
		"initial_coordinate_x": 6,
		"initial_coordinate_y": 6,
		"reinforcement_BattleReinforcement": 0,
		"initial_direction": 270.0,
		"ai_move_group": 0,
		"ai_target_move_x": -1,
		"ai_target_move_y": -1,
		"ai_skill_function": "",
		"ai_attack": "",
		"ai_move": "IF(turn <=3,0,1)",
		"ai_heal": "",
		"ai_skill": "",
		"ai_use": "",
		"skill_group_id": 22175,
		"gear_GearGear": 45019,
		"gear_rank": 10,
		"proficiency_UnitProficiency": 5,
		"level": 90,
		"hp": 470,
		"strength": 128,
		"vitality": 100,
		"intelligence": 18,
		"mind": 83,
		"agility": 134,
		"dexterity": 136,
		"lucky": 54,
		"parameter_table_BattleEnemyParameterTable": 0,
		"parameter_deviation_table_BattleEnemyParameterDeviationTable": 0,
		"acquire_skill_group_id": 0,
		"level_correction": 0,
		"group_id": 0,
		"ai_script_id_BattleAIScript": 0
	},
	{
		"ID": 98545,
		"stage_BattleStage": 810008068,
		"unit_UnitUnit": 3820005,
		"money": 0,
		"initial_coordinate_x": 11,
		"initial_coordinate_y": 8,
		"reinforcement_BattleReinforcement": 0,
		"initial_direction": 270.0,
		"ai_move_group": 0,
		"ai_target_move_x": -1,
		"ai_target_move_y": -1,
		"ai_skill_function": "",
		"ai_attack": "",
		"ai_move": "IF(turn <=3,0,1)",
		"ai_heal": "",
		"ai_skill": "",
		"ai_use": "",
		"skill_group_id": 22176,
		"gear_GearGear": 55021,
		"gear_rank": 10,
		"proficiency_UnitProficiency": 5,
		"level": 90,
		"hp": 438,
		"strength": 16,
		"vitality": 85,
		"intelligence": 158,
		"mind": 114,
		"agility": 117,
		"dexterity": 144,
		"lucky": 55,
		"parameter_table_BattleEnemyParameterTable": 0,
		"parameter_deviation_table_BattleEnemyParameterDeviationTable": 0,
		"acquire_skill_group_id": 0,
		"level_correction": 0,
		"group_id": 0,
		"ai_script_id_BattleAIScript": 0
	},
	{
		"ID": 98546,
		"stage_BattleStage": 810008068,
		"unit_UnitUnit": 3820005,
		"money": 0,
		"initial_coordinate_x": 14,
		"initial_coordinate_y": 8,
		"reinforcement_BattleReinforcement": 0,
		"initial_direction": 270.0,
		"ai_move_group": 0,
		"ai_target_move_x": -1,
		"ai_target_move_y": -1,
		"ai_skill_function": "",
		"ai_attack": "",
		"ai_move": "IF(turn <=3,0,1)",
		"ai_heal": "",
		"ai_skill": "",
		"ai_use": "",
		"skill_group_id": 22176,
		"gear_GearGear": 55021,
		"gear_rank": 10,
		"proficiency_UnitProficiency": 5,
		"level": 90,
		"hp": 437,
		"strength": 17,
		"vitality": 83,
		"intelligence": 159,
		"mind": 113,
		"agility": 118,
		"dexterity": 142,
		"lucky": 56,
		"parameter_table_BattleEnemyParameterTable": 0,
		"parameter_deviation_table_BattleEnemyParameterDeviationTable": 0,
		"acquire_skill_group_id": 0,
		"level_correction": 0,
		"group_id": 0,
		"ai_script_id_BattleAIScript": 0
	},
	{
		"ID": 98547,
		"stage_BattleStage": 810008068,
		"unit_UnitUnit": 3820002,
		"money": 0,
		"initial_coordinate_x": 12,
		"initial_coordinate_y": 5,
		"reinforcement_BattleReinforcement": 0,
		"initial_direction": 270.0,
		"ai_move_group": 0,
		"ai_target_move_x": -1,
		"ai_target_move_y": -1,
		"ai_skill_function": "",
		"ai_attack": "",
		"ai_move": "IF(turn <=2,0,1)",
		"ai_heal": "",
		"ai_skill": "",
		"ai_use": "",
		"skill_group_id": 22174,
		"gear_GearGear": 25020,
		"gear_rank": 10,
		"proficiency_UnitProficiency": 5,
		"level": 90,
		"hp": 651,
		"strength": 179,
		"vitality": 141,
		"intelligence": 15,
		"mind": 72,
		"agility": 132,
		"dexterity": 145,
		"lucky": 54,
		"parameter_table_BattleEnemyParameterTable": 0,
		"parameter_deviation_table_BattleEnemyParameterDeviationTable": 0,
		"acquire_skill_group_id": 0,
		"level_correction": 0,
		"group_id": 0,
		"ai_script_id_BattleAIScript": 0
	},
	{
		"ID": 98548,
		"stage_BattleStage": 810008068,
		"unit_UnitUnit": 3820002,
		"money": 0,
		"initial_coordinate_x": 13,
		"initial_coordinate_y": 4,
		"reinforcement_BattleReinforcement": 0,
		"initial_direction": 270.0,
		"ai_move_group": 0,
		"ai_target_move_x": -1,
		"ai_target_move_y": -1,
		"ai_skill_function": "",
		"ai_attack": "",
		"ai_move": "IF(turn <=2,0,1)",
		"ai_heal": "",
		"ai_skill": "",
		"ai_use": "",
		"skill_group_id": 22174,
		"gear_GearGear": 25020,
		"gear_rank": 10,
		"proficiency_UnitProficiency": 5,
		"level": 90,
		"hp": 645,
		"strength": 175,
		"vitality": 139,
		"intelligence": 18,
		"mind": 74,
		"agility": 132,
		"dexterity": 143,
		"lucky": 54,
		"parameter_table_BattleEnemyParameterTable": 0,
		"parameter_deviation_table_BattleEnemyParameterDeviationTable": 0,
		"acquire_skill_group_id": 0,
		"level_correction": 0,
		"group_id": 0,
		"ai_script_id_BattleAIScript": 0
	},
	{
		"ID": 98549,
		"stage_BattleStage": 810008068,
		"unit_UnitUnit": 3820002,
		"money": 0,
		"initial_coordinate_x": 14,
		"initial_coordinate_y": 3,
		"reinforcement_BattleReinforcement": 0,
		"initial_direction": 270.0,
		"ai_move_group": 0,
		"ai_target_move_x": -1,
		"ai_target_move_y": -1,
		"ai_skill_function": "",
		"ai_attack": "",
		"ai_move": "IF(turn <=2,0,1)",
		"ai_heal": "",
		"ai_skill": "",
		"ai_use": "",
		"skill_group_id": 22174,
		"gear_GearGear": 25020,
		"gear_rank": 10,
		"proficiency_UnitProficiency": 5,
		"level": 90,
		"hp": 648,
		"strength": 175,
		"vitality": 142,
		"intelligence": 18,
		"mind": 74,
		"agility": 132,
		"dexterity": 145,
		"lucky": 56,
		"parameter_table_BattleEnemyParameterTable": 0,
		"parameter_deviation_table_BattleEnemyParameterDeviationTable": 0,
		"acquire_skill_group_id": 0,
		"level_correction": 0,
		"group_id": 0,
		"ai_script_id_BattleAIScript": 0
	},
	{
		"ID": 98550,
		"stage_BattleStage": 810008068,
		"unit_UnitUnit": 3820002,
		"money": 0,
		"initial_coordinate_x": 11,
		"initial_coordinate_y": 3,
		"reinforcement_BattleReinforcement": 0,
		"initial_direction": 270.0,
		"ai_move_group": 0,
		"ai_target_move_x": -1,
		"ai_target_move_y": -1,
		"ai_skill_function": "",
		"ai_attack": "",
		"ai_move": "IF(turn <=2,0,1)",
		"ai_heal": "",
		"ai_skill": "",
		"ai_use": "",
		"skill_group_id": 22174,
		"gear_GearGear": 25020,
		"gear_rank": 10,
		"proficiency_UnitProficiency": 5,
		"level": 90,
		"hp": 649,
		"strength": 174,
		"vitality": 140,
		"intelligence": 14,
		"mind": 72,
		"agility": 133,
		"dexterity": 144,
		"lucky": 56,
		"parameter_table_BattleEnemyParameterTable": 0,
		"parameter_deviation_table_BattleEnemyParameterDeviationTable": 0,
		"acquire_skill_group_id": 0,
		"level_correction": 0,
		"group_id": 0,
		"ai_script_id_BattleAIScript": 0
	},
	{
		"ID": 98551,
		"stage_BattleStage": 810008068,
		"unit_UnitUnit": 3820001,
		"money": 0,
		"initial_coordinate_x": 10,
		"initial_coordinate_y": 2,
		"reinforcement_BattleReinforcement": 0,
		"initial_direction": 270.0,
		"ai_move_group": 0,
		"ai_target_move_x": -1,
		"ai_target_move_y": -1,
		"ai_skill_function": "",
		"ai_attack": "",
		"ai_move": "IF(turn <=2,0,1)",
		"ai_heal": "",
		"ai_skill": "",
		"ai_use": "",
		"skill_group_id": 22173,
		"gear_GearGear": 15040,
		"gear_rank": 10,
		"proficiency_UnitProficiency": 5,
		"level": 90,
		"hp": 579,
		"strength": 151,
		"vitality": 138,
		"intelligence": 17,
		"mind": 80,
		"agility": 144,
		"dexterity": 146,
		"lucky": 56,
		"parameter_table_BattleEnemyParameterTable": 0,
		"parameter_deviation_table_BattleEnemyParameterDeviationTable": 0,
		"acquire_skill_group_id": 0,
		"level_correction": 0,
		"group_id": 0,
		"ai_script_id_BattleAIScript": 0
	},
	{
		"ID": 98552,
		"stage_BattleStage": 810008068,
		"unit_UnitUnit": 3820002,
		"money": 0,
		"initial_coordinate_x": 11,
		"initial_coordinate_y": 1,
		"reinforcement_BattleReinforcement": 0,
		"initial_direction": 270.0,
		"ai_move_group": 0,
		"ai_target_move_x": -1,
		"ai_target_move_y": -1,
		"ai_skill_function": "",
		"ai_attack": "",
		"ai_move": "IF(turn <=2,0,1)",
		"ai_heal": "",
		"ai_skill": "",
		"ai_use": "",
		"skill_group_id": 22174,
		"gear_GearGear": 25020,
		"gear_rank": 10,
		"proficiency_UnitProficiency": 5,
		"level": 90,
		"hp": 654,
		"strength": 179,
		"vitality": 139,
		"intelligence": 14,
		"mind": 74,
		"agility": 134,
		"dexterity": 144,
		"lucky": 54,
		"parameter_table_BattleEnemyParameterTable": 0,
		"parameter_deviation_table_BattleEnemyParameterDeviationTable": 0,
		"acquire_skill_group_id": 0,
		"level_correction": 0,
		"group_id": 0,
		"ai_script_id_BattleAIScript": 0
	}
]