[
	{
		"ID": 93707,
		"stage_BattleStage": 810008026,
		"unit_UnitUnit": 3870001,
		"money": 0,
		"initial_coordinate_x": 1,
		"initial_coordinate_y": 9,
		"reinforcement_BattleReinforcement": 0,
		"initial_direction": 90.0,
		"ai_move_group": 0,
		"ai_target_move_x": -1,
		"ai_target_move_y": -1,
		"ai_skill_function": "",
		"ai_attack": "",
		"ai_move": "IF(turn < 4,0,1)",
		"ai_heal": "",
		"ai_skill": "",
		"ai_use": "",
		"skill_group_id": 21274,
		"gear_GearGear": 26014,
		"gear_rank": 1,
		"proficiency_UnitProficiency": 6,
		"level": 75,
		"hp": 468,
		"strength": 131,
		"vitality": 116,
		"intelligence": 9,
		"mind": 46,
		"agility": 112,
		"dexterity": 115,
		"lucky": 43,
		"parameter_table_BattleEnemyParameterTable": 0,
		"parameter_deviation_table_BattleEnemyParameterDeviationTable": 0,
		"acquire_skill_group_id": 0,
		"level_correction": 0,
		"group_id": 0,
		"ai_script_id_BattleAIScript": 0
	},
	{
		"ID": 93708,
		"stage_BattleStage": 810008026,
		"unit_UnitUnit": 3870001,
		"money": 0,
		"initial_coordinate_x": 1,
		"initial_coordinate_y": 4,
		"reinforcement_BattleReinforcement": 0,
		"initial_direction": 90.0,
		"ai_move_group": 0,
		"ai_target_move_x": -1,
		"ai_target_move_y": -1,
		"ai_skill_function": "",
		"ai_attack": "",
		"ai_move": "IF(turn < 4,0,1)",
		"ai_heal": "",
		"ai_skill": "",
		"ai_use": "",
		"skill_group_id": 21274,
		"gear_GearGear": 26014,
		"gear_rank": 1,
		"proficiency_UnitProficiency": 6,
		"level": 75,
		"hp": 468,
		"strength": 131,
		"vitality": 116,
		"intelligence": 9,
		"mind": 46,
		"agility": 112,
		"dexterity": 115,
		"lucky": 43,
		"parameter_table_BattleEnemyParameterTable": 0,
		"parameter_deviation_table_BattleEnemyParameterDeviationTable": 0,
		"acquire_skill_group_id": 0,
		"level_correction": 0,
		"group_id": 0,
		"ai_script_id_BattleAIScript": 0
	},
	{
		"ID": 93709,
		"stage_BattleStage": 810008026,
		"unit_UnitUnit": 3870001,
		"money": 0,
		"initial_coordinate_x": 4,
		"initial_coordinate_y": 12,
		"reinforcement_BattleReinforcement": 0,
		"initial_direction": 90.0,
		"ai_move_group": 0,
		"ai_target_move_x": -1,
		"ai_target_move_y": -1,
		"ai_skill_function": "",
		"ai_attack": "",
		"ai_move": "IF(turn < 4,0,1)",
		"ai_heal": "",
		"ai_skill": "",
		"ai_use": "",
		"skill_group_id": 21274,
		"gear_GearGear": 26014,
		"gear_rank": 1,
		"proficiency_UnitProficiency": 6,
		"level": 75,
		"hp": 468,
		"strength": 131,
		"vitality": 116,
		"intelligence": 9,
		"mind": 46,
		"agility": 112,
		"dexterity": 115,
		"lucky": 43,
		"parameter_table_BattleEnemyParameterTable": 0,
		"parameter_deviation_table_BattleEnemyParameterDeviationTable": 0,
		"acquire_skill_group_id": 0,
		"level_correction": 0,
		"group_id": 0,
		"ai_script_id_BattleAIScript": 0
	},
	{
		"ID": 93710,
		"stage_BattleStage": 810008026,
		"unit_UnitUnit": 3870001,
		"money": 0,
		"initial_coordinate_x": 4,
		"initial_coordinate_y": 1,
		"reinforcement_BattleReinforcement": 0,
		"initial_direction": 90.0,
		"ai_move_group": 0,
		"ai_target_move_x": -1,
		"ai_target_move_y": -1,
		"ai_skill_function": "",
		"ai_attack": "",
		"ai_move": "IF(turn < 4,0,1)",
		"ai_heal": "",
		"ai_skill": "",
		"ai_use": "",
		"skill_group_id": 21274,
		"gear_GearGear": 26014,
		"gear_rank": 1,
		"proficiency_UnitProficiency": 6,
		"level": 75,
		"hp": 468,
		"strength": 131,
		"vitality": 116,
		"intelligence": 9,
		"mind": 46,
		"agility": 112,
		"dexterity": 115,
		"lucky": 43,
		"parameter_table_BattleEnemyParameterTable": 0,
		"parameter_deviation_table_BattleEnemyParameterDeviationTable": 0,
		"acquire_skill_group_id": 0,
		"level_correction": 0,
		"group_id": 0,
		"ai_script_id_BattleAIScript": 0
	},
	{
		"ID": 93711,
		"stage_BattleStage": 810008026,
		"unit_UnitUnit": 3870001,
		"money": 0,
		"initial_coordinate_x": 7,
		"initial_coordinate_y": 9,
		"reinforcement_BattleReinforcement": 0,
		"initial_direction": 90.0,
		"ai_move_group": 0,
		"ai_target_move_x": -1,
		"ai_target_move_y": -1,
		"ai_skill_function": "",
		"ai_attack": "",
		"ai_move": "IF(turn < 4,0,1)",
		"ai_heal": "",
		"ai_skill": "",
		"ai_use": "",
		"skill_group_id": 21274,
		"gear_GearGear": 26014,
		"gear_rank": 1,
		"proficiency_UnitProficiency": 6,
		"level": 75,
		"hp": 468,
		"strength": 131,
		"vitality": 116,
		"intelligence": 9,
		"mind": 46,
		"agility": 112,
		"dexterity": 115,
		"lucky": 43,
		"parameter_table_BattleEnemyParameterTable": 0,
		"parameter_deviation_table_BattleEnemyParameterDeviationTable": 0,
		"acquire_skill_group_id": 0,
		"level_correction": 0,
		"group_id": 0,
		"ai_script_id_BattleAIScript": 0
	},
	{
		"ID": 93712,
		"stage_BattleStage": 810008026,
		"unit_UnitUnit": 3870001,
		"money": 0,
		"initial_coordinate_x": 7,
		"initial_coordinate_y": 4,
		"reinforcement_BattleReinforcement": 0,
		"initial_direction": 90.0,
		"ai_move_group": 0,
		"ai_target_move_x": -1,
		"ai_target_move_y": -1,
		"ai_skill_function": "",
		"ai_attack": "",
		"ai_move": "IF(turn < 4,0,1)",
		"ai_heal": "",
		"ai_skill": "",
		"ai_use": "",
		"skill_group_id": 21274,
		"gear_GearGear": 26014,
		"gear_rank": 1,
		"proficiency_UnitProficiency": 6,
		"level": 75,
		"hp": 468,
		"strength": 131,
		"vitality": 116,
		"intelligence": 9,
		"mind": 46,
		"agility": 112,
		"dexterity": 115,
		"lucky": 43,
		"parameter_table_BattleEnemyParameterTable": 0,
		"parameter_deviation_table_BattleEnemyParameterDeviationTable": 0,
		"acquire_skill_group_id": 0,
		"level_correction": 0,
		"group_id": 0,
		"ai_script_id_BattleAIScript": 0
	},
	{
		"ID": 93713,
		"stage_BattleStage": 810008026,
		"unit_UnitUnit": 3810002,
		"money": 0,
		"initial_coordinate_x": 5,
		"initial_coordinate_y": 9,
		"reinforcement_BattleReinforcement": 0,
		"initial_direction": 90.0,
		"ai_move_group": 0,
		"ai_target_move_x": -1,
		"ai_target_move_y": -1,
		"ai_skill_function": "",
		"ai_attack": "",
		"ai_move": "IF(turn < 4,0,1)",
		"ai_heal": "",
		"ai_skill": "",
		"ai_use": "",
		"skill_group_id": 21275,
		"gear_GearGear": 25019,
		"gear_rank": 1,
		"proficiency_UnitProficiency": 5,
		"level": 75,
		"hp": 278,
		"strength": 115,
		"vitality": 107,
		"intelligence": 8,
		"mind": 45,
		"agility": 98,
		"dexterity": 119,
		"lucky": 45,
		"parameter_table_BattleEnemyParameterTable": 0,
		"parameter_deviation_table_BattleEnemyParameterDeviationTable": 0,
		"acquire_skill_group_id": 0,
		"level_correction": 0,
		"group_id": 0,
		"ai_script_id_BattleAIScript": 0
	},
	{
		"ID": 93714,
		"stage_BattleStage": 810008026,
		"unit_UnitUnit": 3810002,
		"money": 0,
		"initial_coordinate_x": 5,
		"initial_coordinate_y": 8,
		"reinforcement_BattleReinforcement": 0,
		"initial_direction": 90.0,
		"ai_move_group": 0,
		"ai_target_move_x": -1,
		"ai_target_move_y": -1,
		"ai_skill_function": "",
		"ai_attack": "",
		"ai_move": "IF(turn < 4,0,1)",
		"ai_heal": "",
		"ai_skill": "",
		"ai_use": "",
		"skill_group_id": 21275,
		"gear_GearGear": 25019,
		"gear_rank": 1,
		"proficiency_UnitProficiency": 5,
		"level": 75,
		"hp": 278,
		"strength": 115,
		"vitality": 107,
		"intelligence": 8,
		"mind": 45,
		"agility": 98,
		"dexterity": 119,
		"lucky": 45,
		"parameter_table_BattleEnemyParameterTable": 0,
		"parameter_deviation_table_BattleEnemyParameterDeviationTable": 0,
		"acquire_skill_group_id": 0,
		"level_correction": 0,
		"group_id": 0,
		"ai_script_id_BattleAIScript": 0
	},
	{
		"ID": 93715,
		"stage_BattleStage": 810008026,
		"unit_UnitUnit": 3810002,
		"money": 0,
		"initial_coordinate_x": 5,
		"initial_coordinate_y": 5,
		"reinforcement_BattleReinforcement": 0,
		"initial_direction": 90.0,
		"ai_move_group": 0,
		"ai_target_move_x": -1,
		"ai_target_move_y": -1,
		"ai_skill_function": "",
		"ai_attack": "",
		"ai_move": "IF(turn < 4,0,1)",
		"ai_heal": "",
		"ai_skill": "",
		"ai_use": "",
		"skill_group_id": 21275,
		"gear_GearGear": 25019,
		"gear_rank": 1,
		"proficiency_UnitProficiency": 5,
		"level": 75,
		"hp": 278,
		"strength": 115,
		"vitality": 107,
		"intelligence": 8,
		"mind": 45,
		"agility": 98,
		"dexterity": 119,
		"lucky": 45,
		"parameter_table_BattleEnemyParameterTable": 0,
		"parameter_deviation_table_BattleEnemyParameterDeviationTable": 0,
		"acquire_skill_group_id": 0,
		"level_correction": 0,
		"group_id": 0,
		"ai_script_id_BattleAIScript": 0
	},
	{
		"ID": 93716,
		"stage_BattleStage": 810008026,
		"unit_UnitUnit": 3810002,
		"money": 0,
		"initial_coordinate_x": 5,
		"initial_coordinate_y": 4,
		"reinforcement_BattleReinforcement": 0,
		"initial_direction": 90.0,
		"ai_move_group": 0,
		"ai_target_move_x": -1,
		"ai_target_move_y": -1,
		"ai_skill_function": "",
		"ai_attack": "",
		"ai_move": "IF(turn < 4,0,1)",
		"ai_heal": "",
		"ai_skill": "",
		"ai_use": "",
		"skill_group_id": 21275,
		"gear_GearGear": 25019,
		"gear_rank": 1,
		"proficiency_UnitProficiency": 5,
		"level": 75,
		"hp": 278,
		"strength": 115,
		"vitality": 107,
		"intelligence": 8,
		"mind": 45,
		"agility": 98,
		"dexterity": 119,
		"lucky": 45,
		"parameter_table_BattleEnemyParameterTable": 0,
		"parameter_deviation_table_BattleEnemyParameterDeviationTable": 0,
		"acquire_skill_group_id": 0,
		"level_correction": 0,
		"group_id": 0,
		"ai_script_id_BattleAIScript": 0
	},
	{
		"ID": 93717,
		"stage_BattleStage": 810008026,
		"unit_UnitUnit": 3810003,
		"money": 0,
		"initial_coordinate_x": 10,
		"initial_coordinate_y": 9,
		"reinforcement_BattleReinforcement": 0,
		"initial_direction": 90.0,
		"ai_move_group": 0,
		"ai_target_move_x": -1,
		"ai_target_move_y": -1,
		"ai_skill_function": "",
		"ai_attack": "",
		"ai_move": "IF(turn < 4,0,1)",
		"ai_heal": "",
		"ai_skill": "",
		"ai_use": "",
		"skill_group_id": 21275,
		"gear_GearGear": 35023,
		"gear_rank": 1,
		"proficiency_UnitProficiency": 5,
		"level": 75,
		"hp": 244,
		"strength": 103,
		"vitality": 109,
		"intelligence": 8,
		"mind": 59,
		"agility": 107,
		"dexterity": 122,
		"lucky": 45,
		"parameter_table_BattleEnemyParameterTable": 0,
		"parameter_deviation_table_BattleEnemyParameterDeviationTable": 0,
		"acquire_skill_group_id": 0,
		"level_correction": 0,
		"group_id": 0,
		"ai_script_id_BattleAIScript": 0
	},
	{
		"ID": 93718,
		"stage_BattleStage": 810008026,
		"unit_UnitUnit": 3810003,
		"money": 0,
		"initial_coordinate_x": 10,
		"initial_coordinate_y": 8,
		"reinforcement_BattleReinforcement": 0,
		"initial_direction": 90.0,
		"ai_move_group": 0,
		"ai_target_move_x": -1,
		"ai_target_move_y": -1,
		"ai_skill_function": "",
		"ai_attack": "",
		"ai_move": "IF(turn < 3,0,1)",
		"ai_heal": "",
		"ai_skill": "",
		"ai_use": "",
		"skill_group_id": 21275,
		"gear_GearGear": 35023,
		"gear_rank": 1,
		"proficiency_UnitProficiency": 5,
		"level": 75,
		"hp": 244,
		"strength": 103,
		"vitality": 109,
		"intelligence": 8,
		"mind": 59,
		"agility": 107,
		"dexterity": 122,
		"lucky": 45,
		"parameter_table_BattleEnemyParameterTable": 0,
		"parameter_deviation_table_BattleEnemyParameterDeviationTable": 0,
		"acquire_skill_group_id": 0,
		"level_correction": 0,
		"group_id": 0,
		"ai_script_id_BattleAIScript": 0
	},
	{
		"ID": 93719,
		"stage_BattleStage": 810008026,
		"unit_UnitUnit": 3810003,
		"money": 0,
		"initial_coordinate_x": 10,
		"initial_coordinate_y": 5,
		"reinforcement_BattleReinforcement": 0,
		"initial_direction": 90.0,
		"ai_move_group": 0,
		"ai_target_move_x": -1,
		"ai_target_move_y": -1,
		"ai_skill_function": "",
		"ai_attack": "",
		"ai_move": "IF(turn < 3,0,1)",
		"ai_heal": "",
		"ai_skill": "",
		"ai_use": "",
		"skill_group_id": 21275,
		"gear_GearGear": 35023,
		"gear_rank": 1,
		"proficiency_UnitProficiency": 5,
		"level": 75,
		"hp": 244,
		"strength": 103,
		"vitality": 109,
		"intelligence": 8,
		"mind": 59,
		"agility": 107,
		"dexterity": 122,
		"lucky": 45,
		"parameter_table_BattleEnemyParameterTable": 0,
		"parameter_deviation_table_BattleEnemyParameterDeviationTable": 0,
		"acquire_skill_group_id": 0,
		"level_correction": 0,
		"group_id": 0,
		"ai_script_id_BattleAIScript": 0
	},
	{
		"ID": 93720,
		"stage_BattleStage": 810008026,
		"unit_UnitUnit": 3810003,
		"money": 0,
		"initial_coordinate_x": 10,
		"initial_coordinate_y": 4,
		"reinforcement_BattleReinforcement": 0,
		"initial_direction": 90.0,
		"ai_move_group": 0,
		"ai_target_move_x": -1,
		"ai_target_move_y": -1,
		"ai_skill_function": "",
		"ai_attack": "",
		"ai_move": "IF(turn < 3,0,1)",
		"ai_heal": "",
		"ai_skill": "",
		"ai_use": "",
		"skill_group_id": 21275,
		"gear_GearGear": 35023,
		"gear_rank": 1,
		"proficiency_UnitProficiency": 5,
		"level": 75,
		"hp": 244,
		"strength": 103,
		"vitality": 109,
		"intelligence": 8,
		"mind": 59,
		"agility": 107,
		"dexterity": 122,
		"lucky": 45,
		"parameter_table_BattleEnemyParameterTable": 0,
		"parameter_deviation_table_BattleEnemyParameterDeviationTable": 0,
		"acquire_skill_group_id": 0,
		"level_correction": 0,
		"group_id": 0,
		"ai_script_id_BattleAIScript": 0
	},
	{
		"ID": 93721,
		"stage_BattleStage": 810008026,
		"unit_UnitUnit": 3810001,
		"money": 0,
		"initial_coordinate_x": 13,
		"initial_coordinate_y": 11,
		"reinforcement_BattleReinforcement": 0,
		"initial_direction": 90.0,
		"ai_move_group": 0,
		"ai_target_move_x": -1,
		"ai_target_move_y": -1,
		"ai_skill_function": "",
		"ai_attack": "",
		"ai_move": "IF(turn < 3,0,1)",
		"ai_heal": "",
		"ai_skill": "",
		"ai_use": "",
		"skill_group_id": 21276,
		"gear_GearGear": 15039,
		"gear_rank": 1,
		"proficiency_UnitProficiency": 5,
		"level": 75,
		"hp": 232,
		"strength": 97,
		"vitality": 107,
		"intelligence": 9,
		"mind": 52,
		"agility": 116,
		"dexterity": 123,
		"lucky": 45,
		"parameter_table_BattleEnemyParameterTable": 0,
		"parameter_deviation_table_BattleEnemyParameterDeviationTable": 0,
		"acquire_skill_group_id": 0,
		"level_correction": 0,
		"group_id": 0,
		"ai_script_id_BattleAIScript": 0
	},
	{
		"ID": 93722,
		"stage_BattleStage": 810008026,
		"unit_UnitUnit": 3810001,
		"money": 0,
		"initial_coordinate_x": 13,
		"initial_coordinate_y": 10,
		"reinforcement_BattleReinforcement": 0,
		"initial_direction": 90.0,
		"ai_move_group": 0,
		"ai_target_move_x": -1,
		"ai_target_move_y": -1,
		"ai_skill_function": "",
		"ai_attack": "",
		"ai_move": "IF(turn < 3,0,1)",
		"ai_heal": "",
		"ai_skill": "",
		"ai_use": "",
		"skill_group_id": 21276,
		"gear_GearGear": 15039,
		"gear_rank": 1,
		"proficiency_UnitProficiency": 5,
		"level": 75,
		"hp": 232,
		"strength": 97,
		"vitality": 107,
		"intelligence": 9,
		"mind": 52,
		"agility": 116,
		"dexterity": 123,
		"lucky": 45,
		"parameter_table_BattleEnemyParameterTable": 0,
		"parameter_deviation_table_BattleEnemyParameterDeviationTable": 0,
		"acquire_skill_group_id": 0,
		"level_correction": 0,
		"group_id": 0,
		"ai_script_id_BattleAIScript": 0
	},
	{
		"ID": 93723,
		"stage_BattleStage": 810008026,
		"unit_UnitUnit": 3810001,
		"money": 0,
		"initial_coordinate_x": 13,
		"initial_coordinate_y": 7,
		"reinforcement_BattleReinforcement": 0,
		"initial_direction": 90.0,
		"ai_move_group": 0,
		"ai_target_move_x": -1,
		"ai_target_move_y": -1,
		"ai_skill_function": "",
		"ai_attack": "",
		"ai_move": "IF(turn < 3,0,1)",
		"ai_heal": "",
		"ai_skill": "",
		"ai_use": "",
		"skill_group_id": 21276,
		"gear_GearGear": 15039,
		"gear_rank": 1,
		"proficiency_UnitProficiency": 5,
		"level": 75,
		"hp": 232,
		"strength": 97,
		"vitality": 107,
		"intelligence": 9,
		"mind": 52,
		"agility": 116,
		"dexterity": 123,
		"lucky": 45,
		"parameter_table_BattleEnemyParameterTable": 0,
		"parameter_deviation_table_BattleEnemyParameterDeviationTable": 0,
		"acquire_skill_group_id": 0,
		"level_correction": 0,
		"group_id": 0,
		"ai_script_id_BattleAIScript": 0
	},
	{
		"ID": 93724,
		"stage_BattleStage": 810008026,
		"unit_UnitUnit": 3810001,
		"money": 0,
		"initial_coordinate_x": 13,
		"initial_coordinate_y": 6,
		"reinforcement_BattleReinforcement": 0,
		"initial_direction": 90.0,
		"ai_move_group": 0,
		"ai_target_move_x": -1,
		"ai_target_move_y": -1,
		"ai_skill_function": "",
		"ai_attack": "",
		"ai_move": "IF(turn < 3,0,1)",
		"ai_heal": "",
		"ai_skill": "",
		"ai_use": "",
		"skill_group_id": 21276,
		"gear_GearGear": 15039,
		"gear_rank": 1,
		"proficiency_UnitProficiency": 5,
		"level": 75,
		"hp": 232,
		"strength": 97,
		"vitality": 107,
		"intelligence": 9,
		"mind": 52,
		"agility": 116,
		"dexterity": 123,
		"lucky": 45,
		"parameter_table_BattleEnemyParameterTable": 0,
		"parameter_deviation_table_BattleEnemyParameterDeviationTable": 0,
		"acquire_skill_group_id": 0,
		"level_correction": 0,
		"group_id": 0,
		"ai_script_id_BattleAIScript": 0
	},
	{
		"ID": 93725,
		"stage_BattleStage": 810008026,
		"unit_UnitUnit": 3810002,
		"money": 0,
		"initial_coordinate_x": 13,
		"initial_coordinate_y": 3,
		"reinforcement_BattleReinforcement": 0,
		"initial_direction": 90.0,
		"ai_move_group": 0,
		"ai_target_move_x": -1,
		"ai_target_move_y": -1,
		"ai_skill_function": "",
		"ai_attack": "",
		"ai_move": "IF(turn < 3,0,1)",
		"ai_heal": "",
		"ai_skill": "",
		"ai_use": "",
		"skill_group_id": 21275,
		"gear_GearGear": 25019,
		"gear_rank": 1,
		"proficiency_UnitProficiency": 5,
		"level": 75,
		"hp": 278,
		"strength": 115,
		"vitality": 107,
		"intelligence": 8,
		"mind": 45,
		"agility": 98,
		"dexterity": 119,
		"lucky": 45,
		"parameter_table_BattleEnemyParameterTable": 0,
		"parameter_deviation_table_BattleEnemyParameterDeviationTable": 0,
		"acquire_skill_group_id": 0,
		"level_correction": 0,
		"group_id": 0,
		"ai_script_id_BattleAIScript": 0
	},
	{
		"ID": 93726,
		"stage_BattleStage": 810008026,
		"unit_UnitUnit": 3810002,
		"money": 0,
		"initial_coordinate_x": 14,
		"initial_coordinate_y": 2,
		"reinforcement_BattleReinforcement": 0,
		"initial_direction": 90.0,
		"ai_move_group": 0,
		"ai_target_move_x": -1,
		"ai_target_move_y": -1,
		"ai_skill_function": "",
		"ai_attack": "",
		"ai_move": "IF(turn < 3,0,1)",
		"ai_heal": "",
		"ai_skill": "",
		"ai_use": "",
		"skill_group_id": 21275,
		"gear_GearGear": 25019,
		"gear_rank": 1,
		"proficiency_UnitProficiency": 5,
		"level": 75,
		"hp": 278,
		"strength": 115,
		"vitality": 107,
		"intelligence": 8,
		"mind": 45,
		"agility": 98,
		"dexterity": 119,
		"lucky": 45,
		"parameter_table_BattleEnemyParameterTable": 0,
		"parameter_deviation_table_BattleEnemyParameterDeviationTable": 0,
		"acquire_skill_group_id": 0,
		"level_correction": 0,
		"group_id": 0,
		"ai_script_id_BattleAIScript": 0
	},
	{
		"ID": 93727,
		"stage_BattleStage": 810008026,
		"unit_UnitUnit": 3810004,
		"money": 0,
		"initial_coordinate_x": 7,
		"initial_coordinate_y": 1,
		"reinforcement_BattleReinforcement": 0,
		"initial_direction": 90.0,
		"ai_move_group": 0,
		"ai_target_move_x": -1,
		"ai_target_move_y": -1,
		"ai_skill_function": "",
		"ai_attack": "",
		"ai_move": "IF(turn < 3,0,1)",
		"ai_heal": "",
		"ai_skill": "",
		"ai_use": "",
		"skill_group_id": 21277,
		"gear_GearGear": 45018,
		"gear_rank": 1,
		"proficiency_UnitProficiency": 5,
		"level": 75,
		"hp": 159,
		"strength": 84,
		"vitality": 64,
		"intelligence": 9,
		"mind": 53,
		"agility": 99,
		"dexterity": 105,
		"lucky": 45,
		"parameter_table_BattleEnemyParameterTable": 0,
		"parameter_deviation_table_BattleEnemyParameterDeviationTable": 0,
		"acquire_skill_group_id": 0,
		"level_correction": 0,
		"group_id": 0,
		"ai_script_id_BattleAIScript": 0
	},
	{
		"ID": 93728,
		"stage_BattleStage": 810008026,
		"unit_UnitUnit": 3810004,
		"money": 0,
		"initial_coordinate_x": 7,
		"initial_coordinate_y": 12,
		"reinforcement_BattleReinforcement": 0,
		"initial_direction": 90.0,
		"ai_move_group": 0,
		"ai_target_move_x": -1,
		"ai_target_move_y": -1,
		"ai_skill_function": "",
		"ai_attack": "",
		"ai_move": "IF(turn < 3,0,1)",
		"ai_heal": "",
		"ai_skill": "",
		"ai_use": "",
		"skill_group_id": 21277,
		"gear_GearGear": 45018,
		"gear_rank": 1,
		"proficiency_UnitProficiency": 5,
		"level": 75,
		"hp": 159,
		"strength": 84,
		"vitality": 64,
		"intelligence": 9,
		"mind": 53,
		"agility": 99,
		"dexterity": 105,
		"lucky": 45,
		"parameter_table_BattleEnemyParameterTable": 0,
		"parameter_deviation_table_BattleEnemyParameterDeviationTable": 0,
		"acquire_skill_group_id": 0,
		"level_correction": 0,
		"group_id": 0,
		"ai_script_id_BattleAIScript": 0
	}
]