[
	{
		"ID": 54806,
		"stage_BattleStage": 810001059,
		"unit_UnitUnit": 102313,
		"money": 0,
		"initial_coordinate_x": 10,
		"initial_coordinate_y": 20,
		"reinforcement_BattleReinforcement": 0,
		"initial_direction": 180.0,
		"ai_move_group": 0,
		"ai_target_move_x": -1,
		"ai_target_move_y": -1,
		"ai_skill_function": "",
		"ai_attack": "IF( turn <=7, IF(panel_move_distance <= 4, 1, 0),1)",
		"ai_move": "IF(turn <=7,0,1)",
		"ai_heal": "",
		"ai_skill": "",
		"ai_use": "",
		"skill_group_id": 16382,
		"gear_GearGear": 16001,
		"gear_rank": 9,
		"proficiency_UnitProficiency": 6,
		"level": 90,
		"hp": 333,
		"strength": 91,
		"vitality": 59,
		"intelligence": 34,
		"mind": 44,
		"agility": 118,
		"dexterity": 119,
		"lucky": 62,
		"parameter_table_BattleEnemyParameterTable": 0,
		"parameter_deviation_table_BattleEnemyParameterDeviationTable": 0,
		"acquire_skill_group_id": 0,
		"level_correction": 0,
		"group_id": 0,
		"ai_script_id_BattleAIScript": 0
	},
	{
		"ID": 54807,
		"stage_BattleStage": 810001059,
		"unit_UnitUnit": 102513,
		"money": 0,
		"initial_coordinate_x": 2,
		"initial_coordinate_y": 19,
		"reinforcement_BattleReinforcement": 0,
		"initial_direction": 180.0,
		"ai_move_group": 0,
		"ai_target_move_x": -1,
		"ai_target_move_y": -1,
		"ai_skill_function": "",
		"ai_attack": "IF( turn <=7, IF(panel_move_distance <= 4, 1, 0),1)",
		"ai_move": "IF(turn <=7,0,1)",
		"ai_heal": "",
		"ai_skill": "",
		"ai_use": "",
		"skill_group_id": 16383,
		"gear_GearGear": 16001,
		"gear_rank": 9,
		"proficiency_UnitProficiency": 6,
		"level": 90,
		"hp": 328,
		"strength": 94,
		"vitality": 63,
		"intelligence": 38,
		"mind": 49,
		"agility": 114,
		"dexterity": 115,
		"lucky": 66,
		"parameter_table_BattleEnemyParameterTable": 0,
		"parameter_deviation_table_BattleEnemyParameterDeviationTable": 0,
		"acquire_skill_group_id": 0,
		"level_correction": 0,
		"group_id": 0,
		"ai_script_id_BattleAIScript": 0
	},
	{
		"ID": 54808,
		"stage_BattleStage": 810001059,
		"unit_UnitUnit": 300133,
		"money": 0,
		"initial_coordinate_x": 19,
		"initial_coordinate_y": 19,
		"reinforcement_BattleReinforcement": 0,
		"initial_direction": 180.0,
		"ai_move_group": 0,
		"ai_target_move_x": -1,
		"ai_target_move_y": -1,
		"ai_skill_function": "",
		"ai_attack": "IF( turn <=7, IF(panel_move_distance <= 4, 1, 0),1)",
		"ai_move": "IF(turn <=7,0,1)",
		"ai_heal": "",
		"ai_skill": "",
		"ai_use": "",
		"skill_group_id": 16384,
		"gear_GearGear": 35003,
		"gear_rank": 9,
		"proficiency_UnitProficiency": 5,
		"level": 90,
		"hp": 344,
		"strength": 101,
		"vitality": 81,
		"intelligence": 34,
		"mind": 34,
		"agility": 104,
		"dexterity": 101,
		"lucky": 63,
		"parameter_table_BattleEnemyParameterTable": 0,
		"parameter_deviation_table_BattleEnemyParameterDeviationTable": 0,
		"acquire_skill_group_id": 0,
		"level_correction": 0,
		"group_id": 0,
		"ai_script_id_BattleAIScript": 0
	},
	{
		"ID": 54809,
		"stage_BattleStage": 810001059,
		"unit_UnitUnit": 200853,
		"money": 0,
		"initial_coordinate_x": 7,
		"initial_coordinate_y": 13,
		"reinforcement_BattleReinforcement": 0,
		"initial_direction": 180.0,
		"ai_move_group": 0,
		"ai_target_move_x": -1,
		"ai_target_move_y": -1,
		"ai_skill_function": "",
		"ai_attack": "IF( turn <=3, IF(panel_move_distance <= 4, 1, 0),1)",
		"ai_move": "IF(turn <=3,0,1)",
		"ai_heal": "",
		"ai_skill": "",
		"ai_use": "",
		"skill_group_id": 16385,
		"gear_GearGear": 26007,
		"gear_rank": 9,
		"proficiency_UnitProficiency": 6,
		"level": 90,
		"hp": 340,
		"strength": 102,
		"vitality": 120,
		"intelligence": 22,
		"mind": 18,
		"agility": 119,
		"dexterity": 117,
		"lucky": 60,
		"parameter_table_BattleEnemyParameterTable": 0,
		"parameter_deviation_table_BattleEnemyParameterDeviationTable": 0,
		"acquire_skill_group_id": 0,
		"level_correction": 0,
		"group_id": 0,
		"ai_script_id_BattleAIScript": 0
	},
	{
		"ID": 54810,
		"stage_BattleStage": 810001059,
		"unit_UnitUnit": 302013,
		"money": 0,
		"initial_coordinate_x": 14,
		"initial_coordinate_y": 13,
		"reinforcement_BattleReinforcement": 0,
		"initial_direction": 180.0,
		"ai_move_group": 0,
		"ai_target_move_x": -1,
		"ai_target_move_y": -1,
		"ai_skill_function": "",
		"ai_attack": "IF( turn <=3, IF(panel_move_distance <= 4, 1, 0),1)",
		"ai_move": "IF(turn <=3,0,1)",
		"ai_heal": "",
		"ai_skill": "",
		"ai_use": "",
		"skill_group_id": 16386,
		"gear_GearGear": 35003,
		"gear_rank": 9,
		"proficiency_UnitProficiency": 5,
		"level": 90,
		"hp": 331,
		"strength": 100,
		"vitality": 77,
		"intelligence": 36,
		"mind": 46,
		"agility": 119,
		"dexterity": 118,
		"lucky": 64,
		"parameter_table_BattleEnemyParameterTable": 0,
		"parameter_deviation_table_BattleEnemyParameterDeviationTable": 0,
		"acquire_skill_group_id": 0,
		"level_correction": 0,
		"group_id": 0,
		"ai_script_id_BattleAIScript": 0
	},
	{
		"ID": 54811,
		"stage_BattleStage": 810001059,
		"unit_UnitUnit": 860010,
		"money": 0,
		"initial_coordinate_x": 1,
		"initial_coordinate_y": 17,
		"reinforcement_BattleReinforcement": 0,
		"initial_direction": 180.0,
		"ai_move_group": 0,
		"ai_target_move_x": -1,
		"ai_target_move_y": -1,
		"ai_skill_function": "",
		"ai_attack": "IF( turn <=6, IF(panel_move_distance <= 4, 1, 0),1)",
		"ai_move": "IF(turn <=6,0,1)",
		"ai_heal": "",
		"ai_skill": "",
		"ai_use": "",
		"skill_group_id": 14616,
		"gear_GearGear": 65001,
		"gear_rank": 9,
		"proficiency_UnitProficiency": 5,
		"level": 90,
		"hp": 103,
		"strength": 11,
		"vitality": 85,
		"intelligence": 90,
		"mind": 104,
		"agility": 92,
		"dexterity": 96,
		"lucky": 54,
		"parameter_table_BattleEnemyParameterTable": 0,
		"parameter_deviation_table_BattleEnemyParameterDeviationTable": 0,
		"acquire_skill_group_id": 0,
		"level_correction": 0,
		"group_id": 0,
		"ai_script_id_BattleAIScript": 0
	},
	{
		"ID": 54812,
		"stage_BattleStage": 810001059,
		"unit_UnitUnit": 840018,
		"money": 0,
		"initial_coordinate_x": 3,
		"initial_coordinate_y": 17,
		"reinforcement_BattleReinforcement": 0,
		"initial_direction": 180.0,
		"ai_move_group": 0,
		"ai_target_move_x": -1,
		"ai_target_move_y": -1,
		"ai_skill_function": "",
		"ai_attack": "IF( turn <=6, IF(panel_move_distance <= 4, 1, 0),1)",
		"ai_move": "IF(turn <=6,0,1)",
		"ai_heal": "",
		"ai_skill": "",
		"ai_use": "",
		"skill_group_id": 16261,
		"gear_GearGear": 45003,
		"gear_rank": 9,
		"proficiency_UnitProficiency": 5,
		"level": 90,
		"hp": 119,
		"strength": 104,
		"vitality": 81,
		"intelligence": 9,
		"mind": 71,
		"agility": 101,
		"dexterity": 101,
		"lucky": 50,
		"parameter_table_BattleEnemyParameterTable": 0,
		"parameter_deviation_table_BattleEnemyParameterDeviationTable": 0,
		"acquire_skill_group_id": 0,
		"level_correction": 0,
		"group_id": 0,
		"ai_script_id_BattleAIScript": 0
	},
	{
		"ID": 54813,
		"stage_BattleStage": 810001059,
		"unit_UnitUnit": 860010,
		"money": 0,
		"initial_coordinate_x": 11,
		"initial_coordinate_y": 20,
		"reinforcement_BattleReinforcement": 0,
		"initial_direction": 180.0,
		"ai_move_group": 0,
		"ai_target_move_x": -1,
		"ai_target_move_y": -1,
		"ai_skill_function": "",
		"ai_attack": "IF( turn <=7, IF(panel_move_distance <= 4, 1, 0),1)",
		"ai_move": "IF(turn <=7,0,1)",
		"ai_heal": "",
		"ai_skill": "",
		"ai_use": "",
		"skill_group_id": 14616,
		"gear_GearGear": 65001,
		"gear_rank": 9,
		"proficiency_UnitProficiency": 5,
		"level": 90,
		"hp": 104,
		"strength": 12,
		"vitality": 86,
		"intelligence": 91,
		"mind": 104,
		"agility": 95,
		"dexterity": 96,
		"lucky": 57,
		"parameter_table_BattleEnemyParameterTable": 0,
		"parameter_deviation_table_BattleEnemyParameterDeviationTable": 0,
		"acquire_skill_group_id": 0,
		"level_correction": 0,
		"group_id": 0,
		"ai_script_id_BattleAIScript": 0
	},
	{
		"ID": 54814,
		"stage_BattleStage": 810001059,
		"unit_UnitUnit": 860010,
		"money": 0,
		"initial_coordinate_x": 18,
		"initial_coordinate_y": 17,
		"reinforcement_BattleReinforcement": 0,
		"initial_direction": 180.0,
		"ai_move_group": 0,
		"ai_target_move_x": -1,
		"ai_target_move_y": -1,
		"ai_skill_function": "",
		"ai_attack": "IF( turn <=6, IF(panel_move_distance <= 4, 1, 0),1)",
		"ai_move": "IF(turn <=6,0,1)",
		"ai_heal": "",
		"ai_skill": "",
		"ai_use": "",
		"skill_group_id": 14616,
		"gear_GearGear": 65001,
		"gear_rank": 9,
		"proficiency_UnitProficiency": 5,
		"level": 90,
		"hp": 100,
		"strength": 11,
		"vitality": 89,
		"intelligence": 94,
		"mind": 107,
		"agility": 92,
		"dexterity": 97,
		"lucky": 55,
		"parameter_table_BattleEnemyParameterTable": 0,
		"parameter_deviation_table_BattleEnemyParameterDeviationTable": 0,
		"acquire_skill_group_id": 0,
		"level_correction": 0,
		"group_id": 0,
		"ai_script_id_BattleAIScript": 0
	},
	{
		"ID": 54815,
		"stage_BattleStage": 810001059,
		"unit_UnitUnit": 840018,
		"money": 0,
		"initial_coordinate_x": 20,
		"initial_coordinate_y": 17,
		"reinforcement_BattleReinforcement": 0,
		"initial_direction": 180.0,
		"ai_move_group": 0,
		"ai_target_move_x": -1,
		"ai_target_move_y": -1,
		"ai_skill_function": "",
		"ai_attack": "IF( turn <=6, IF(panel_move_distance <= 4, 1, 0),1)",
		"ai_move": "IF(turn <=6,0,1)",
		"ai_heal": "",
		"ai_skill": "",
		"ai_use": "",
		"skill_group_id": 16261,
		"gear_GearGear": 45003,
		"gear_rank": 9,
		"proficiency_UnitProficiency": 5,
		"level": 90,
		"hp": 123,
		"strength": 106,
		"vitality": 79,
		"intelligence": 9,
		"mind": 71,
		"agility": 100,
		"dexterity": 99,
		"lucky": 51,
		"parameter_table_BattleEnemyParameterTable": 0,
		"parameter_deviation_table_BattleEnemyParameterDeviationTable": 0,
		"acquire_skill_group_id": 0,
		"level_correction": 0,
		"group_id": 0,
		"ai_script_id_BattleAIScript": 0
	},
	{
		"ID": 54816,
		"stage_BattleStage": 810001059,
		"unit_UnitUnit": 900016,
		"money": 0,
		"initial_coordinate_x": 2,
		"initial_coordinate_y": 15,
		"reinforcement_BattleReinforcement": 0,
		"initial_direction": 180.0,
		"ai_move_group": 0,
		"ai_target_move_x": -1,
		"ai_target_move_y": -1,
		"ai_skill_function": "",
		"ai_attack": "IF( turn <=6, IF(panel_move_distance <= 4, 1, 0),1)",
		"ai_move": "IF(turn <=6,0,1)",
		"ai_heal": "",
		"ai_skill": "",
		"ai_use": "",
		"skill_group_id": 15078,
		"gear_GearGear": 80004,
		"gear_rank": 9,
		"proficiency_UnitProficiency": 1,
		"level": 90,
		"hp": 145,
		"strength": 17,
		"vitality": 86,
		"intelligence": 105,
		"mind": 100,
		"agility": 93,
		"dexterity": 104,
		"lucky": 51,
		"parameter_table_BattleEnemyParameterTable": 0,
		"parameter_deviation_table_BattleEnemyParameterDeviationTable": 0,
		"acquire_skill_group_id": 0,
		"level_correction": 0,
		"group_id": 0,
		"ai_script_id_BattleAIScript": 0
	},
	{
		"ID": 54817,
		"stage_BattleStage": 810001059,
		"unit_UnitUnit": 900016,
		"money": 0,
		"initial_coordinate_x": 19,
		"initial_coordinate_y": 15,
		"reinforcement_BattleReinforcement": 0,
		"initial_direction": 180.0,
		"ai_move_group": 0,
		"ai_target_move_x": -1,
		"ai_target_move_y": -1,
		"ai_skill_function": "",
		"ai_attack": "IF( turn <=6, IF(panel_move_distance <= 4, 1, 0),1)",
		"ai_move": "IF(turn <=6,0,1)",
		"ai_heal": "",
		"ai_skill": "",
		"ai_use": "",
		"skill_group_id": 15078,
		"gear_GearGear": 80004,
		"gear_rank": 9,
		"proficiency_UnitProficiency": 1,
		"level": 90,
		"hp": 145,
		"strength": 20,
		"vitality": 83,
		"intelligence": 106,
		"mind": 98,
		"agility": 95,
		"dexterity": 102,
		"lucky": 51,
		"parameter_table_BattleEnemyParameterTable": 0,
		"parameter_deviation_table_BattleEnemyParameterDeviationTable": 0,
		"acquire_skill_group_id": 0,
		"level_correction": 0,
		"group_id": 0,
		"ai_script_id_BattleAIScript": 0
	},
	{
		"ID": 54818,
		"stage_BattleStage": 810001059,
		"unit_UnitUnit": 820008,
		"money": 0,
		"initial_coordinate_x": 6,
		"initial_coordinate_y": 11,
		"reinforcement_BattleReinforcement": 0,
		"initial_direction": 180.0,
		"ai_move_group": 0,
		"ai_target_move_x": -1,
		"ai_target_move_y": -1,
		"ai_skill_function": "",
		"ai_attack": "IF( turn <=3, IF(panel_move_distance <= 4, 1, 0),1)",
		"ai_move": "IF(turn <=3,0,1)",
		"ai_heal": "",
		"ai_skill": "",
		"ai_use": "",
		"skill_group_id": 16271,
		"gear_GearGear": 26007,
		"gear_rank": 9,
		"proficiency_UnitProficiency": 6,
		"level": 90,
		"hp": 167,
		"strength": 129,
		"vitality": 108,
		"intelligence": 12,
		"mind": 71,
		"agility": 86,
		"dexterity": 89,
		"lucky": 51,
		"parameter_table_BattleEnemyParameterTable": 0,
		"parameter_deviation_table_BattleEnemyParameterDeviationTable": 0,
		"acquire_skill_group_id": 0,
		"level_correction": 0,
		"group_id": 0,
		"ai_script_id_BattleAIScript": 0
	},
	{
		"ID": 54819,
		"stage_BattleStage": 810001059,
		"unit_UnitUnit": 810008,
		"money": 0,
		"initial_coordinate_x": 8,
		"initial_coordinate_y": 11,
		"reinforcement_BattleReinforcement": 0,
		"initial_direction": 180.0,
		"ai_move_group": 0,
		"ai_target_move_x": -1,
		"ai_target_move_y": -1,
		"ai_skill_function": "",
		"ai_attack": "IF( turn <=3, IF(panel_move_distance <= 4, 1, 0),1)",
		"ai_move": "IF(turn <=3,0,1)",
		"ai_heal": "",
		"ai_skill": "",
		"ai_use": "",
		"skill_group_id": 16282,
		"gear_GearGear": 15006,
		"gear_rank": 9,
		"proficiency_UnitProficiency": 5,
		"level": 90,
		"hp": 148,
		"strength": 112,
		"vitality": 100,
		"intelligence": 12,
		"mind": 82,
		"agility": 101,
		"dexterity": 107,
		"lucky": 52,
		"parameter_table_BattleEnemyParameterTable": 0,
		"parameter_deviation_table_BattleEnemyParameterDeviationTable": 0,
		"acquire_skill_group_id": 0,
		"level_correction": 0,
		"group_id": 0,
		"ai_script_id_BattleAIScript": 0
	},
	{
		"ID": 54820,
		"stage_BattleStage": 810001059,
		"unit_UnitUnit": 820008,
		"money": 0,
		"initial_coordinate_x": 13,
		"initial_coordinate_y": 11,
		"reinforcement_BattleReinforcement": 0,
		"initial_direction": 180.0,
		"ai_move_group": 0,
		"ai_target_move_x": -1,
		"ai_target_move_y": -1,
		"ai_skill_function": "",
		"ai_attack": "IF( turn <=3, IF(panel_move_distance <= 4, 1, 0),1)",
		"ai_move": "IF(turn <=3,0,1)",
		"ai_heal": "",
		"ai_skill": "",
		"ai_use": "",
		"skill_group_id": 16271,
		"gear_GearGear": 26007,
		"gear_rank": 9,
		"proficiency_UnitProficiency": 6,
		"level": 90,
		"hp": 167,
		"strength": 131,
		"vitality": 106,
		"intelligence": 11,
		"mind": 72,
		"agility": 85,
		"dexterity": 92,
		"lucky": 52,
		"parameter_table_BattleEnemyParameterTable": 0,
		"parameter_deviation_table_BattleEnemyParameterDeviationTable": 0,
		"acquire_skill_group_id": 0,
		"level_correction": 0,
		"group_id": 0,
		"ai_script_id_BattleAIScript": 0
	},
	{
		"ID": 54821,
		"stage_BattleStage": 810001059,
		"unit_UnitUnit": 810008,
		"money": 0,
		"initial_coordinate_x": 15,
		"initial_coordinate_y": 11,
		"reinforcement_BattleReinforcement": 0,
		"initial_direction": 180.0,
		"ai_move_group": 0,
		"ai_target_move_x": -1,
		"ai_target_move_y": -1,
		"ai_skill_function": "",
		"ai_attack": "IF( turn <=3, IF(panel_move_distance <= 4, 1, 0),1)",
		"ai_move": "IF(turn <=3,0,1)",
		"ai_heal": "",
		"ai_skill": "",
		"ai_use": "",
		"skill_group_id": 16282,
		"gear_GearGear": 15006,
		"gear_rank": 9,
		"proficiency_UnitProficiency": 5,
		"level": 90,
		"hp": 148,
		"strength": 111,
		"vitality": 102,
		"intelligence": 13,
		"mind": 81,
		"agility": 100,
		"dexterity": 106,
		"lucky": 54,
		"parameter_table_BattleEnemyParameterTable": 0,
		"parameter_deviation_table_BattleEnemyParameterDeviationTable": 0,
		"acquire_skill_group_id": 0,
		"level_correction": 0,
		"group_id": 0,
		"ai_script_id_BattleAIScript": 0
	},
	{
		"ID": 54822,
		"stage_BattleStage": 810001059,
		"unit_UnitUnit": 840018,
		"money": 0,
		"initial_coordinate_x": 10,
		"initial_coordinate_y": 12,
		"reinforcement_BattleReinforcement": 0,
		"initial_direction": 180.0,
		"ai_move_group": 0,
		"ai_target_move_x": -1,
		"ai_target_move_y": -1,
		"ai_skill_function": "",
		"ai_attack": "",
		"ai_move": "0.0",
		"ai_heal": "",
		"ai_skill": "",
		"ai_use": "",
		"skill_group_id": 16261,
		"gear_GearGear": 45003,
		"gear_rank": 9,
		"proficiency_UnitProficiency": 5,
		"level": 90,
		"hp": 120,
		"strength": 103,
		"vitality": 81,
		"intelligence": 13,
		"mind": 71,
		"agility": 102,
		"dexterity": 100,
		"lucky": 54,
		"parameter_table_BattleEnemyParameterTable": 0,
		"parameter_deviation_table_BattleEnemyParameterDeviationTable": 0,
		"acquire_skill_group_id": 0,
		"level_correction": 0,
		"group_id": 0,
		"ai_script_id_BattleAIScript": 0
	},
	{
		"ID": 54823,
		"stage_BattleStage": 810001059,
		"unit_UnitUnit": 840018,
		"money": 0,
		"initial_coordinate_x": 11,
		"initial_coordinate_y": 12,
		"reinforcement_BattleReinforcement": 0,
		"initial_direction": 180.0,
		"ai_move_group": 0,
		"ai_target_move_x": -1,
		"ai_target_move_y": -1,
		"ai_skill_function": "",
		"ai_attack": "",
		"ai_move": "0.0",
		"ai_heal": "",
		"ai_skill": "",
		"ai_use": "",
		"skill_group_id": 16261,
		"gear_GearGear": 45003,
		"gear_rank": 9,
		"proficiency_UnitProficiency": 5,
		"level": 90,
		"hp": 123,
		"strength": 103,
		"vitality": 79,
		"intelligence": 11,
		"mind": 73,
		"agility": 104,
		"dexterity": 99,
		"lucky": 50,
		"parameter_table_BattleEnemyParameterTable": 0,
		"parameter_deviation_table_BattleEnemyParameterDeviationTable": 0,
		"acquire_skill_group_id": 0,
		"level_correction": 0,
		"group_id": 0,
		"ai_script_id_BattleAIScript": 0
	},
	{
		"ID": 54824,
		"stage_BattleStage": 810001059,
		"unit_UnitUnit": 920019,
		"money": 0,
		"initial_coordinate_x": 2,
		"initial_coordinate_y": 7,
		"reinforcement_BattleReinforcement": 0,
		"initial_direction": 180.0,
		"ai_move_group": 0,
		"ai_target_move_x": -1,
		"ai_target_move_y": -1,
		"ai_skill_function": "",
		"ai_attack": "",
		"ai_move": "",
		"ai_heal": "",
		"ai_skill": "",
		"ai_use": "",
		"skill_group_id": 15256,
		"gear_GearGear": 26007,
		"gear_rank": 9,
		"proficiency_UnitProficiency": 6,
		"level": 90,
		"hp": 152,
		"strength": 130,
		"vitality": 93,
		"intelligence": 11,
		"mind": 59,
		"agility": 82,
		"dexterity": 92,
		"lucky": 53,
		"parameter_table_BattleEnemyParameterTable": 0,
		"parameter_deviation_table_BattleEnemyParameterDeviationTable": 0,
		"acquire_skill_group_id": 0,
		"level_correction": 0,
		"group_id": 0,
		"ai_script_id_BattleAIScript": 0
	},
	{
		"ID": 54825,
		"stage_BattleStage": 810001059,
		"unit_UnitUnit": 910019,
		"money": 0,
		"initial_coordinate_x": 4,
		"initial_coordinate_y": 7,
		"reinforcement_BattleReinforcement": 0,
		"initial_direction": 180.0,
		"ai_move_group": 0,
		"ai_target_move_x": -1,
		"ai_target_move_y": -1,
		"ai_skill_function": "",
		"ai_attack": "",
		"ai_move": "",
		"ai_heal": "",
		"ai_skill": "",
		"ai_use": "",
		"skill_group_id": 15251,
		"gear_GearGear": 15006,
		"gear_rank": 9,
		"proficiency_UnitProficiency": 5,
		"level": 90,
		"hp": 109,
		"strength": 94,
		"vitality": 75,
		"intelligence": 9,
		"mind": 62,
		"agility": 114,
		"dexterity": 119,
		"lucky": 53,
		"parameter_table_BattleEnemyParameterTable": 0,
		"parameter_deviation_table_BattleEnemyParameterDeviationTable": 0,
		"acquire_skill_group_id": 0,
		"level_correction": 0,
		"group_id": 0,
		"ai_script_id_BattleAIScript": 0
	},
	{
		"ID": 54826,
		"stage_BattleStage": 810001059,
		"unit_UnitUnit": 920019,
		"money": 0,
		"initial_coordinate_x": 17,
		"initial_coordinate_y": 7,
		"reinforcement_BattleReinforcement": 0,
		"initial_direction": 180.0,
		"ai_move_group": 0,
		"ai_target_move_x": -1,
		"ai_target_move_y": -1,
		"ai_skill_function": "",
		"ai_attack": "",
		"ai_move": "",
		"ai_heal": "",
		"ai_skill": "",
		"ai_use": "",
		"skill_group_id": 15256,
		"gear_GearGear": 26007,
		"gear_rank": 9,
		"proficiency_UnitProficiency": 6,
		"level": 90,
		"hp": 154,
		"strength": 128,
		"vitality": 94,
		"intelligence": 9,
		"mind": 60,
		"agility": 82,
		"dexterity": 91,
		"lucky": 52,
		"parameter_table_BattleEnemyParameterTable": 0,
		"parameter_deviation_table_BattleEnemyParameterDeviationTable": 0,
		"acquire_skill_group_id": 0,
		"level_correction": 0,
		"group_id": 0,
		"ai_script_id_BattleAIScript": 0
	},
	{
		"ID": 54827,
		"stage_BattleStage": 810001059,
		"unit_UnitUnit": 910019,
		"money": 0,
		"initial_coordinate_x": 19,
		"initial_coordinate_y": 7,
		"reinforcement_BattleReinforcement": 0,
		"initial_direction": 180.0,
		"ai_move_group": 0,
		"ai_target_move_x": -1,
		"ai_target_move_y": -1,
		"ai_skill_function": "",
		"ai_attack": "",
		"ai_move": "",
		"ai_heal": "",
		"ai_skill": "",
		"ai_use": "",
		"skill_group_id": 15251,
		"gear_GearGear": 15006,
		"gear_rank": 9,
		"proficiency_UnitProficiency": 5,
		"level": 90,
		"hp": 109,
		"strength": 95,
		"vitality": 75,
		"intelligence": 9,
		"mind": 65,
		"agility": 116,
		"dexterity": 117,
		"lucky": 54,
		"parameter_table_BattleEnemyParameterTable": 0,
		"parameter_deviation_table_BattleEnemyParameterDeviationTable": 0,
		"acquire_skill_group_id": 0,
		"level_correction": 0,
		"group_id": 0,
		"ai_script_id_BattleAIScript": 0
	}
]