[
	{
		"ID": 94525,
		"stage_BattleStage": 810008052,
		"unit_UnitUnit": 3850004,
		"money": 0,
		"initial_coordinate_x": 4,
		"initial_coordinate_y": 16,
		"reinforcement_BattleReinforcement": 0,
		"initial_direction": 180.0,
		"ai_move_group": 0,
		"ai_target_move_x": -1,
		"ai_target_move_y": -1,
		"ai_skill_function": "",
		"ai_attack": "",
		"ai_move": "IF(turn <=6,0,1)",
		"ai_heal": "",
		"ai_skill": "",
		"ai_use": "",
		"skill_group_id": 21373,
		"gear_GearGear": 45019,
		"gear_rank": 10,
		"proficiency_UnitProficiency": 5,
		"level": 90,
		"hp": 221,
		"strength": 126,
		"vitality": 93,
		"intelligence": 12,
		"mind": 77,
		"agility": 124,
		"dexterity": 127,
		"lucky": 52,
		"parameter_table_BattleEnemyParameterTable": 0,
		"parameter_deviation_table_BattleEnemyParameterDeviationTable": 0,
		"acquire_skill_group_id": 0,
		"level_correction": 0,
		"group_id": 0,
		"ai_script_id_BattleAIScript": 0
	},
	{
		"ID": 94526,
		"stage_BattleStage": 810008052,
		"unit_UnitUnit": 3850002,
		"money": 0,
		"initial_coordinate_x": 3,
		"initial_coordinate_y": 15,
		"reinforcement_BattleReinforcement": 0,
		"initial_direction": 180.0,
		"ai_move_group": 0,
		"ai_target_move_x": -1,
		"ai_target_move_y": -1,
		"ai_skill_function": "",
		"ai_attack": "",
		"ai_move": "IF(turn <=6,0,1)",
		"ai_heal": "",
		"ai_skill": "",
		"ai_use": "",
		"skill_group_id": 21372,
		"gear_GearGear": 25020,
		"gear_rank": 10,
		"proficiency_UnitProficiency": 5,
		"level": 90,
		"hp": 357,
		"strength": 159,
		"vitality": 135,
		"intelligence": 12,
		"mind": 65,
		"agility": 123,
		"dexterity": 136,
		"lucky": 52,
		"parameter_table_BattleEnemyParameterTable": 0,
		"parameter_deviation_table_BattleEnemyParameterDeviationTable": 0,
		"acquire_skill_group_id": 0,
		"level_correction": 0,
		"group_id": 0,
		"ai_script_id_BattleAIScript": 0
	},
	{
		"ID": 94527,
		"stage_BattleStage": 810008052,
		"unit_UnitUnit": 3850001,
		"money": 0,
		"initial_coordinate_x": 4,
		"initial_coordinate_y": 15,
		"reinforcement_BattleReinforcement": 0,
		"initial_direction": 180.0,
		"ai_move_group": 0,
		"ai_target_move_x": -1,
		"ai_target_move_y": -1,
		"ai_skill_function": "",
		"ai_attack": "",
		"ai_move": "IF(turn <=6,0,1)",
		"ai_heal": "",
		"ai_skill": "",
		"ai_use": "",
		"skill_group_id": 21371,
		"gear_GearGear": 15040,
		"gear_rank": 10,
		"proficiency_UnitProficiency": 5,
		"level": 90,
		"hp": 327,
		"strength": 148,
		"vitality": 135,
		"intelligence": 13,
		"mind": 76,
		"agility": 134,
		"dexterity": 139,
		"lucky": 52,
		"parameter_table_BattleEnemyParameterTable": 0,
		"parameter_deviation_table_BattleEnemyParameterDeviationTable": 0,
		"acquire_skill_group_id": 0,
		"level_correction": 0,
		"group_id": 0,
		"ai_script_id_BattleAIScript": 0
	},
	{
		"ID": 94528,
		"stage_BattleStage": 810008052,
		"unit_UnitUnit": 3850003,
		"money": 0,
		"initial_coordinate_x": 5,
		"initial_coordinate_y": 15,
		"reinforcement_BattleReinforcement": 0,
		"initial_direction": 180.0,
		"ai_move_group": 0,
		"ai_target_move_x": -1,
		"ai_target_move_y": -1,
		"ai_skill_function": "",
		"ai_attack": "",
		"ai_move": "IF(turn <=6,0,1)",
		"ai_heal": "",
		"ai_skill": "",
		"ai_use": "",
		"skill_group_id": 21372,
		"gear_GearGear": 35024,
		"gear_rank": 10,
		"proficiency_UnitProficiency": 5,
		"level": 90,
		"hp": 341,
		"strength": 154,
		"vitality": 136,
		"intelligence": 12,
		"mind": 77,
		"agility": 129,
		"dexterity": 139,
		"lucky": 52,
		"parameter_table_BattleEnemyParameterTable": 0,
		"parameter_deviation_table_BattleEnemyParameterDeviationTable": 0,
		"acquire_skill_group_id": 0,
		"level_correction": 0,
		"group_id": 0,
		"ai_script_id_BattleAIScript": 0
	},
	{
		"ID": 94529,
		"stage_BattleStage": 810008052,
		"unit_UnitUnit": 3850005,
		"money": 0,
		"initial_coordinate_x": 3,
		"initial_coordinate_y": 12,
		"reinforcement_BattleReinforcement": 0,
		"initial_direction": 90.0,
		"ai_move_group": 0,
		"ai_target_move_x": -1,
		"ai_target_move_y": -1,
		"ai_skill_function": "",
		"ai_attack": "",
		"ai_move": "IF(turn <=6,0,1)",
		"ai_heal": "",
		"ai_skill": "",
		"ai_use": "",
		"skill_group_id": 21374,
		"gear_GearGear": 55021,
		"gear_rank": 10,
		"proficiency_UnitProficiency": 5,
		"level": 90,
		"hp": 201,
		"strength": 15,
		"vitality": 86,
		"intelligence": 134,
		"mind": 109,
		"agility": 98,
		"dexterity": 128,
		"lucky": 52,
		"parameter_table_BattleEnemyParameterTable": 0,
		"parameter_deviation_table_BattleEnemyParameterDeviationTable": 0,
		"acquire_skill_group_id": 0,
		"level_correction": 0,
		"group_id": 0,
		"ai_script_id_BattleAIScript": 0
	},
	{
		"ID": 94530,
		"stage_BattleStage": 810008052,
		"unit_UnitUnit": 3850005,
		"money": 0,
		"initial_coordinate_x": 3,
		"initial_coordinate_y": 11,
		"reinforcement_BattleReinforcement": 0,
		"initial_direction": 90.0,
		"ai_move_group": 0,
		"ai_target_move_x": -1,
		"ai_target_move_y": -1,
		"ai_skill_function": "",
		"ai_attack": "",
		"ai_move": "IF(turn <=6,0,1)",
		"ai_heal": "",
		"ai_skill": "",
		"ai_use": "",
		"skill_group_id": 21374,
		"gear_GearGear": 55021,
		"gear_rank": 10,
		"proficiency_UnitProficiency": 5,
		"level": 90,
		"hp": 201,
		"strength": 15,
		"vitality": 86,
		"intelligence": 134,
		"mind": 109,
		"agility": 98,
		"dexterity": 128,
		"lucky": 52,
		"parameter_table_BattleEnemyParameterTable": 0,
		"parameter_deviation_table_BattleEnemyParameterDeviationTable": 0,
		"acquire_skill_group_id": 0,
		"level_correction": 0,
		"group_id": 0,
		"ai_script_id_BattleAIScript": 0
	},
	{
		"ID": 94531,
		"stage_BattleStage": 810008052,
		"unit_UnitUnit": 3850004,
		"money": 0,
		"initial_coordinate_x": 10,
		"initial_coordinate_y": 16,
		"reinforcement_BattleReinforcement": 0,
		"initial_direction": 180.0,
		"ai_move_group": 0,
		"ai_target_move_x": -1,
		"ai_target_move_y": -1,
		"ai_skill_function": "",
		"ai_attack": "",
		"ai_move": "IF(turn <=5,0,1)",
		"ai_heal": "",
		"ai_skill": "",
		"ai_use": "",
		"skill_group_id": 21373,
		"gear_GearGear": 45019,
		"gear_rank": 10,
		"proficiency_UnitProficiency": 5,
		"level": 90,
		"hp": 221,
		"strength": 126,
		"vitality": 93,
		"intelligence": 12,
		"mind": 77,
		"agility": 124,
		"dexterity": 127,
		"lucky": 52,
		"parameter_table_BattleEnemyParameterTable": 0,
		"parameter_deviation_table_BattleEnemyParameterDeviationTable": 0,
		"acquire_skill_group_id": 0,
		"level_correction": 0,
		"group_id": 0,
		"ai_script_id_BattleAIScript": 0
	},
	{
		"ID": 94532,
		"stage_BattleStage": 810008052,
		"unit_UnitUnit": 3850002,
		"money": 0,
		"initial_coordinate_x": 9,
		"initial_coordinate_y": 15,
		"reinforcement_BattleReinforcement": 0,
		"initial_direction": 180.0,
		"ai_move_group": 0,
		"ai_target_move_x": -1,
		"ai_target_move_y": -1,
		"ai_skill_function": "",
		"ai_attack": "",
		"ai_move": "IF(turn <=5,0,1)",
		"ai_heal": "",
		"ai_skill": "",
		"ai_use": "",
		"skill_group_id": 21372,
		"gear_GearGear": 25020,
		"gear_rank": 10,
		"proficiency_UnitProficiency": 5,
		"level": 90,
		"hp": 357,
		"strength": 159,
		"vitality": 135,
		"intelligence": 12,
		"mind": 65,
		"agility": 123,
		"dexterity": 136,
		"lucky": 52,
		"parameter_table_BattleEnemyParameterTable": 0,
		"parameter_deviation_table_BattleEnemyParameterDeviationTable": 0,
		"acquire_skill_group_id": 0,
		"level_correction": 0,
		"group_id": 0,
		"ai_script_id_BattleAIScript": 0
	},
	{
		"ID": 94533,
		"stage_BattleStage": 810008052,
		"unit_UnitUnit": 3850001,
		"money": 0,
		"initial_coordinate_x": 10,
		"initial_coordinate_y": 15,
		"reinforcement_BattleReinforcement": 0,
		"initial_direction": 180.0,
		"ai_move_group": 0,
		"ai_target_move_x": -1,
		"ai_target_move_y": -1,
		"ai_skill_function": "",
		"ai_attack": "",
		"ai_move": "IF(turn <=5,0,1)",
		"ai_heal": "",
		"ai_skill": "",
		"ai_use": "",
		"skill_group_id": 21371,
		"gear_GearGear": 15040,
		"gear_rank": 10,
		"proficiency_UnitProficiency": 5,
		"level": 90,
		"hp": 327,
		"strength": 148,
		"vitality": 135,
		"intelligence": 13,
		"mind": 76,
		"agility": 134,
		"dexterity": 139,
		"lucky": 52,
		"parameter_table_BattleEnemyParameterTable": 0,
		"parameter_deviation_table_BattleEnemyParameterDeviationTable": 0,
		"acquire_skill_group_id": 0,
		"level_correction": 0,
		"group_id": 0,
		"ai_script_id_BattleAIScript": 0
	},
	{
		"ID": 94534,
		"stage_BattleStage": 810008052,
		"unit_UnitUnit": 3850003,
		"money": 0,
		"initial_coordinate_x": 11,
		"initial_coordinate_y": 15,
		"reinforcement_BattleReinforcement": 0,
		"initial_direction": 180.0,
		"ai_move_group": 0,
		"ai_target_move_x": -1,
		"ai_target_move_y": -1,
		"ai_skill_function": "",
		"ai_attack": "",
		"ai_move": "IF(turn <=5,0,1)",
		"ai_heal": "",
		"ai_skill": "",
		"ai_use": "",
		"skill_group_id": 21372,
		"gear_GearGear": 35024,
		"gear_rank": 10,
		"proficiency_UnitProficiency": 5,
		"level": 90,
		"hp": 341,
		"strength": 154,
		"vitality": 136,
		"intelligence": 12,
		"mind": 77,
		"agility": 129,
		"dexterity": 139,
		"lucky": 52,
		"parameter_table_BattleEnemyParameterTable": 0,
		"parameter_deviation_table_BattleEnemyParameterDeviationTable": 0,
		"acquire_skill_group_id": 0,
		"level_correction": 0,
		"group_id": 0,
		"ai_script_id_BattleAIScript": 0
	},
	{
		"ID": 94535,
		"stage_BattleStage": 810008052,
		"unit_UnitUnit": 3850004,
		"money": 0,
		"initial_coordinate_x": 13,
		"initial_coordinate_y": 13,
		"reinforcement_BattleReinforcement": 0,
		"initial_direction": 180.0,
		"ai_move_group": 0,
		"ai_target_move_x": -1,
		"ai_target_move_y": -1,
		"ai_skill_function": "",
		"ai_attack": "",
		"ai_move": "IF(turn <=5,0,1)",
		"ai_heal": "",
		"ai_skill": "",
		"ai_use": "",
		"skill_group_id": 21373,
		"gear_GearGear": 45019,
		"gear_rank": 10,
		"proficiency_UnitProficiency": 5,
		"level": 90,
		"hp": 221,
		"strength": 126,
		"vitality": 93,
		"intelligence": 12,
		"mind": 77,
		"agility": 124,
		"dexterity": 127,
		"lucky": 52,
		"parameter_table_BattleEnemyParameterTable": 0,
		"parameter_deviation_table_BattleEnemyParameterDeviationTable": 0,
		"acquire_skill_group_id": 0,
		"level_correction": 0,
		"group_id": 0,
		"ai_script_id_BattleAIScript": 0
	},
	{
		"ID": 94536,
		"stage_BattleStage": 810008052,
		"unit_UnitUnit": 3850004,
		"money": 0,
		"initial_coordinate_x": 13,
		"initial_coordinate_y": 12,
		"reinforcement_BattleReinforcement": 0,
		"initial_direction": 180.0,
		"ai_move_group": 0,
		"ai_target_move_x": -1,
		"ai_target_move_y": -1,
		"ai_skill_function": "",
		"ai_attack": "",
		"ai_move": "IF(turn <=5,0,1)",
		"ai_heal": "",
		"ai_skill": "",
		"ai_use": "",
		"skill_group_id": 21373,
		"gear_GearGear": 45019,
		"gear_rank": 10,
		"proficiency_UnitProficiency": 5,
		"level": 90,
		"hp": 221,
		"strength": 126,
		"vitality": 93,
		"intelligence": 12,
		"mind": 77,
		"agility": 124,
		"dexterity": 127,
		"lucky": 52,
		"parameter_table_BattleEnemyParameterTable": 0,
		"parameter_deviation_table_BattleEnemyParameterDeviationTable": 0,
		"acquire_skill_group_id": 0,
		"level_correction": 0,
		"group_id": 0,
		"ai_script_id_BattleAIScript": 0
	},
	{
		"ID": 94537,
		"stage_BattleStage": 810008052,
		"unit_UnitUnit": 3850004,
		"money": 0,
		"initial_coordinate_x": 14,
		"initial_coordinate_y": 12,
		"reinforcement_BattleReinforcement": 0,
		"initial_direction": 180.0,
		"ai_move_group": 0,
		"ai_target_move_x": -1,
		"ai_target_move_y": -1,
		"ai_skill_function": "",
		"ai_attack": "",
		"ai_move": "IF(turn <=5,0,1)",
		"ai_heal": "",
		"ai_skill": "",
		"ai_use": "",
		"skill_group_id": 21373,
		"gear_GearGear": 45019,
		"gear_rank": 10,
		"proficiency_UnitProficiency": 5,
		"level": 90,
		"hp": 221,
		"strength": 126,
		"vitality": 93,
		"intelligence": 12,
		"mind": 77,
		"agility": 124,
		"dexterity": 127,
		"lucky": 52,
		"parameter_table_BattleEnemyParameterTable": 0,
		"parameter_deviation_table_BattleEnemyParameterDeviationTable": 0,
		"acquire_skill_group_id": 0,
		"level_correction": 0,
		"group_id": 0,
		"ai_script_id_BattleAIScript": 0
	},
	{
		"ID": 94538,
		"stage_BattleStage": 810008052,
		"unit_UnitUnit": 3850005,
		"money": 0,
		"initial_coordinate_x": 10,
		"initial_coordinate_y": 11,
		"reinforcement_BattleReinforcement": 0,
		"initial_direction": 180.0,
		"ai_move_group": 0,
		"ai_target_move_x": -1,
		"ai_target_move_y": -1,
		"ai_skill_function": "",
		"ai_attack": "",
		"ai_move": "IF(turn <=4,0,1)",
		"ai_heal": "",
		"ai_skill": "",
		"ai_use": "",
		"skill_group_id": 21374,
		"gear_GearGear": 55021,
		"gear_rank": 10,
		"proficiency_UnitProficiency": 5,
		"level": 90,
		"hp": 201,
		"strength": 15,
		"vitality": 86,
		"intelligence": 134,
		"mind": 109,
		"agility": 98,
		"dexterity": 128,
		"lucky": 52,
		"parameter_table_BattleEnemyParameterTable": 0,
		"parameter_deviation_table_BattleEnemyParameterDeviationTable": 0,
		"acquire_skill_group_id": 0,
		"level_correction": 0,
		"group_id": 0,
		"ai_script_id_BattleAIScript": 0
	},
	{
		"ID": 94539,
		"stage_BattleStage": 810008052,
		"unit_UnitUnit": 3850005,
		"money": 0,
		"initial_coordinate_x": 11,
		"initial_coordinate_y": 10,
		"reinforcement_BattleReinforcement": 0,
		"initial_direction": 180.0,
		"ai_move_group": 0,
		"ai_target_move_x": -1,
		"ai_target_move_y": -1,
		"ai_skill_function": "",
		"ai_attack": "",
		"ai_move": "IF(turn <=4,0,1)",
		"ai_heal": "",
		"ai_skill": "",
		"ai_use": "",
		"skill_group_id": 21374,
		"gear_GearGear": 55021,
		"gear_rank": 10,
		"proficiency_UnitProficiency": 5,
		"level": 90,
		"hp": 201,
		"strength": 15,
		"vitality": 86,
		"intelligence": 134,
		"mind": 109,
		"agility": 98,
		"dexterity": 128,
		"lucky": 52,
		"parameter_table_BattleEnemyParameterTable": 0,
		"parameter_deviation_table_BattleEnemyParameterDeviationTable": 0,
		"acquire_skill_group_id": 0,
		"level_correction": 0,
		"group_id": 0,
		"ai_script_id_BattleAIScript": 0
	},
	{
		"ID": 94540,
		"stage_BattleStage": 810008052,
		"unit_UnitUnit": 3850004,
		"money": 0,
		"initial_coordinate_x": 13,
		"initial_coordinate_y": 7,
		"reinforcement_BattleReinforcement": 0,
		"initial_direction": 180.0,
		"ai_move_group": 0,
		"ai_target_move_x": -1,
		"ai_target_move_y": -1,
		"ai_skill_function": "",
		"ai_attack": "",
		"ai_move": "IF(turn <=4,0,1)",
		"ai_heal": "",
		"ai_skill": "",
		"ai_use": "",
		"skill_group_id": 21373,
		"gear_GearGear": 45019,
		"gear_rank": 10,
		"proficiency_UnitProficiency": 5,
		"level": 90,
		"hp": 221,
		"strength": 126,
		"vitality": 93,
		"intelligence": 12,
		"mind": 77,
		"agility": 124,
		"dexterity": 127,
		"lucky": 52,
		"parameter_table_BattleEnemyParameterTable": 0,
		"parameter_deviation_table_BattleEnemyParameterDeviationTable": 0,
		"acquire_skill_group_id": 0,
		"level_correction": 0,
		"group_id": 0,
		"ai_script_id_BattleAIScript": 0
	},
	{
		"ID": 94541,
		"stage_BattleStage": 810008052,
		"unit_UnitUnit": 3850002,
		"money": 0,
		"initial_coordinate_x": 13,
		"initial_coordinate_y": 8,
		"reinforcement_BattleReinforcement": 0,
		"initial_direction": 180.0,
		"ai_move_group": 0,
		"ai_target_move_x": -1,
		"ai_target_move_y": -1,
		"ai_skill_function": "",
		"ai_attack": "",
		"ai_move": "IF(turn <=4,0,1)",
		"ai_heal": "",
		"ai_skill": "",
		"ai_use": "",
		"skill_group_id": 21372,
		"gear_GearGear": 25020,
		"gear_rank": 10,
		"proficiency_UnitProficiency": 5,
		"level": 90,
		"hp": 357,
		"strength": 159,
		"vitality": 135,
		"intelligence": 12,
		"mind": 65,
		"agility": 123,
		"dexterity": 136,
		"lucky": 52,
		"parameter_table_BattleEnemyParameterTable": 0,
		"parameter_deviation_table_BattleEnemyParameterDeviationTable": 0,
		"acquire_skill_group_id": 0,
		"level_correction": 0,
		"group_id": 0,
		"ai_script_id_BattleAIScript": 0
	},
	{
		"ID": 94542,
		"stage_BattleStage": 810008052,
		"unit_UnitUnit": 3850003,
		"money": 0,
		"initial_coordinate_x": 14,
		"initial_coordinate_y": 7,
		"reinforcement_BattleReinforcement": 0,
		"initial_direction": 180.0,
		"ai_move_group": 0,
		"ai_target_move_x": -1,
		"ai_target_move_y": -1,
		"ai_skill_function": "",
		"ai_attack": "",
		"ai_move": "IF(turn <=4,0,1)",
		"ai_heal": "",
		"ai_skill": "",
		"ai_use": "",
		"skill_group_id": 21372,
		"gear_GearGear": 35024,
		"gear_rank": 10,
		"proficiency_UnitProficiency": 5,
		"level": 90,
		"hp": 341,
		"strength": 154,
		"vitality": 136,
		"intelligence": 12,
		"mind": 77,
		"agility": 129,
		"dexterity": 139,
		"lucky": 52,
		"parameter_table_BattleEnemyParameterTable": 0,
		"parameter_deviation_table_BattleEnemyParameterDeviationTable": 0,
		"acquire_skill_group_id": 0,
		"level_correction": 0,
		"group_id": 0,
		"ai_script_id_BattleAIScript": 0
	},
	{
		"ID": 94543,
		"stage_BattleStage": 810008052,
		"unit_UnitUnit": 3850002,
		"money": 0,
		"initial_coordinate_x": 13,
		"initial_coordinate_y": 6,
		"reinforcement_BattleReinforcement": 0,
		"initial_direction": 180.0,
		"ai_move_group": 0,
		"ai_target_move_x": -1,
		"ai_target_move_y": -1,
		"ai_skill_function": "",
		"ai_attack": "",
		"ai_move": "IF(turn <=4,0,1)",
		"ai_heal": "",
		"ai_skill": "",
		"ai_use": "",
		"skill_group_id": 21372,
		"gear_GearGear": 25020,
		"gear_rank": 10,
		"proficiency_UnitProficiency": 5,
		"level": 90,
		"hp": 357,
		"strength": 159,
		"vitality": 135,
		"intelligence": 12,
		"mind": 65,
		"agility": 123,
		"dexterity": 136,
		"lucky": 52,
		"parameter_table_BattleEnemyParameterTable": 0,
		"parameter_deviation_table_BattleEnemyParameterDeviationTable": 0,
		"acquire_skill_group_id": 0,
		"level_correction": 0,
		"group_id": 0,
		"ai_script_id_BattleAIScript": 0
	},
	{
		"ID": 94544,
		"stage_BattleStage": 810008052,
		"unit_UnitUnit": 3850003,
		"money": 0,
		"initial_coordinate_x": 12,
		"initial_coordinate_y": 7,
		"reinforcement_BattleReinforcement": 0,
		"initial_direction": 180.0,
		"ai_move_group": 0,
		"ai_target_move_x": -1,
		"ai_target_move_y": -1,
		"ai_skill_function": "",
		"ai_attack": "",
		"ai_move": "IF(turn <=4,0,1)",
		"ai_heal": "",
		"ai_skill": "",
		"ai_use": "",
		"skill_group_id": 21372,
		"gear_GearGear": 35024,
		"gear_rank": 10,
		"proficiency_UnitProficiency": 5,
		"level": 90,
		"hp": 341,
		"strength": 154,
		"vitality": 136,
		"intelligence": 12,
		"mind": 77,
		"agility": 129,
		"dexterity": 139,
		"lucky": 52,
		"parameter_table_BattleEnemyParameterTable": 0,
		"parameter_deviation_table_BattleEnemyParameterDeviationTable": 0,
		"acquire_skill_group_id": 0,
		"level_correction": 0,
		"group_id": 0,
		"ai_script_id_BattleAIScript": 0
	},
	{
		"ID": 94545,
		"stage_BattleStage": 810008052,
		"unit_UnitUnit": 3850005,
		"money": 0,
		"initial_coordinate_x": 11,
		"initial_coordinate_y": 4,
		"reinforcement_BattleReinforcement": 0,
		"initial_direction": 270.0,
		"ai_move_group": 0,
		"ai_target_move_x": -1,
		"ai_target_move_y": -1,
		"ai_skill_function": "",
		"ai_attack": "",
		"ai_move": "IF(turn <=3,0,1)",
		"ai_heal": "",
		"ai_skill": "",
		"ai_use": "",
		"skill_group_id": 21374,
		"gear_GearGear": 55021,
		"gear_rank": 10,
		"proficiency_UnitProficiency": 5,
		"level": 90,
		"hp": 201,
		"strength": 15,
		"vitality": 86,
		"intelligence": 134,
		"mind": 109,
		"agility": 98,
		"dexterity": 128,
		"lucky": 52,
		"parameter_table_BattleEnemyParameterTable": 0,
		"parameter_deviation_table_BattleEnemyParameterDeviationTable": 0,
		"acquire_skill_group_id": 0,
		"level_correction": 0,
		"group_id": 0,
		"ai_script_id_BattleAIScript": 0
	},
	{
		"ID": 94546,
		"stage_BattleStage": 810008052,
		"unit_UnitUnit": 3850005,
		"money": 0,
		"initial_coordinate_x": 11,
		"initial_coordinate_y": 3,
		"reinforcement_BattleReinforcement": 0,
		"initial_direction": 270.0,
		"ai_move_group": 0,
		"ai_target_move_x": -1,
		"ai_target_move_y": -1,
		"ai_skill_function": "",
		"ai_attack": "",
		"ai_move": "IF(turn <=3,0,1)",
		"ai_heal": "",
		"ai_skill": "",
		"ai_use": "",
		"skill_group_id": 21374,
		"gear_GearGear": 55021,
		"gear_rank": 10,
		"proficiency_UnitProficiency": 5,
		"level": 90,
		"hp": 201,
		"strength": 15,
		"vitality": 86,
		"intelligence": 134,
		"mind": 109,
		"agility": 98,
		"dexterity": 128,
		"lucky": 52,
		"parameter_table_BattleEnemyParameterTable": 0,
		"parameter_deviation_table_BattleEnemyParameterDeviationTable": 0,
		"acquire_skill_group_id": 0,
		"level_correction": 0,
		"group_id": 0,
		"ai_script_id_BattleAIScript": 0
	},
	{
		"ID": 94547,
		"stage_BattleStage": 810008052,
		"unit_UnitUnit": 3850005,
		"money": 0,
		"initial_coordinate_x": 11,
		"initial_coordinate_y": 2,
		"reinforcement_BattleReinforcement": 0,
		"initial_direction": 270.0,
		"ai_move_group": 0,
		"ai_target_move_x": -1,
		"ai_target_move_y": -1,
		"ai_skill_function": "",
		"ai_attack": "",
		"ai_move": "IF(turn <=3,0,1)",
		"ai_heal": "",
		"ai_skill": "",
		"ai_use": "",
		"skill_group_id": 21374,
		"gear_GearGear": 55021,
		"gear_rank": 10,
		"proficiency_UnitProficiency": 5,
		"level": 90,
		"hp": 201,
		"strength": 15,
		"vitality": 86,
		"intelligence": 134,
		"mind": 109,
		"agility": 98,
		"dexterity": 128,
		"lucky": 52,
		"parameter_table_BattleEnemyParameterTable": 0,
		"parameter_deviation_table_BattleEnemyParameterDeviationTable": 0,
		"acquire_skill_group_id": 0,
		"level_correction": 0,
		"group_id": 0,
		"ai_script_id_BattleAIScript": 0
	},
	{
		"ID": 94548,
		"stage_BattleStage": 810008052,
		"unit_UnitUnit": 3850004,
		"money": 0,
		"initial_coordinate_x": 5,
		"initial_coordinate_y": 7,
		"reinforcement_BattleReinforcement": 0,
		"initial_direction": 180.0,
		"ai_move_group": 0,
		"ai_target_move_x": -1,
		"ai_target_move_y": -1,
		"ai_skill_function": "",
		"ai_attack": "",
		"ai_move": "IF(turn <=1,0,1)",
		"ai_heal": "",
		"ai_skill": "",
		"ai_use": "",
		"skill_group_id": 21373,
		"gear_GearGear": 45019,
		"gear_rank": 10,
		"proficiency_UnitProficiency": 5,
		"level": 90,
		"hp": 221,
		"strength": 126,
		"vitality": 93,
		"intelligence": 12,
		"mind": 77,
		"agility": 124,
		"dexterity": 127,
		"lucky": 52,
		"parameter_table_BattleEnemyParameterTable": 0,
		"parameter_deviation_table_BattleEnemyParameterDeviationTable": 0,
		"acquire_skill_group_id": 0,
		"level_correction": 0,
		"group_id": 0,
		"ai_script_id_BattleAIScript": 0
	},
	{
		"ID": 94549,
		"stage_BattleStage": 810008052,
		"unit_UnitUnit": 3850002,
		"money": 0,
		"initial_coordinate_x": 4,
		"initial_coordinate_y": 6,
		"reinforcement_BattleReinforcement": 0,
		"initial_direction": 180.0,
		"ai_move_group": 0,
		"ai_target_move_x": -1,
		"ai_target_move_y": -1,
		"ai_skill_function": "",
		"ai_attack": "",
		"ai_move": "IF(turn <=1,0,1)",
		"ai_heal": "",
		"ai_skill": "",
		"ai_use": "",
		"skill_group_id": 21372,
		"gear_GearGear": 25020,
		"gear_rank": 10,
		"proficiency_UnitProficiency": 5,
		"level": 90,
		"hp": 357,
		"strength": 159,
		"vitality": 135,
		"intelligence": 12,
		"mind": 65,
		"agility": 123,
		"dexterity": 136,
		"lucky": 52,
		"parameter_table_BattleEnemyParameterTable": 0,
		"parameter_deviation_table_BattleEnemyParameterDeviationTable": 0,
		"acquire_skill_group_id": 0,
		"level_correction": 0,
		"group_id": 0,
		"ai_script_id_BattleAIScript": 0
	},
	{
		"ID": 94550,
		"stage_BattleStage": 810008052,
		"unit_UnitUnit": 3850001,
		"money": 0,
		"initial_coordinate_x": 5,
		"initial_coordinate_y": 6,
		"reinforcement_BattleReinforcement": 0,
		"initial_direction": 180.0,
		"ai_move_group": 0,
		"ai_target_move_x": -1,
		"ai_target_move_y": -1,
		"ai_skill_function": "",
		"ai_attack": "",
		"ai_move": "IF(turn <=1,0,1)",
		"ai_heal": "",
		"ai_skill": "",
		"ai_use": "",
		"skill_group_id": 21371,
		"gear_GearGear": 15040,
		"gear_rank": 10,
		"proficiency_UnitProficiency": 5,
		"level": 90,
		"hp": 327,
		"strength": 148,
		"vitality": 135,
		"intelligence": 13,
		"mind": 76,
		"agility": 134,
		"dexterity": 139,
		"lucky": 52,
		"parameter_table_BattleEnemyParameterTable": 0,
		"parameter_deviation_table_BattleEnemyParameterDeviationTable": 0,
		"acquire_skill_group_id": 0,
		"level_correction": 0,
		"group_id": 0,
		"ai_script_id_BattleAIScript": 0
	},
	{
		"ID": 94551,
		"stage_BattleStage": 810008052,
		"unit_UnitUnit": 3850003,
		"money": 0,
		"initial_coordinate_x": 6,
		"initial_coordinate_y": 6,
		"reinforcement_BattleReinforcement": 0,
		"initial_direction": 180.0,
		"ai_move_group": 0,
		"ai_target_move_x": -1,
		"ai_target_move_y": -1,
		"ai_skill_function": "",
		"ai_attack": "",
		"ai_move": "IF(turn <=1,0,1)",
		"ai_heal": "",
		"ai_skill": "",
		"ai_use": "",
		"skill_group_id": 21372,
		"gear_GearGear": 35024,
		"gear_rank": 10,
		"proficiency_UnitProficiency": 5,
		"level": 90,
		"hp": 341,
		"strength": 154,
		"vitality": 136,
		"intelligence": 12,
		"mind": 77,
		"agility": 129,
		"dexterity": 139,
		"lucky": 52,
		"parameter_table_BattleEnemyParameterTable": 0,
		"parameter_deviation_table_BattleEnemyParameterDeviationTable": 0,
		"acquire_skill_group_id": 0,
		"level_correction": 0,
		"group_id": 0,
		"ai_script_id_BattleAIScript": 0
	},
	{
		"ID": 94552,
		"stage_BattleStage": 810008052,
		"unit_UnitUnit": 3850004,
		"money": 0,
		"initial_coordinate_x": 7,
		"initial_coordinate_y": 3,
		"reinforcement_BattleReinforcement": 0,
		"initial_direction": 270.0,
		"ai_move_group": 0,
		"ai_target_move_x": -1,
		"ai_target_move_y": -1,
		"ai_skill_function": "",
		"ai_attack": "",
		"ai_move": "IF(turn <=1,0,1)",
		"ai_heal": "",
		"ai_skill": "",
		"ai_use": "",
		"skill_group_id": 21373,
		"gear_GearGear": 45019,
		"gear_rank": 10,
		"proficiency_UnitProficiency": 5,
		"level": 90,
		"hp": 221,
		"strength": 126,
		"vitality": 93,
		"intelligence": 12,
		"mind": 77,
		"agility": 124,
		"dexterity": 127,
		"lucky": 52,
		"parameter_table_BattleEnemyParameterTable": 0,
		"parameter_deviation_table_BattleEnemyParameterDeviationTable": 0,
		"acquire_skill_group_id": 0,
		"level_correction": 0,
		"group_id": 0,
		"ai_script_id_BattleAIScript": 0
	},
	{
		"ID": 94553,
		"stage_BattleStage": 810008052,
		"unit_UnitUnit": 3850002,
		"money": 0,
		"initial_coordinate_x": 6,
		"initial_coordinate_y": 4,
		"reinforcement_BattleReinforcement": 0,
		"initial_direction": 270.0,
		"ai_move_group": 0,
		"ai_target_move_x": -1,
		"ai_target_move_y": -1,
		"ai_skill_function": "",
		"ai_attack": "",
		"ai_move": "IF(turn <=1,0,1)",
		"ai_heal": "",
		"ai_skill": "",
		"ai_use": "",
		"skill_group_id": 21372,
		"gear_GearGear": 25020,
		"gear_rank": 10,
		"proficiency_UnitProficiency": 5,
		"level": 90,
		"hp": 357,
		"strength": 159,
		"vitality": 135,
		"intelligence": 12,
		"mind": 65,
		"agility": 123,
		"dexterity": 136,
		"lucky": 52,
		"parameter_table_BattleEnemyParameterTable": 0,
		"parameter_deviation_table_BattleEnemyParameterDeviationTable": 0,
		"acquire_skill_group_id": 0,
		"level_correction": 0,
		"group_id": 0,
		"ai_script_id_BattleAIScript": 0
	},
	{
		"ID": 94554,
		"stage_BattleStage": 810008052,
		"unit_UnitUnit": 3850001,
		"money": 0,
		"initial_coordinate_x": 6,
		"initial_coordinate_y": 3,
		"reinforcement_BattleReinforcement": 0,
		"initial_direction": 270.0,
		"ai_move_group": 0,
		"ai_target_move_x": -1,
		"ai_target_move_y": -1,
		"ai_skill_function": "",
		"ai_attack": "",
		"ai_move": "IF(turn <=1,0,1)",
		"ai_heal": "",
		"ai_skill": "",
		"ai_use": "",
		"skill_group_id": 21371,
		"gear_GearGear": 15040,
		"gear_rank": 10,
		"proficiency_UnitProficiency": 5,
		"level": 90,
		"hp": 327,
		"strength": 148,
		"vitality": 135,
		"intelligence": 13,
		"mind": 76,
		"agility": 134,
		"dexterity": 139,
		"lucky": 52,
		"parameter_table_BattleEnemyParameterTable": 0,
		"parameter_deviation_table_BattleEnemyParameterDeviationTable": 0,
		"acquire_skill_group_id": 0,
		"level_correction": 0,
		"group_id": 0,
		"ai_script_id_BattleAIScript": 0
	},
	{
		"ID": 94555,
		"stage_BattleStage": 810008052,
		"unit_UnitUnit": 3850003,
		"money": 0,
		"initial_coordinate_x": 6,
		"initial_coordinate_y": 2,
		"reinforcement_BattleReinforcement": 0,
		"initial_direction": 270.0,
		"ai_move_group": 0,
		"ai_target_move_x": -1,
		"ai_target_move_y": -1,
		"ai_skill_function": "",
		"ai_attack": "",
		"ai_move": "IF(turn <=1,0,1)",
		"ai_heal": "",
		"ai_skill": "",
		"ai_use": "",
		"skill_group_id": 21372,
		"gear_GearGear": 35024,
		"gear_rank": 10,
		"proficiency_UnitProficiency": 5,
		"level": 90,
		"hp": 341,
		"strength": 154,
		"vitality": 136,
		"intelligence": 12,
		"mind": 77,
		"agility": 129,
		"dexterity": 139,
		"lucky": 52,
		"parameter_table_BattleEnemyParameterTable": 0,
		"parameter_deviation_table_BattleEnemyParameterDeviationTable": 0,
		"acquire_skill_group_id": 0,
		"level_correction": 0,
		"group_id": 0,
		"ai_script_id_BattleAIScript": 0
	}
]