[
	{
		"ID": 86834,
		"stage_BattleStage": 810007015,
		"unit_UnitUnit": 810008,
		"money": 0,
		"initial_coordinate_x": 11,
		"initial_coordinate_y": 14,
		"reinforcement_BattleReinforcement": 0,
		"initial_direction": 180.0,
		"ai_move_group": 0,
		"ai_target_move_x": -1,
		"ai_target_move_y": -1,
		"ai_skill_function": "",
		"ai_attack": "IF( turn <=7 ,IF(panel_move_distance <= 3, 1, 0),1)",
		"ai_move": "IF(turn <=7,0,1)",
		"ai_heal": "",
		"ai_skill": "",
		"ai_use": "",
		"skill_group_id": 13034,
		"gear_GearGear": 13004,
		"gear_rank": 1,
		"proficiency_UnitProficiency": 3,
		"level": 54,
		"hp": 172,
		"strength": 85,
		"vitality": 64,
		"intelligence": 3,
		"mind": 34,
		"agility": 13,
		"dexterity": 68,
		"lucky": 27,
		"parameter_table_BattleEnemyParameterTable": 0,
		"parameter_deviation_table_BattleEnemyParameterDeviationTable": 0,
		"acquire_skill_group_id": 0,
		"level_correction": 0,
		"group_id": 0,
		"ai_script_id_BattleAIScript": 0
	},
	{
		"ID": 86835,
		"stage_BattleStage": 810007015,
		"unit_UnitUnit": 830003,
		"money": 0,
		"initial_coordinate_x": 12,
		"initial_coordinate_y": 13,
		"reinforcement_BattleReinforcement": 0,
		"initial_direction": 180.0,
		"ai_move_group": 0,
		"ai_target_move_x": -1,
		"ai_target_move_y": -1,
		"ai_skill_function": "",
		"ai_attack": "IF( turn <=7 ,IF(panel_move_distance <= 3, 1, 0),1)",
		"ai_move": "IF(turn <=7,0,1)",
		"ai_heal": "",
		"ai_skill": "",
		"ai_use": "",
		"skill_group_id": 9065,
		"gear_GearGear": 32003,
		"gear_rank": 1,
		"proficiency_UnitProficiency": 2,
		"level": 54,
		"hp": 147,
		"strength": 83,
		"vitality": 70,
		"intelligence": 6,
		"mind": 22,
		"agility": 10,
		"dexterity": 53,
		"lucky": 40,
		"parameter_table_BattleEnemyParameterTable": 0,
		"parameter_deviation_table_BattleEnemyParameterDeviationTable": 0,
		"acquire_skill_group_id": 0,
		"level_correction": 0,
		"group_id": 0,
		"ai_script_id_BattleAIScript": 0
	},
	{
		"ID": 86836,
		"stage_BattleStage": 810007015,
		"unit_UnitUnit": 820008,
		"money": 0,
		"initial_coordinate_x": 11,
		"initial_coordinate_y": 12,
		"reinforcement_BattleReinforcement": 0,
		"initial_direction": 180.0,
		"ai_move_group": 0,
		"ai_target_move_x": -1,
		"ai_target_move_y": -1,
		"ai_skill_function": "",
		"ai_attack": "IF( turn <=7 ,IF(panel_move_distance <= 3, 1, 0),1)",
		"ai_move": "IF(turn <=7,0,1)",
		"ai_heal": "",
		"ai_skill": "",
		"ai_use": "",
		"skill_group_id": 13032,
		"gear_GearGear": 22003,
		"gear_rank": 1,
		"proficiency_UnitProficiency": 2,
		"level": 54,
		"hp": 172,
		"strength": 91,
		"vitality": 65,
		"intelligence": 3,
		"mind": 35,
		"agility": 12,
		"dexterity": 62,
		"lucky": 23,
		"parameter_table_BattleEnemyParameterTable": 0,
		"parameter_deviation_table_BattleEnemyParameterDeviationTable": 0,
		"acquire_skill_group_id": 0,
		"level_correction": 0,
		"group_id": 0,
		"ai_script_id_BattleAIScript": 0
	},
	{
		"ID": 86837,
		"stage_BattleStage": 810007015,
		"unit_UnitUnit": 820007,
		"money": 0,
		"initial_coordinate_x": 10,
		"initial_coordinate_y": 13,
		"reinforcement_BattleReinforcement": 0,
		"initial_direction": 180.0,
		"ai_move_group": 0,
		"ai_target_move_x": -1,
		"ai_target_move_y": -1,
		"ai_skill_function": "",
		"ai_attack": "IF( turn <=7 ,IF(panel_move_distance <= 5, 1, 0),1)",
		"ai_move": "IF(turn <=7,0,1)",
		"ai_heal": "",
		"ai_skill": "",
		"ai_use": "",
		"skill_group_id": 12715,
		"gear_GearGear": 22003,
		"gear_rank": 1,
		"proficiency_UnitProficiency": 2,
		"level": 54,
		"hp": 138,
		"strength": 89,
		"vitality": 62,
		"intelligence": 8,
		"mind": 24,
		"agility": 12,
		"dexterity": 52,
		"lucky": 36,
		"parameter_table_BattleEnemyParameterTable": 0,
		"parameter_deviation_table_BattleEnemyParameterDeviationTable": 0,
		"acquire_skill_group_id": 0,
		"level_correction": 0,
		"group_id": 0,
		"ai_script_id_BattleAIScript": 0
	},
	{
		"ID": 86838,
		"stage_BattleStage": 810007015,
		"unit_UnitUnit": 820007,
		"money": 0,
		"initial_coordinate_x": 10,
		"initial_coordinate_y": 10,
		"reinforcement_BattleReinforcement": 0,
		"initial_direction": 180.0,
		"ai_move_group": 0,
		"ai_target_move_x": -1,
		"ai_target_move_y": -1,
		"ai_skill_function": "",
		"ai_attack": "IF( turn <=7 ,IF(panel_move_distance <= 5, 1, 0),1)",
		"ai_move": "IF(turn <=7,0,1)",
		"ai_heal": "",
		"ai_skill": "",
		"ai_use": "",
		"skill_group_id": 12714,
		"gear_GearGear": 22003,
		"gear_rank": 1,
		"proficiency_UnitProficiency": 2,
		"level": 54,
		"hp": 139,
		"strength": 90,
		"vitality": 60,
		"intelligence": 8,
		"mind": 22,
		"agility": 11,
		"dexterity": 50,
		"lucky": 40,
		"parameter_table_BattleEnemyParameterTable": 0,
		"parameter_deviation_table_BattleEnemyParameterDeviationTable": 0,
		"acquire_skill_group_id": 0,
		"level_correction": 0,
		"group_id": 0,
		"ai_script_id_BattleAIScript": 0
	},
	{
		"ID": 86839,
		"stage_BattleStage": 810007015,
		"unit_UnitUnit": 920013,
		"money": 0,
		"initial_coordinate_x": 9,
		"initial_coordinate_y": 9,
		"reinforcement_BattleReinforcement": 0,
		"initial_direction": 180.0,
		"ai_move_group": 0,
		"ai_target_move_x": -1,
		"ai_target_move_y": -1,
		"ai_skill_function": "",
		"ai_attack": "IF( turn <=2 ,IF(panel_move_distance <= 3, 1, 0),1)",
		"ai_move": "IF(turn <=2,0,1)",
		"ai_heal": "",
		"ai_skill": "",
		"ai_use": "",
		"skill_group_id": 12941,
		"gear_GearGear": 22003,
		"gear_rank": 1,
		"proficiency_UnitProficiency": 2,
		"level": 54,
		"hp": 126,
		"strength": 86,
		"vitality": 44,
		"intelligence": 7,
		"mind": 28,
		"agility": 15,
		"dexterity": 59,
		"lucky": 34,
		"parameter_table_BattleEnemyParameterTable": 0,
		"parameter_deviation_table_BattleEnemyParameterDeviationTable": 0,
		"acquire_skill_group_id": 0,
		"level_correction": 0,
		"group_id": 0,
		"ai_script_id_BattleAIScript": 0
	},
	{
		"ID": 86840,
		"stage_BattleStage": 810007015,
		"unit_UnitUnit": 930013,
		"money": 0,
		"initial_coordinate_x": 5,
		"initial_coordinate_y": 14,
		"reinforcement_BattleReinforcement": 0,
		"initial_direction": 180.0,
		"ai_move_group": 0,
		"ai_target_move_x": -1,
		"ai_target_move_y": -1,
		"ai_skill_function": "",
		"ai_attack": "IF( turn <=2 ,IF(panel_move_distance <= 3, 1, 0),1)",
		"ai_move": "IF(turn <=2,0,1)",
		"ai_heal": "",
		"ai_skill": "",
		"ai_use": "",
		"skill_group_id": 12942,
		"gear_GearGear": 32003,
		"gear_rank": 1,
		"proficiency_UnitProficiency": 2,
		"level": 54,
		"hp": 125,
		"strength": 82,
		"vitality": 47,
		"intelligence": 7,
		"mind": 30,
		"agility": 16,
		"dexterity": 59,
		"lucky": 34,
		"parameter_table_BattleEnemyParameterTable": 0,
		"parameter_deviation_table_BattleEnemyParameterDeviationTable": 0,
		"acquire_skill_group_id": 0,
		"level_correction": 0,
		"group_id": 0,
		"ai_script_id_BattleAIScript": 0
	},
	{
		"ID": 86841,
		"stage_BattleStage": 810007015,
		"unit_UnitUnit": 910013,
		"money": 0,
		"initial_coordinate_x": 6,
		"initial_coordinate_y": 13,
		"reinforcement_BattleReinforcement": 0,
		"initial_direction": 180.0,
		"ai_move_group": 0,
		"ai_target_move_x": -1,
		"ai_target_move_y": -1,
		"ai_skill_function": "",
		"ai_attack": "IF( turn <=2 ,IF(panel_move_distance <= 3, 1, 0),1)",
		"ai_move": "IF(turn <=2,0,1)",
		"ai_heal": "",
		"ai_skill": "",
		"ai_use": "",
		"skill_group_id": 12943,
		"gear_GearGear": 13004,
		"gear_rank": 1,
		"proficiency_UnitProficiency": 3,
		"level": 54,
		"hp": 126,
		"strength": 82,
		"vitality": 44,
		"intelligence": 5,
		"mind": 28,
		"agility": 15,
		"dexterity": 62,
		"lucky": 33,
		"parameter_table_BattleEnemyParameterTable": 0,
		"parameter_deviation_table_BattleEnemyParameterDeviationTable": 0,
		"acquire_skill_group_id": 0,
		"level_correction": 0,
		"group_id": 0,
		"ai_script_id_BattleAIScript": 0
	},
	{
		"ID": 86842,
		"stage_BattleStage": 810007015,
		"unit_UnitUnit": 910013,
		"money": 0,
		"initial_coordinate_x": 5,
		"initial_coordinate_y": 11,
		"reinforcement_BattleReinforcement": 0,
		"initial_direction": 180.0,
		"ai_move_group": 0,
		"ai_target_move_x": -1,
		"ai_target_move_y": -1,
		"ai_skill_function": "",
		"ai_attack": "IF( turn <=2 ,IF(panel_move_distance <= 3, 1, 0),1)",
		"ai_move": "IF(turn <=2,0,1)",
		"ai_heal": "",
		"ai_skill": "",
		"ai_use": "",
		"skill_group_id": 12944,
		"gear_GearGear": 13004,
		"gear_rank": 1,
		"proficiency_UnitProficiency": 3,
		"level": 54,
		"hp": 128,
		"strength": 83,
		"vitality": 46,
		"intelligence": 6,
		"mind": 29,
		"agility": 15,
		"dexterity": 61,
		"lucky": 34,
		"parameter_table_BattleEnemyParameterTable": 0,
		"parameter_deviation_table_BattleEnemyParameterDeviationTable": 0,
		"acquire_skill_group_id": 0,
		"level_correction": 0,
		"group_id": 0,
		"ai_script_id_BattleAIScript": 0
	},
	{
		"ID": 86843,
		"stage_BattleStage": 810007015,
		"unit_UnitUnit": 2830004,
		"money": 0,
		"initial_coordinate_x": 4,
		"initial_coordinate_y": 10,
		"reinforcement_BattleReinforcement": 0,
		"initial_direction": 180.0,
		"ai_move_group": 0,
		"ai_target_move_x": -1,
		"ai_target_move_y": -1,
		"ai_skill_function": "",
		"ai_attack": "",
		"ai_move": "10.0",
		"ai_heal": "",
		"ai_skill": "",
		"ai_use": "",
		"skill_group_id": 12945,
		"gear_GearGear": 32003,
		"gear_rank": 1,
		"proficiency_UnitProficiency": 2,
		"level": 54,
		"hp": 121,
		"strength": 81,
		"vitality": 44,
		"intelligence": 7,
		"mind": 31,
		"agility": 17,
		"dexterity": 61,
		"lucky": 36,
		"parameter_table_BattleEnemyParameterTable": 0,
		"parameter_deviation_table_BattleEnemyParameterDeviationTable": 0,
		"acquire_skill_group_id": 0,
		"level_correction": 0,
		"group_id": 0,
		"ai_script_id_BattleAIScript": 0
	},
	{
		"ID": 86844,
		"stage_BattleStage": 810007015,
		"unit_UnitUnit": 2820004,
		"money": 0,
		"initial_coordinate_x": 3,
		"initial_coordinate_y": 9,
		"reinforcement_BattleReinforcement": 0,
		"initial_direction": 180.0,
		"ai_move_group": 0,
		"ai_target_move_x": -1,
		"ai_target_move_y": -1,
		"ai_skill_function": "",
		"ai_attack": "",
		"ai_move": "10.0",
		"ai_heal": "",
		"ai_skill": "",
		"ai_use": "",
		"skill_group_id": 12946,
		"gear_GearGear": 22003,
		"gear_rank": 1,
		"proficiency_UnitProficiency": 2,
		"level": 54,
		"hp": 124,
		"strength": 84,
		"vitality": 42,
		"intelligence": 5,
		"mind": 30,
		"agility": 15,
		"dexterity": 61,
		"lucky": 40,
		"parameter_table_BattleEnemyParameterTable": 0,
		"parameter_deviation_table_BattleEnemyParameterDeviationTable": 0,
		"acquire_skill_group_id": 0,
		"level_correction": 0,
		"group_id": 0,
		"ai_script_id_BattleAIScript": 0
	},
	{
		"ID": 86845,
		"stage_BattleStage": 810007015,
		"unit_UnitUnit": 2810004,
		"money": 0,
		"initial_coordinate_x": 12,
		"initial_coordinate_y": 6,
		"reinforcement_BattleReinforcement": 0,
		"initial_direction": 270.0,
		"ai_move_group": 0,
		"ai_target_move_x": -1,
		"ai_target_move_y": -1,
		"ai_skill_function": "",
		"ai_attack": "",
		"ai_move": "10.0",
		"ai_heal": "",
		"ai_skill": "",
		"ai_use": "",
		"skill_group_id": 12941,
		"gear_GearGear": 13004,
		"gear_rank": 1,
		"proficiency_UnitProficiency": 3,
		"level": 54,
		"hp": 124,
		"strength": 80,
		"vitality": 42,
		"intelligence": 6,
		"mind": 30,
		"agility": 16,
		"dexterity": 63,
		"lucky": 40,
		"parameter_table_BattleEnemyParameterTable": 0,
		"parameter_deviation_table_BattleEnemyParameterDeviationTable": 0,
		"acquire_skill_group_id": 0,
		"level_correction": 0,
		"group_id": 0,
		"ai_script_id_BattleAIScript": 0
	},
	{
		"ID": 86846,
		"stage_BattleStage": 810007015,
		"unit_UnitUnit": 2840004,
		"money": 0,
		"initial_coordinate_x": 11,
		"initial_coordinate_y": 5,
		"reinforcement_BattleReinforcement": 0,
		"initial_direction": 270.0,
		"ai_move_group": 0,
		"ai_target_move_x": -1,
		"ai_target_move_y": -1,
		"ai_skill_function": "",
		"ai_attack": "",
		"ai_move": "10.0",
		"ai_heal": "",
		"ai_skill": "",
		"ai_use": "",
		"skill_group_id": 12942,
		"gear_GearGear": 42002,
		"gear_rank": 1,
		"proficiency_UnitProficiency": 2,
		"level": 54,
		"hp": 118,
		"strength": 78,
		"vitality": 42,
		"intelligence": 5,
		"mind": 34,
		"agility": 16,
		"dexterity": 63,
		"lucky": 38,
		"parameter_table_BattleEnemyParameterTable": 0,
		"parameter_deviation_table_BattleEnemyParameterDeviationTable": 0,
		"acquire_skill_group_id": 0,
		"level_correction": 0,
		"group_id": 0,
		"ai_script_id_BattleAIScript": 0
	},
	{
		"ID": 86847,
		"stage_BattleStage": 810007015,
		"unit_UnitUnit": 840018,
		"money": 0,
		"initial_coordinate_x": 12,
		"initial_coordinate_y": 4,
		"reinforcement_BattleReinforcement": 0,
		"initial_direction": 270.0,
		"ai_move_group": 0,
		"ai_target_move_x": -1,
		"ai_target_move_y": -1,
		"ai_skill_function": "",
		"ai_attack": "IF( turn <=7 ,IF(panel_move_distance <= 3, 1, 0),1)",
		"ai_move": "IF(turn <=7,0,1)",
		"ai_heal": "",
		"ai_skill": "",
		"ai_use": "",
		"skill_group_id": 1024,
		"gear_GearGear": 42002,
		"gear_rank": 1,
		"proficiency_UnitProficiency": 2,
		"level": 54,
		"hp": 130,
		"strength": 80,
		"vitality": 49,
		"intelligence": 6,
		"mind": 35,
		"agility": 17,
		"dexterity": 62,
		"lucky": 36,
		"parameter_table_BattleEnemyParameterTable": 0,
		"parameter_deviation_table_BattleEnemyParameterDeviationTable": 0,
		"acquire_skill_group_id": 0,
		"level_correction": 0,
		"group_id": 0,
		"ai_script_id_BattleAIScript": 0
	},
	{
		"ID": 86848,
		"stage_BattleStage": 810007015,
		"unit_UnitUnit": 840018,
		"money": 0,
		"initial_coordinate_x": 9,
		"initial_coordinate_y": 5,
		"reinforcement_BattleReinforcement": 0,
		"initial_direction": 270.0,
		"ai_move_group": 0,
		"ai_target_move_x": -1,
		"ai_target_move_y": -1,
		"ai_skill_function": "",
		"ai_attack": "IF( turn <=7 ,IF(panel_move_distance <= 3, 1, 0),1)",
		"ai_move": "IF(turn <=7,0,1)",
		"ai_heal": "",
		"ai_skill": "",
		"ai_use": "",
		"skill_group_id": 1025,
		"gear_GearGear": 42002,
		"gear_rank": 1,
		"proficiency_UnitProficiency": 2,
		"level": 54,
		"hp": 130,
		"strength": 79,
		"vitality": 47,
		"intelligence": 5,
		"mind": 36,
		"agility": 17,
		"dexterity": 60,
		"lucky": 40,
		"parameter_table_BattleEnemyParameterTable": 0,
		"parameter_deviation_table_BattleEnemyParameterDeviationTable": 0,
		"acquire_skill_group_id": 0,
		"level_correction": 0,
		"group_id": 0,
		"ai_script_id_BattleAIScript": 0
	}
]