[
	{
		"ID": 77242,
		"stage_BattleStage": 903110503,
		"unit_UnitUnit": 810004,
		"money": 450,
		"initial_coordinate_x": 6,
		"initial_coordinate_y": 9,
		"reinforcement_BattleReinforcement": 0,
		"initial_direction": 0.0,
		"ai_move_group": 0,
		"ai_target_move_x": -1,
		"ai_target_move_y": -1,
		"ai_skill_function": "",
		"ai_attack": "0.0",
		"ai_move": "0.0",
		"ai_heal": "",
		"ai_skill": "",
		"ai_use": "",
		"skill_group_id": 8243,
		"gear_GearGear": 13003,
		"gear_rank": 1,
		"proficiency_UnitProficiency": 3,
		"level": 90,
		"hp": 99,
		"strength": 87,
		"vitality": 71,
		"intelligence": 12,
		"mind": 64,
		"agility": 96,
		"dexterity": 95,
		"lucky": 47,
		"parameter_table_BattleEnemyParameterTable": 0,
		"parameter_deviation_table_BattleEnemyParameterDeviationTable": 0,
		"acquire_skill_group_id": 0,
		"level_correction": 0,
		"group_id": 0,
		"ai_script_id_BattleAIScript": 0
	},
	{
		"ID": 77243,
		"stage_BattleStage": 903110503,
		"unit_UnitUnit": 810004,
		"money": 450,
		"initial_coordinate_x": 4,
		"initial_coordinate_y": 7,
		"reinforcement_BattleReinforcement": 0,
		"initial_direction": 0.0,
		"ai_move_group": 0,
		"ai_target_move_x": -1,
		"ai_target_move_y": -1,
		"ai_skill_function": "",
		"ai_attack": "0.0",
		"ai_move": "0.0",
		"ai_heal": "",
		"ai_skill": "",
		"ai_use": "",
		"skill_group_id": 8243,
		"gear_GearGear": 13003,
		"gear_rank": 1,
		"proficiency_UnitProficiency": 3,
		"level": 90,
		"hp": 99,
		"strength": 85,
		"vitality": 71,
		"intelligence": 9,
		"mind": 61,
		"agility": 93,
		"dexterity": 98,
		"lucky": 48,
		"parameter_table_BattleEnemyParameterTable": 0,
		"parameter_deviation_table_BattleEnemyParameterDeviationTable": 0,
		"acquire_skill_group_id": 0,
		"level_correction": 0,
		"group_id": 0,
		"ai_script_id_BattleAIScript": 0
	},
	{
		"ID": 77244,
		"stage_BattleStage": 903110503,
		"unit_UnitUnit": 810004,
		"money": 450,
		"initial_coordinate_x": 5,
		"initial_coordinate_y": 6,
		"reinforcement_BattleReinforcement": 0,
		"initial_direction": 0.0,
		"ai_move_group": 0,
		"ai_target_move_x": -1,
		"ai_target_move_y": -1,
		"ai_skill_function": "",
		"ai_attack": "0.0",
		"ai_move": "0.0",
		"ai_heal": "",
		"ai_skill": "",
		"ai_use": "",
		"skill_group_id": 8243,
		"gear_GearGear": 13003,
		"gear_rank": 1,
		"proficiency_UnitProficiency": 3,
		"level": 90,
		"hp": 103,
		"strength": 88,
		"vitality": 70,
		"intelligence": 11,
		"mind": 65,
		"agility": 96,
		"dexterity": 94,
		"lucky": 48,
		"parameter_table_BattleEnemyParameterTable": 0,
		"parameter_deviation_table_BattleEnemyParameterDeviationTable": 0,
		"acquire_skill_group_id": 0,
		"level_correction": 0,
		"group_id": 0,
		"ai_script_id_BattleAIScript": 0
	},
	{
		"ID": 77245,
		"stage_BattleStage": 903110503,
		"unit_UnitUnit": 810004,
		"money": 450,
		"initial_coordinate_x": 6,
		"initial_coordinate_y": 6,
		"reinforcement_BattleReinforcement": 0,
		"initial_direction": 0.0,
		"ai_move_group": 0,
		"ai_target_move_x": -1,
		"ai_target_move_y": -1,
		"ai_skill_function": "",
		"ai_attack": "0.0",
		"ai_move": "0.0",
		"ai_heal": "",
		"ai_skill": "",
		"ai_use": "",
		"skill_group_id": 8243,
		"gear_GearGear": 13003,
		"gear_rank": 1,
		"proficiency_UnitProficiency": 3,
		"level": 90,
		"hp": 103,
		"strength": 85,
		"vitality": 70,
		"intelligence": 12,
		"mind": 63,
		"agility": 96,
		"dexterity": 96,
		"lucky": 50,
		"parameter_table_BattleEnemyParameterTable": 0,
		"parameter_deviation_table_BattleEnemyParameterDeviationTable": 0,
		"acquire_skill_group_id": 0,
		"level_correction": 0,
		"group_id": 0,
		"ai_script_id_BattleAIScript": 0
	},
	{
		"ID": 77246,
		"stage_BattleStage": 903110503,
		"unit_UnitUnit": 825054,
		"money": 750,
		"initial_coordinate_x": 7,
		"initial_coordinate_y": 5,
		"reinforcement_BattleReinforcement": 0,
		"initial_direction": 0.0,
		"ai_move_group": 0,
		"ai_target_move_x": -1,
		"ai_target_move_y": -1,
		"ai_skill_function": "",
		"ai_attack": "0.0",
		"ai_move": "IF(turn <=2,0,1)",
		"ai_heal": "",
		"ai_skill": "",
		"ai_use": "",
		"skill_group_id": 18924,
		"gear_GearGear": 14003,
		"gear_rank": 1,
		"proficiency_UnitProficiency": 4,
		"level": 150,
		"hp": 5388000,
		"strength": 144,
		"vitality": 121,
		"intelligence": 18,
		"mind": 109,
		"agility": 162,
		"dexterity": 162,
		"lucky": 84,
		"parameter_table_BattleEnemyParameterTable": 0,
		"parameter_deviation_table_BattleEnemyParameterDeviationTable": 0,
		"acquire_skill_group_id": 0,
		"level_correction": 0,
		"group_id": 0,
		"ai_script_id_BattleAIScript": 0
	}
]