[
	{
		"ID": 29560,
		"stage_BattleStage": 991009124,
		"unit_UnitUnit": 102713,
		"money": 2000,
		"initial_coordinate_x": 5,
		"initial_coordinate_y": 8,
		"reinforcement_BattleReinforcement": 0,
		"initial_direction": 180.0,
		"ai_move_group": 0,
		"ai_target_move_x": -1,
		"ai_target_move_y": -1,
		"ai_skill_function": "",
		"ai_attack": "",
		"ai_move": "",
		"ai_heal": "",
		"ai_skill": "",
		"ai_use": "",
		"skill_group_id": 0,
		"gear_GearGear": 16001,
		"gear_rank": 1,
		"proficiency_UnitProficiency": 5,
		"level": 1,
		"hp": 1,
		"strength": 1,
		"vitality": 1,
		"intelligence": 1,
		"mind": 1,
		"agility": 1,
		"dexterity": 1,
		"lucky": 1,
		"parameter_table_BattleEnemyParameterTable": 102713,
		"parameter_deviation_table_BattleEnemyParameterDeviationTable": 7,
		"acquire_skill_group_id": 156,
		"level_correction": 0,
		"group_id": 0,
		"ai_script_id_BattleAIScript": 0
	},
	{
		"ID": 29561,
		"stage_BattleStage": 991009124,
		"unit_UnitUnit": 102513,
		"money": 2000,
		"initial_coordinate_x": 7,
		"initial_coordinate_y": 8,
		"reinforcement_BattleReinforcement": 0,
		"initial_direction": 180.0,
		"ai_move_group": 0,
		"ai_target_move_x": -1,
		"ai_target_move_y": -1,
		"ai_skill_function": "",
		"ai_attack": "",
		"ai_move": "",
		"ai_heal": "",
		"ai_skill": "",
		"ai_use": "",
		"skill_group_id": 0,
		"gear_GearGear": 14006,
		"gear_rank": 1,
		"proficiency_UnitProficiency": 4,
		"level": 1,
		"hp": 1,
		"strength": 1,
		"vitality": 1,
		"intelligence": 1,
		"mind": 1,
		"agility": 1,
		"dexterity": 1,
		"lucky": 1,
		"parameter_table_BattleEnemyParameterTable": 102513,
		"parameter_deviation_table_BattleEnemyParameterDeviationTable": 7,
		"acquire_skill_group_id": 157,
		"level_correction": 0,
		"group_id": 0,
		"ai_script_id_BattleAIScript": 0
	},
	{
		"ID": 29562,
		"stage_BattleStage": 991009124,
		"unit_UnitUnit": 302013,
		"money": 2000,
		"initial_coordinate_x": 15,
		"initial_coordinate_y": 3,
		"reinforcement_BattleReinforcement": 0,
		"initial_direction": 270.0,
		"ai_move_group": 0,
		"ai_target_move_x": -1,
		"ai_target_move_y": -1,
		"ai_skill_function": "",
		"ai_attack": "",
		"ai_move": "",
		"ai_heal": "",
		"ai_skill": "",
		"ai_use": "",
		"skill_group_id": 0,
		"gear_GearGear": 35004,
		"gear_rank": 1,
		"proficiency_UnitProficiency": 5,
		"level": 1,
		"hp": 1,
		"strength": 1,
		"vitality": 1,
		"intelligence": 1,
		"mind": 1,
		"agility": 1,
		"dexterity": 1,
		"lucky": 1,
		"parameter_table_BattleEnemyParameterTable": 302013,
		"parameter_deviation_table_BattleEnemyParameterDeviationTable": 7,
		"acquire_skill_group_id": 158,
		"level_correction": 0,
		"group_id": 0,
		"ai_script_id_BattleAIScript": 0
	},
	{
		"ID": 29563,
		"stage_BattleStage": 991009124,
		"unit_UnitUnit": 400713,
		"money": 2000,
		"initial_coordinate_x": 15,
		"initial_coordinate_y": 1,
		"reinforcement_BattleReinforcement": 0,
		"initial_direction": 270.0,
		"ai_move_group": 0,
		"ai_target_move_x": -1,
		"ai_target_move_y": -1,
		"ai_skill_function": "",
		"ai_attack": "",
		"ai_move": "",
		"ai_heal": "",
		"ai_skill": "",
		"ai_use": "",
		"skill_group_id": 0,
		"gear_GearGear": 44003,
		"gear_rank": 1,
		"proficiency_UnitProficiency": 4,
		"level": 1,
		"hp": 1,
		"strength": 1,
		"vitality": 1,
		"intelligence": 1,
		"mind": 1,
		"agility": 1,
		"dexterity": 1,
		"lucky": 1,
		"parameter_table_BattleEnemyParameterTable": 400713,
		"parameter_deviation_table_BattleEnemyParameterDeviationTable": 7,
		"acquire_skill_group_id": 159,
		"level_correction": 0,
		"group_id": 0,
		"ai_script_id_BattleAIScript": 0
	},
	{
		"ID": 29564,
		"stage_BattleStage": 991009124,
		"unit_UnitUnit": 100133,
		"money": 2000,
		"initial_coordinate_x": 1,
		"initial_coordinate_y": 4,
		"reinforcement_BattleReinforcement": 0,
		"initial_direction": 90.0,
		"ai_move_group": 0,
		"ai_target_move_x": -1,
		"ai_target_move_y": -1,
		"ai_skill_function": "",
		"ai_attack": "IF( turn <=3 ,IF(panel_move_distance <= 3, 1, 0),1)",
		"ai_move": "IF(turn <=3,0,1)",
		"ai_heal": "",
		"ai_skill": "",
		"ai_use": "",
		"skill_group_id": 0,
		"gear_GearGear": 16001,
		"gear_rank": 1,
		"proficiency_UnitProficiency": 5,
		"level": 1,
		"hp": 1,
		"strength": 1,
		"vitality": 1,
		"intelligence": 1,
		"mind": 1,
		"agility": 1,
		"dexterity": 1,
		"lucky": 1,
		"parameter_table_BattleEnemyParameterTable": 100133,
		"parameter_deviation_table_BattleEnemyParameterDeviationTable": 7,
		"acquire_skill_group_id": 160,
		"level_correction": 0,
		"group_id": 0,
		"ai_script_id_BattleAIScript": 0
	}
]