[
	{
		"ID": 75913,
		"stage_BattleStage": 991009301,
		"unit_UnitUnit": 3100713,
		"money": 0,
		"initial_coordinate_x": 8,
		"initial_coordinate_y": 13,
		"reinforcement_BattleReinforcement": 0,
		"initial_direction": 180.0,
		"ai_move_group": 0,
		"ai_target_move_x": -1,
		"ai_target_move_y": -1,
		"ai_skill_function": "",
		"ai_attack": "",
		"ai_move": "",
		"ai_heal": "",
		"ai_skill": "",
		"ai_use": "IF( turn == 1, IF( 1 == 1,USESKILL(100000218),0),0)",
		"skill_group_id": 18741,
		"gear_GearGear": 14041,
		"gear_rank": 1,
		"proficiency_UnitProficiency": 4,
		"level": 90,
		"hp": 119,
		"strength": 73,
		"vitality": 79,
		"intelligence": 5,
		"mind": 64,
		"agility": 106,
		"dexterity": 107,
		"lucky": 57,
		"parameter_table_BattleEnemyParameterTable": 0,
		"parameter_deviation_table_BattleEnemyParameterDeviationTable": 0,
		"acquire_skill_group_id": 0,
		"level_correction": 0,
		"group_id": 0,
		"ai_script_id_BattleAIScript": 0
	},
	{
		"ID": 75914,
		"stage_BattleStage": 991009301,
		"unit_UnitUnit": 3600213,
		"money": 0,
		"initial_coordinate_x": 10,
		"initial_coordinate_y": 13,
		"reinforcement_BattleReinforcement": 0,
		"initial_direction": 180.0,
		"ai_move_group": 0,
		"ai_target_move_x": -1,
		"ai_target_move_y": -1,
		"ai_skill_function": "",
		"ai_attack": "",
		"ai_move": "",
		"ai_heal": "",
		"ai_skill": "",
		"ai_use": "IF( turn == 1, IF( 1 == 1,USESKILL(100000238),0),0)",
		"skill_group_id": 18742,
		"gear_GearGear": 64023,
		"gear_rank": 1,
		"proficiency_UnitProficiency": 4,
		"level": 90,
		"hp": 98,
		"strength": 21,
		"vitality": 36,
		"intelligence": 82,
		"mind": 79,
		"agility": 114,
		"dexterity": 112,
		"lucky": 57,
		"parameter_table_BattleEnemyParameterTable": 0,
		"parameter_deviation_table_BattleEnemyParameterDeviationTable": 0,
		"acquire_skill_group_id": 0,
		"level_correction": 0,
		"group_id": 0,
		"ai_script_id_BattleAIScript": 0
	},
	{
		"ID": 75915,
		"stage_BattleStage": 991009301,
		"unit_UnitUnit": 101483,
		"money": 0,
		"initial_coordinate_x": 8,
		"initial_coordinate_y": 14,
		"reinforcement_BattleReinforcement": 0,
		"initial_direction": 180.0,
		"ai_move_group": 0,
		"ai_target_move_x": -1,
		"ai_target_move_y": -1,
		"ai_skill_function": "",
		"ai_attack": "",
		"ai_move": "",
		"ai_heal": "",
		"ai_skill": "",
		"ai_use": "",
		"skill_group_id": 18743,
		"gear_GearGear": 14026,
		"gear_rank": 1,
		"proficiency_UnitProficiency": 4,
		"level": 90,
		"hp": 126,
		"strength": 97,
		"vitality": 53,
		"intelligence": 22,
		"mind": 46,
		"agility": 118,
		"dexterity": 114,
		"lucky": 48,
		"parameter_table_BattleEnemyParameterTable": 0,
		"parameter_deviation_table_BattleEnemyParameterDeviationTable": 0,
		"acquire_skill_group_id": 0,
		"level_correction": 0,
		"group_id": 0,
		"ai_script_id_BattleAIScript": 0
	},
	{
		"ID": 75916,
		"stage_BattleStage": 991009301,
		"unit_UnitUnit": 400463,
		"money": 0,
		"initial_coordinate_x": 9,
		"initial_coordinate_y": 14,
		"reinforcement_BattleReinforcement": 0,
		"initial_direction": 180.0,
		"ai_move_group": 0,
		"ai_target_move_x": -1,
		"ai_target_move_y": -1,
		"ai_skill_function": "",
		"ai_attack": "",
		"ai_move": "",
		"ai_heal": "",
		"ai_skill": "",
		"ai_use": "",
		"skill_group_id": 18744,
		"gear_GearGear": 44018,
		"gear_rank": 1,
		"proficiency_UnitProficiency": 4,
		"level": 90,
		"hp": 128,
		"strength": 127,
		"vitality": 67,
		"intelligence": 14,
		"mind": 31,
		"agility": 88,
		"dexterity": 107,
		"lucky": 57,
		"parameter_table_BattleEnemyParameterTable": 0,
		"parameter_deviation_table_BattleEnemyParameterDeviationTable": 0,
		"acquire_skill_group_id": 0,
		"level_correction": 0,
		"group_id": 0,
		"ai_script_id_BattleAIScript": 0
	},
	{
		"ID": 75917,
		"stage_BattleStage": 991009301,
		"unit_UnitUnit": 202513,
		"money": 0,
		"initial_coordinate_x": 10,
		"initial_coordinate_y": 14,
		"reinforcement_BattleReinforcement": 0,
		"initial_direction": 180.0,
		"ai_move_group": 0,
		"ai_target_move_x": -1,
		"ai_target_move_y": -1,
		"ai_skill_function": "",
		"ai_attack": "",
		"ai_move": "",
		"ai_heal": "",
		"ai_skill": "",
		"ai_use": "IF( turn == 4, IF( sum_own >= 2,USESKILL(200000155),0),0)",
		"skill_group_id": 18745,
		"gear_GearGear": 24022,
		"gear_rank": 1,
		"proficiency_UnitProficiency": 4,
		"level": 90,
		"hp": 131,
		"strength": 106,
		"vitality": 54,
		"intelligence": 21,
		"mind": 16,
		"agility": 117,
		"dexterity": 114,
		"lucky": 48,
		"parameter_table_BattleEnemyParameterTable": 0,
		"parameter_deviation_table_BattleEnemyParameterDeviationTable": 0,
		"acquire_skill_group_id": 0,
		"level_correction": 0,
		"group_id": 0,
		"ai_script_id_BattleAIScript": 0
	}
]