[
	{
		"ID": 89764,
		"stage_BattleStage": 999999997,
		"unit_UnitUnit": 3808711,
		"money": 450,
		"initial_coordinate_x": 12,
		"initial_coordinate_y": 7,
		"reinforcement_BattleReinforcement": 510,
		"initial_direction": 180.0,
		"ai_move_group": 0,
		"ai_target_move_x": -1,
		"ai_target_move_y": -1,
		"ai_skill_function": "",
		"ai_attack": "1.0",
		"ai_move": "1.0",
		"ai_heal": "",
		"ai_skill": "",
		"ai_use": "",
		"skill_group_id": 18625,
		"gear_GearGear": 80038,
		"gear_rank": 1,
		"proficiency_UnitProficiency": 1,
		"level": 90,
		"hp": 5000,
		"strength": 146,
		"vitality": 50,
		"intelligence": 16,
		"mind": 50,
		"agility": 123,
		"dexterity": 136,
		"lucky": 74,
		"parameter_table_BattleEnemyParameterTable": 0,
		"parameter_deviation_table_BattleEnemyParameterDeviationTable": 0,
		"acquire_skill_group_id": 0,
		"level_correction": 0,
		"group_id": 510,
		"ai_script_id_BattleAIScript": 0
	}
]