[
	{
		"ID": 100323,
		"script": "# script \"lisp\"\n# fadein \"black\" 0.5\n# background \"sea_fireworks\"\n# bgmfile \"bgm256\" \"BgmSeaDate\" 0\n# body %(unit_a)s\n# pos %(unit_a)s 3\n# mask %(unit_a)s off\n# chara %(unit_a)s\n# textflame 1 1\n# voice 1003 \"durandaru_0004\"\n@デュランダル\nうふふ、そうかもしれません\n\n# eye %(unit_a)s \"close\"\n# textflame 1 1\n@デュランダル\nですが、変わらぬ良さもあれば、\n時代とともに変わることで\n良さが増すものもあります\n\n# eye %(unit_a)s \"normal\"\n# textflame 1 1\n@デュランダル\n淑女に答えなど\nありません\n\n# eye %(unit_a)s \"close\"\n# textflame 1 1\n@デュランダル\nだからこそ、\nわたくしは、\nわたくしに従おうと思っております\n\n# eye %(unit_a)s \"normal\"\n# face %(unit_a)s \"angry\"\n# textflame 1 1\n@デュランダル\nもしわたくしが間違っていたら…\n\n# face %(unit_a)s \"smile\"\n# textflame 1 1\n@デュランダル\nその時はマスターが\n導いてくださいませ\n\n# textflame 0 0\n@\n穏やかに微笑む彼女の目は\nまっすぐで\nとても美しかった―\n;;----------------------------------------\n\n# fadeout \"black\" 1.2\n# waitandnext 2\n"
	}
]