[
	{
		"ID": 100625,
		"script": ";;素敵な部屋だ,中\n;;泊まっていい？,大\n;;なにか飲ませて,小\n# script \"lisp\"\n# fadein \"black\" 0.5\n# background \"sea_room\"\n# bgmfile \"bgm256\" \"BgmSeaDate\" 0\n# body %(unit_a)s\n# pos %(unit_a)s 3\n# mask %(unit_a)s off\n# chara %(unit_a)s\n# textflame 0 0\n@\nナーゲルリングの部屋に\n誘われたマスターは…\n\n# voice 1006 \"nageruring_0008\"\n# face %(unit_a)s \"sad\"\n# textflame 1 1\n@ナーゲルリング\n…この部屋にあなたを\n入れるなんて…\n\n@ナーゲルリング\n私、どうしちゃったんでしょう…\n\n# voice 1006 \"nageruring_0031\"\n@ナーゲルリング\n…すみません、この部屋に\n人を入れたことがなかったので\n\n@ナーゲルリング\nこんな時、どうすればいいか…\n;;----------------------------------------\n\n# voice 1006 \"nageruring_kyara_1018\"\n# textflame 1 1\n@%(unitName:unit_a)s\n…なんか言ってください\n恥ずかしいです\n\n# textflame 0 0\n@\nなにか飲ませて\n\n# textflame 1 1\n# voice 1006 \"nageruring_0031\"\n@ナーゲルリング\nすみません…\n私、気が利かなくて…\n\n@ナーゲルリング\n普段誰も入れないから\n用意してない…\n\n# voice 1006 \"nageruring_kyara_1018\"\n@ナーゲルリング\nこんな物で良ければ…\n\n# textflame 0 0\n@\nナーゲルリングは\n水を出してきた\n\n# textflame 1 1\n@ナーゲルリング\n…ホントにこれしかないんです\n\n@ナーゲルリング\nしょうがないでしょ…\n\n# voice 1006 \"nageruring_0015\"\n@ナーゲルリング\nもっと、ちゃんと準備して\nおけば良かったな…\n\n# textflame 0 0\n@\n若干、落ち込み気味の\nナーゲルリングを慰め\n水を飲むマスターだった\n;;----------------------------------------\n\n# fadeout \"black\" 1.2\n# waitandnext 2\n"
	}
]