[
	{
		"ID": 100932,
		"script": "# script \"lisp\"\n# fadein \"black\" 0.5\n# background \"sea_church\"\n# bgmfile \"bgm256\" \"BgmSeaDate\" 0\n# body %(unit_a)s\n# pos %(unit_a)s 3\n# mask %(unit_a)s off\n# chara %(unit_a)s\n# textflame 0 0\n# face %(unit_a)s \"usual\"\n@\n夜の教会にやってきた\nマスターと%(unitName:unit_a)s\n\n@\n厳かな空気の中で\n互いの胸の高鳴りを\n強く感じるようになる…\n\n# textflame 1 1\n# voice 1009 \"barumunku_0039\"\n# face %(unit_a)s \"smile\"\n@%(unitName:unit_a)s\n何も隠さなくていいよ…\nそう言われている気がします…\n\n# textflame 0 0\n@\n%(unitName:unit_a)sとの距離が\nより近くなった気がした。\n\n# fadeout \"black\" 1.2\n# waitandnext 2"
	}
]