[
	{
		"ID": 101125,
		"script": "# script \"lisp\"\n# fadein \"black\" 0.5\n# background \"sea_onsen\"\n# bgmfile \"bgm256\" \"BgmSeaDate\" 0\n# body %(unit_a)s\n# pos %(unit_a)s 3\n# mask %(unit_a)s off\n# chara %(unit_a)s\n# textflame 0 0\n@\nマスターはエクスカリバーを\n誘って水着着用の温泉にやってきた\n\n# textflame 1 1\n@エクスカリバー\n水浴びも水泳も好きだと\n確かにお伝えしてはいましたが…\n\n# voice 1011 \"excalibur_0042\"\n# face %(unit_a)s \"sad\"\n# textflame 1 1\n@エクスカリバー\nこれは少しばかり…\nいえ、まったく趣旨が違うかと…\n\n# textflame 0 0\n@\n…………\n\n# textflame 0 0\n@\nエクスカリバーは戸惑いながらも\nマスターと楽しい時を過ごした…\n\n# fadeout \"black\" 1.2\n# waitandnext 2"
	}
]