[
	{
		"ID": 101212,
		"script": ";;選択肢C(大当たり)\n# script \"lisp\"\n# fadein \"black\" 0.5\n# background \"sea_planetarium\"\n# bgmfile \"bgm256\" \"BgmSeaDate\" 0\n# body %(unit_a)s\n# pos %(unit_a)s 3\n# mask %(unit_a)s off\n# chara %(unit_a)s\n# textflame 1 1\n# voice 1012 \"adamasu_0002\"\n# face %(unit_a)s \"sad\"\n@アダマス\nそう言ったら\n連れて行ってくれるの？\n\n# textflame 0 0\n@\nその問いに頷くと\nアダマスは機嫌を悪くしたようだ\n\n# face %(unit_a)s \"angry\"\n# textflame 1 1\n# voice 1012 \"adamasu_0009\"\n@アダマス\nできないことは言うもんじゃないわ\n…いけるはずがないでしょ！\n\n# textflame 0 0\n@\n確かにそうかもしれない\nでも、アダマスが行きたいのならば\n連れて行ってあげたいと思う\n\n# textflame 1 1\n# voice 1012 \"adamasu_0008\"\n@アダマス\n…フン\nあんたと二人きりの宇宙旅行？\nどんな拷問よ\n\n# face %(unit_a)s \"sad\"\n@アダマス\nとんでもない時間がかかるのよ？\n\n# face %(unit_a)s \"angry\"\n@アダマス\nさすがのあたしでも\n言葉攻めの\nバリエーションが尽きるわ！\n\n# textflame 0 0\n@\nそしたらアダマスは\nどんな話をしてくれるのだろう\n\n# eye %(unit_a)s \"normal\"\n# textflame 1 1\n@アダマス\nバリエーションが尽きたら\n…あたしの本音でも聞けると思った？\n\n# textflame 0 0\n@\n少し逡巡するような\n恥ずかしがるような\n柔らかい表情を一瞬見せるアダマス\n\n# face %(unit_a)s \"smile\"\n# textflame 1 1\n# voice 1012 \"adamasu_0005\"\n@アダマス\n言うわけないでしょ、\nあんたなんかに！\n\n# textflame 0 0\n@\n聞いてみたい気もするが…\nこうやって辛辣に当たられたほうが\n安心すると思うマスターだった――\n\n# fadeout \"black\" 1.2\n# waitandnext 2\n"
	}
]