[
	{
		"ID": 101213,
		"script": ";;選択肢A(中当たり)\n# script \"lisp\"\n# fadein \"black\" 0.5\n# background \"sea_planetarium\"\n# bgmfile \"bgm256\" \"BgmSeaDate\" 0\n# body %(unit_a)s\n# pos %(unit_a)s 3\n# mask %(unit_a)s off\n# chara %(unit_a)s\n# textflame 1 1\n# face %(unit_a)s \"sad\"\n# voice 1012 \"adamasu_0007\"\n@アダマス\n…柄にもないこと言ったわ\n忘れてちょうだい\n\n# textflame 0 0\n@\nそんなことはない\nとてもアダマスらしいと\nマスターは思う\n\n# face %(unit_a)s \"normal\"\n# textflame 1 1\n@アダマス\nあんた…\n私がダイヤモンド好きなの\n知ってたっけ？\n\n# face %(unit_a)s \"angry\"\n@アダマス\nコホン…えっと、\n今のはあくまで例え話よ！\n\n# voice 1012 \"adamasu_0005\"\n# eye %(unit_a)s \"close\"\n@アダマス\nプラネタリウムの人工の光も\n…悪くないと思うわ\n\n# textflame 0 0\n@\nアダマスの言葉に\nいつもの棘がないことに\n気付かないふりをするマスターだった\n\n# fadeout \"black\" 1.2\n# waitandnext 2\n"
	}
]