[
	{
		"ID": 102313,
		"script": "# script \"lisp\"\n# fadein \"black\" 0.5\n# background %(background)s\n# bgmfile \"bgm256\" \"BgmSeaDate\" 0\n# body %(unit_a)s\n# pos %(unit_a)s 3\n# mask %(unit_a)s off\n# chara %(unit_a)s\n# textflame 1 1\n# face %(unit_a)s \"sad\"\n# voice 1023 \"ascalon_0022\"\n@アスカロン\nえっ！？\n\n# textflame 0 0\n@\nほら、あのステンドグラスとか…\nと、続けるマスター\n\n# textflame 1 1\n@アスカロン\nあ、あ～！\n\n# face %(unit_a)s \"smile\"\n# voice 1023 \"ascalon_0008\"\n# textflame 1 1\n@アスカロン\nそうですよね！\nあはは…\n\n# textflame 1 1\n@アスカロン\nステンドグラス…\n綺麗です…\n\n# textflame 0 0\n@\nなぜか赤面して\nおろおろとする\nアスカロンだった\n\n# fadeout \"black\" 1.2\n# waitandnext 2\n"
	}
]