[
	{
		"ID": 102713,
		"script": "# script \"lisp\"\n# fadein \"black\" 0.5\n# background \"sea_cave\"\n# bgmfile \"bgm256\" \"BgmSeaDate\" 0\n# body %(unit_a)s\n# pos %(unit_a)s 3\n# mask %(unit_a)s off\n# chara %(unit_a)s\n# textflame 1 1\n# face %(unit_a)s \"sad\"\n# voice 1027 \"solais_0002\"\n@クラウ・ソラス\nマスター…\nそのやる気は\n大いに歓迎なんだが…\n\n# voice 1027 \"solais_0007\"\n# textflame 1 1\n@クラウ・ソラス\nそんな小さなスコップで…\n戦えるだなんて\n思ってないだろうね？\n\n# textflame 0 0\n@\nクラウ・ソラスの\nパラソルと一体化した\n大きなスコップが鈍く光る…！\n\n# voice 1027 \"solais_0036\"\n# face %(unit_a)s \"normal\"\n# textflame 1 1\n@クラウ・ソラス\n悪いことは言わない…\n今日は私のサポートに\n徹してくれるかな！\n\n# textflame 0 0\n@\nマスター以上にやる気を出した\nクラウ・ソラス\n\n# textflame 0 0\n@\n結局、明け方まで\n採掘作業は続いたそうな…\n\n# fadeout \"black\" 1.2\n# waitandnext 2\n"
	}
]