[
	{
		"ID": 102822,
		"script": ";;A 大当たり\n# script \"lisp\"\n# fadein \"black\" 0.5\n# background \"sea_shipboard\"\n# bgmfile \"bgm256\" \"BgmSeaDate\" 0\n# body %(unit_a)s\n# pos %(unit_a)s 3\n# mask %(unit_a)s off\n# chara %(unit_a)s\n# textflame 1 1\n# voice 1028 \"dainsleif_0005\"\n# face %(unit_a)s \"normal\"\n@ダーインスレイヴ\n女性相手に嫉妬して\nどうするんだい…\n\n@ダーインスレイヴ\nそれに、今日だけでいいのかい？\n\n# voice 1028 \"dainsleif_0007\"\n@ダーインスレイヴ\n捕まえておかないと\n逃げてしまうかもしれないよ？\n\n# textflame 0 0\n@\nダーインスレイヴは笑う\nいつもの余裕に満ちた佇まいで…\n\n# face %(unit_a)s \"sad\"\n# textflame 1 1\n# voice 1028 \"dainsleif_0031\"\n@ダーインスレイヴ\n…すまない\nからかう気はなかったんだ\n\n# face %(unit_a)s \"usual\"\n@ダーインスレイヴ\n…おぬしにしては\nずいぶんと背伸びをした場所だから\n緊張しているのではないかと思ってね\n\n# textflame 0 0\n@\nダーインスレイヴは\nマスターの顔をまじまじと見つめ\n今度は柔らかく笑った\n\n# textflame 1 1\n@ダーインスレイヴ\nどうやら私のお節介だったようだ\n…侮るようなことを言ってすまない\n\n# textflame 0 0\n@\n客室から音楽が聞こえてくる\n\n# textflame 0 0\n@\nマスターは\nダーインスレイヴの前にひざまづいた\n\n# face %(unit_a)s \"normal\"\n# textflame 1 1\n# voice 1028 \"dainsleif_0036\"\n@ダーインスレイヴ\n…女性のステップは自信がないんだ\nリードしてくれるかな…？\n\n# textflame 0 0\n@\nマスターはしっかりうなづき\n彼女の手を取った\nダンスはまだ、始まったばかりだ――\n\n# fadeout \"black\" 1.2\n# waitandnext 2\n"
	}
]