[
	{
		"ID": 103421,
		"script": ";;■□■青・ダクネス_デート■□■\n;;A いつも心配だよ（大）\n;;B 心配されてない？（中）\n;;C 体流すよ（小）\n# script \"lisp\"\n# fadein \"black\" 0.5\n# background \"sea_onsen\"\n# bgmfile \"bgm256\" \"BgmSeaDate\" 0\n# body %(unit_a)s\n# pos %(unit_a)s 3\n# mask %(unit_a)s off\n# chara %(unit_a)s\n# textflame 0 0\n@\nダクネスを誘い\n水着着用の温泉へと\nやってきたマスター\n\n# voice 1034 \"dakunesu_0004\"\n# face 2103411 \"smile\"\n# textflame 1 1\n@ダクネス\nふう、いい湯だな\n日頃の疲れが溶けていくようだ\n\n;;モノローグ\n# textflame 0 0\n@\nダクネスは生傷が絶えないから\nここで存分に癒していって、\nとマスター\n\n# textflame 1 1\n@ダクネス\nそうだな\nそうすれば次の戦いを\n存分に楽し…挑むことが出来るしな\n\n# select \"いつも心配だよ\" \"select_label_01\" \"心配されてない？\" \"select_label_02\" \"体流すよ\" \"select_label_03\"\nそうだな\nそうすれば次の戦いを\n存分に楽し…挑むことが出来るしな\n\n# label \"select_label_01\"\n# labeljump \"select_label_end\"\n# textwindow \"close\"\n# waitandnext 0.1\n\n# label \"select_label_02\"\n# labeljump \"select_label_end\"\n# textwindow \"close\"\n# waitandnext 0.1\n\n# label \"select_label_03\"\n# labeljump \"select_label_end\"\n# textwindow \"close\"\n# textflame 1 1\n# waitandnext 0.1\n\n# label \"select_label_end\"\n# waitandnext 2\n# fadeout \"black\" 1.2"
	}
]