[
	{
		"ID": 200112,
		"script": "# script \"lisp\"\n# fadein \"black\" 0.5\n# background \"sea_town_day\"\n# bgmfile \"bgm256\" \"BgmSeaDate\" 0\n# body %(unit_a)s\n# pos %(unit_a)s 3\n# mask %(unit_a)s off\n# chara %(unit_a)s\n# textflame 1 1\n# voice 2001 \"myuruniru_kyara_1012\"\n@ミョルニル\nどうしたの～？\nわぁ、ママとはぐれちゃったの？\n\n# voice 2001 \"myuruniru_kyara_1001\"\n# face %(unit_a)s \"smile\"\n# textflame 1 1\n@ミョルニル\nよ～し！\nじゃあミョルニルちゃんと\nママをさがそ～！\n\n# textflame 0 0\n@\nミョルニルは子供の手を引き\n街を練り歩き始めた\n\n# face %(unit_a)s \"normal\"\n# textflame 1 1\n@ミョルニル\nママはいませんか～！\nママはどこかなぁ～？\n\n# textflame 0 0\n@\n泣きそうだった子供は\nいつしか笑顔になり\nミョルニルと一緒に声を上げていた\n\n# face %(unit_a)s \"smile\"\n# textflame 1 1\n@ミョルニル\nママはどこ～♪\nボクはここ～♪\n\n# voice 2001 \"myuruniru_0020\"\n# textflame 1 1\n@ミョルニル\n今夜のおかずは～♪\nハンバーグがいいな～♪\n\n# textflame 0 0\n@\n楽しげな歌につられて\nいつの間にか集まってきた子供達と\nママ探しの愉快なパレードが始まった\n\n# textflame 0 0\n@\nそんな笑顔の子供達の中心で、\n一緒になって笑っている彼女を\nマスターは微笑みながら見つめていた\n\n# fadeout \"black\" 1.2\n# waitandnext 2\n"
	}
]