[
	{
		"ID": 200231,
		"script": ";;散歩\n# script \"lisp\"\n# fadein \"black\" 0.5\n# background \"sea_jungle_night\"\n# bgmfile \"bgm256\" \"BgmSeaDate\" 0\n# body %(unit_a)s\n# pos %(unit_a)s 3\n# mask %(unit_a)s off\n# chara %(unit_a)s\n# textflame 0 0\n@\n散歩にやってきた\nマスターと%(unitName:unit_a)s\n\n# textflame 0 0\n@\n蒸し暑いジャングルの中、\n流れる汗にも気づかず、\nふたりは寄り添い歩いて行く…\n\n# textflame 1 1\n@%(unitName:unit_a)s\nサバイバル訓練に適していますね！\n\n# textflame 0 0\n@\n%(unitName:unit_a)sとの距離が\nより近くなった気がした。\n\n# fadeout \"black\" 1.2\n# waitandnext 2"
	}
]