[
	{
		"ID": 200221,
		"script": ";;,デートへまた行こう　大\n;;今日は楽しかった　小\n;;アイムールがね　中\n# script \"lisp\"\n# fadein \"black\" 0.5\n# background \"sea_fireworks\"\n# bgmfile \"bgm256\" \"BgmSeaDate\" 0\n# body %(unit_a)s\n# pos %(unit_a)s 3\n# mask %(unit_a)s off\n# chara %(unit_a)s\n# textflame 0 0\n@\nマスターがアイムールと\nデートを終えた帰り道\n\n# textflame 1 1\n# voice 2002 \"aimuru_0030\"\n@アイムール\n今日はありがとうございました\n\n@アイムール\n…私は楽しかったですが\nマスターはどうでしたか？\n\n# voice 2002 \"aimuru_0042\"\n@アイムール\n私は…\n\n# textflame 0 0\n@\nその時、爆発音が空から響き\n周囲から大きな歓声が上がった\n\n# fadein \"white\" 0.3\n# waitandnext 0.5\n\n# textflame 0 0\n@\n夜空には色とりどりの\n大きな花火が上がっている\n\n# textflame 1 1\n# voice 2002 \"aimuru_0004\"\n@アイムール\n…綺麗ですね\n\n# select \"デートへまた行こう\" \"select_label_01\" \"今日は楽しかった\" \"select_label_02\" \"アイムールがね\" \"select_label_03\"\n…綺麗ですね\n\n# label \"select_label_01\"\n# labeljump \"select_label_end\"\n# textwindow \"close\"\n# waitandnext 0.1\n\n# label \"select_label_02\"\n# labeljump \"select_label_end\"\n# textwindow \"close\"\n# waitandnext 0.1\n\n# label \"select_label_03\"\n# labeljump \"select_label_end\"\n# textwindow \"close\"\n# textflame 1 1\n# waitandnext 0.1\n\n# label \"select_label_end\"\n# waitandnext 2\n# fadeout \"black\"1.2\n"
	}
]