[
	{
		"ID": 200711,
		"script": ";;一緒ならどこでも,小\n;;勉強がしたかった,大\n;;実は博物館マニアだ,中\n# script \"lisp\"\n# fadein \"black\" 0.5\n# background %(background)s\n# bgmfile \"bgm256\" \"BgmSeaDate\" 0\n# body %(unit_a)s\n# pos %(unit_a)s 3\n# mask %(unit_a)s off\n# chara %(unit_a)s\n# textflame 0 0\n@\n貴重なアイテムが並ぶ博物館へ\nやってきたマスターとシャルウル…\n\n@\nシャルウルは目を輝かせながら\nケースに顔を近づける…\n\n# voice 2007 \"sharuuru_0001\"\n# textflame 1 1\n@シャルウル\n見て下さいマスター！\nこれ、古代の機械ですよ…！\n\n@シャルウル\nまさか古代文明がこれ程の物を\n発明していたとは…興味深いです\n\n# face %(unit_a)s \"sad\"\n# voice 2007 \"sharuuru_0022\"\n@シャルウル\nはっ、あちらの壁画は！？\n海底都市の物では！？\n\n# face %(unit_a)s \"smile\"\n@シャルウル\n素晴らしいですね、マスター\nここには情報が満ちあふれています\n\n# face %(unit_a)s \"sad\"\n# voice 2007 \"sharuuru_0031\"\n@シャルウル\nあっ、すみません\n私ばかり楽しんでしまって…\n\n@シャルウル\nあの…失礼ですが、マスターも\n楽しめていますか？\n;;----------------------------------------\n\n# textflame 1 1\n@%(unitName:unit_a)s\nその…マスターはもっと賑やかな\n場所が好みだったでしょうか…？\n\n# select \"一緒ならどこでも\" \"select_label_01\" \"勉強がしたかった\" \"select_label_02\" \"実は博物館マニアだ\" \"select_label_03\"\nその…マスターはもっと賑やかな\n場所が好みだったでしょうか…？\n\n# label \"select_label_01\"\n# labeljump \"select_label_end\"\n# textwindow \"close\"\n# waitandnext 0.1\n\n# label \"select_label_02\"\n# labeljump \"select_label_end\"\n# textwindow \"close\"\n# waitandnext 0.1\n\n# label \"select_label_03\"\n# labeljump \"select_label_end\"\n# textwindow \"close\"\n# waitandnext 0.1\n\n# label \"select_label_end\"\n# waitandnext 0.1\n\n# fadeout \"black\" 1.2\n# waitandnext 2\n"
	}
]