[
	{
		"ID": 201925,
		"script": ";;,青ハズレ\n# script \"lisp\"\n# fadein \"black\" 0.5\n# background \"sea_fireworks\"\n# bgmfile \"bgm256\" \"BgmSeaDate\" 0\n# body %(unit_a)s\n# pos %(unit_a)s 3\n# mask %(unit_a)s off\n# chara %(unit_a)s\n# textflame 0 0\n# face %(unit_a)s \"usual\"\n@\n花火が見たいと\nシユウは言った\n\n# textflame 1 1\n# face %(unit_a)s \"smile\"\n# voice 2019 \"chihyu_0006\"\n@シユウ\nおぉ～！\nでっかい！\n\n# textflame 0 0\n@\n赤、青、黄色\n夜空に咲く花の色に\nシユウは手を叩いて喜ぶ\n\n# textflame 1 1\n# voice 2019 \"chihyu_0004\"\n@シユウ\nはなびはいいな！\nみてるだけでたのしいな！\n\n# face %(unit_a)s \"sad\"\n@シユウ\nもっとシユウもいろんなことをして\nみんなとあそべたらいいけど…\n\n# face %(unit_a)s \"usual\"\n@シユウ\nちからもちだから\nしかたないな！\n\n# face %(unit_a)s \"smile\"\n# voice 2019 \"chihyu_0003\"\n@シユウ\nつよさゆえの\nだいしょーってやつだ！\n\n# textflame 0 0\n@\n帰りに花火を買おう\nそうシユウに伝えるマスター\n\n# textflame 1 1\n@シユウ\nうん！はなびかう！\n\n@シユウ\nおっきーのかおうな！\nシユウがそらになげるから！\n\n@シユウ\nああでも、\nせんこうはなびも\nふぜーがあってすてがたい…\n\n@シユウ\nなやむ…\n“かんなんしんく”というのか？\nむむむ…\n\n# textflame 0 0\n@\nふたりで花火を見ながら\n楽しいひとときを過ごした…\n\n# waitandnext 2\n# fadeout \"black\" 1.2\n"
	}
]