[
	{
		"ID": 201924,
		"script": ";;C シユウは強いからね 中\n# script \"lisp\"\n# fadein \"black\" 0.5\n# background \"sea_fireworks\"\n# bgmfile \"bgm256\" \"BgmSeaDate\" 0\n# body %(unit_a)s\n# pos %(unit_a)s 3\n# mask %(unit_a)s off\n# chara %(unit_a)s\n# textflame 1 1\n# face %(unit_a)s \"smile\"\n# voice 2019 \"chihyu_0003\"\n@シユウ\nうん！はなびかう！\n\n# face %(unit_a)s \"normal\"\n@シユウ\nおっきーのかおうな！\nシユウがそらになげるから！\n\n# face %(unit_a)s \"sad\"\n@シユウ\nああでも、\nせんこうはなびも\nふぜーがあってすてがたい…\n\n# voice 2019 \"chihyu_0013\"\n@シユウ\nなやむ…\n“かんなんしんく”というのか？\nむむむ…\n\n# textflame 0 0\n@\nふたりで花火を見ながら\n楽しいひとときを過ごした…\n\n# fadeout \"black\" 1.2\n# waitandnext 2\n"
	}
]