[
	{
		"ID": 201921,
		"script": ";;,A そっと手を握る（大）\n;;,B 帰りに花火を買おう（小）\n;;,C シユウは強いからね（中）\n# script \"lisp\"\n# fadein \"black\" 0.5\n# background \"sea_fireworks\"\n# bgmfile \"bgm256\" \"BgmSeaDate\" 0\n# body %(unit_a)s\n# pos %(unit_a)s 3\n# mask %(unit_a)s off\n# chara %(unit_a)s\n# textflame 0 0\n# face %(unit_a)s \"usual\"\n@\n花火が見たいと\nシユウは言った\n\n# textflame 1 1\n# face %(unit_a)s \"smile\"\n# voice 2019 \"chihyu_0006\"\n@シユウ\nおぉ～！\nでっかい！\n\n# textflame 0 0\n@\n赤、青、黄色\n夜空に咲く花の色に\nシユウは手を叩いて喜ぶ\n\n# textflame 1 1\n# voice 2019 \"chihyu_0004\"\n@シユウ\nはなびはいいな！\nみてるだけでたのしいな！\n\n# face %(unit_a)s \"sad\"\n@シユウ\nもっとシユウもいろんなことをして\nみんなとあそべたらいいけど…\n\n# face %(unit_a)s \"usual\"\n@シユウ\nちからもちだから\nしかたないな！\n\n# face %(unit_a)s \"smile\"\n# voice 2019 \"chihyu_0003\"\n@シユウ\nつよさゆえの\nだいしょーってやつだ！\n\n# select \"そっと手を握る\" \"select_label_01\" \"帰りに花火を買おう\" \"select_label_02\" \"シユウは強いからね\" \"select_label_03\"\nつよさゆえの\nだいしょーってやつだ！\n\n# label \"select_label_01\"\n# labeljump \"select_label_end\"\n# textwindow \"close\"\n# waitandnext 0.1\n\n# label \"select_label_02\"\n# labeljump \"select_label_end\"\n# textwindow \"close\"\n# waitandnext 0.1\n\n# label \"select_label_03\"\n# labeljump \"select_label_end\"\n# textwindow \"close\"\n# textflame 1 1\n# waitandnext 0.1\n\n# label \"select_label_end\"\n# waitandnext 2\n# fadeout \"black\" 1.2\n"
	}
]