[
	{
		"ID": 202523,
		"script": "# script \"lisp\"\n# fadein \"black\" 0.5\n# background \"sea_fireworks\"\n# bgmfile \"bgm256\" \"BgmSeaDate\" 0\n# body %(unit_a)s\n# pos %(unit_a)s 3\n# mask %(unit_a)s off\n# chara %(unit_a)s\n# textflame 1 1\n# voice 2025 \"hercule_0004\"\n@エルキュール\nマスターにとっては\n他愛のないことかも\n知れないですけど…\n\n@エルキュール\nマスターから花火というものに\n誘ってもらえて\nやっぱり嬉しいです\n\n@エルキュール\nこれからもこんな風に\nいろんなものを教えてほしい…\nマスター、お願いできますか？\n\n# textflame 0 0\n@\n彼女のお願いに\nうなずくマスター\n\n@\n約束をした二人は再び\n花火を楽しむのだった\n\n;;----------------------------------------\n# fadeout \"black\" 1.2\n# waitandnext 2"
	}
]