[
	{
		"ID": 2100225,
		"script": ";;B:大:気に入ってくれたみたいでよかった\n;;A:中:すごく満喫してるね\n;;C:小:大したことはしてないよ\n# script \"lisp\"\n# fadein \"black\" 0.5\n# background \"sea_onsen\"\n# bgmfile \"bgm256\" \"BgmSeaDate\" 0\n# body %(unit_a)s\n# pos %(unit_a)s 3\n# mask %(unit_a)s off\n# chara %(unit_a)s\n# textflame 0 0\n@\nレーヴァテインとともに\n水着を着て温泉に浸かる\n\n# textflame 1 1\n@レーヴァテイン\nふぅ…温泉、落ち着くね…\n\n@レーヴァテイン\nどうせなら、\nずっとここにいたい…\n\n# textflame 0 0\n@\n温泉に浸かりそう言う彼女に、\n危ないよと指摘すると、\n彼女は小さく息を吐いた\n\n# voice 210022 \"revatein_k_0030\"\n# face %(unit_a)s \"usual\"\n# textflame 1 1\n@レーヴァテイン\nキル姫は…ん～…\nそんなにヤワじゃないって…\nでも…心配してくれて、ありがと\n\n# textflame 0 0\n@\nまるで、自分の部屋にいるかのように\nくつろぐ彼女を見ていると、\n思わず笑みがこぼれる\n\n# textflame 0 0\n@\n大したことはしてないよ\nと、マスター\n\n# voice 210022 \"revatein_k_0010\"\n# face %(unit_a)s \"angry\"\n# textflame 1 1\n@レーヴァテイン\nむ…なんか、イラッとした…\n\n;;モノローグ\n# textflame 0 0\n@\nなにかが気に障ったのか、\n彼女は鋭い視線で睨んできた\n\n# textflame 1 1\n@レーヴァテイン\n大したことじゃなくても、\n私は感謝してる…\n\n@レーヴァテイン\n私のマスターなんだから、\n私の感謝ぐらい\n素直に受け取ってよ\n\n# voice 210022 \"revatein_k_0027\"\n# face %(unit_a)s \"usual\"\n@レーヴァテイン\nはあ…\nなんか怒ったら疲れた…\nしばらく黙るから\n\n;;モノローグ\n# eye %(unit_a)s \"close\"\n# textflame 0 0\n@\nそう言って、\n彼女は目を閉じた\n\n;;モノローグ\n@\n私のマスターなんだから、\nという言葉が重く圧しかかる\n\n;;モノローグ\n@\n彼女のマスターに\n相応しくなろう―\n\n;;モノローグ\n@\n静かに温泉を満喫する彼女を\n見ながら、改めてそう誓った\n;;----------------------------------------\n\n# fadeout \"black\" 1.2\n# waitandnext 2"
	}
]