[
	{
		"ID": 2100212,
		"script": "# script \"lisp\"\n# fadein \"black\" 0.5\n# background \"sea_park_day\"\n# bgmfile \"bgm256\" \"BgmSeaDate\" 0\n# body %(unit_a)s\n# pos %(unit_a)s 3\n# mask %(unit_a)s off\n# chara %(unit_a)s\n# textflame 1 1\n# face %(unit_a)s \"normal\"\n@レーヴァテイン\nほんとに？\nそう言われたら、\nほんとに寝るよ…？\n\n@レーヴァテイン\nマスターは\nその間なにしてるの？\n私となにかしたかったんじゃ…\n\n;;モノローグ\n# textflame 0 0\n@\nレーヴァテインが楽しめれば\nそれで十分、\nそう答えると―\n\n# voice 210022 \"revatein_k_0033\"\n# face %(unit_a)s \"normal\"\n# textflame 1 1\n@レーヴァテイン\n…ふぅん…そっか…\n\n;;モノローグ\n# textflame 0 0\n@\nなにか考えるように呟いて、\n体をこっちに寄せてきた\n\n# face %(unit_a)s \"smile\"\n# textflame 1 1\n@レーヴァテイン\nじゃあマスター\n私が満足できるように肩貸して…\n\n@レーヴァテイン\nそれじゃ、用があったら起こして…\nそれまで寝てるからさ…\nじゃ、おやすみ…\n\n# face %(unit_a)s \"usual\"\n@レーヴァテイン\n変なこと…\nしたら怒るから\n\n;;モノローグ\n# eye %(unit_a)s \"close\"\n# textflame 0 0\n@\nレーヴァテインはこちらの肩に\n頭を乗せるようにしながら\nそっと目を閉じて眠りにつく\n\n;;モノローグ\n@\n彼女の寝顔はどこか幸せそうで\nそれを見たマスターもまた\n満足気に微笑むのだった\n\n# fadeout \"black\" 1.2\n# waitandnext 2"
	}
]