[
	{
		"ID": 2500223,
		"script": ";;b\n# script \"lisp\"\n# fadein \"black\" 0.5\n# background \"sea_shipboard\"\n# bgmfile \"bgm256\" \"BgmSeaDate\" 0\n# body %(unit_a)s\n# pos %(unit_a)s 3\n# mask %(unit_a)s off\n# chara %(unit_a)s\n# textflame 1 1\n# face 2500221 \"smile\"\n@フライクーゲル\nそういうマスターも\nもぉっとエンジョイして\nいいんだよ！\n\n@フライクーゲル\n海の生き物たちを真夜中に\n叩き起こすくらい騒がしくね？\n\n@フライクーゲル\n静かな空間でうるさくして\n周囲にベァットをばらまくのって\n案外グッドな楽しみ方だよ？\n\n@フライクーゲル\nまぁでも、そんなことより\nマスターのヘァピィな表情が\n今はわたしを満たしてくれる…\n\n# voice 250022 \"furaikugeru_k_0041\"\n@フライクーゲル\nだからそれを夜が明けるまで\n楽しませてもらうから！\nアンダスタァン？\n\n# textflame 0 0\n;;モノローグ\n@\nにっこりと笑みを浮かべながら\nそんなことを言うフライクーゲル\n\n;;モノローグ\n@\nマスターは彼女を見ながら\n夜が明けるまではさすがに…と\n苦笑いを返すのだった…\n\n# fadeout \"black\" 1.2\n# waitandnext 2\n"
	}
]