[
	{
		"ID": 291014198,
		"script": "# script \"lisp\"\n# background %(wayback_background)s\n# bgmfile \"bgm255\" \"BgmSeaDate\" 0\n# body %(unit_a)s\n# pos %(unit_a)s 3\n# mask %(unit_a)s off\n# chara %(unit_a)s\n# fadein \"black\" 0.5\n# textflame 1 1\n# face %(unit_a)s \"sad\"\n# se \"SE_0733\"\n# voice 210142 \"tyrufing_k_0027\"\n@ティルフィング\n…やはり、難しかったでしょうか\n\n# textflame 0 0\n@\n暗い顔をするティルフィングを見て、\n自分が間違ったことに気が付いた\n\n# textflame 1 1\n@ティルフィング\n…………\n\n# textflame 1 1\n# face %(unit_a)s \"usual\"\n@ティルフィング\n申し訳ありません\n急に変なことを聞きました\n忘れてください\n\n# face %(unit_a)s \"normal\"\n# voice 210142 \"tyrufing_k_0004\"\n@ティルフィング\nさあ、帰りましょうマスター\n時間は有限です\n\n# textflame 0 0\n@\n努めて冷静にそう言う彼女だったが、\nそこには落胆が見える\n\n@\n楽しい時間が台無しになった感覚に\n次はちゃんと答えてみせると\n心に誓った…\n\n# fadeout \"black\" 1.2\n# waitandnext 2"
	}
]