[
	{
		"ID": 292004399,
		"script": "# script \"lisp\"\n# background %(wayback_background)s\n# bgmfile \"bgm255\" \"BgmSeaDate\" 0\n# body %(unit_a)s\n# pos %(unit_a)s 3\n# mask %(unit_a)s off\n# chara %(unit_a)s\n# fadein \"black\" 0.5\n# textflame 1 1\n# face %(unit_a)s \"shy\"\n# voice 220042 \"parashu_k_0004\"\n# se \"SE_0732\"\n@パラシュ\nすごいね、マスター\n急に聞いたのに簡単に答えられるなんて\n\n# voice 220042 \"parashu_k_0042\"\n@パラシュ\nそれだけ…その、\nボクのことを知ってくれている\nということだよね\n\n@パラシュ\nそれはなんだか…\n嬉しいよ\nありがとう、マスター\n\n# textflame 0 0\n@\n耳まで真っ赤にして、\nパラシュはまっすぐこちらを\n見てくる\n\n@\nその信頼した表情が見られて、\n改めてパラシュとの絆を感じられた\n\n# fadeout \"black\" 1.2\n# waitandnext 2"
	}
]