[
	{
		"ID": 294001298,
		"script": ";;//不正解\n# script \"lisp\"\n# background %(wayback_background)s\n# bgmfile \"bgm255\" \"BgmSeaDate\" 0\n# body %(unit_a)s\n# pos %(unit_a)s 3\n# mask %(unit_a)s off\n# chara %(unit_a)s\n# fadein \"black\" 0.5\n# textflame 1 1\n# face %(unit_a)s \"sad\"\n# voice 240012 \"arutemisu_k_0026\"\n# se \"SE_0733\"\n@アルテミス\n残念…不正解です…\n\n@アルテミス\n難しかったでしょうか…\nマスターならばと思ったのですが…\n\n# face 2400212 \"normal\"\n# voice 240012 \"arutemisu_k_0034\"\n@アルテミス\n戯れのつもりが\n空気を悪くしてしまいましたね…\nすみません…\n\n@アルテミス\n…帰りましょうか\n\n# textflame 0 0\n@\n重い雰囲気の帰り道\nアルテミスは終始、無言だった\n\n@\n次は必ず正解して\n楽しい帰り道にしよう…\n\n# fadeout \"black\" 1.2\n# waitandnext 2"
	}
]