[
	{
		"ID": 300211,
		"script": ";;海が好きなんだね,大\n;;…美味しそう,小\n;;ダイビングで？,中\n# script \"lisp\"\n# fadein \"black\" 0.5\n# background %(background)s\n# bgmfile \"bgm256\" \"BgmSeaDate\" 0\n# body %(unit_a)s\n# pos %(unit_a)s 3\n# mask %(unit_a)s off\n# chara %(unit_a)s\n# textflame 0 0\n@\nトライデントとマスターは、\n人ごみを避けて\n夕方の水族館へと足を運んだ\n\n# voice 3002 \"toraidento_0021\"\n# textflame 1 1\n@トライデント\nわーっ！\nいっぱいお魚がいるねっ\n;;----------------------------------------\n\n# textflame 1 1\n@%(unitName:unit_a)s\nあの子とあの子は、\nこの間海で見たかな？\n\n# select \"海が好きなんだね\" \"select_label_01\" \"…美味しそう\" \"select_label_02\" \"ダイビングで？\" \"select_label_03\"\nあの子とあの子は、\nこの間海で見たかな？\n\n# label \"select_label_01\"\n# labeljump \"select_label_end\"\n# textwindow \"close\"\n# waitandnext 0.1\n\n# label \"select_label_02\"\n# labeljump \"select_label_end\"\n# textwindow \"close\"\n# waitandnext 0.1\n\n# label \"select_label_03\"\n# labeljump \"select_label_end\"\n# textwindow \"close\"\n# waitandnext 0.1\n\n# label \"select_label_end\"\n# waitandnext 0.1\n\n# fadeout \"black\" 1.2\n# waitandnext 2\n"
	}
]