[
	{
		"ID": 301711,
		"script": ";;一緒に暮らそう,中\n;;きっと係員が…,小\n;;なんとかしてくれる？,大\n# script \"lisp\"\n# fadein \"black\" 0.5\n# background \"sea_ferris\"\n# bgmfile \"bgm256\" \"BgmSeaDate\" 0\n# body %(unit_a)s\n# pos %(unit_a)s 3\n# mask %(unit_a)s off\n# chara %(unit_a)s\n# textflame 0 0\n@\nヴォータンを連れ、\nマスターは観覧車に乗り込んだ…\n\n# voice 3017 \"wotan_0021\"\n# face %(unit_a)s \"smile\"\n# textflame 1 1\n@ヴォータン\nおお…！回転しながら\n登っていくぞ…！\n\n@ヴォータン\nただの子供だましと\n思っていたが、\nなかなか面白いじゃないか！\n\n# voice 3017 \"wotan_0028\"\n# face %(unit_a)s \"sad\"\n@ヴォータン\n…しかし、こう狭い空間に\nふたりきりと言うのも\n妙な気分だな…\n;;----------------------------------------\n\n# textflame 1 1\n@%(unitName:unit_a)s\nもし閉じ込められて\nしまったら\nどうなるんだろうな…？\n\n# select \"一緒に暮らそう\" \"select_label_01\" \"きっと係員が…\" \"select_label_02\" \"なんとかしてくれる？\" \"select_label_03\"\nもし閉じ込められて\nしまったら\nどうなるんだろうな…？\n\n# label \"select_label_01\"\n# labeljump \"select_label_end\"\n# textwindow \"close\"\n# waitandnext 0.1\n\n# label \"select_label_02\"\n# labeljump \"select_label_end\"\n# textwindow \"close\"\n# waitandnext 0.1\n\n# label \"select_label_03\"\n# labeljump \"select_label_end\"\n# textwindow \"close\"\n# waitandnext 0.1\n\n# label \"select_label_end\"\n# waitandnext 0.1\n\n# fadeout \"black\" 1.2\n# waitandnext 2\n"
	}
]