[
	{
		"ID": 301724,
		"script": "# script \"lisp\"\n# fadein \"black\" 0.5\n# background \"sea_room\"\n# bgmfile \"bgm256\" \"BgmSeaDate\" 0\n# body %(unit_a)s\n# pos %(unit_a)s 3\n# mask %(unit_a)s off\n# chara %(unit_a)s\n# textflame 1 1\n# voice 3017 \"wotan_0003\"\n@ヴォータン\nそ、そうだな…\n\n@ヴォータン\n私とお前の関係は\nそれ以外にないだろうな！\n\n# voice 3017 \"wotan_0004\"\n# face %(unit_a)s \"smile\"\n@ヴォータン\nふふっ…♪\nたまにはお前を\nねぎらってやろう\n\n@ヴォータン\nそこに座っていろ、\nお茶をいれてきてやる\n\n# textflame 0 0\n@\nお茶をしながら語り合い\nマスターは彼女との\n友情を深めたのだった…\n;;----------------------------------------\n\n# fadeout \"black\" 1.2\n# waitandnext 2\n"
	}
]