[
	{
		"ID": 302425,
		"script": "# script \"lisp\"\n# fadein \"black\" 0.5\n# background \"sea_fireworks\"\n# bgmfile \"bgm256\" \"BgmSeaDate\" 0\n# body %(unit_a)s\n# pos %(unit_a)s 3\n# mask %(unit_a)s off\n# chara %(unit_a)s\n# textflame 0 0\n@\nマスターは\n蜻蛉切を誘って\n花火大会にやってきた\n\n# textflame 1 1\n@蜻蛉切\n…………\n\n# voice 3024 \"tonbokiri_0015\"\n;; face %(unit_a)s \"close\"\n# textflame 1 1\n@蜻蛉切\n…あ、あの\nあ、なんでもなくって…\n\n# face %(unit_a)s \"normal\"\n# textflame 1 1\n@蜻蛉切\nあ、あの…\n\n# textflame 0 0\n@\nなんだか隣で\nもじもじ、ソワソワと\nしている蜻蛉切…\n\n# waitandnext 2\n# fadeout \"black\" 1.2"
	}
]