[
	{
		"ID": 302423,
		"script": "# script \"lisp\"\n# fadein \"black\" 0.5\n# background \"sea_fireworks\"\n# bgmfile \"bgm256\" \"BgmSeaDate\" 0\n# body %(unit_a)s\n# pos %(unit_a)s 3\n# mask %(unit_a)s off\n# chara %(unit_a)s\n# textflame 1 1\n# face %(unit_a)s \"smile\"\n# voice 3024 \"tonbokiri_0021\"\n@蜻蛉切\nへ……？\nうわぁぁっ！！\n\n# textflame 1 1\n@蜻蛉切\n…綺麗\n…すごい\n\n# textflame 0 0\n@\nぼーっと夜空の花火を見上げる\n蜻蛉切の瞳が\n花火よりもキラキラと輝いていく\n\n# voice 3024 \"tonbokiri_0001\"\n# textflame 1 1\n@蜻蛉切\n殿、もっとあっちに行こう！\n\n# textflame 1 1\n@蜻蛉切\nあそこのほうが\nきっともっとよく見えるわ！\n\n# textflame 0 0\n@\n蜻蛉切は\nマスターの手を引いて\n駆け出していた――\n\n# fadeout \"black\" 1.2\n# waitandnext 2"
	}
]