[
	{
		"ID": 302633,
		"script": "# script \"lisp\"\n# fadein \"black\" 0.5\n# background \"sea_castle\"\n# bgmfile \"bgm256\" \"BgmSeaDate\" 0\n# body %(unit_a)s\n# pos %(unit_a)s 3\n# mask %(unit_a)s off\n# chara %(unit_a)s\n# textflame 0 0\n@\n夜の古城にやってきた\nマスターと%(unitName:unit_a)s\n\n@\n人気のない城内に\nふたりの足音だけが\nこだまする…\n\n# textflame 1 1\n# face %(unit_a)s \"smile\"\n# voice 3026 \"grayside_0005\"\n@%(unitName:unit_a)s\nふむ、こういったしろもあるのだな…\nわふうけんちくか、気に入ったぞ！\n\n# textflame 0 0\n@\n%(unitName:unit_a)sとの距離が\nより近くなった気がした\n\n# fadeout \"black\" 1.2\n# waitandnext 2\n"
	}
]