[
	{
		"ID": 302823,
		"script": ";;Aまだまだ練習が…中\n# script \"lisp\"\n# fadein \"black\" 0.5\n# background \"sea_onsen\"\n# bgmfile \"bgm256\" \"BgmSeaDate\" 0\n# body %(unit_a)s\n# pos %(unit_a)s 3\n# mask %(unit_a)s off\n# chara %(unit_a)s\n# face %(unit_a)s \"usual\"\n# voice 3028 \"herena_a_0004\"\n# textflame 1 1\n@ヘレナ\nくふっ…まあ、構わないよ\nむやみに疑わないのが\n先輩のいいところだ\n\n@ヘレナ\nそれに、先輩に嘘をつくのは\nヘレナも楽しいからね\n\n# face %(unit_a)s \"sad\"\n@ヘレナ\nうん？\nもっと練習して、ヘレナの嘘を\n見分けてみせるって？\n\n@ヘレナ\nヘレナのことを、\nもっと理解したいから、か…\n\n# face %(unit_a)s \"usual\"\n# voice 3028 \"herena_a_0005\"\n@ヘレナ\n…くふふっ、そうだな\n先輩の今後に\nおおいに期待させてもらうよ\n\n@ヘレナ\nさて、それじゃあ\n先に失礼するぞ\n\n# alpha %(unit_a)s 0 0.5\n;;モノローグ\n# textflame 0 0\n@\nそう言ってヘレナは\n笑みを浮かべたまま\n行ってしまった\n\n;;モノローグ\n# textflame 0 0\n@\n置いていかれたマスターは\nしかたなく\n1人で温泉に浸かるのだった\n\n# fadeout \"black\" 1.2\n# waitandnext 2\n"
	}
]