[
	{
		"ID": 400111,
		"script": ";;A アルテミスみたいに静かだ (小当り)\n;;B アルテミスみたいに綺麗だ (大当たり)\n;;C アルテミスみたいに丸い (中当たり)\n# script \"lisp\"\n# fadein \"black\" 0.5\n# background %(background)s\n# bgmfile \"bgm256\" \"BgmSeaDate\" 0\n# body %(unit_a)s\n# pos %(unit_a)s 3\n# mask %(unit_a)s off\n# chara %(unit_a)s\n# textflame 0 0\n@\nマスターはアルテミスを誘って\n夜の散歩に出かけた\n\n# voice 4001 \"arutemisu_0030\"\n# textflame 1 1\n@アルテミス\nお誘いいただき\nありがとうございます\n\n# face %(unit_a)s \"smile\"\n# voice 4001 \"arutemisu_0005\"\n# textflame 1 1\n@アルテミス\n月を見上げていると落ち着くんです\nなんだかとても身近に感じて…\n\n# select \"アルテミスみたいに静かだ\" \"select_label_01\" \"アルテミスみたいに綺麗だ\" \"select_label_02\" \"アルテミスみたいに丸い\" \"select_label_03\"\n月を見上げていると落ち着くんです\nなんだかとても身近に感じて…\n\n# label \"select_label_01\"\n# labeljump \"select_label_end\"\n# textwindow \"close\"\n# waitandnext 0.1\n\n# label \"select_label_02\"\n# labeljump \"select_label_end\"\n# textwindow \"close\"\n# waitandnext 0.1\n\n# label \"select_label_03\"\n# labeljump \"select_label_end\"\n# textwindow \"close\"\n# waitandnext 0.1\n\n# label \"select_label_end\"\n# waitandnext 0.1\n\n# fadeout \"black\" 1.2\n# waitandnext 2"
	}
]