[
	{
		"ID": 400521,
		"script": "# script \"lisp\"\n# fadein \"black\" 0.5\n# background \"sea_onsen\"\n# bgmfile \"bgm256\" \"BgmSeaDate\" 0\n# body %(unit_a)s\n# pos %(unit_a)s 3\n# mask %(unit_a)s off\n# chara %(unit_a)s\n# textflame 0 0\n# face %(unit_a)s \"usual\"\n@\nマスターは\n与一を誘って\n水着着用温泉にやってきた\n\n# textflame 1 1\n# face %(unit_a)s \"smile\"\n@与一\nわぁ…！\n思ったより全然広いですね！\n\n# textflame 1 1\n@与一\n湯気がもくもくと…\nお湯…熱いんでしょうか…\n\n# textflame 1 1\n# voice 4005 \"yoichi_0001\"\n@与一\nあれ、マスターは…\nどちらですか？\n\n# select \"こっちだよ\" \"select_label_01\" \"気をつけて\" \"select_label_02\" \"…わっ！\" \"select_label_03\"\nあれ、マスターは…\nどちらですか？\n\n# textwindow \"close\"\n# label \"select_label_01\"\n# labeljump \"select_label_end\"\n# waitandnext 0.1\n\n# textwindow \"close\"\n# label \"select_label_02\"\n# labeljump \"select_label_end\"\n# waitandnext 0.1\n\n# textwindow \"close\"\n# label \"select_label_03\"\n# labeljump \"select_label_end\"\n# waitandnext 0.1\n\n# label \"select_label_end\"\n# waitandnext 2\n# fadeout \"black\" 1.2"
	}
]