[
	{
		"ID": 400613,
		"script": "# script \"lisp\"\n# fadein \"black\" 0.5\n# background %(background)s\n# bgmfile \"bgm256\" \"BgmSeaDate\" 0\n# body %(unit_a)s\n# pos %(unit_a)s 3\n# mask %(unit_a)s off\n# chara %(unit_a)s\n# textflame 1 1\n# voice 4006 \"azusa_0003\"\n@梓弓\nそうですね…\n岩に染み入るような\n静けさです…\n\n# textflame 0 0\n@\nしばらく二人は\n無言で渓流を眺めていた\n\n# face %(unit_a)s \"sad\"\n# voice 4006 \"azusa_0031\"\n# textflame 1 1\n@梓弓\n…せっかく誘っていただいたのに\n面白い話の一つもできずに\n申し訳ありません\n\n# eye %(unit_a)s \"close\"\n# textflame 0 0\n@\n梓弓は、力なく笑って\nうつむいてしまう\n\n# eye %(unit_a)s \"normal\"\n# face %(unit_a)s \"sad\"\n# textflame 1 1\n@梓弓\nでも、わたくしは…\nこうしてあなた様の\nおそばにいられるだけで…\n\n# face %(unit_a)s \"smile\"\n# voice 4006 \"azusa_kyara_2003\"\n# textflame 1 1\n@梓弓\nなにものにも代えがたい\n幸せを感じてしまうのです…\n\n# textflame 0 0\n@\n自分もそうだよ、という言葉を\n笑顔に込めて彼女に返す\nマスターなのであった…\n;;--------------------------------------\n\n# fadeout \"black\" 1.2\n# waitandnext 2\n"
	}
]