[
	{
		"ID": 401721,
		"script": ";;Cたゆたっている海かな\n;;B満天の星空だよ\n;;Aこの船、大きいよね\n# script \"lisp\"\n# fadein \"black\" 0.5\n# background \"sea_shipboard\"\n# bgmfile \"bgm256\" \"BgmSeaDate\" 0\n# body %(unit_a)s\n# pos %(unit_a)s 3\n# mask %(unit_a)s off\n# chara %(unit_a)s\n# textflame 0 0\n@\nスイハを夜の船上デートへと\n誘ったマスター\n\n@\n海上の途中で船を止めると\n二人で甲板へと出ていく\n\n# textflame 1 1\n# face %(unit_a)s \"smile\"\n# voice 4017 \"suiha_0005\"\n@スイハ\nなんだか不思議な気分ですね\n周囲になにもない場所で\nこうして時間を過ごすなんて…\n\n# textflame 0 0\n@\nスイハは高揚しているのか\n心なしか紅潮している…\n\n# textflame 1 1\n# voice 4017 \"suiha_0001\"\n@スイハ\nそう言えば、マスター？\nここまで来て見せたかったものは\nなんなのでしょうか？\n\n# select \"この船、大きいよね\" \"select_label_01\" \"満天の星空だよ\" \"select_label_02\" \"たゆたっている海かな\" \"select_label_03\"\nそう言えば、マスター？\nここまで来て見せたかったものは\nなんなのでしょうか？\n\n# label \"select_label_01\"\n# labeljump \"select_label_end\"\n# textwindow \"close\"\n# waitandnext 0.1\n\n# label \"select_label_02\"\n# labeljump \"select_label_end\"\n# textwindow \"close\"\n# waitandnext 0.1\n\n# label \"select_label_03\"\n# labeljump \"select_label_end\"\n# textwindow \"close\"\n# textflame 1 1\n# waitandnext 0.1\n\n# label \"select_label_end\"\n# waitandnext 2\n# fadeout \"black\" 1.2"
	}
]