[
	{
		"ID": 500231,
		"script": "# script \"lisp\"\n# fadein \"black\" 0.5\n# background \"sea_shop\"\n# bgmfile \"bgm256\" \"BgmSeaDate\" 0\n# body %(unit_a)s\n# pos %(unit_a)s 3\n# mask %(unit_a)s off\n# chara %(unit_a)s\n# textflame 0 0\n# face %(unit_a)s \"usual\"\n@\nショッピングにやってきた\nマスターと%(unitName:unit_a)s\n\n@\n華やかなショーウィンドウを\n眺めながら歩くだけで\n自然と笑顔が零れ落ちる…\n\n# textflame 1 1\n# voice 5002 \"furaikugeru_0004\"\n# face %(unit_a)s \"smile\"\n@%(unitName:unit_a)s\nせっかくのショッピングだもん\nエンジョイしなきゃ！\n\n# textflame 0 0\n@\n%(unitName:unit_a)sとの距離が\nより近くなった気がした。\n\n# fadeout \"black\" 1.2\n# waitandnext 2"
	}
]