[
	{
		"ID": 500824,
		"script": "# script \"lisp\"\n# fadein \"black\" 0.5\n# background \"sea_room\"\n# bgmfile \"bgm256\" \"BgmSeaDate\" 0\n# body %(unit_a)s\n# pos %(unit_a)s 3\n# mask %(unit_a)s off\n# chara %(unit_a)s\n# textflame 1 1\n# face %(unit_a)s \"smile\"\n# voice 5008 \"bashosen_0037\"\n@芭蕉扇\n……ああっ！\n\n# textflame 1 1\n@芭蕉扇\n…………\n\n# textflame 1 1\n@芭蕉扇\nんもう…あなた…！\n\n# textflame 1 1\n# face %(unit_a)s \"angry\"\n@芭蕉扇\nまた私を騙したのね…\n10って…10って言ったじゃない！\n\n# textflame 0 0\n@\nババ抜きの攻防は\n朝まで続くのだった…\n\n# fadeout \"black\" 1.2\n# waitandnext 2"
	}
]