[
	{
		"ID": 502122,
		"script": ";;C つまりこれからは一緒に…？ (大)\n# script \"lisp\"\n# fadein \"black\" 0.5\n# background \"sea_onsen\"\n# bgmfile \"bgm256\" \"BgmSeaDate\" 0\n# body %(unit_a)s\n# pos %(unit_a)s 3\n# mask %(unit_a)s off\n# chara %(unit_a)s\n# textflame 1 1\n# face %(unit_a)s \"sad\"\n# voice 5021 \"sefer_0022\"\n@セファー\n…え？\n\n# voice 5021 \"sefer_0042\"\n@セファー\nそれは、その…\nそういう意味でしょうか？\n\n# face %(unit_a)s \"smile\"\n@セファー\nあの、それでしたらもちろん！\n大丈夫なのですが…\n\n@セファー\nわたくしとしましても\nその、心の準備というか\n\n@セファー\n期待してなかったと言えば\nウソになるのですが…\n\n@セファー\n興味は、ありますが…！\n\n# face %(unit_a)s \"sad\"\n@セファー\nええと、わたくし\nどうしましょう！？\n\n# voice 5021 \"sefer_0023\"\n@セファー\nどうすればいいんでしょうか！\n\n# textflame 0 0\n@\n夜風の中、赤面するセファーの姿が\nマスターの目には\nとても愛らしく映った―\n\n# fadeout \"black\" 1.2\n# waitandnext 2\n"
	}
]