[
	{
		"ID": 600121,
		"script": ";;まったりしたかった？,小\n;;べったりしたかった？,大\n;;ぐっすりしたかった？,中\n# script \"lisp\"\n# fadein \"black\" 0.5\n# background \"sea_room\"\n# bgmfile \"bgm256\" \"BgmSeaDate\" 0\n# body %(unit_a)s\n# pos %(unit_a)s 3\n# mask %(unit_a)s off\n# chara %(unit_a)s\n# textflame 0 0\n@\nアスクレピオスを\nデートに誘ったら\nなぜか部屋に招かれたマスター\n\n# face %(unit_a)s \"smile\"\n# textflame 1 1\n@アスクレピオス\n…誘ってくれてありがとう\n別に外に行きたくないって\nわけじゃないの\n\n# textflame 1 1\n@%(unitName:unit_a)s\nどうしてここに呼んだかわかる？\n\n# select \"まったりしたかった？\" \"select_label_01\" \"べったりしたかった？\" \"select_label_02\" \"ぐっすりしたかった？\" \"select_label_03\"\nどうしてここに呼んだかわかる？\n\n# label \"select_label_01\"\n# labeljump \"select_label_end\"\n# textwindow \"close\"\n# waitandnext 0.1\n\n# label \"select_label_02\"\n# labeljump \"select_label_end\"\n# textwindow \"close\"\n# waitandnext 0.1\n\n# label \"select_label_03\"\n# labeljump \"select_label_end\"\n# textwindow \"close\"\n# textflame 1 1\n# waitandnext 0.1\n\n# label \"select_label_end\"\n# waitandnext 2\n# fadeout \"black\" 1.2\n"
	}
]