[
	{
		"ID": 600332,
		"script": "# script \"lisp\"\n# fadein \"black\" 0.5\n# background \"sea_cafe\"\n# bgmfile \"bgm256\" \"BgmSeaDate\" 0\n# body %(unit_a)s\n# pos %(unit_a)s 3\n# mask %(unit_a)s off\n# chara %(unit_a)s\n# textflame 0 0\n@\nカフェにやってきた\nマスターと%(unitName:unit_a)s\n\n@\n小さなテーブルを挟み\nいつもより近い距離を\n楽しむふたり…\n\n# textflame 1 1\n# voice 6003 \"tyurusosu_0004\"\n# face %(unit_a)s \"smile\"\n@%(unitName:unit_a)s\nお酒だけじゃなくて、\nたまにはこういうのもいいね！\n\n# textflame 0 0\n@\n%(unitName:unit_a)sとの距離が\nより近くなった気がした。\n\n# fadeout \"black\" 1.2\n# waitandnext 2"
	}
]