[
	{
		"ID": 601314,
		"script": ";;A小当り\n# script \"lisp\"\n# fadein \"black\" 0.5\n# background \"sea_cave\"\n# bgmfile \"bgm256\" \"BgmSeaDate\" 0\n# body %(unit_a)s\n# pos %(unit_a)s 3\n# mask %(unit_a)s off\n# chara %(unit_a)s\n# textflame 1 1\n# face %(unit_a)s \"angry\"\n# voice 6013 \"sistrum_0023\"\n@シストルム\nボクの勘が言ってるにゃ…\nこの先に、もっとピタってくる\n素敵スポットがあるって！\n\n# textflame 0 0\n@\n…………\n\n# voice 6013 \"sistrum_0004\"\n# eye %(unit_a)s \"close\"\n# textflame 1 1\n@シストルム\n…………\n\n# textflame 0 0\n@\nぴったりハマり過ぎて\n危なく戻れなくなる\nところだった…\n\n# fadeout \"black\" 1.2\n# waitandnext 2\n"
	}
]