[
	{
		"ID": 601813,
		"script": ";;中Bどうして恐ろしいの？\n# script \"lisp\"\n# fadein \"black\" 0.5\n# background \"sea_church\"\n# bgmfile \"bgm256\" \"BgmSeaDate\" 0\n# body %(unit_a)s\n# pos %(unit_a)s 3\n# mask 2601811 on\n# chara %(unit_a)s\n# face %(unit_a)s \"sad\"\n# voice 260181 \"wizu_0026\"\n# textflame 1 1\n@ウィズ\nわ、私、リッチーなので\nこういった神聖な場所にいると\nあまり気分が優れないというか…\n\n@ウィズ\nアクアさんといるときも\n浄化魔法を使われて\n何度も昇天しかけましたし…\n\n# voice 260181 \"wizu_0027\"\n@ウィズ\nご、ごめんなさい！\n私の話をしても\n楽しくないですよね！\n\n# textflame 0 0\n@\nそんなことはないよと、\nマスターは否定する\n\n# face %(unit_a)s \"normal\"\n# voice 260181 \"wizu_0004\"\n# textflame 1 1\n@ウィズ\nありがとうございます…\nそう言って頂けると嬉しいです\n\n@ウィズ\n私、もう少しあなたと\n一緒にいたいなって思います\n\n# voice 260181 \"wizu_0001\"\n@ウィズ\nもし、もし、よろしければですが…\n\n@ウィズ\nこの後も\n私にお付き合い頂けませんか？\n\n# textflame 0 0\n@\nマスターはウィズの言葉に頷く\n\n# textflame 0 0\n@\nそして彼女の手をとると、\n教会の外へ歩き出したのだった\n\n;;-----------------------------------------\n# waitandnext 2\n# fadeout \"black\" 1.2\n"
	}
]