[
	{
		"ID": 81001,
		"script": "# script \"lisp\"\n# background %(background)s\n# bgmfile \"bgm255\" \"BgmSeaDate\" 0\n# body %(unit_a)s\n# pos %(unit_a)s 3\n# mask %(unit_a)s off\n# chara %(unit_a)s\n@\n帰り道－\n\n# fadein \"white\" 0.5\n# se \"SE_0735\"\n# bgm \"stop\"\n# waitandnext 2\n@\n…………\n\n# fadein \"white\" 0.5\n# se \"SE_0735\"\n# bgm \"stop\"\n# waitandnext 2\n@\n…………\n\n# serif 1\n@？？？\n…チョット\n\n# serif 1\n@？？？\nソコノキミタチ…\n\n# se \"SE_5786\"\n# bgm \"stop\"\n# fadein \"white\" 0.5\n# waitandnext 0.5\n\n# serif 0\n@\n何やら怪しい声が聞こえてくる…\n\n# bgm \"bgm006\" 0.7\n# serif 1\n@？？？\nハロー！\n元気かい？！\n\n# serif 0\n# textwindow \"close\"\n# serif 1\n@Mrクイズマン\n俺の名前はMrクイズマン\n\n# serif 1\n@Mrクイズマン\n手当たり次第に\nクイズを仕掛ける男さ！\n\n# serif 1\n@Mrクイズマン\n早速だが、そんな二人に問題だ！\n\n# serif 1\n@Mrクイズマン\nえ？そんな時間はない？\n\n# serif 1\n@Mrクイズマン\nこっちだって\n暇でクイズしてる訳じゃないんだ！\n\n# serif 1\n@Mrクイズマン\n君たちに拒否権などない！\n\n# se \"SE_0673\"\n# serif 1\n@Mrクイズマン\nそれでは問題だっ！\n\n# select \"明後日\" \"select_label_correct\" \"明日\" \"select_label_wrong1\" \"昨日\" \"select_label_wrong2\"\n昨日の明日の明後日は？\n\n# se \"SE_5566\"\n# label \"select_label_correct\"\n# labeljump \"select_label_end\"\n# serif 0\n# textwindow \"close\"\n# serif 1\n@Mrクイズマン\n大正解！！！\n\n# se \"SE_9347\"\n# label \"select_label_wrong1\"\n# labeljump \"select_label_end\"\n# serif 0\n# textwindow \"close\"\n# serif 1\n@Mrクイズマン\n残念！\n\n# se \"SE_9347\"\n# label \"select_label_wrong2\"\n# labeljump \"select_label_end\"\n# serif 0\n# textwindow \"close\"\n# serif 1\n@Mrクイズマン\n残念！\n\n# label \"select_label_end\"\n# waitandnext 0.1\n\n"
	}
]