[
	{
		"ID": 91008399,
		"script": "# script \"lisp\"\n# background %(wayback_background)s\n# bgmfile \"bgm255\" \"BgmSeaDate\" 0\n# body %(unit_a)s\n# pos %(unit_a)s 3\n# mask %(unit_a)s off\n# chara %(unit_a)s\n# fadein \"black\" 0.5\n# textflame 1 1\n# face %(unit_a)s \"smile\"\n# se \"SE_0732\"\n# voice 1008 \"guramu_0041\"\n@グラム\nわ～！\nさっすがマスター！\n\n# face %(unit_a)s \"sad\"\n@グラム\n急なクイズにだって\nちゃんと答えてくれる…\n\n# face %(unit_a)s \"smile\"\n# voice 1008 \"guramu_0020\"\n@グラム\nやっぱりマスターは\n私の思ったとおりのマスターだね！\n\n# textflame 0 0\n@\n自分が正解したかのような\n勢いで喜ぶ彼女を見て…\n\n@\nマスターは彼女との絆が\nまた深まったのを実感した…\n\n# fadeout \"black\" 1.2\n# waitandnext 2"
	}
]