[
	{
		"ID": 9100916,
		"script": "# script \"lisp\"\n# background %(wayback_background)s\n# bgmfile \"bgm255\" \"BgmSeaDate\" 0\n# body %(unit_a)s\n# pos %(unit_a)s 3\n# mask %(unit_a)s off\n# chara %(unit_a)s\n# fadein \"black\" 0.5\n# textflame 0 0\n@\n帰り道－\n\n# fadein \"white\" 0.5\n# se \"SE_0735\"\n# bgm \"stop\"\n# waitandnext 2\n@\n…………\n\n# fadein \"white\" 0.5\n# se \"SE_0735\"\n# waitandnext 2\n@\n…………\n\n@\nふと、\n傍らを歩く彼女が足を止めた…\n\n# bgmfile \"bgm255\" \"BgmSeaDate\" 0\n# textflame 1 1\n# face %(unit_a)s \"usual\"\n# voice 1009 \"barumunku_0001\"\n@バルムンク\nあの、マスター…？\nちょっとだけいいですか？\n\n# face %(unit_a)s \"sad\"\n@バルムンク\nえっと…\n急になんですけど…\n\n@バルムンク\n私のこと…\nどれだけ知ってくれているかっていう\nクイズを出しても…いいですか？\n\n# face %(unit_a)s \"usual\"\n@バルムンク\n私の星座、わかりますか？\n\n# se \"SE_0734\"\n# select \"うお座\" \"select_label_wrong1\" \"やぎ座\" \"select_label_correct\" \"かに座\" \"select_label_wrong2\"\n私の星座、わかりますか？\n\n# label \"select_label_wrong1\"\n# labeljump \"select_label_end\"\n# textwindow \"close\"\n# waitandnext 0.1\n\n# label \"select_label_correct\"\n# labeljump \"select_label_end\"\n# textwindow \"close\"\n# waitandnext 0.1\n\n# label \"select_label_wrong2\"\n# labeljump \"select_label_end\"\n# textwindow \"close\"\n# waitandnext 0.1\n\n# label \"select_label_end\"\n# waitandnext 0.1\n\n# sestop \"SE_0734\"\n# fadeout \"black\" 1.2\n# waitandnext 2"
	}
]