[
	{
		"ID": 9100504,
		"script": "# script \"lisp\"\n# background %(wayback_background)s\n# bgmfile \"bgm255\" \"BgmSeaDate\" 0\n# body %(unit_a)s\n# pos %(unit_a)s 3\n# mask %(unit_a)s off\n# chara %(unit_a)s\n# fadein \"black\" 0.5\n# textflame 0 0\n@\n帰り道－\n\n# fadein \"white\" 0.5\n# se \"SE_0735\"\n# bgm \"stop\"\n# waitandnext 2\n@\n…………\n\n# fadein \"white\" 0.5\n# se \"SE_0735\"\n# waitandnext 2\n@\n…………\n\n@\nふと、\n傍らを歩く彼女が足を止めた…\n\n# bgmfile \"bgm255\" \"BgmSeaDate\" 0\n# textflame 1 1\n# face %(unit_a)s \"normal\"\n# voice 1005 \"ritto_0002\"\n@リットゥ\n時にマスター、\n少し確かめたいことがあるのだが…\n\n# voice 1005 \"ritto_0013\"\n@リットゥ\nいや…\nあまり時間はとらせないから、\n安心して欲しい…\n\n# voice 1005 \"ritto_0003\"\n@リットゥ\nただお前が、\n私のことを…\nどれくらい知っているのか…\n\n@リットゥ\nそれが気になっただけだ\n\n# face %(unit_a)s \"smile\"\n@リットゥ\nだからそう身構えなくても\n心配はない\n\n# face %(unit_a)s \"usual\"\n# voice 1005 \"ritto_0005\"\n@リットゥ\nというわけでマスター…\nちゃんと、正直に答えてくれ\n\n@%(unitName:unit_a)s\n私のこのキラーズ『リットゥ』が、\n果たしてなにに記されているのか\nわかるか？\n\n# se \"SE_0734\"\n# select  \"旧約聖書\" \"select_label_1\" \"新約聖書\" \"select_label_2\" \"古事記\" \"select_label_3\"\n私のこのキラーズ『リットゥ』が、\n果たしてなにに記されているのか\nわかるか？\n\n# label \"select_label_1\"\n# labeljump \"select_label_end\"\n# textwindow \"close\"\n# waitandnext 0.1\n\n# label \"select_label_2\"\n# labeljump \"select_label_end\"\n# textwindow \"close\"\n# waitandnext 0.1\n\n# label \"select_label_3\"\n# labeljump \"select_label_end\"\n# textwindow \"close\"\n# waitandnext 0.1\n\n# label \"select_label_end\"\n# waitandnext 0.1\n\n# sestop \"SE_0734\"\n# fadeout \"black\" 1.2\n# waitandnext 2"
	}
]