[
	{
		"ID": 9100930,
		"script": "# script \"lisp\"\n# background %(wayback_background)s\n# bgmfile \"bgm255\" \"BgmSeaDate\" 0\n# body %(unit_a)s\n# pos %(unit_a)s 3\n# mask %(unit_a)s off\n# chara %(unit_a)s\n# fadein \"black\" 0.5\n# textflame 0 0\n@\n帰り道－\n\n# fadein \"white\" 0.5\n# se \"SE_0735\"\n# bgm \"stop\"\n# waitandnext 2\n@\n…………\n\n# fadein \"white\" 0.5\n# se \"SE_0735\"\n# waitandnext 2\n@\n…………\n\n@\nふと、\n傍らを歩く彼女が足を止めた…\n\n# bgmfile \"bgm255\" \"BgmSeaDate\" 0\n# textflame 1 1\n# face %(unit_a)s \"usual\"\n# voice 1009 \"barumunku_0001\"\n@バルムンク\nえっと…あの…マスター\n\n;; face %(unit_a)s \"close\"\n@バルムンク\n突然なんですけれど\nクイズを出題してもいいですか？\n\n# face %(unit_a)s \"sad\"\n# voice 1009 \"barumunku_00041\"\n@バルムンク\nあの…すみません…\nいきますよ？\n\n# face %(unit_a)s \"usual\"\n@バルムンク\n私が習得したスキル…\nいただけてますでしょうか…？\n\n# se \"SE_0734\"\n# select \"雷が如し龍丿瞬き\" \"select_label_correct\" \"山の如し龍丿嘶き\" \"select_label_wrong1\" \"風が如し龍丿羽ばたき\" \"select_label_wrong2\"\n私が習得したスキル…\nいただけてますでしょうか…？\n\n# label \"select_label_correct\"\n# labeljump \"select_label_end\"\n# textwindow \"close\"\n# waitandnext 0.1\n\n# label \"select_label_wrong1\"\n# labeljump \"select_label_end\"\n# textwindow \"close\"\n# waitandnext 0.1\n\n# label \"select_label_wrong2\"\n# labeljump \"select_label_end\"\n# textwindow \"close\"\n# waitandnext 0.1\n\n# label \"select_label_end\"\n# waitandnext 0.1\n\n# sestop \"SE_0734\"\n# fadeout \"black\" 1.2\n# waitandnext 2"
	}
]