[
	{
		"ID": 9100413,
		"script": ";;3:8月8日\n# script \"lisp\"\n# background %(wayback_background)s\n# bgmfile \"bgm255\" \"BgmSeaDate\" 0\n# body %(unit_a)s\n# pos %(unit_a)s 3\n# mask %(unit_a)s off\n# chara %(unit_a)s\n# fadein \"black\" 0.5\n# textflame 0 0\n@\n帰り道－\n\n# textflame 0 0\n# fadein \"white\" 0.5\n# se \"SE_0735\"\n# bgm \"stop\"\n# waitandnext 2\n@\n…………\n\n# textflame 0 0\n# fadein \"white\" 0.5\n# se \"SE_0735\"\n# waitandnext 2\n@\n…………\n\n# textflame 0 0\n@\nふと、\n傍らを歩く彼女が足を止めた…\n\n# bgmfile \"bgm255\" \"BgmSeaDate\" 0\n# voice 1004 \"kusanagi_0006\"\n# textflame 1 1\n@草薙剣\nさてさて！\nそちの学びの成果を\n試すとするかのう！\n\n# face %(unit_a)s \"smile\"\n# textflame 1 1\n@草薙剣\nそちは誰よりも余について\n詳しくあらねばならぬ！\n\n# voice 1004 \"kusanagi_0036\"\n# face %(unit_a)s \"angry\"\n# textflame 1 1\n@草薙剣\n余の問いに\nよどみなく答えてみせよ！\n\n# face %(unit_a)s \"normal\"\n@草薙剣\n余の誕生日くらい\nわかるであろう？\n\n# se \"SE_0734\"\n# select \"11月26日\" \"select_label_1\" \"7月12日\" \"select_label_2\" \"8月8日\" \"select_label_3\"\n余の誕生日くらい\nわかるであろう？\n\n# label \"select_label_1\"\n# labeljump \"select_label_end\"\n# textwindow \"close\"\n# waitandnext 0.1\n\n# label \"select_label_2\"\n# labeljump \"select_label_end\"\n# textwindow \"close\"\n# waitandnext 0.1\n\n# label \"select_label_3\"\n# labeljump \"select_label_end\"\n# textwindow \"close\"\n# waitandnext 0.1\n\n# label \"select_label_end\"\n# waitandnext 0.1\n\n# sestop \"SE_0734\"\n# fadeout \"black\" 1.2\n# waitandnext 2\n"
	}
]