[
	{
		"ID": 9101135,
		"script": ";;2\n# script \"lisp\"\n# background %(wayback_background)s\n# bgmfile \"bgm255\" \"BgmSeaDate\" 0\n# body %(unit_a)s\n# pos %(unit_a)s 3\n# mask %(unit_a)s off\n# chara %(unit_a)s\n# fadein \"black\" 0.5\n# face %(unit_a)s \"usual\"\n# textflame 0 0\n@\n帰り道－\n\n# fadein \"white\" 0.5\n# se \"SE_0735\"\n# bgm \"stop\"\n# waitandnext 2\n@\n…………\n\n# fadein \"white\" 0.5\n# se \"SE_0735\"\n# waitandnext 2\n@\n…………\n\n@\nふと、\n傍らを歩く彼女が足を止めた…\n\n# textflame 1 1\n# bgmfile \"bgm255\" \"BgmSeaDate\" 0\n# voice 1011 \"excalibur_0003\"\n@エクスカリバー\nよき君主は\n一振りの名剣を携えるもの\n歴史が雄弁に語っています\n\n# face %(unit_a)s \"angry\"\n# textflame 1 1\n@エクスカリバー\n私はあなたにとっての\nそれでありたいと思っています！\n\n# textflame 1 1\n@エクスカリバー\nいわば…君主と名剣は\n一心同体なのです！\n\n# voice 1011 \"excalibur_0036\"\n# face %(unit_a)s \"sad\"\n# textflame 1 1\n@エクスカリバー\n当然、私のことを\n知っていていただかねばと\n思うのです…！\n\n# textflame 1 1\n# face %(unit_a)s \"usual\"\n@エクスカリバー\nアーサー王の騎士だったという\n繋がりのある方はどなたでしょうか？\n\n# se \"SE_0734\"\n# select \"グングニル\" \"select_label_1\" \"デュランダル\" \"select_label_2\" \"トライデント\" \"select_label_3\"\nアーサー王の騎士だったという\n繋がりのある方はどなたでしょうか？\n\n# label \"select_label_1\"\n# labeljump \"select_label_end\"\n# textwindow \"close\"\n# waitandnext 0.1\n\n# label \"select_label_2\"\n# labeljump \"select_label_end\"\n# textwindow \"close\"\n# waitandnext 0.1\n\n# label \"select_label_3\"\n# labeljump \"select_label_end\"\n# textwindow \"close\"\n# waitandnext 0.1\n\n# label \"select_label_end\"\n# waitandnext 0.1\n\n# sestop \"SE_0734\"\n# fadeout \"black\" 1.2\n# waitandnext 2\n"
	}
]