[
	{
		"ID": 9101118,
		"script": ";;2\n# script \"lisp\"\n# background %(wayback_background)s\n# bgmfile \"bgm255\" \"BgmSeaDate\" 0\n# body %(unit_a)s\n# pos %(unit_a)s 3\n# mask %(unit_a)s off\n# chara %(unit_a)s\n# fadein \"black\" 0.5\n# face %(unit_a)s \"usual\"\n# textflame 0 0\n@\n帰り道－\n\n# fadein \"white\" 0.5\n# se \"SE_0735\"\n# bgm \"stop\"\n# waitandnext 2\n@\n…………\n\n# fadein \"white\" 0.5\n# se \"SE_0735\"\n# waitandnext 2\n@\n…………\n\n@\nふと、\n傍らを歩く彼女が足を止めた…\n\n# voice 1011 \"excalibur_0042\"\n# textflame 1 1\n# bgmfile \"bgm255\" \"BgmSeaDate\" 0\n@エクスカリバー\nお恥ずかしい話を…\n聞いていただいてよいでしょうか\n\n# textflame 1 1\n@エクスカリバー\n配下として…\nやはり主に目をかけていただくことは\n最高の誉れなのです\n\n# voice 1011 \"excalibur_0036\"\n# face %(unit_a)s \"angry\"\n# textflame 1 1\n@エクスカリバー\nあなたの目に止まっているか…\n知りたいのです…！\n\n# textflame 1 1\n# face %(unit_a)s \"usual\"\n@エクスカリバー\n私の出身地はご存知ですか？\n\n# se \"SE_0734\"\n# select \"フリテン\" \"select_label_1\" \"ブリテン\" \"select_label_2\" \"エビテン\" \"select_label_3\"\n私の出身地はご存知ですか？\n\n# label \"select_label_1\"\n# labeljump \"select_label_end\"\n# textwindow \"close\"\n# waitandnext 0.1\n\n# label \"select_label_2\"\n# labeljump \"select_label_end\"\n# textwindow \"close\"\n# waitandnext 0.1\n\n# label \"select_label_3\"\n# labeljump \"select_label_end\"\n# textwindow \"close\"\n# waitandnext 0.1\n\n# label \"select_label_end\"\n# waitandnext 0.1\n\n# sestop \"SE_0734\"\n# fadeout \"black\" 1.2\n# waitandnext 2\n"
	}
]