[
	{
		"ID": 91014399,
		"script": "# script \"lisp\"\n# background %(wayback_background)s\n# bgmfile \"bgm255\" \"BgmSeaDate\" 0\n# body %(unit_a)s\n# pos %(unit_a)s 3\n# mask %(unit_a)s off\n# chara %(unit_a)s\n# fadein \"black\" 0.5\n# textflame 1 1\n# face %(unit_a)s \"smile\"\n# se \"SE_0732\"\n# voice 1014 \"tyrufing_0046\"\n@ティルフィング\n嬉しい…\n\n@ティルフィング\nこんなにも…マスターが深く、\n私のことをご存じでいてくれて…\n\n# voice 1014 \"tyrufing_1057\"\n@ティルフィング\n私…本当に嬉しいです\nクイズを出して良かった…\n\n# textflame 0 0\n@\nティルフィングは心の底から\n嬉しそうな顔をし、\n何度もお礼を言った\n\n@\nそんな彼女を見ながら、\n絆が深まるのを感じたマスター\nであった\n\n# fadeout \"black\" 1.2\n# waitandnext 2"
	}
]