[
	{
		"ID": 9101218,
		"script": "# script \"lisp\"\n# background %(wayback_background)s\n# bgmfile \"bgm255\" \"BgmSeaDate\" 0\n# body %(unit_a)s\n# pos %(unit_a)s 3\n# mask %(unit_a)s off\n# chara %(unit_a)s\n# fadein \"black\" 0.5\n# textflame 0 0\n@\n帰り道－\n\n# fadein \"white\" 0.5\n# se \"SE_0735\"\n# bgm \"stop\"\n# waitandnext 2\n@\n…………\n\n# fadein \"white\" 0.5\n# se \"SE_0735\"\n# waitandnext 2\n@\n…………\n\n@\nふと、\n傍らを歩く彼女が足を止めた…\n\n# bgmfile \"bgm255\" \"BgmSeaDate\" 0\n# textflame 1 1\n# voice 1012 \"adamasu_0001\"\n@アダマス\nマスター、ちょっといいかしら？\n\n# eye %(unit_a)s \"close\"\n@アダマス\nあたしを誘い出したくらいなんだから\nその気があるってことでいいのよね？\n\n# eye %(unit_a)s \"normal\"\n# face %(unit_a)s \"smile\"\n# voice 1012 \"adamasu_0005\"\n@アダマス\nそれならあたしのことなんて\nな～んでも答えられるわよね？\n\n# face %(unit_a)s \"normal\"\n@アダマス\n私の出身地は！？\n知らなきゃちょん切るからね！\n\n# se \"SE_0734\"\n# select \"エデン\" \"select_label_1\" \"ガイア\" \"select_label_2\" \"ワイズ\" \"select_label_3\"\n私の出身地は！？\n知らなきゃちょん切るからね！\n\n# label \"select_label_1\"\n# labeljump \"select_label_end\"\n# textwindow \"close\"\n# waitandnext 0.1\n\n# label \"select_label_2\"\n# labeljump \"select_label_end\"\n# textwindow \"close\"\n# waitandnext 0.1\n\n# label \"select_label_3\"\n# labeljump \"select_label_end\"\n# textwindow \"close\"\n# waitandnext 0.1\n\n# label \"select_label_end\"\n# waitandnext 0.1\n\n# sestop \"SE_0734\"\n# fadeout \"black\" 1.2\n# waitandnext 2"
	}
]