[
	{
		"ID": 91013499,
		"script": "# script \"lisp\"\n# background %(wayback_background)s\n# bgmfile \"bgm255\" \"BgmSeaDate\" 0\n# body %(unit_a)s\n# pos %(unit_a)s 3\n# mask %(unit_a)s off\n# chara %(unit_a)s\n# fadein \"black\" 0.5\n# textflame 1 1\n# face %(unit_a)s \"smile\"\n# voice 1013 \"paracelsus_0023\"\n# se \"SE_0732\"\n@パラケルスス\nなかなかだ！\n\n# textflame 1 1\n@パラケルスス\n簡単すぎて、\nクイズにならないといった顔だな\n\n# textflame 1 1\n@パラケルスス\n頼もしいぞ、マスター\nそれでこそわたくしの\nマスターだ！\n\n# voice 1013 \"paracelsus_0005\"\n# textflame 1 1\n@パラケルスス\nふふふ…\n君がどこまで理解しているのか\n試したくなったよ…\n\n# textflame 1 1\n@パラケルスス\nもっともっと質問するから、\nドンドン答えてくれ！\n\n# textflame 0 0\n@\nそこからの帰り道、\n彼女はクイズを出し続けた\n\n# textflame 0 0\n@\nまた少し、彼女との絆が\n深まったような気がした…\n\n# fadeout \"black\" 1.2\n# waitandnext 2\n"
	}
]