[
	{
		"ID": 91023298,
		"script": "# script \"lisp\"\n# background %(wayback_background)s\n# bgmfile \"bgm255\" \"BgmSeaDate\" 0\n# body %(unit_a)s\n# pos %(unit_a)s 3\n# mask %(unit_a)s off\n# chara %(unit_a)s\n# fadein \"black\" 0.5\n# textflame 1 1\n# se \"SE_0733\"\n# face %(unit_a)s \"sad\"\n# voice 1023 \"ascalon_0017\"\n@アスカロン\n…あ、違います\n\n@アスカロン\n…………\n\n# face %(unit_a)s \"usual\"\n@アスカロン\nえ、えっと…\n急にクイズなんか出されたら\n正解なんてできませんよね！？\n\n# face %(unit_a)s \"sad\"\n@アスカロン\n…………\n\n# textflame 0 0\n@\n彼女の表情は\nあからさまに落ち込んで見えた\n\n# textflame 1 1\n# face %(unit_a)s \"usual\"\n# voice 1023 \"ascalon_0031\"\n@アスカロン\nあ！　ごめんなさい\n歩いている最中なのに\n急に引きとめてしまって…\n\n@アスカロン\n…………\n\n# textflame 0 0\n@\n落ち込ませてしまった…\nデート中のはずなのに…\n\n@\n次からはちゃんと\nどんな質問も答えられるように\n復習しておかないと…\n\n# fadeout \"black\" 1.2\n# waitandnext 2"
	}
]