[
	{
		"ID": 9102712,
		"script": ";;2:162cm\n# script \"lisp\"\n# background %(wayback_background)s\n# bgmfile \"bgm255\" \"BgmSeaDate\" 0\n# body %(unit_a)s\n# pos %(unit_a)s 3\n# mask %(unit_a)s off\n# chara %(unit_a)s\n# fadein \"black\" 0.5\n# textflame 0 0\n@\n帰り道－\n\n# fadein \"white\" 0.5\n# se \"SE_0735\"\n# bgm \"stop\"\n# waitandnext 2\n@\n…………\n\n# fadein \"white\" 0.5\n# se \"SE_0735\"\n# waitandnext 2\n@\n…………\n\n@\nふと、\n傍らを歩く彼女が足を止めた…\n\n# bgmfile \"bgm255\" \"BgmSeaDate\" 0\n# face %(unit_a)s \"sad\"\n# voice 1027 \"solais_0002\"\n# textflame 1 1\n@クラウ・ソラス\nよかったら少し…\n私の話を聞いてくれるかな？\n\n# eye %(unit_a)s \"close\"\n# textflame 1 1\n@クラウ・ソラス\n遠回しな言い方は苦手だから\nハッキリ言おう\n\n# eye %(unit_a)s \"normal\"\n# textflame 1 1\n@クラウ・ソラス\nあなたに私のことを\n知っていてほしいんだ\n\n# voice 1027 \"solais_0028\"\n# textflame 1 1\n@クラウ・ソラス\nそして、今\nどれだけ知っていてくれているのか\n聞きたいんだ\n\n# face %(unit_a)s \"smile\"\n# voice 1027 \"solais_0036\"\n# textflame 1 1\n@クラウ・ソラス\nだから…\nちょっとした問題を出すよ\nいいかな？\n\n# textflame 1 1\n# face %(unit_a)s \"normal\"\n@クラウ・ソラス\n私の身長を知っているか？\n\n# se \"SE_0734\"\n# select \"166cm\" \"select_label_1\" \"162cm\" \"select_label_2\" \"170cm\" \"select_label_3\"\n私の身長を知っているか？\n\n# label \"select_label_1\"\n# labeljump \"select_label_end\"\n# textwindow \"close\"\n# waitandnext 0.1\n\n# label \"select_label_2\"\n# labeljump \"select_label_end\"\n# textwindow \"close\"\n# waitandnext 0.1\n\n# label \"select_label_3\"\n# labeljump \"select_label_end\"\n# textwindow \"close\"\n# waitandnext 0.1\n\n# label \"select_label_end\"\n# waitandnext 0.1\n\n# sestop \"SE_0734\"\n# fadeout \"black\" 1.2\n# waitandnext 2\n"
	}
]