[
	{
		"ID": 9102633,
		"script": "# script \"lisp\"\n# background %(wayback_background)s\n# bgmfile \"bgm255\" \"BgmSeaDate\" 0\n# body %(unit_a)s\n# pos %(unit_a)s 3\n# mask %(unit_a)s off\n# chara %(unit_a)s\n# fadein \"black\" 0.5\n# textflame 0 0\n@\n帰り道－\n\n# fadein \"white\" 0.5\n# se \"SE_0735\"\n# bgm \"stop\"\n# waitandnext 2\n@\n…………\n\n# fadein \"white\" 0.5\n# se \"SE_0735\"\n# waitandnext 2\n@\n…………\n\n@\nふと、\n傍らを歩く彼女が足を止めた…\n\n# bgmfile \"bgm255\" \"BgmSeaDate\" 0\n;;June,3\n# textflame 1 1\n# voice 1026 \"caladbolg_0002\"\n@カラドボルグ\nねぇ、マスター\n\n# textflame 1 1\n@カラドボルグ\n私ってよく自信家だとか、\n言われるけど…\n\n# textflame 1 1\n@カラドボルグ\nうん、その通り\n自信があるからこそ…\nあなたにはすべてを見せられるのよ\n\n# face %(unit_a)s \"sad\"\n# textflame 1 1\n@カラドボルグ\nあなたは…\n私のこと、ちゃんと\n見てくれてるかしら？\n\n# face %(unit_a)s \"smile\"\n# voice 1026 \"caladbolg_0036\"\n# textflame 1 1\n@カラドボルグ\n見てくれているかどうか…\n今からクイズね♪\n;;---------------------------------\n\n@%(unitName:unit_a)s\n私、誕生月が６月なんだけど、\n６月は英語で？\n\n# se \"SE_0734\"\n# select  \"September\" \"select_label_1\" \"July\" \"select_label_2\" \"June\" \"select_label_3\"\n私、誕生月が６月なんだけど、\n６月は英語で？\n\n# label \"select_label_1\"\n# labeljump \"select_label_end\"\n# textwindow \"close\"\n# waitandnext 0.1\n\n# label \"select_label_2\"\n# labeljump \"select_label_end\"\n# textwindow \"close\"\n# waitandnext 0.1\n\n# label \"select_label_3\"\n# labeljump \"select_label_end\"\n# textwindow \"close\"\n# waitandnext 0.1\n\n# label \"select_label_end\"\n# waitandnext 0.1\n\n# sestop \"SE_0734\"\n# fadeout \"black\" 1.2\n# waitandnext 2"
	}
]