[
	{
		"ID": 91026199,
		"script": "# script \"lisp\"\n# background %(wayback_background)s\n# bgmfile \"bgm255\" \"BgmSeaDate\" 0\n# body %(unit_a)s\n# pos %(unit_a)s 3\n# mask %(unit_a)s off\n# chara %(unit_a)s\n# fadein \"black\" 0.5\n# textflame 1 1\n# face %(unit_a)s \"smile\"\n# voice 1026 \"caladbolg_0040\"\n# se \"SE_0732\"\n@カラドボルグ\nうん、いいわね…好きだわ\n\n# textflame 1 1\n@カラドボルグ\n私のこと…\nちゃんと見ててくれてるのね\n\n# textflame 1 1\n@カラドボルグ\nこれからも…\nずっと一緒にいましょうね\n\n# textflame 0 0\n@\n嬉しそうに笑った顔は、\nまるで太陽のように眩しくて…\n\n# textflame 0 0\n@\n彼女との絆が\nまた深まったのを実感した…\n\n# fadeout \"black\" 1.2\n# waitandnext 2"
	}
]