[
	{
		"ID": 9102307,
		"script": "# script \"lisp\"\n# background %(wayback_background)s\n# bgmfile \"bgm255\" \"BgmSeaDate\" 0\n# body %(unit_a)s\n# pos %(unit_a)s 3\n# mask %(unit_a)s off\n# chara %(unit_a)s\n# fadein \"black\" 0.5\n# textflame 0 0\n# face %(unit_a)s \"usual\"\n@\n帰り道－\n\n# fadein \"white\" 0.5\n# se \"SE_0735\"\n# bgm \"stop\"\n# waitandnext 2\n@\n…………\n\n# fadein \"white\" 0.5\n# se \"SE_0735\"\n# waitandnext 2\n@\n…………\n\n@\nふと、\n傍らを歩く彼女が足を止めた…\n\n# bgmfile \"bgm255\" \"BgmSeaDate\" 0\n# voice 1023 \"ascalon_0002\"\n# textflame 1 1\n# face %(unit_a)s \"sad\"\n@アスカロン\nあ、マスター…\nあの…ちょっといいですか？\n\n@アスカロン\nえっと…もしかしたら\n試すみたいに\nなっちゃうんですけど…\n\n@アスカロン\n私のこと…\nどれだけ知っていてくださるのか\n聞いてみても…いいですか？\n\n# voice 1023 \"ascalon_0036\"\n# face %(unit_a)s \"smile\"\n@アスカロン\nはい、おねがいします！\n\n# face %(unit_a)s \"usual\"\n@アスカロン\n私のキラーズ『アスカロン』に\nついての伝説で、持ち主はなんて\nグループに入っているでしょう？\n\n# se \"SE_0734\"\n# select \"七勇士\" \"select_label_correct\" \"三勇士\" \"select_label_wrong1\" \"十勇士\" \"select_label_wrong2\"\n私のキラーズ『アスカロン』に\nついての伝説で、持ち主はなんて\nグループに入っているでしょう？\n\n# label \"select_label_correct\"\n# labeljump \"select_label_end\"\n# textwindow \"close\"\n# waitandnext 0.1\n\n# label \"select_label_wrong1\"\n# labeljump \"select_label_end\"\n# textwindow \"close\"\n# waitandnext 0.1\n\n# label \"select_label_wrong2\"\n# labeljump \"select_label_end\"\n# textwindow \"close\"\n# waitandnext 0.1\n\n# label \"select_label_end\"\n# waitandnext 0.1\n\n# sestop \"SE_0734\"\n# fadeout \"black\" 1.2\n# waitandnext 2"
	}
]