[
	{
		"ID": 9102326,
		"script": "# script \"lisp\"\n# background %(wayback_background)s\n# bgmfile \"bgm255\" \"BgmSeaDate\" 0\n# body %(unit_a)s\n# pos %(unit_a)s 3\n# mask %(unit_a)s off\n# chara %(unit_a)s\n# fadein \"black\" 0.5\n# textflame 0 0\n# face %(unit_a)s \"usual\"\n@\n帰り道－\n\n# fadein \"white\" 0.5\n# se \"SE_0735\"\n# bgm \"stop\"\n# waitandnext 2\n@\n…………\n\n# fadein \"white\" 0.5\n# se \"SE_0735\"\n# waitandnext 2\n@\n…………\n\n@\nふと、\n傍らを歩く彼女が足を止めた…\n\n# bgmfile \"bgm255\" \"BgmSeaDate\" 0\n# textflame 1 1\n# face %(unit_a)s \"sad\"\n# voice 1023 \"ascalon_0001\"\n@アスカロン\nあの、マスター？\n\n# face %(unit_a)s \"usual\"\n@アスカロン\n私のこと…\nちゃんと理解してくださってるか\n確認しても…いいですか？\n\n@アスカロン\nえっと、なんていうか…\nその…マスターとの連携とか…\n絆とかの確認っていうか…\n\n# face %(unit_a)s \"smile\"\n# voice 1023 \"ascalon_0004\"\n@アスカロン\n…あ、いいんですか？\nはい、お願いします！\n\n# face %(unit_a)s \"usual\"\n@アスカロン\n私の好きなものである薔薇…ですが！\n赤い薔薇の花言葉はなんでしょう？\n\n# se \"SE_0734\"\n# select \"金\" \"select_label_wrong1\" \"希望\" \"select_label_wrong2\" \"愛\" \"select_label_correct\"\n私の好きなものである薔薇…ですが！\n赤い薔薇の花言葉はなんでしょう？\n\n# label \"select_label_wrong1\"\n# labeljump \"select_label_end\"\n# textwindow \"close\"\n# waitandnext 0.1\n\n# label \"select_label_wrong2\"\n# labeljump \"select_label_end\"\n# textwindow \"close\"\n# waitandnext 0.1\n\n# label \"select_label_correct\"\n# labeljump \"select_label_end\"\n# textwindow \"close\"\n# waitandnext 0.1\n\n# label \"select_label_end\"\n# waitandnext 0.1\n\n# sestop \"SE_0734\"\n# fadeout \"black\" 1.2\n# waitandnext 2"
	}
]