[
	{
		"ID": 9102829,
		"script": "# script \"lisp\"\n# background %(wayback_background)s\n# bgmfile \"bgm255\" \"BgmSeaDate\" 0\n# body %(unit_a)s\n# pos %(unit_a)s 3\n# mask %(unit_a)s off\n# chara %(unit_a)s\n# fadein \"black\" 0.5\n# textflame 0 0\n@\n帰り道－\n\n# fadein \"white\" 0.5\n# se \"SE_0735\"\n# bgm \"stop\"\n# waitandnext 2\n@\n…………\n\n# fadein \"white\" 0.5\n# se \"SE_0735\"\n# waitandnext 2\n@\n…………\n\n@\nふと、\n傍らを歩く彼女が足を止めた…\n\n# bgmfile \"bgm255\" \"BgmSeaDate\" 0\n;;ギルティセイバー,3\n# textflame 1 1\n# voice 1028 \"dainsleif_0005\"\n# face %(unit_a)s \"usual\"\n@ダーインスレイヴ\n私は男前が好きだ\n\n# voice 1028 \"dainsleif_0031\"\n# face %(unit_a)s \"sad\"\n@ダーインスレイヴ\nあ、いや…\nいきなりすまん\n\n# face %(unit_a)s \"usual\"\n@ダーインスレイヴ\n男前とは、\n顔の話をしているのではないぞ\n心意気の話をしておるのだ\n\n# face %(unit_a)s \"usual\"\n@ダーインスレイヴ\nで、今から私が出す\nクイズに答えて…\nおぬしの男前度合いを示してくれ\n\n@ダーインスレイヴ\nでは、いくぞ！\n\n# voice 1028 \"dainsleif_0005\"\n# face %(unit_a)s \"normal\"\n@ダーインスレイヴ\n題して…\n男前クイズ！！\n;;---------------------------------\n\n@%(unitName:unit_a)s\nわたしが習得したスキルは\n覚えておるか？\n\n# se \"SE_0734\"\n# select  \"レガシーセイバー\" \"select_label_1\" \"ジャスティスセイバー\" \"select_label_2\" \"ギルティセイバー\" \"select_label_3\"\nわたしが習得したスキルは\n覚えておるか？\n\n# label \"select_label_1\"\n# labeljump \"select_label_end\"\n# textwindow \"close\"\n# waitandnext 0.1\n\n# label \"select_label_2\"\n# labeljump \"select_label_end\"\n# textwindow \"close\"\n# waitandnext 0.1\n\n# label \"select_label_3\"\n# labeljump \"select_label_end\"\n# textwindow \"close\"\n# waitandnext 0.1\n\n# label \"select_label_end\"\n# waitandnext 0.1\n\n# sestop \"SE_0734\"\n# fadeout \"black\" 1.2\n# waitandnext 2"
	}
]