[
	{
		"ID": 9102750,
		"script": ";;2:沢城みゆき\n# script \"lisp\"\n# background %(wayback_background)s\n# bgmfile \"bgm255\" \"BgmSeaDate\" 0\n# body %(unit_a)s\n# pos %(unit_a)s 3\n# mask %(unit_a)s off\n# chara %(unit_a)s\n# fadein \"black\" 0.5\n# textflame 0 0\n@\n帰り道－\n\n# fadein \"white\" 0.5\n# se \"SE_0735\"\n# bgm \"stop\"\n# waitandnext 2\n@\n…………\n\n# fadein \"white\" 0.5\n# se \"SE_0735\"\n# waitandnext 2\n@\n…………\n\n# serif 1\n# voice 9999 \"durin_0044\"\n@？？？？\n…あれ？\nアンタ達、なにしてんの？\n\n# voice 9999 \"durin_0040\"\n# serif 1\n@デュリン\n…はっはーん、わかった！\nデート中ね？\n別に隠さなくていいわよ\n\n# serif 1\n# voice 9999 \"durin_0043\"\n@デュリン\n…そうだ！\nちょっとアンタ、こっち来て…\n\n;;//デート相手立ち絵消去\n# body 0\n# pos 0 3\n# scale 0 0.8 0\n# alpha 0 0 0\n# mask 0 off\n# fadeout \"black\" 1\n# waitandnext 2\n\n# fadein \"black\" 0.5\n# serif 1\n# textwindow \"close\"\n# serif 0\n# textwindow \"normal\"\n# bgmfile \"bgm255\" \"BgmSeaDate\" 0\n# alpha %(unit_a)s 0 0\n# alpha 0 1 0\n# textflame 1 1\n# voice 9999 \"durin_0046\"\n@デュリン\n…せっかくだから\nアンタがその子のこと\nどのぐらい知ってるか試してあげる\n\n# textflame 1 1\n@デュリン\nデートするぐらいなんだもの\n%(unitName:unit_a)sのこと\nよく知ってるんでしょ？\n\n# textflame 1 1\n# voice 9999 \"durin_0033\"\n@デュリン\n見事正解できたらあの子に\nアンタのこと良く言っといてあげる\n…それじゃ、行くわよ！\n\n# se \"SE_0734\"\n# select \"真田アサミ\" \"select_label_1\" \"沢城みゆき\" \"select_label_2\" \"田村ゆかり\" \"select_label_3\"\nクラウ・ソラスの声優は誰？\n\n# label \"select_label_1\"\n# labeljump \"select_label_end\"\n# textwindow \"close\"\n# waitandnext 0.1\n\n# label \"select_label_2\"\n# labeljump \"select_label_end\"\n# textwindow \"close\"\n# waitandnext 0.1\n\n# label \"select_label_3\"\n# labeljump \"select_label_end\"\n# textwindow \"close\"\n# waitandnext 0.1\n\n# label \"select_label_end\"\n# waitandnext 0.1\n\n# sestop \"SE_0734\"\n# fadeout \"black\" 1.2\n# waitandnext 2\n"
	}
]