[
	{
		"ID": 9102604,
		"script": "# script \"lisp\"\n# background %(wayback_background)s\n# bgmfile \"bgm255\" \"BgmSeaDate\" 0\n# body %(unit_a)s\n# pos %(unit_a)s 3\n# mask %(unit_a)s off\n# chara %(unit_a)s\n# fadein \"black\" 0.5\n# textflame 0 0\n@\n帰り道－\n\n# fadein \"white\" 0.5\n# se \"SE_0735\"\n# bgm \"stop\"\n# waitandnext 2\n@\n…………\n\n# fadein \"white\" 0.5\n# se \"SE_0735\"\n# waitandnext 2\n@\n…………\n\n@\nふと、\n傍らを歩く彼女が足を止めた…\n\n# bgmfile \"bgm255\" \"BgmSeaDate\" 0\n;;硬い刃,1\n# textflame 1 1\n# voice 1026 \"caladbolg_0002\"\n# face %(unit_a)s \"smile\"\n@カラドボルグ\nねぇ、マスター\n\n# textflame 1 1\n@カラドボルグ\n私はマスターのこと、\n好きよ\n\n# textflame 1 1\n@カラドボルグ\nマスターは私のこと…\n好きかしら？\n\n# voice 1026 \"caladbolg_0004\"\n# textflame 1 1\n@カラドボルグ\nうふふ、\n言葉だけならなんとでも言えるわ\n\n# textflame 1 1\n@カラドボルグ\nマスターが私のこと、\nどれだけ好きか…\n試してみていい？\n;;---------------------------------\n\n@%(unitName:unit_a)s\n『カラドボルグ』って\nどんな意味を持つ言葉かわかる？\n\n# se \"SE_0734\"\n# select  \"硬い刃\" \"select_label_1\" \"硬いクッキー\" \"select_label_2\" \"硬い手刀\" \"select_label_3\"\n『カラドボルグ』って\nどんな意味を持つ言葉かわかる？\n\n# label \"select_label_1\"\n# labeljump \"select_label_end\"\n# textwindow \"close\"\n# waitandnext 0.1\n\n# label \"select_label_2\"\n# labeljump \"select_label_end\"\n# textwindow \"close\"\n# waitandnext 0.1\n\n# label \"select_label_3\"\n# labeljump \"select_label_end\"\n# textwindow \"close\"\n# waitandnext 0.1\n\n# label \"select_label_end\"\n# waitandnext 0.1\n\n# sestop \"SE_0734\"\n# fadeout \"black\" 1.2\n# waitandnext 2"
	}
]