[
	{
		"ID": 91036299,
		"script": "# script \"lisp\"\n# background %(wayback_background)s\n# bgmfile \"bgm255\" \"BgmSeaDate\" 0\n# body %(unit_a)s\n# pos %(unit_a)s 3\n# mask %(unit_a)s off\n# chara %(unit_a)s\n# fadein \"black\" 0.5\n# textflame 1 1\n# face %(unit_a)s \"smile\"\n# se \"SE_0732\"\n# voice 1036 \"ragnarok_0005\"\n@ラグナロク\n正解よ…ありがとう\n\n@ラグナロク\nたとえいつかは失われる絆だとしても\nあなたの記憶に私がいる…\nそれがとても嬉しい…\n\n# textflame 0 0\n@\n自分はラグナロクとの絆を\n失うつもりはないと、\n力強く頷いてみせる\n\n# voice 1036 \"ragnarok_0004\"\n# face %(unit_a)s \"usual\"\n# textflame 1 1\n@ラグナロク\nそうね\n私もこの絆は失いたくはない…\nだから、これからもよろしくね\n\n# textflame 0 0\n@\nラグナロクが手を差し出してくる\n触れると柔らかな温もりが\n握り返すと確かな気持ちが伝わった\n\n@\n彼女の信頼に応えるためにも\nもっとラグナロクとの絆を深めよう\nそう心に誓うのだった…\n\n# fadeout \"black\" 1.2\n# waitandnext 2"
	}
]