[
	{
		"ID": 9200311,
		"script": "# script \"lisp\"\n# background %(wayback_background)s\n# bgmfile \"bgm255\" \"BgmSeaDate\" 0\n# body %(unit_a)s\n# pos %(unit_a)s 3\n# mask %(unit_a)s off\n# chara %(unit_a)s\n# fadein \"black\" 0.5\n# textflame 0 0\n@\n帰り道－\n\n# fadein \"white\" 0.5\n# se \"SE_0735\"\n# bgm \"stop\"\n# waitandnext 2\n@\n…………\n\n# fadein \"white\" 0.5\n# se \"SE_0735\"\n# waitandnext 2\n@\n…………\n\n@\nふと、\n傍らを歩く彼女が足を止めた…\n\n# bgmfile \"bgm255\" \"BgmSeaDate\" 0\n;;氷,1\n# textflame 1 1\n# voice 2003 \"loveryus_0001\"\n# face %(unit_a)s \"smile\"\n@ラブリュス\nマスター？\nちょっといいかな？\n\n# textflame 1 1\n@ラブリュス\nマスターは、\nラブリュスちゃんの\nマネージャーでもあるわけじゃない？\n\n# face %(unit_a)s \"sad\"\n# textflame 1 1\n@ラブリュス\nだから、ラブリュスちゃんのこと\nちゃんと理解してるよね？\n\n# face %(unit_a)s \"smile\"\n# voice 2003 \"loveryus_0004\"\n# textflame 1 1\n@ラブリュス\nえへへ、当たり前だよねえ？\n\n# textflame 1 1\n@ラブリュス\nそんなマネージャーさんに、\nわたしからのクイズに\n答えて貰いまーす！\n\n# voice 2003 \"loveryus_0036\"\n# textflame 1 1\n@ラブリュス\n断るなんていけずなこと\n許さないんだからね？\nそれじゃ、いっくよー！\n;;---------------------------------\n\n@%(unitName:unit_a)s\nラブリュスちゃんの属性って\nなーんだ♪\n\n# se \"SE_0734\"\n# select  \"氷\" \"select_label_1\" \"光\" \"select_label_2\" \"雷\" \"select_label_3\"\nラブリュスちゃんの属性って\nなーんだ♪\n\n# label \"select_label_1\"\n# labeljump \"select_label_end\"\n# textwindow \"close\"\n# waitandnext 0.1\n\n# label \"select_label_2\"\n# labeljump \"select_label_end\"\n# textwindow \"close\"\n# waitandnext 0.1\n\n# label \"select_label_3\"\n# labeljump \"select_label_end\"\n# textwindow \"close\"\n# waitandnext 0.1\n\n# label \"select_label_end\"\n# waitandnext 0.1\n\n# sestop \"SE_0734\"\n# fadeout \"black\" 1.2\n# waitandnext 2"
	}
]