[
	{
		"ID": 9200809,
		"script": "# script \"lisp\"\n# background %(wayback_background)s\n# bgmfile \"bgm255\" \"BgmSeaDate\" 0\n# body %(unit_a)s\n# pos %(unit_a)s 3\n# mask %(unit_a)s off\n# chara %(unit_a)s\n# fadein \"black\" 0.5\n# textflame 0 0\n# face %(unit_a)s \"usual\"\n@\n帰り道－\n\n# fadein \"white\" 0.5\n# se \"SE_0735\"\n# bgm \"stop\"\n# waitandnext 2\n@\n…………\n\n# fadein \"white\" 0.5\n# se \"SE_0735\"\n# waitandnext 2\n@\n…………\n\n@\nふと、\n傍らを歩く彼女が足を止めた…\n\n# bgmfile \"bgm255\" \"BgmSeaDate\" 0\n# textflame 1 1\n# voice 2008 \"perun_0001\"\n@ペルーン\nあのさ…マスター\nちょっといい？\n\n@ペルーン\nあの…えっとね\n試すみたいに\nなっちゃうんだけど…\n\n# face %(unit_a)s \"sad\"\n# voice 2008 \"perun_0004\"\n@ペルーン\nペルーンのこと…\nどれだけ知ってるか\n聞いてみても…いい？\n\n@ペルーン\nきっとマスターなら\n楽勝だと思うけど\n\n# face %(unit_a)s \"usual\"\n@ペルーン\n『ペルーン』って神様のことだけど、\nライバル関係にあった\n神様の名前知ってる？\n\n# se \"SE_0734\"\n# select \"コットレル\" \"select_label_correct\" \"ヴォーロス\" \"select_label_wrong1\" \"ペルクーナス\" \"select_label_wrong2\"\n『ペルーン』って神様のことだけど、\nライバル関係にあった\n神様の名前知ってる？\n\n# label \"select_label_correct\"\n# labeljump \"select_label_end\"\n# textwindow \"close\"\n# waitandnext 0.1\n\n# label \"select_label_wrong1\"\n# labeljump \"select_label_end\"\n# textwindow \"close\"\n# waitandnext 0.1\n\n# label \"select_label_wrong2\"\n# labeljump \"select_label_end\"\n# textwindow \"close\"\n# waitandnext 0.1\n\n# label \"select_label_end\"\n# waitandnext 0.1\n\n# sestop \"SE_0734\"\n# fadeout \"black\" 1.2\n# waitandnext 2"
	}
]