[
	{
		"ID": 92006499,
		"script": "# script \"lisp\"\n# background %(wayback_background)s\n# bgmfile \"bgm255\" \"BgmSeaDate\" 0\n# body %(unit_a)s\n# pos %(unit_a)s 3\n# mask %(unit_a)s off\n# chara %(unit_a)s\n# fadein \"black\" 0.5\n# textflame 1 1\n# face %(unit_a)s \"smile\"\n# se \"SE_0732\"\n# voice 2006 \"daguda_0021\"\n@ダグダ\nすっご～い♪\n大正解だよ、マスター！\n\n# textflame 1 1\n@ダグダ\nやっぱりマスターは凄いな～♪\nダグダのことは、み～んな\nわかってくれてるんだね？\n\n# textflame 1 1\n@ダグダ\n…ほんと、嬉しいな～\n\n# voice 2006 \"daguda_0004\"\n# textflame 1 1\n@ダグダ\nはい、じゃあ約束通り\n二人で馬車で帰ろ♪\n\n# textflame 1 1\n@ダグダ\n帰るんじゃなくて、\nどこかへそのまま\nドライブするのもいいかもね～？\n\n# textflame 1 1\n@ダグダ\n…どっちにしても、\n馬車見つけないとね\n近くにいればいいけど…\n\n# textflame 1 1\n@ダグダ\nあ、いたいた！\nほらマスター、\n早くつかまえてきて～♪\n\n# textflame 0 0\n@\n満面の笑顔で\nマスターの背を叩くダグダ\n\n# textflame 0 0\n@\nダグダの嬉しそうな様子を見て、\nマスターは彼女との絆が\nより深まったのを実感した…\n\n# fadeout \"black\" 1.2\n# waitandnext 2\n"
	}
]