[
	{
		"ID": 92004298,
		"script": "# script \"lisp\"\n# background %(wayback_background)s\n# bgmfile \"bgm255\" \"BgmSeaDate\" 0\n# body %(unit_a)s\n# pos %(unit_a)s 3\n# mask %(unit_a)s off\n# chara %(unit_a)s\n# fadein \"black\" 0.5\n# textflame 1 1\n# face %(unit_a)s \"sad\"\n# se \"SE_0733\"\n# voice 2004 \"parashu_0011\"\n@パラシュ\n…はあ、がっかりだな\n不正解…だよ\n\n@パラシュ\n…………\n\n@パラシュ\nあ、でも、そうか…\n急にクイズなんか出されても\n慌てちゃって答えられないよね？\n\n# textflame 0 0\n@\nそう呟く彼女の表情は\nひどく落ち込んで見える\n\n# textflame 1 1\n# face %(unit_a)s \"normal\"\n# voice 2004 \"parashu_0027\"\n@パラシュ\n…あ、ごめん\nクイズなんて\n変なことしちゃったね\n\n@パラシュ\n…さあ、行こう\n\n# textflame 0 0\n@\n落ち込んだ\n彼女の姿なんか、\nもう見たくはないな\n\n@\n次に出題されたら、\n必ず答えられるように\n頑張ろう…\n\n# fadeout \"black\" 1.2\n# waitandnext 2"
	}
]