[
	{
		"ID": 92008298,
		"script": "# script \"lisp\"\n# background %(wayback_background)s\n# bgmfile \"bgm255\" \"BgmSeaDate\" 0\n# body %(unit_a)s\n# pos %(unit_a)s 3\n# mask %(unit_a)s off\n# chara %(unit_a)s\n# fadein \"black\" 0.5\n# textflame 1 1\n# se \"SE_0733\"\n# voice 2008 \"perun_0008\"\n# face %(unit_a)s \"usual\"\n@ペルーン\n…あ\n\n@ペルーン\nえっと…\n\n# face %(unit_a)s \"sad\"\n@ペルーン\nハズレ…\n\n# voice 2008 \"perun_0031\"\n@ペルーン\n急にクイズなんか出しちゃって…\n…ごめんなさい\n\n@ペルーン\n…………\n\n# textflame 0 0\n@\n彼女は急に\nしょんぼりとしてしまった\n\n# textflame 1 1\n@ペルーン\nえっと…\n行こっか、マスター\n\n# textflame 0 0\n@\nあんな顔させちゃった\nデート中のはずなのに…\n\n@\nちゃんと\nどんな質問も答えられるように\n復習しておかないとだな…\n\n# fadeout \"black\" 1.2\n# waitandnext 2"
	}
]