[
	{
		"ID": 9200304,
		"script": "# script \"lisp\"\n# background %(wayback_background)s\n# bgmfile \"bgm255\" \"BgmSeaDate\" 0\n# body %(unit_a)s\n# pos %(unit_a)s 3\n# mask %(unit_a)s off\n# chara %(unit_a)s\n# fadein \"black\" 0.5\n# textflame 0 0\n@\n帰り道－\n\n# fadein \"white\" 0.5\n# se \"SE_0735\"\n# bgm \"stop\"\n# waitandnext 2\n@\n…………\n\n# fadein \"white\" 0.5\n# se \"SE_0735\"\n# waitandnext 2\n@\n…………\n\n@\nふと、\n傍らを歩く彼女が足を止めた…\n\n# bgmfile \"bgm255\" \"BgmSeaDate\" 0\n;;人間よりも背が高い,1\n# textflame 1 1\n# face %(unit_a)s \"smile\"\n# voice 2003 \"loveryus_0001\"\n@ラブリュス\nねぇ、マスター\nちょっとだけ時間借りてもいい？\n\n# face %(unit_a)s \"sad\"\n# textflame 1 1\n@ラブリュス\n別に変なことじゃないから、\nそれだけは安心して！\n\n# face %(unit_a)s \"usual\"\n# textflame 1 1\n@ラブリュス\nただ…わたしのこと、\nどれだけ知ってくれているか…\nクイズを出すだけだから\n\n# textflame 1 1\n@ラブリュス\nそんな気構えず、\n適当に答えて大丈夫だよ♪\n;;---------------------------------\n\n@%(unitName:unit_a)s\nわたしのキラーズ『ラブリュス』は\n生贄の儀式に使われていたが\nその形状はどう違っていた？\n\n# se \"SE_0734\"\n# select  \"人間よりも背が高い\" \"select_label_1\" \"豪華な装飾\" \"select_label_2\" \"片刃しかない\" \"select_label_3\"\nわたしのキラーズ『ラブリュス』は\n生贄の儀式に使われていたが\nその形状はどう違っていた？\n\n# label \"select_label_1\"\n# labeljump \"select_label_end\"\n# textwindow \"close\"\n# waitandnext 0.1\n\n# label \"select_label_2\"\n# labeljump \"select_label_end\"\n# textwindow \"close\"\n# waitandnext 0.1\n\n# label \"select_label_3\"\n# labeljump \"select_label_end\"\n# textwindow \"close\"\n# waitandnext 0.1\n\n# label \"select_label_end\"\n# waitandnext 0.1\n\n# sestop \"SE_0734\"\n# fadeout \"black\" 1.2\n# waitandnext 2"
	}
]