[
	{
		"ID": 92017299,
		"script": "# script \"lisp\"\n# background %(wayback_background)s\n# bgmfile \"bgm255\" \"BgmSeaDate\" 0\n# body %(unit_a)s\n# pos %(unit_a)s 3\n# mask %(unit_a)s off\n# chara %(unit_a)s\n# fadein \"black\" 0.5\n# textflame 1 1\n# face %(unit_a)s \"smile\"\n# se \"SE_0732\"\n# voice 2017 \"yagurushi_kyara_0017\"\n@ヤグルシ\nん～！\n大正解！！\n\n# textflame 1 1\n@ヤグルシ\nヤグのマスターだもん、\nこれくらい楽勝だよね！\n\n# textflame 1 1\n@ヤグルシ\n君はヤグのことを\nちゃ～んと見ていて\nくれてたんだね～！\n\n# voice 2017 \"yagurushi_0030\"\n# textflame 1 1\n@ヤグルシ\nヤグ、すっっっっごく\n嬉しいよ♪\n\n# textflame 1 1\n@ヤグルシ\nこれからも\nちゃんとヤグを見ていてね？\n\n# voice 2017 \"yagurushi_0012\"\n# textflame 1 1\n@ヤグルシ\nよそ見なんてしちゃダメだよ！\n\n# textflame 0 0\n@\nヤグルシはとても\n喜んでくれた\n正解した甲斐があったようだ\n\n# textflame 0 0\n@\n彼女は嬉しそうに笑っている\nちゃんと正解できて良かった…\n\n# textflame 0 0\n@\nその笑みを見て、彼女との絆が\nまた深まったのを実感した\nマスターであった\n\n# fadeout \"black\" 1.2\n# waitandnext 2\n"
	}
]