[
	{
		"ID": 92011398,
		"script": "# script \"lisp\"\n# background %(wayback_background)s\n# bgmfile \"bgm255\" \"BgmSeaDate\" 0\n# body %(unit_a)s\n# pos %(unit_a)s 3\n# mask %(unit_a)s off\n# chara %(unit_a)s\n# fadein \"black\" 0.5\n# textflame 1 1\n# se \"SE_0733\"\n# face %(unit_a)s \"sad\"\n# voice 2011 \"Wazra_0001\"\n@ワズラ\nマスター…\n\n@ワズラ\n契約違反…不正解です…\n\n# voice 2011 \"Wazra_0003\"\n@ワズラ\nということは\n分かっていますよね？\n\n# face %(unit_a)s \"angry\"\n@ワズラ\n罰ゲーム執行です…\n\n# face %(unit_a)s \"smile\"\n# voice 2011 \"Wazra_0036\"\n@ワズラ\nなんて、冗談ですよ\n今度はちゃんと答えてくださいね？\n\n# textflame 0 0\n@\nそう言って、\n先に歩いて行ってしまう\n彼女の後ろ姿はすごく寂しそうだった\n\n@\n次は絶対に間違えないように\nしないと…\n\n# fadeout \"black\" 1.2\n# waitandnext 2"
	}
]