[
	{
		"ID": 92019299,
		"script": "# script \"lisp\"\n# background %(wayback_background)s\n# bgmfile \"bgm255\" \"BgmSeaDate\" 0\n# body %(unit_a)s\n# pos %(unit_a)s 3\n# mask %(unit_a)s off\n# chara %(unit_a)s\n# fadein \"black\" 0.5\n# textflame 1 1\n# face %(unit_a)s \"smile\"\n# se \"SE_0732\"\n# voice 2019 \"chihyu_0020\"\n@シユウ\nわ～い！\nますた～せいかいだ！\n\n@シユウ\nシユウのこと…\nちゃんとしってるんだな！\n\n# face %(unit_a)s \"usual\"\n@シユウ\nほんとうはすこし\nふあんだったけど…\n\n# face %(unit_a)s \"smile\"\n# voice 2019 \"chihyu_0030\"\n@シユウ\nしつもんしてよかった…\nありがとーーーっ！\n\n@シユウ\nますた～\nこれからもよろしくな♪\n\n# textflame 0 0\n@\nいつにも増して笑顔の彼女に\n本当に正解できて良かったと\n心の中で喜び…\n\n@\nマスターは彼女との絆が\nまた深まったのを実感した…\n\n# fadeout \"black\" 1.2\n# waitandnext 2"
	}
]