[
	{
		"ID": 9201602,
		"script": "# script \"lisp\"\n# background %(wayback_background)s\n# bgmfile \"bgm255\" \"BgmSeaDate\" 0\n# body %(unit_a)s\n# pos %(unit_a)s 3\n# mask %(unit_a)s off\n# chara %(unit_a)s\n# fadein \"black\" 0.5\n# textflame 0 0\n@\n帰り道－\n\n# fadein \"white\" 0.5\n# se \"SE_0735\"\n# bgm \"stop\"\n# waitandnext 2\n@\n…………\n\n# fadein \"white\" 0.5\n# se \"SE_0735\"\n# waitandnext 2\n@\n…………\n\n@\nふと、\n傍らを歩く彼女が足を止めた…\n\n# bgmfile \"bgm255\" \"BgmSeaDate\" 0\n# textflame 1 1\n# face %(unit_a)s \"usual\"\n# voice 2016 \"shita_0001\"\n@シタ\nあ、マスター…\nあの…ちょっといいですか？\n\n@シタ\nえっと…もしかしたら\n試すみたいに\nなっちゃうんですけど…\n\n@シタ\nわたしのこと…\nどれだけ知っていてくださるのか\n聞いてみても…いいですか？\n\n# voice 2016 \"shita_0004\"\n@シタ\nふふふ♪\n\n# face %(unit_a)s \"normal\"\n@シタ\nわたしのキラーズ『シタ』は\nどんな武器でしょう？\n\n# se \"SE_0734\"\n# select \"槍\" \"select_label_wrong1\" \"斧\" \"select_label_correct\" \"剣\" \"select_label_wrong2\"\nわたしのキラーズ『シタ』は\nどんな武器でしょう？\n\n# label \"select_label_wrong1\"\n# labeljump \"select_label_end\"\n# textwindow \"close\"\n# waitandnext 0.1\n\n# label \"select_label_correct\"\n# labeljump \"select_label_end\"\n# textwindow \"close\"\n# waitandnext 0.1\n\n# label \"select_label_wrong2\"\n# labeljump \"select_label_end\"\n# textwindow \"close\"\n# waitandnext 0.1\n\n# label \"select_label_end\"\n# waitandnext 0.1\n\n# sestop \"SE_0734\"\n# fadeout \"black\" 1.2\n# waitandnext 2"
	}
]