[
	{
		"ID": 92025199,
		"script": "# script \"lisp\"\n# background %(wayback_background)s\n# bgmfile \"bgm255\" \"BgmSeaDate\" 0\n# body %(unit_a)s\n# pos %(unit_a)s 3\n# mask %(unit_a)s off\n# chara %(unit_a)s\n# fadein \"black\" 0.5\n# se \"SE_0732\"\n;;-----------------------------------------\n# face %(unit_a)s \"smile\"\n# textflame 1 1\n# voice 2025 \"hercule_0005\"\n@エルキュール\nさすがです、マスター！\n正解ですよ！\n\n@エルキュール\nどうやらマスターはしっかりと\n私のことを知っててくれた\nみたいですね…\n\n@エルキュール\nはぁ～、よかった…\nありがとうございます！\n\n# textflame 0 0\n@\n安心したように\n息を吐く彼女の表情は\n明るく輝いてみえる\n\n# face %(unit_a)s \"normal\"\n# voice 2025 \"hercule_0003\"\n# textflame 1 1\n@エルキュール\nさあ！\n帰りましょう、マスター！\n\n@エルキュール\nあんまり遅くなっては\nよくありませんからね！\n\n# textflame 0 0\n@\n彼女はとてもうれしそうに\n弾んだ足取りで歩いていく\n\n@\nその背中を\n追いかけるようにしながら\nマスターも帰路を歩き出すのだった\n\n;;-----------------------------------------\n# fadeout \"black\" 1.2\n# waitandnext 2"
	}
]