[
	{
		"ID": 93002399,
		"script": "# script \"lisp\"\n# background %(wayback_background)s\n# bgmfile \"bgm255\" \"BgmSeaDate\" 0\n# body %(unit_a)s\n# pos %(unit_a)s 3\n# mask %(unit_a)s off\n# chara %(unit_a)s\n# fadein \"black\" 0.5\n# textflame 1 1\n# voice 3002 \"toraidento_0021\"\n# face %(unit_a)s \"smile\"\n# se \"SE_0732\"\n@トライデント\nおぉ！\nさすが…マスターはちゃんと、\n私のことわかっててくれたね\n\n# voice 3002 \"toraidento_kyara_1011\"\n# face %(unit_a)s \"normal\"\n@トライデント\nえ？わかってるからこそ\n今後もトラブルは勘弁してくれって？\n\n# face %(unit_a)s \"sad\"\n@トライデント\nうぅ…\n人をトラブルメーカーみたいに…\nまぁ、そうかもしれないけどぉ…\n\n@トライデント\nそのことについては\nもうしわけぇ～…\n\n# voice 3002 \"toraidento_0004\"\n# face %(unit_a)s \"smile\"\n@トライデント\nでも、正解してくれたことは、\nとーっても嬉しいよぉ！\n\n@トライデント\nこれからも頼れるマスターとして、\n期待しながらついていくよ！\n\n# textflame 0 0\n@\n心の底から嬉しそうに、\nそう言ってみせるトライデント\n\n@\nその彼女の笑顔が、\nマスターにとって絆が深まった、\nなによりの証拠となっていた…\n\n# fadeout \"black\" 1.2\n# waitandnext 2\n"
	}
]