[
	{
		"ID": 93009399,
		"script": "# script \"lisp\"\n# background %(wayback_background)s\n# bgmfile \"bgm255\" \"BgmSeaDate\" 0\n# body %(unit_a)s\n# pos %(unit_a)s 3\n# mask %(unit_a)s off\n# chara %(unit_a)s\n# fadein \"black\" 0.5\n# textflame 1 1\n# face %(unit_a)s \"smile\"\n# se \"SE_0732\"\n# voice 3009 \"seiryu_0021\"\n@青龍偃月刀\nあ、ありがたき幸せ…！\n\n# voice 3009 \"seiryu_0005\"\n@青龍偃月刀\nやはりちゃんと\n覚えて下さってたのですね！！\n\n# voice 3009 \"seiryu_0003\"\n@青龍偃月刀\n主君の心に私がいる…\nそれが…\nなによりの褒美です！\n\n# eye %(unit_a)s \"close\"\n@青龍偃月刀\n主君…これからも…\nずと貴方の心のいられるよう…\n\n# eye %(unit_a)s \"normal\"\n@青龍偃月刀\n私も精進いたします…！\n\n# textflame 0 0\n@\n彼女の嬉しそうな\n笑顔が印象的だった\n\n@\nその顔が見られたことで\nマスターは二人の絆が\nまた深まったのを実感した…\n\n# fadeout \"black\" 1.2\n# waitandnext 2"
	}
]