[
	{
		"ID": 9300334,
		"script": "# script \"lisp\"\n# background %(wayback_background)s\n# bgmfile \"bgm255\" \"BgmSeaDate\" 0\n# body %(unit_a)s\n# pos %(unit_a)s 3\n# mask %(unit_a)s off\n# chara %(unit_a)s\n# fadein \"black\" 0.5\n# textflame 0 0\n@\n帰り道－\n\n# fadein \"white\" 0.5\n# se \"SE_0735\"\n# bgm \"stop\"\n# waitandnext 2\n@\n…………\n\n# fadein \"white\" 0.5\n# se \"SE_0735\"\n# waitandnext 2\n@\n…………\n\n@\nふと、\n傍らを歩く彼女が足を止めた…\n\n# eye %(unit_a)s \"close\"\n# bgmfile \"bgm255\" \"BgmSeaDate\" 0\n# textflame 1 1\n# voice 3003 \"hotengageki_0001\"\n@方天画戟\nオレたちはもう\n切っても切れない\n相方だと思うんだが…\n\n# eye %(unit_a)s \"normal\"\n# face %(unit_a)s \"normal\"\n@方天画戟\nそのあたり…\n主君はどう思ってる？\n\n# face %(unit_a)s \"smile\"\n@方天画戟\nオレは話せることは\n洗いざらい全部\n話してきたつもりだ…\n\n# face %(unit_a)s \"normal\"\n# voice 3003 \"hotengageki_0004\"\n@方天画戟\nたとえば…\nあれ、覚えてるか？\n\n@方天画戟\n学園姿のオレのスキル、\nちゃんと覚えているか？\n\n# se \"SE_0734\"\n# select \"忠魂猛進\" \"select_label_1\" \"誅戮ノ穿\" \"select_label_2\" \"縦殴無尽打\" \"select_label_3\"\n学園姿のオレのスキル、\nちゃんと覚えているか？\n\n# label \"select_label_1\"\n# labeljump \"select_label_end\"\n# textwindow \"close\"\n# waitandnext 0.1\n\n# label \"select_label_2\"\n# labeljump \"select_label_end\"\n# textwindow \"close\"\n# waitandnext 0.1\n\n# label \"select_label_3\"\n# labeljump \"select_label_end\"\n# textwindow \"close\"\n# waitandnext 0.1\n\n# label \"select_label_end\"\n# waitandnext 0.1\n\n# sestop \"SE_0734\"\n# fadeout \"black\" 1.2\n# waitandnext 2"
	}
]