[
	{
		"ID": 93004198,
		"script": "# script \"lisp\"\n# background %(wayback_background)s\n# bgmfile \"bgm255\" \"BgmSeaDate\" 0\n# body %(unit_a)s\n# pos %(unit_a)s 3\n# mask %(unit_a)s off\n# chara %(unit_a)s\n# fadein \"black\" 0.5\n# textflame 1 1\n# se \"SE_0733\"\n# voice 3004 \"amenonuboko_0008\"\n# face %(unit_a)s \"sad\"\n@天沼矛\n…がっかりですぅ\n\n# face %(unit_a)s \"normal\"\n@天沼矛\n…あ、いえ\n違うんです～\n\n# face %(unit_a)s \"sad\"\n@天沼矛\n急に質問が\n頭の中ぐるぐるしちゃった\nわたしがいけなかったんです\n\n# voice 3004 \"amenonuboko_0031\"\n# face %(unit_a)s \"normal\"\n@天沼矛\nえっと…\n急に立ち止まってごめんなさい\n行きましょうか～\n\n# textflame 0 0\n@\nそう言って笑う彼女の笑顔は\nなんだか無理しているように見えた\n\n# textflame 1 1\n@天沼矛\n…………\n\n# textflame 0 0\n@\nデート中のはずなのに…\n無理した笑顔をさせちゃうなんて…\n\n@\n…………\n\n@\n自然な笑顔で居て欲しいから…\n彼女のことちゃんと\n知っておかないとな…\n\n# fadeout \"black\" 1.2\n# waitandnext 2"
	}
]