[
	{
		"ID": 93008498,
		"script": "# script \"lisp\"\n# background %(wayback_background)s\n# bgmfile \"bgm255\" \"BgmSeaDate\" 0\n# body %(unit_a)s\n# pos %(unit_a)s 3\n# mask %(unit_a)s off\n# chara %(unit_a)s\n# face %(unit_a)s \"sad\"\n# fadein \"black\" 0.5\n# textflame 1 1\n# se \"SE_0733\"\n# voice 3008 \"gunguniru_0027\"\n@グングニル\n…不正解だ\n\n@グングニル\n…………\n\n@グングニル\nあ、いや…\n楽しい時間に水を差したのは\n我のほうだな…\n\n@グングニル\n…本当にすまない\n\n# textflame 0 0\n@\n彼女が自分のせいだと\n落ち込むのを見て…\nマスターの心はギュッと痛んだ\n\n@\nデート中のはずなのに…\nなにやってるんだろう\n\n@\n急に聞かれても間違えないように\nしっかりと心に刻んでおかないとな…\n\n# fadeout \"black\" 1.2\n# waitandnext 2"
	}
]