[
	{
		"ID": 9300630,
		"script": "# script \"lisp\"\n# background %(wayback_background)s\n# bgmfile \"bgm255\" \"BgmSeaDate\" 0\n# body %(unit_a)s\n# pos %(unit_a)s 3\n# mask %(unit_a)s off\n# chara %(unit_a)s\n# fadein \"black\" 0.5\n# textflame 0 0\n@\n帰り道－\n\n# fadein \"white\" 0.5\n# se \"SE_0735\"\n# bgm \"stop\"\n# waitandnext 2\n@\n…………\n\n# fadein \"white\" 0.5\n# se \"SE_0735\"\n# waitandnext 2\n@\n…………\n\n@\nふと、\n傍らを歩く彼女が足を止めた…\n\n# bgmfile \"bgm255\" \"BgmSeaDate\" 0\n;;5連撃,1\n# textflame 1 1\n# face %(unit_a)s \"smile\"\n# voice 3006 \"torisyula_0001\"\n@トリシューラ\nよぉマスター\nあんたはクイズって好きかい？\n\n# textflame 1 1\n@トリシューラ\nまぁその、\nちょっと試したくなったのさ\n\n# textflame 1 1\n@トリシューラ\nマスターのあんたが、\nどれだけあたいのことを\n知ってるのかね\n\n# textflame 1 1\n@トリシューラ\nま、\nそんな難しいことは聞かないよ\n\n# textflame 1 1\n@トリシューラ\nそれじゃさっそく、\n始めるからね？\n;;---------------------------------\n\n@%(unitName:unit_a)s\nあたいのデュエルスキル\n自在天ダッシュは何回の連撃を\n敵に与える技だったか？\n\n# se \"SE_0734\"\n# select  \"5連撃\" \"select_label_1\" \"20連撃\" \"select_label_2\" \"3連撃\" \"select_label_3\"\nあたいのデュエルスキル\n自在天ダッシュは何回の連撃を\n敵に与える技だったか？\n\n# label \"select_label_1\"\n# labeljump \"select_label_end\"\n# textwindow \"close\"\n# waitandnext 0.1\n\n# label \"select_label_2\"\n# labeljump \"select_label_end\"\n# textwindow \"close\"\n# waitandnext 0.1\n\n# label \"select_label_3\"\n# labeljump \"select_label_end\"\n# textwindow \"close\"\n# waitandnext 0.1\n\n# label \"select_label_end\"\n# waitandnext 0.1\n\n# sestop \"SE_0734\"\n# fadeout \"black\" 1.2\n# waitandnext 2"
	}
]