[
	{
		"ID": 9300611,
		"script": "# script \"lisp\"\n# background %(wayback_background)s\n# bgmfile \"bgm255\" \"BgmSeaDate\" 0\n# body %(unit_a)s\n# pos %(unit_a)s 3\n# mask %(unit_a)s off\n# chara %(unit_a)s\n# fadein \"black\" 0.5\n# textflame 0 0\n@\n帰り道－\n\n# fadein \"white\" 0.5\n# se \"SE_0735\"\n# bgm \"stop\"\n# waitandnext 2\n@\n…………\n\n# fadein \"white\" 0.5\n# se \"SE_0735\"\n# waitandnext 2\n@\n…………\n\n@\nふと、\n傍らを歩く彼女が足を止めた…\n\n# bgmfile \"bgm255\" \"BgmSeaDate\" 0\n;;喧嘩,1\n# textflame 1 1\n# face %(unit_a)s \"usual\"\n# voice 3006 \"torisyula_0001\"\n@トリシューラ\nよう、マスター\nちょいと思いついたことが\nあるんだけどさ\n\n# textflame 1 1\n@トリシューラ\n少しだけ、\nあたいに付き合って\nくれないかい？\n\n# voice 3006 \"torisyula_0004\"\n# textflame 1 1\n@トリシューラ\nまぁこれは、\nテストみたいなもんさ\n\n# textflame 1 1\n@トリシューラ\nあんたがあたいのことを、\nどれだけ知ってるのか…\n\n# face %(unit_a)s \"smile\"\n# textflame 1 1\n@トリシューラ\nそれをね、\n試してみたくなった…\nってわけさ\n;;---------------------------------\n\n@%(unitName:unit_a)s\nあたいの趣味はなにか、\n知ってるかい？\n\n# se \"SE_0734\"\n# select  \"喧嘩\" \"select_label_1\" \"料理\" \"select_label_2\" \"ジョギング\" \"select_label_3\"\nあたいの趣味はなにか、\n知ってるかい？\n\n# label \"select_label_1\"\n# labeljump \"select_label_end\"\n# textwindow \"close\"\n# waitandnext 0.1\n\n# label \"select_label_2\"\n# labeljump \"select_label_end\"\n# textwindow \"close\"\n# waitandnext 0.1\n\n# label \"select_label_3\"\n# labeljump \"select_label_end\"\n# textwindow \"close\"\n# waitandnext 0.1\n\n# label \"select_label_end\"\n# waitandnext 0.1\n\n# sestop \"SE_0734\"\n# fadeout \"black\" 1.2\n# waitandnext 2"
	}
]