[
	{
		"ID": 9301818,
		"script": "# script \"lisp\"\n# background %(wayback_background)s\n# bgmfile \"bgm255\" \"BgmSeaDate\" 0\n# body %(unit_a)s\n# pos %(unit_a)s 3\n# mask %(unit_a)s off\n# chara %(unit_a)s\n# fadein \"black\" 0.5\n# textflame 0 0\n@\n帰り道－\n\n# fadein \"white\" 0.5\n# se \"SE_0735\"\n# bgm \"stop\"\n# waitandnext 2\n@\n…………\n\n# fadein \"white\" 0.5\n# se \"SE_0735\"\n# waitandnext 2\n@\n…………\n\n@\nふと、\n傍らを歩く彼女が足を止めた…\n\n# bgmfile \"bgm255\" \"BgmSeaDate\" 0\n;;アスカロン,2\n# textflame 1 1\n# face %(unit_a)s \"usual\"\n# voice 3018 \"forcas_0002\"\n@フォルカス\n…あの、マスター\n\n# face %(unit_a)s \"smile\"\n# textflame 1 1\n@フォルカス\nよければ、クイズ…\nしてみませんか？\n\n# voice 3018 \"forcas_0022\"\n# eye %(unit_a)s \"close\"\n# textflame 1 1\n@フォルカス\n急に、変なことを言って、\nすみません…\n\n# eye %(unit_a)s \"normal\"\n# face %(unit_a)s \"sad\"\n# textflame 1 1\n@フォルカス\nこれは、その…\n私のちょっとした\n思いつきで…\n\n# textflame 1 1\n@フォルカス\nえっと、これはいわゆる\n遊びだと考えていただければ\n助かるのですが…\n\n# textflame 0 0\n@\nそういうことなら、\nやろうかな\n\n# voice 3018 \"forcas_0030\"\n# textflame 1 1\n@フォルカス\nあ…ほ、本当ですか？\nじゃあ、始めますね？\n;;---------------------------------\n\n@%(unitName:unit_a)s\n私ととても仲のいいキル姫は、\n誰か知っていますか…？\n\n# se \"SE_0734\"\n# select  \"ロンギヌス\" \"select_label_1\" \"アスカロン\" \"select_label_2\" \"ガ・ボー\" \"select_label_3\"\n私ととても仲のいいキル姫は、\n誰か知っていますか…？\n\n# label \"select_label_1\"\n# labeljump \"select_label_end\"\n# textwindow \"close\"\n# waitandnext 0.1\n\n# label \"select_label_2\"\n# labeljump \"select_label_end\"\n# textwindow \"close\"\n# waitandnext 0.1\n\n# label \"select_label_3\"\n# labeljump \"select_label_end\"\n# textwindow \"close\"\n# waitandnext 0.1\n\n# label \"select_label_end\"\n# waitandnext 0.1\n\n# sestop \"SE_0734\"\n# fadeout \"black\" 1.2\n# waitandnext 2"
	}
]