[
	{
		"ID": 93025199,
		"script": "# script \"lisp\"\n# background %(wayback_background)s\n# bgmfile \"bgm255\" \"BgmSeaDate\" 0\n# body %(unit_a)s\n# pos %(unit_a)s 3\n# mask %(unit_a)s off\n# chara %(unit_a)s\n# fadein \"black\" 0.5\n# textflame 1 1\n# face %(unit_a)s \"smile\"\n# se \"SE_0732\"\n# voice 3025 \"minerva_0005\"\n@ミネルヴァ\n正解です\nマスターには簡単すぎましたか？\n\n# textflame 0 0\n@\nミネルヴァについてなんだから\nこれくらい当然だよ\n…とマスターは微笑んでみせる\n\n# textflame 1 1\n@ミネルヴァ\nそこまで、私のことを…\n\n# face %(unit_a)s \"sad\"\n# voice 3025 \"minerva_0009\"\n@ミネルヴァ\nえ？\n顔が赤い、ですか？\n\n# face %(unit_a)s \"smile\"\n@ミネルヴァ\nあれ、\n私どうしちゃったんでしょうか…\n\n# face %(unit_a)s \"angry\"\n@ミネルヴァ\nマ、マスター…\nあまり人の顔を\nジロジロと見ないでください\n\n@ミネルヴァ\n…は、はずかしい\n\n# face %(unit_a)s \"normal\"\n@ミネルヴァ\nほ、ほら時間も遅いですし\nもう帰りましょう\n皆さん、きっと待ってますから\n\n# textflame 0 0\n@\n歩き出す彼女を追いかける\nふと見えた彼女の横顔は\nとても嬉しそうなものだった\n\n# fadeout \"black\" 1.2\n# waitandnext 2"
	}
]