[
	{
		"ID": 93020399,
		"script": "# script \"lisp\"\n# background %(wayback_background)s\n# bgmfile \"bgm255\" \"BgmSeaDate\" 0\n# body %(unit_a)s\n# pos %(unit_a)s 3\n# mask %(unit_a)s off\n# chara %(unit_a)s\n# fadein \"black\" 0.5\n# textflame 1 1\n# face %(unit_a)s \"smile\"\n# se \"SE_0732\"\n# voice 3020 \"pisear_0006\"\n@ピサール\nすごいねえ…信じてたけど、\nほんとに正解してもらえると、\nすごく嬉しいなあ～\n\n@ピサール\nいきなりのクイズでも、\nしっかり答えられるなんて～\n\n@ピサール\nさすがはマスター…\nちゃんとよく見てくれてるんだ～\n\n# voice 3020 \"pisear_0003\"\n@ピサール\nやっぱりきみのこと、\nこれからも信じられそうだね～\n\n# textflame 0 0\n@\n彼女は微笑みながら、\nそんなことを言った\n\n# textflame 0 0\n@\nマスターはその微笑みに、\n互いの絆の深まりを、\n感じるのだった…\n\n# fadeout \"black\" 1.2\n# waitandnext 2\n"
	}
]