[
	{
		"ID": 93026399,
		"script": "# script \"lisp\"\n# background %(wayback_background)s\n# bgmfile \"bgm255\" \"BgmSeaDate\" 0\n# body %(unit_a)s\n# pos %(unit_a)s 3\n# mask %(unit_a)s off\n# chara %(unit_a)s\n# fadein \"black\" 0.5\n# textflame 1 1\n# face %(unit_a)s \"smile\"\n# se \"SE_0732\"\n# voice 3026 \"grayside_0005\"\n;;-----------------------------------------\n@グラーシーザ\nこ、こうもあっさりと\nせいかいされるとは…\n\n@グラーシーザ\nマスターのことを\nしょうしょう\nみくびっていた、みたいだな\n\n@グラーシーザ\n…ためすようなことをして\nわるかった\n\n# face %(unit_a)s \"normal\"\n@グラーシーザ\nでも、ありがとうマスター\n\n@グラーシーザ\nそんな、おまえだからこそ\nいっしょにいたいと\nおもえるのかもしれないな！\n\n@グラーシーザ\nこんどは、\nあたしが、おまえのことを\nもっとしりたい\n\n@グラーシーザ\nおしえてくれるか？\n\n# textflame 0 0\n@\nにっこりと笑みを浮かべながら\n言ってくるグラーシーザ\n\n@\nその笑顔を見たマスターは\n彼女との距離が縮まったのを\n感じていた…\n\n;;-----------------------------------------\n# fadeout \"black\" 1.2\n# waitandnext 2"
	}
]