[
	{
		"ID": 9400710,
		"script": "# script \"lisp\"\n# background %(wayback_background)s\n# bgmfile \"bgm255\" \"BgmSeaDate\" 0\n# body %(unit_a)s\n# pos %(unit_a)s 3\n# mask %(unit_a)s off\n# chara %(unit_a)s\n# fadein \"black\" 0.5\n# textflame 0 0\n@\n帰り道－\n\n# fadein \"white\" 0.5\n# se \"SE_0735\"\n# bgm \"stop\"\n# waitandnext 2\n@\n…………\n\n# fadein \"white\" 0.5\n# se \"SE_0735\"\n# waitandnext 2\n@\n…………\n\n@\nふと、\n傍らを歩く彼女が足を止めた…\n\n# bgmfile \"bgm255\" \"BgmSeaDate\" 0\n;;ヤーウェ,1\n# textflame 1 1\n# eye %(unit_a)s \"close\"\n# voice 4007 \"shekina_0001\"\n@シェキナー\n…マスター\n\n# eye %(unit_a)s \"normal\"\n@シェキナー\n私がいつもあなたに厳しく言うのは…\nあなたのことを…\nき、気にかけているからです\n\n# face %(unit_a)s \"sad\"\n@シェキナー\nマスターはどうですか？\n私のこと…\n気にかけて下さっていますか…？\n\n@シェキナー\n試すようで申し訳ありませんが…\n私のことをどれほど分かって\n下さっているか…\n\n# voice 4007 \"shekina_0006\"\n# face %(unit_a)s \"angry\"\n@シェキナー\nし、質問させて頂きます！\n;;---------------------------------\n\n@%(unitName:unit_a)s\n私のキラーズ『シェキナー』の\n持ち主・ケルビエルの冠には\n誰の名が刻まれていますか？\n\n# se \"SE_0734\"\n# select  \"ヤーウェ\" \"select_label_1\" \"トンプソン\" \"select_label_2\" \"マルベル\" \"select_label_3\"\n私のキラーズ『シェキナー』の\n持ち主・ケルビエルの冠には\n誰の名が刻まれていますか？\n\n# label \"select_label_1\"\n# labeljump \"select_label_end\"\n# textwindow \"close\"\n# waitandnext 0.1\n\n# label \"select_label_2\"\n# labeljump \"select_label_end\"\n# textwindow \"close\"\n# waitandnext 0.1\n\n# label \"select_label_3\"\n# labeljump \"select_label_end\"\n# textwindow \"close\"\n# waitandnext 0.1\n\n# label \"select_label_end\"\n# waitandnext 0.1\n\n# sestop \"SE_0734\"\n# fadeout \"black\" 1.2\n# waitandnext 2"
	}
]