[
	{
		"ID": 9400228,
		"script": "# script \"lisp\"\n# background %(wayback_background)s\n# bgmfile \"bgm255\" \"BgmSeaDate\" 0\n# body %(unit_a)s\n# pos %(unit_a)s 3\n# mask %(unit_a)s off\n# chara %(unit_a)s\n# fadein \"black\" 0.5\n# textflame 0 0\n# face %(unit_a)s \"usual\"\n@\n帰り道－\n\n# fadein \"white\" 0.5\n# se \"SE_0735\"\n# bgm \"stop\"\n# waitandnext 2\n@\n…………\n\n# fadein \"white\" 0.5\n# se \"SE_0735\"\n# waitandnext 2\n@\n…………\n\n@\nふと、\n傍らを歩く彼女が足を止めた…\n\n# bgmfile \"bgm255\" \"BgmSeaDate\" 0\n# textflame 1 1\n# face %(unit_a)s \"usual\"\n# voice 4002 \"pinaka_0002\"\n@ピナーカ\nえっとさ…アンタ…\n\n@ピナーカ\n突然だけど、\nクイズ出していいか？\n\n# face %(unit_a)s \"angry\"\n@ピナーカ\nまあ、いいから\n付き合えって！！\n\n# face %(unit_a)s \"usual\"\n@ピナーカ\nオイラと同じ身長は\n次のうちどいつだかわかるかい？\n\n# se \"SE_0734\"\n# select \"ワズラ\" \"select_label_wrong1\" \"レシェフ\" \"select_label_wrong2\" \"シタ\" \"select_label_correct\"\nオイラと同じ身長は\n次のうちどいつだかわかるかい？\n\n# label \"select_label_wrong1\"\n# labeljump \"select_label_end\"\n# textwindow \"close\"\n# waitandnext 0.1\n\n# label \"select_label_wrong2\"\n# labeljump \"select_label_end\"\n# textwindow \"close\"\n# waitandnext 0.1\n\n# label \"select_label_correct\"\n# labeljump \"select_label_end\"\n# textwindow \"close\"\n# waitandnext 0.1\n\n# label \"select_label_end\"\n# waitandnext 0.1\n\n# sestop \"SE_0734\"\n# fadeout \"black\" 1.2\n# waitandnext 2"
	}
]