[
	{
		"ID": 94010199,
		"script": "# script \"lisp\"\n# background %(wayback_background)s\n# bgmfile \"bgm255\" \"BgmSeaDate\" 0\n# body %(unit_a)s\n# pos %(unit_a)s 3\n# mask %(unit_a)s off\n# chara %(unit_a)s\n# fadein \"black\" 0.5\n# textflame 1 1\n# face %(unit_a)s \"smile\"\n# se \"SE_0732\"\n# voice 4010 \"Abaris_0021\"\n@アバリス\nすごいです！\nその通りです…\n\n# voice 4010 \"Abaris_0005\"\n# face %(unit_a)s \"normal\"\n@アバリス\nマスターって…\n私のこと\n知ってくれてるんですね…\n\n# voice 4010 \"Abaris_0008\"\n@アバリス\nいえ、なんでもありません！\nなんでも…\n\n# textflame 0 0\n@\nうつむく彼女は\nとても嬉しそうだった\n\n@\nそんな表情をみれたことで\n彼女との絆が\nまた深まったのを実感した…\n\n# fadeout \"black\" 1.2\n# waitandnext 2"
	}
]