[
	{
		"ID": 94013499,
		"script": "# script \"lisp\"\n# background %(wayback_background)s\n# bgmfile \"bgm255\" \"BgmSeaDate\" 0\n# body %(unit_a)s\n# pos %(unit_a)s 3\n# mask %(unit_a)s off\n# chara %(unit_a)s\n# fadein \"black\" 0.5\n# textflame 1 1\n# face %(unit_a)s \"smile\"\n# se \"SE_0732\"\n# voice 4013 \"aphrodite_0021\"\n@アフロディーテ\nはぁ…たまりませんわ♪\nわたしのこんな事まで\n知っていて下さいますとは！\n\n# eye %(unit_a)s \"close\"\n@アフロディーテ\nああ…この幸せな気持ち\nどう伝えればいいでしょう…！\n\n# eye %(unit_a)s \"normal\"\n@アフロディーテ\nそれは言葉では\nとうてい叶いませんわ…\n\n# voice 4013 \"aphrodite_0003\"\n@アフロディーテ\nこれからも、あなたのために\n精一杯尽くさせていただきます\nそれが…わたしの気持ちですわ\n\n# textflame 0 0\n@\nアフロディーテはそう言うと、\nその美しい眼差しを\nマスターに向ける\n\n@\n彼女の温かな思いが\nその微笑みからあふれ出していた\n\n@\nアフロディーテの思いを受け、\n二人の絆がますます強まったことを\n感じられるのだった…\n\n# fadeout \"black\" 1.2\n# waitandnext 2"
	}
]