[
	{
		"ID": 9401017,
		"script": "# script \"lisp\"\n# background %(wayback_background)s\n# bgmfile \"bgm255\" \"BgmSeaDate\" 0\n# body %(unit_a)s\n# pos %(unit_a)s 3\n# mask %(unit_a)s off\n# chara %(unit_a)s\n# fadein \"black\" 0.5\n# textflame 0 0\n@\n帰り道－\n\n# fadein \"white\" 0.5\n# se \"SE_0735\"\n# bgm \"stop\"\n# waitandnext 2\n@\n…………\n\n# fadein \"white\" 0.5\n# se \"SE_0735\"\n# waitandnext 2\n@\n…………\n\n@\nふと、\n傍らを歩く彼女が足を止めた…\n\n# face %(unit_a)s \"sad\"\n# bgmfile \"bgm255\" \"BgmSeaDate\" 0\n# textflame 1 1\n# voice 4010 \"Abaris_0001\"\n@アバリス\nちょっとだけいいですか？\nマスター…\n\n# eye %(unit_a)s \"close\"\n@アバリス\n私のこと、知ってもらえたら\nうれしいなって思って…\n\n# voice 4010 \"Abaris_0036\"\n# eye %(unit_a)s \"normal\"\n# face %(unit_a)s \"normal\"\n@アバリス\nなんというか…\n問題、出してみても…\nいいですかね？\n\n# face %(unit_a)s \"normal\"\n@アバリス\n私の血液型…\nわかりますか？\n\n# se \"SE_0734\"\n# select \"Ａ型\" \"select_label_1\" \"Ｂ型\" \"select_label_2\" \"ＡＢ型\" \"select_label_3\"\n私の血液型…\nわかりますか？\n\n# label \"select_label_1\"\n# labeljump \"select_label_end\"\n# textwindow \"close\"\n# waitandnext 0.1\n\n# label \"select_label_2\"\n# labeljump \"select_label_end\"\n# textwindow \"close\"\n# waitandnext 0.1\n\n# label \"select_label_3\"\n# labeljump \"select_label_end\"\n# textwindow \"close\"\n# waitandnext 0.1\n\n# label \"select_label_end\"\n# waitandnext 0.1\n\n# sestop \"SE_0734\"\n# fadeout \"black\" 1.2\n# waitandnext 2"
	}
]