[
	{
		"ID": 94019399,
		"script": "# script \"lisp\"\n# background %(wayback_background)s\n# bgmfile \"bgm255\" \"BgmSeaDate\" 0\n# body %(unit_a)s\n# pos %(unit_a)s 3\n# mask %(unit_a)s off\n# chara %(unit_a)s\n# fadein \"black\" 0.5\n# textflame 1 1\n# face 2401911 \"normal\"\n# voice 240191 \"failnaught_a_0039\"\n# se \"SE_0732\"\n@フェイルノート\nその答え…\n\n# face 2401911 \"smile\"\n# voice 240191 \"failnaught_a_0004\"\n@フェイルノート\n正解よ\n\n@フェイルノート\nちゃんと、\nわかっているじゃない？\n\n@フェイルノート\nでも、これくらいで\n満足してもらっては困るわ\n\n@フェイルノート\nさらに研鑽を重ね、\nそこから生み出される輝きを、\n見せ続けなさい\n\n# voice 240191 \"failnaught_a_0020\"\n@フェイルノート\nこの私に\n\n# textflame 0 0\n@\nそう言って、微笑む彼女\n\n# textflame 0 0\n@\nその笑顔はまさに悪魔的に美しい\n\n# textflame 0 0\n@\nマスターは、例え悪魔でも、\n彼女と距離が近づいたことに\n喜びを感じていた\n\n# fadeout \"black\" 1.2\n# waitandnext 2\n"
	}
]