[
	{
		"ID": 9500306,
		"script": "# script \"lisp\"\n# background %(wayback_background)s\n# bgmfile \"bgm255\" \"BgmSeaDate\" 0\n# body %(unit_a)s\n# pos %(unit_a)s 3\n# mask %(unit_a)s off\n# chara %(unit_a)s\n# fadein \"black\" 0.5\n# textflame 0 0\n# face %(unit_a)s \"usual\"\n@\n帰り道－\n\n# fadein \"white\" 0.5\n# se \"SE_0735\"\n# bgm \"stop\"\n# waitandnext 2\n@\n…………\n\n# fadein \"white\" 0.5\n# se \"SE_0735\"\n# waitandnext 2\n@\n…………\n\n@\nふと、\n傍らを歩く彼女が足を止めた…\n\n# bgmfile \"bgm255\" \"BgmSeaDate\" 0\n# voice 5003 \"yatanokagami_0002\"\n# textflame 1 1\n@八咫鏡\nなぁ、お主よ\n…ちょっといいか？\n\n@八咫鏡\n…………\n\n# face %(unit_a)s \"angry\"\n@八咫鏡\nわらわのこと…\nどれだけ知っておるか\n聞いてみていいかの…？\n\n# voice 5003 \"yatanokagami_0036\"\n# face %(unit_a)s \"smile\"\n@八咫鏡\nちょっとした戯れじゃ\nよいか？\n\n# face %(unit_a)s \"usual\"\n@八咫鏡\nわらわのキラーズである『八咫鏡』は\nどこの鉄を用いたと言われておる？\n\n# se \"SE_0734\"\n# select \"銀山\" \"select_label_wrong1\" \"金山\" \"select_label_correct\" \"銅山\" \"select_label_wrong2\"\nわらわのキラーズである『八咫鏡』は\nどこの鉄を用いたと言われておる？\n\n# label \"select_label_wrong1\"\n# labeljump \"select_label_end\"\n# textwindow \"close\"\n# waitandnext 0.1\n\n# label \"select_label_correct\"\n# labeljump \"select_label_end\"\n# textwindow \"close\"\n# waitandnext 0.1\n\n# label \"select_label_wrong2\"\n# labeljump \"select_label_end\"\n# textwindow \"close\"\n# waitandnext 0.1\n\n# label \"select_label_end\"\n# waitandnext 0.1\n\n# sestop \"SE_0734\"\n# fadeout \"black\" 1.2\n# waitandnext 2"
	}
]