[
	{
		"ID": 9500611,
		"script": ";;1:炎\n# script \"lisp\"\n# background %(wayback_background)s\n# bgmfile \"bgm255\" \"BgmSeaDate\" 0\n# body %(unit_a)s\n# pos %(unit_a)s 3\n# mask %(unit_a)s off\n# chara %(unit_a)s\n# fadein \"black\" 0.5\n# textflame 0 0\n@\n帰り道－\n\n# fadein \"white\" 0.5\n# se \"SE_0735\"\n# bgm \"stop\"\n# waitandnext 2\n@\n…………\n\n# fadein \"white\" 0.5\n# se \"SE_0735\"\n# waitandnext 2\n@\n…………\n\n@\nふと、\n傍らを歩く彼女が足を止めた…\n\n# eye %(unit_a)s \"close\"\n# voice 5006 \"megido_0004\"\n# bgmfile \"bgm255\" \"BgmSeaDate\" 0\n# textflame 1 1\n@メギド\n貴方に試練を与えましょう\n\n# eye %(unit_a)s \"normal\"\n@メギド\n私と共にあろうとするならば\n避けては通れぬ道…\n\n# voice 5006 \"megido_0036\"\n@メギド\n私という存在について\n持てる知識を披露なさい\n\n# textflame 1 1\n@メギド\n私の属性…\n覚えているわよね？\n\n# se \"SE_0734\"\n# select \"炎\" \"select_label_1\" \"光\" \"select_label_2\" \"風\" \"select_label_3\"\n私の属性…\n覚えているわよね？\n\n# label \"select_label_1\"\n# labeljump \"select_label_end\"\n# textwindow \"close\"\n# waitandnext 0.1\n\n# label \"select_label_2\"\n# labeljump \"select_label_end\"\n# textwindow \"close\"\n# waitandnext 0.1\n\n# label \"select_label_3\"\n# labeljump \"select_label_end\"\n# textwindow \"close\"\n# waitandnext 0.1\n\n# label \"select_label_end\"\n# waitandnext 0.1\n\n# sestop \"SE_0734\"\n# fadeout \"black\" 1.2\n# waitandnext 2"
	}
]