[
	{
		"ID": 9500118,
		"script": "# script \"lisp\"\n# background %(wayback_background)s\n# bgmfile \"bgm255\" \"BgmSeaDate\" 0\n# body %(unit_a)s\n# pos %(unit_a)s 3\n# mask %(unit_a)s off\n# chara %(unit_a)s\n# fadein \"black\" 0.5\n# textflame 0 0\n@\n帰り道－\n\n# fadein \"white\" 0.5\n# se \"SE_0735\"\n# bgm \"stop\"\n# waitandnext 2\n@\n…………\n\n# fadein \"white\" 0.5\n# se \"SE_0735\"\n# waitandnext 2\n@\n…………\n\n@\nふと、\n傍らを歩く彼女が足を止めた…\n\n# face %(unit_a)s \"smile\"\n# bgmfile \"bgm255\" \"BgmSeaDate\" 0\n# textflame 1 1\n# voice 5001 \"keraunosu_0001\"\n@ケラウノス\nマスターに\n聞きたいことがありま～す\n\n# face %(unit_a)s \"normal\"\n@ケラウノス\n大好きな私のこと…\nどれくらい知ってる～？\n\n# voice 5001 \"keraunosu_0005\"\n# face %(unit_a)s \"smile\"\n@ケラウノス\n答えれないとマイナスだぞ～♪\nじゃ、質問しま～す！\n\n# face %(unit_a)s \"normal\"\n@ケラウノス\n私の出身地はね…\n\n# se \"SE_0734\"\n# select \"ローマ\" \"select_label_1\" \"オリュンポス\" \"select_label_2\" \"秋田\" \"select_label_3\"\n私の出身地はね…\n\n# label \"select_label_1\"\n# labeljump \"select_label_end\"\n# textwindow \"close\"\n# waitandnext 0.1\n\n# label \"select_label_2\"\n# labeljump \"select_label_end\"\n# textwindow \"close\"\n# waitandnext 0.1\n\n# label \"select_label_3\"\n# labeljump \"select_label_end\"\n# textwindow \"close\"\n# waitandnext 0.1\n\n# label \"select_label_end\"\n# waitandnext 0.1\n\n# sestop \"SE_0734\"\n# fadeout \"black\" 1.2\n# waitandnext 2"
	}
]