[
	{
		"ID": 9500834,
		"script": "# script \"lisp\"\n# background %(wayback_background)s\n# bgmfile \"bgm255\" \"BgmSeaDate\" 0\n# body %(unit_a)s\n# pos %(unit_a)s 3\n# mask %(unit_a)s off\n# chara %(unit_a)s\n# fadein \"black\" 0.5\n# textflame 0 0\n# face %(unit_a)s \"usual\"\n@\n帰り道－\n\n# fadein \"white\" 0.5\n# se \"SE_0735\"\n# bgm \"stop\"\n# waitandnext 2\n@\n…………\n\n# fadein \"white\" 0.5\n# se \"SE_0735\"\n# waitandnext 2\n@\n…………\n\n@\nふと、\n傍らを歩く彼女が足を止めた…\n\n# bgmfile \"bgm255\" \"BgmSeaDate\" 0\n# textflame 1 1\n# face %(unit_a)s \"smile\"\n# voice 5008 \"bashosen_0001\"\n@芭蕉扇\nねぇ…あなた…\n\n# face %(unit_a)s \"usual\"\n@芭蕉扇\n私のこと…\nちゃんと知ってくれているか\n聞いてみても…いい？\n\n# face %(unit_a)s \"sad\"\n@芭蕉扇\nえっと、なんというか…\nその…夫婦の絆の確認…みたいな？\n\n# face %(unit_a)s \"angry\"\n# voice 5008 \"bashosen_0007\"\n@芭蕉扇\n…んもう、いいから答えて！\n\n# face %(unit_a)s \"usual\"\n@芭蕉扇\n私がこの前習得したスキル…\nそう、あれよ\n言ってもらえるかしら？\n\n# se \"SE_0734\"\n# select \"憎悪の滅風\" \"select_label_1\" \"包麗の扇\" \"select_label_2\" \"佳人のインパルス\" \"select_label_3\"\n私がこの前習得したスキル…\nそう、あれよ\n言ってもらえるかしら？\n\n# label \"select_label_1\"\n# labeljump \"select_label_end\"\n# textwindow \"close\"\n# waitandnext 0.1\n\n# label \"select_label_2\"\n# labeljump \"select_label_end\"\n# textwindow \"close\"\n# waitandnext 0.1\n\n# label \"select_label_3\"\n# labeljump \"select_label_end\"\n# textwindow \"close\"\n# waitandnext 0.1\n\n# label \"select_label_end\"\n# waitandnext 0.1\n\n# sestop \"SE_0734\"\n# fadeout \"black\" 1.2\n# waitandnext 2"
	}
]