[
	{
		"ID": 95007498,
		"script": "# script \"lisp\"\n# background %(wayback_background)s\n# bgmfile \"bgm255\" \"BgmSeaDate\" 0\n# body %(unit_a)s\n# pos %(unit_a)s 3\n# mask %(unit_a)s off\n# chara %(unit_a)s\n# fadein \"black\" 0.5\n# textflame 1 1\n# se \"SE_0733\"\n# face %(unit_a)s \"sad\"\n# voice 5007 \"buryunaku_0027\"\n@ブリューナク\nわからないか…\n\n# textflame 1 1\n@ブリューナク\n…だが、仕方がないか\n気にしないでくれ\n\n# textflame 1 1\n@ブリューナク\nできれば、\n次は正解してくれると\nいいな…\n\n# textflame 0 0\n@\nブリューナクはそう言って\n歩いて行ってしまった\n\n# textflame 0 0\n@\nどうやら寂しい思いを\nさせてしまったみたいだ\n\n# textflame 0 0\n@\n彼女とのこれからを考えると、\nこの気持ちのままで\nいたくはない\n\n# textflame 0 0\n@\n次の機会があれば答えられるよう\n彼女のことを調べておこうと\n胸に決めるマスターであった\n\n# fadeout \"black\" 1.2\n# waitandnext 2\n"
	}
]