[
	{
		"ID": 9500320,
		"script": "# script \"lisp\"\n# background %(wayback_background)s\n# bgmfile \"bgm255\" \"BgmSeaDate\" 0\n# body %(unit_a)s\n# pos %(unit_a)s 3\n# mask %(unit_a)s off\n# chara %(unit_a)s\n# fadein \"black\" 0.5\n# textflame 0 0\n# face %(unit_a)s \"usual\"\n@\n帰り道－\n\n# fadein \"white\" 0.5\n# se \"SE_0735\"\n# bgm \"stop\"\n# waitandnext 2\n@\n…………\n\n# fadein \"white\" 0.5\n# se \"SE_0735\"\n# waitandnext 2\n@\n…………\n\n@\nふと、\n傍らを歩く彼女が足を止めた…\n\n# face %(unit_a)s \"smile\"\n# bgmfile \"bgm255\" \"BgmSeaDate\" 0\n# textflame 1 1\n# voice 5003 \"yatanokagami_0001\"\n@八咫鏡\nなあ、お主？\n\n# face %(unit_a)s \"angry\"\n@八咫鏡\nじゃじゃーん！\n突然じゃが、\nクイズのコーナーじゃ！\n\n@八咫鏡\n驚くのはまだ早いのじゃ！\nちゃんと答えられるかが勝負じゃぞ！\n\n# face %(unit_a)s \"usual\"\n@八咫鏡\nじゃあ…いくぞよ！\n\n@八咫鏡\nわらわがあまり好かぬ場所は\nどこか、お主ならわかろう？\n\n# se \"SE_0734\"\n# select \"水場の近く\" \"select_label_wrong1\" \"暗いところ\" \"select_label_correct\" \"多くの人の前\" \"select_label_wrong2\"\nわらわがあまり好かぬ場所は\nどこか、お主ならわかろう？\n\n# label \"select_label_wrong1\"\n# labeljump \"select_label_end\"\n# textwindow \"close\"\n# waitandnext 0.1\n\n# label \"select_label_correct\"\n# labeljump \"select_label_end\"\n# textwindow \"close\"\n# waitandnext 0.1\n\n# label \"select_label_wrong2\"\n# labeljump \"select_label_end\"\n# textwindow \"close\"\n# waitandnext 0.1\n\n# label \"select_label_end\"\n# waitandnext 0.1\n\n# sestop \"SE_0734\"\n# fadeout \"black\" 1.2\n# waitandnext 2"
	}
]