[
	{
		"ID": 9500621,
		"script": ";;1:二面性が激しい\n# script \"lisp\"\n# background %(wayback_background)s\n# bgmfile \"bgm255\" \"BgmSeaDate\" 0\n# body %(unit_a)s\n# pos %(unit_a)s 3\n# mask %(unit_a)s off\n# chara %(unit_a)s\n# fadein \"black\" 0.5\n# textflame 0 0\n@\n帰り道－\n\n# fadein \"white\" 0.5\n# se \"SE_0735\"\n# bgm \"stop\"\n# waitandnext 2\n@\n…………\n\n# fadein \"white\" 0.5\n# se \"SE_0735\"\n# waitandnext 2\n@\n…………\n\n@\nふと、\n傍らを歩く彼女が足を止めた…\n\n# eye %(unit_a)s \"close\"\n# bgmfile \"bgm255\" \"BgmSeaDate\" 0\n# voice 5006 \"megido_0007\"\n# textflame 1 1\n@メギド\n改める気はないけれど\n私は多分に…\n誤解されやすいのでしょうね\n\n# eye %(unit_a)s \"normal\"\n@メギド\n私を知っているつもりになっている\n貴方でさえ、そうなのではない？\n\n# voice 5006 \"megido_0036\"\n@メギド\n否定したければ…\n私のことに答えてみなさい\n\n# textflame 1 1\n@メギド\n私、よく人からこう言われるの\n\n# se \"SE_0734\"\n# select \"二面性が激しい\" \"select_label_1\" \"笑顔が絶えない\" \"select_label_2\" \"すぐに泣く\" \"select_label_3\"\n私、よく人からこう言われるの\n\n# label \"select_label_1\"\n# labeljump \"select_label_end\"\n# textwindow \"close\"\n# waitandnext 0.1\n\n# label \"select_label_2\"\n# labeljump \"select_label_end\"\n# textwindow \"close\"\n# waitandnext 0.1\n\n# label \"select_label_3\"\n# labeljump \"select_label_end\"\n# textwindow \"close\"\n# waitandnext 0.1\n\n# label \"select_label_end\"\n# waitandnext 0.1\n\n# sestop \"SE_0734\"\n# fadeout \"black\" 1.2\n# waitandnext 2"
	}
]