[
	{
		"ID": 95008299,
		"script": "# script \"lisp\"\n# background %(wayback_background)s\n# bgmfile \"bgm255\" \"BgmSeaDate\" 0\n# body %(unit_a)s\n# pos %(unit_a)s 3\n# mask %(unit_a)s off\n# chara %(unit_a)s\n# fadein \"black\" 0.5\n# textflame 1 1\n# face %(unit_a)s \"smile\"\n# se \"SE_0732\"\n# voice 5008 \"bashosen_0041\"\n@芭蕉扇\nさすがね、あなた！\n\n@芭蕉扇\nうふふ…\n急にクイズなんて\n出してしまったけど…\n\n# voice 5008 \"bashosen_0005\"\n@芭蕉扇\n私に関わることを…\nちゃんと知っててもらえるのは\nとっても嬉しいわ！\n\n# textflame 0 0\n@\n嬉しさにあふれた顔をみて\nマスターは彼女との絆が\nまた深まったのを実感した…\n\n# fadeout \"black\" 1.2\n# waitandnext 2"
	}
]