[
	{
		"ID": 9501627,
		"script": "# script \"lisp\"\n# background %(wayback_background)s\n# bgmfile \"bgm255\" \"BgmSeaDate\" 0\n# body %(unit_a)s\n# pos %(unit_a)s 3\n# mask %(unit_a)s off\n# chara %(unit_a)s\n# fadein \"black\" 0.5\n# textflame 0 0\n@\n帰り道－\n\n# fadein \"white\" 0.5\n# se \"SE_0735\"\n# bgm \"stop\"\n# waitandnext 2\n@\n…………\n\n# fadein \"white\" 0.5\n# se \"SE_0735\"\n# waitandnext 2\n@\n…………\n\n@\nふと、\n傍らを歩く彼女が足を止めた…\n\n# bgmfile \"bgm255\" \"BgmSeaDate\" 0\n# textflame 1 1\n# voice 5016 \"Flabellum_0001\"\n@フラベルム\nあなた、\nクイズはお好きですか？\n\n# textflame 0 0\n@\nえ、いきなりクイズ…？\n嫌いではないと思うけど…\nと返答するマスター\n\n# textflame 1 1\n# eye %(unit_a)s \"close\"\n# voice 5016 \"Flabellum_0009\"\n@フラベルム\nなら、ちょうどいいです\n\n# eye %(unit_a)s \"normal\"\n# voice 5016 \"Flabellum_0036\"\n@フラベルム\n今からわたくしの出す質問に、\n答えてくださいね？\n\n# face %(unit_a)s \"smile\"\n@フラベルム\nあなたがわたくしのマスターに\nふさわしいか、試してみたく\nなったんです\n\n# face %(unit_a)s \"normal\"\n# voice 5016 \"Flabellum_0003\"\n@フラベルム\nちなみに、\nあなたに拒否権なんて\nありませんよ？\n\n@フラベルム\nこれは\n強制執行ですから\n\n# voice 5016 \"Flabellum_0004\"\n@フラベルム\nふふっ…\nでは、いきますね\n\n@%(unitName:unit_a)s\n出会ったばかりの頃、わたくしは\nあなたのことをなんのようだと\n言っていたか、覚えていますか？\n\n# se \"SE_0734\"\n# select  \"まるで豚のよう\" \"select_label_1\" \"まるで牛のよう\" \"select_label_2\" \"まるで羊のよう\" \"select_label_3\"\n出会ったばかりの頃、わたくしは\nあなたのことをなんのようだと\n言っていたか、覚えていますか？\n\n# label \"select_label_1\"\n# labeljump \"select_label_end\"\n# textwindow \"close\"\n# waitandnext 0.1\n\n# label \"select_label_2\"\n# labeljump \"select_label_end\"\n# textwindow \"close\"\n# waitandnext 0.1\n\n# label \"select_label_3\"\n# labeljump \"select_label_end\"\n# textwindow \"close\"\n# waitandnext 0.1\n\n# label \"select_label_end\"\n# waitandnext 0.1\n\n# sestop \"SE_0734\"\n# fadeout \"black\" 1.2\n# waitandnext 2"
	}
]