[
	{
		"ID": 95020199,
		"script": "# script \"lisp\"\n# background %(wayback_background)s\n# bgmfile \"bgm255\" \"BgmSeaDate\" 0\n# body %(unit_a)s\n# pos %(unit_a)s 3\n# mask %(unit_a)s off\n# chara %(unit_a)s\n# fadein \"black\" 0.5\n# textflame 1 1\n# face %(unit_a)s \"smile\"\n# se \"SE_0732\"\n# voice 5020 \"tasuramu_0005\"\n@タスラム\nうんうん、正解だマスター！\n\n@タスラム\nまぁこれくらいは、\nできて当然だけどな\n\n# eye %(unit_a)s \"close\"\n# voice 5020 \"tasuramu_0004\"\n@タスラム\nタスラム様のこと、\nしっかりと見ていれば、\nこんなの楽勝だろ？\n\n# eye %(unit_a)s \"normal\"\n@タスラム\nん？嬉しそうだって？\n\n# face %(unit_a)s \"usual\"\n# voice 5020 \"tasuramu_0037\"\n@タスラム\nんなっ、べつにそういうわけじゃ…\nまぁ、嬉しくなくはない…けど…\n\n# face %(unit_a)s \"angry\"\n@タスラム\nって、そんなっ、\nこんなとこで頭を撫でるな！\n\n# voice 5020 \"tasuramu_0012\"\n@タスラム\nこのっ、やめろっ…\nべつに、イヤじゃないけど…\nむぐぐぐぅ…\n\n# textflame 0 0\n@\n抵抗するタスラムだが、\nその表情はすごく嬉しそうで…\n\n@\nそれを見ていると、\n彼女との絆が深まったのが、\nわかる気がした…\n\n# fadeout \"black\" 1.2\n# waitandnext 2"
	}
]