[
	{
		"ID": 95027299,
		"script": "# script \"lisp\"\n# background %(wayback_background)s\n# bgmfile \"bgm255\" \"BgmSeaDate\" 0\n# body %(unit_a)s\n# pos %(unit_a)s 3\n# mask %(unit_a)s off\n# chara %(unit_a)s\n# fadein \"black\" 0.5\n# textflame 1 1\n# face %(unit_a)s \"happy\"\n# voice 5027 \"freischotz_0006\"\n# se \"SE_0732\"\n@フライシュッツ\n当ててくれるか心配だったけど\nふふふ、さすがマスターくんだね\n\n@フライシュッツ\nちゃんとよく知ってくれてるな\nおねーちゃん、うれしいよ♪\n\n# voice 5027 \"freischotz_0005\"\n@フライシュッツ\nご褒美に甘えちゃうよ！\n\n@フライシュッツ\nね、このままの格好で\n帰ってもいいよね？\n\n# textflame 0 0\n@\n体を寄せてくるフライシュッツ\n\n@\n彼女の体温を感じてしまう\nドキドキな帰り道だった…\n\n# fadeout \"black\" 1.2\n# waitandnext 2"
	}
]