[
	{
		"ID": 95027498,
		"script": "# script \"lisp\"\n# background %(wayback_background)s\n# bgmfile \"bgm255\" \"BgmSeaDate\" 0\n# body %(unit_a)s\n# pos %(unit_a)s 3\n# mask %(unit_a)s off\n# chara %(unit_a)s\n# fadein \"black\" 0.5\n# textflame 1 1\n# face %(unit_a)s \"sad\"\n# voice 5027 \"freischotz_0028\"\n# se \"SE_0733\"\n@フライシュッツ\n残念…不正解…\n\n@フライシュッツ\nご褒美も用意してたのに\n本当に残念だな\n\n# face %(unit_a)s \"usual\"\n# voice 5027 \"freischotz_0008\"\n@フライシュッツ\nまた問題を用意しておくから、\n次は絶対当ててほしいな…\n\n# textflame 0 0\n@\nうつむき気味な彼女を見ていると\nチクリと心が痛んだ\n\n# face %(unit_a)s \"normal\"\n# voice 5027 \"freischotz_0004\"\n# textflame 1 1\n@フライシュッツ\nさ、もう帰ろっか\nみんなも心配しちゃうし…\n\n# textflame 0 0\n@\n返す言葉がなかなか見つからず\n重たい空気の帰り道となった…\n\n# fadeout \"black\" 1.2\n# waitandnext 2"
	}
]