[
	{
		"ID": 95021199,
		"script": "# script \"lisp\"\n# background %(wayback_background)s\n# bgmfile \"bgm255\" \"BgmSeaDate\" 0\n# body %(unit_a)s\n# pos %(unit_a)s 3\n# mask %(unit_a)s off\n# chara %(unit_a)s\n# fadein \"black\" 0.5\n# textflame 1 1\n# face %(unit_a)s \"smile\"\n# se \"SE_0732\"\n# voice 5021 \"sefer_0042\"\n@セファー\n凄いです、マスター\n正解です！\n\n@セファー\nきちんと、私達の事を\n見ていてくれたんですね！\n\n@セファー\nこの調子で\nこれからもよろしくお願いしますね！\n\n# textflame 0 0\n@\nセファーは嬉しそうに\nニッコリと微笑んだ\n\n@\nその笑みを見れた事で\nマスターは彼女との絆が\nまた深まったのを実感した…\n\n# fadeout \"black\" 1.2\n# waitandnext 2"
	}
]