[
	{
		"ID": 96004498,
		"script": "# script \"lisp\"\n# background %(wayback_background)s\n# bgmfile \"bgm255\" \"BgmSeaDate\" 0\n# body %(unit_a)s\n# pos %(unit_a)s 3\n# mask %(unit_a)s off\n# chara %(unit_a)s\n# fadein \"black\" 0.5\n# textflame 1 1\n# se \"SE_0733\"\n# face %(unit_a)s \"sad\"\n# voice 6004 \"kadokeusu_0027\"\n@カドケウス\nはい、全然違います！\n不正解！\n\n# face %(unit_a)s \"angry\"\n@カドケウス\nもぅなにやってんの、マスター!?\n\n@カドケウス\n私がいつも\nイタズラを仕掛けるのはね、\nあんたのドキドキする顔が見たいから\n\n# face %(unit_a)s \"usual\"\n@カドケウス\n私を…\nもっとドキドキさせてよ…？\n\n# face %(unit_a)s \"sad\"\n@カドケウス\nじゃないと…悲しいじゃん\n\n# voice 6004 \"kadokeusu_0015\"\n@カドケウス\n…言っとくけど…\nこの涙は\nイタズラじゃないからね…\n\n# textflame 0 0\n@\n彼女の涙にマスターの心は、\nギュッと傷んだ\n\n@\nデート中のはずなのに\n彼女を泣かせてしまうなんて…\n\n@\n次は絶対に間違えないように\nしないといけないな…\n\n# fadeout \"black\" 1.2\n# waitandnext 2"
	}
]