[
	{
		"ID": 96008498,
		"script": "# script \"lisp\"\n# background %(wayback_background)s\n# bgmfile \"bgm255\" \"BgmSeaDate\" 0\n# body %(unit_a)s\n# pos %(unit_a)s 3\n# mask %(unit_a)s off\n# chara %(unit_a)s\n# fadein \"black\" 0.5\n# textflame 1 1\n# se \"SE_0733\"\n@グリダヴォル\nははーん…\n\n# face %(unit_a)s \"angry\"\n# voice 6008 \"guridavoru_0004\"\n@グリダヴォル\nわざと間違えたんでしょ！？\n\n# face %(unit_a)s \"sad\"\n@グリダヴォル\nえ…違うの？\n\n# voice 6008 \"guridavoru_0008\"\n@グリダヴォル\nそっかぁ…\n\n# textflame 0 0\n@\n彼女があまりに\nがっかりするものだから\nマスターの心はギュッと痛んだ\n\n@\nデート中のはずなのに…\nなにやってるんだろう\n\n@\n急に聞かれても間違えないように\nしっかりと心に刻んでおかないとな…\n\n# fadeout \"black\" 1.2\n# waitandnext 2"
	}
]