[
	{
		"ID": 96004398,
		"script": "# script \"lisp\"\n# background %(wayback_background)s\n# bgmfile \"bgm255\" \"BgmSeaDate\" 0\n# body %(unit_a)s\n# pos %(unit_a)s 3\n# mask %(unit_a)s off\n# chara %(unit_a)s\n# fadein \"black\" 0.5\n# textflame 1 1\n# se \"SE_0733\"\n# face %(unit_a)s \"angry\"\n# voice 6004 \"kadokeusu_0027\"\n@カドケウス\n違います、不正解\n\n# face %(unit_a)s \"sad\"\n# textflame 1 1\n@カドケウス\nやっぱマスターって、\nセンスないよね…？\n色々…\n\n# textflame 1 1\n@カドケウス\n芸術だけじゃなくて…\n女の子を喜ばせる\nセンスとかさ…\n\n# voice 6004 \"kadokeusu_kyara_1013\"\n# face %(unit_a)s \"angry\"\n# textflame 1 1\n@カドケウス\nはぁ…\nも～、いい！\n\n# textflame 1 1\n@カドケウス\n期待した私が\nバカだったよ…\n\n# textflame 0 0\n@\n彼女のあまりに\nがっかりした顔に\nマスターの心はギュッと痛んだ\n\n# textflame 0 0\n@\nデート中のはずなのに…\nなにやってるんだろう\n\n# textflame 0 0\n@\n急に聞かれても間違えないように\nしっかりと心に刻んでおかないとな…\n\n# fadeout \"black\" 1.2\n# waitandnext 2"
	}
]