[
	{
		"ID": 96008199,
		"script": "# script \"lisp\"\n# background %(wayback_background)s\n# bgmfile \"bgm255\" \"BgmSeaDate\" 0\n# body %(unit_a)s\n# pos %(unit_a)s 3\n# mask %(unit_a)s off\n# chara %(unit_a)s\n# fadein \"black\" 0.5\n# textflame 1 1\n# face %(unit_a)s \"smile\"\n# se \"SE_0732\"\n# voice 6008 \"guridavoru_0020\"\n@グリダヴォル\nやったあ！\nやっぱり君はすごいね！\n\n@グリダヴォル\n私のことを…\nちゃんと理解してくれてるなんて！\n\n@グリダヴォル\nもう、すっごい嬉しいよ！！\n\n# textflame 0 0\n@\nグリダヴォルの満面の笑みは\nなによりも可愛く…\n\n@\n彼女との絆が\nまた深まったのを実感した…\n\n# fadeout \"black\" 1.2\n# waitandnext 2"
	}
]