[
	{
		"ID": 96018499,
		"script": "# script \"lisp\"\n# background %(wayback_background)s\n# bgmfile \"bgm255\" \"BgmSeaDate\" 0\n# body %(unit_a)s\n# pos %(unit_a)s 3\n# mask 2601811 on\n# chara %(unit_a)s\n# fadein \"black\" 0.5\n# se \"SE_0732\"\n# textflame 1 1\n# face %(unit_a)s \"usual\"\n@ウィズ\nマスターさん…\nその答え……\n\n# textflame 0 0\n@\n正解か、不正解か？\nあたり一面に\n冷たい空気が張り詰める\n\n# face %(unit_a)s \"smile\"\n# voice 260181 \"wizu_0005\"\n# textflame 1 1\n@ウィズ\n大正解です！\n\n@ウィズ\nありがとうございます、\nちゃんと知っていて下さって\n\n# face %(unit_a)s \"normal\"\n# voice 260181 \"wizu_0003\"\n@ウィズ\n嬉しさで暑さも忘れてしまう\nそんな感じがします\n\n@ウィズ\nこれも…\nマスターさんのおかげですね\n\n# textflame 0 0\n@\n優しく微笑む彼女\n\n# textflame 0 0\n@\nその内面から出る美しさに、\nマスターも温かな気持ちに\nなるのだった\n\n# fadeout \"black\" 1.2\n# waitandnext 2\n"
	}
]