[
	{
		"ID": 96013398,
		"script": "# script \"lisp\"\n# background %(wayback_background)s\n# bgmfile \"bgm255\" \"BgmSeaDate\" 0\n# body %(unit_a)s\n# pos %(unit_a)s 3\n# mask %(unit_a)s off\n# chara %(unit_a)s\n# fadein \"black\" 0.5\n# textflame 1 1\n# se \"SE_0733\"\n# face %(unit_a)s \"angry\"\n# voice 6013 \"sistrum_0016\"\n@シストルム\n悲劇にゃ～～！！\n\n# face %(unit_a)s \"sad\"\n@シストルム\nボクとマスターの関係が…\nもう冷え切ってたにゃんて…\n\n# voice 6013 \"sistrum_0017\"\n@シストルム\n嘘でも飽きたなんて…\n言うんじゃなかったにゃ…\n\n# voice 6013 \"sistrum_0028\"\n@シストルム\n…口は災いのもとにゃ…\nもう全身包帯にまかれて\n永眠したい気分にゃ…\n\n# voice 6013 \"sistrum_0014\"\n@シストルム\n今日からボクは\n捨て猫にゃ…\nダンボールライフにゃ…\n\n# textflame 0 0\n@\nがっかりした様子を\n隠さない彼女の顔が\nマスターの目に焼きついた\n\n@\nデート中のはずなのに\n悲しい思いをさせてしまうなんて…\n\n@\n彼女は何も悪くないのだ\n次は絶対に間違えないように\nしないといけないな…\n\n# fadeout \"black\" 1.2\n# waitandnext 2"
	}
]