[
	{
		"ID": 96025298,
		"script": "# script \"lisp\"\n# background %(wayback_background)s\n# bgmfile \"bgm255\" \"BgmSeaDate\" 0\n# body %(unit_a)s\n# pos %(unit_a)s 3\n# mask %(unit_a)s off\n# chara %(unit_a)s\n# fadein \"black\" 0.5\n# se \"SE_0733\"\n# textflame 1 1\n# face %(unit_a)s \"sad\"\n@カリス\n……その答え\n\n@カリス\n不正解～～～\n\n# voice 260251 \"chalice_t_0026\"\n@カリス\nも～、マスターさん\nちゃんとミラクル起こしてよ～！\n\n@カリス\n正解してくれたら、\nもっと一緒に楽しいことしようと\n思ってたのに…\n\n# voice 260251 \"chalice_t_0027\"\n@カリス\nあ～あ、\n今日は悲しい気分だから、\n先に帰っちゃうね\n\n# alpha 2602511 0 0.5\n# textflame 0 0\n@\nトボトボと歩いていくカリス\nその背中はとても寂しそうで\n\n# textflame 0 0\n@\nマスターは、彼女と\n距離を縮められなかったことを\n激しく後悔していた…\n\n# fadeout \"black\" 1.2\n# waitandnext 2"
	}
]