[
	{
		"ID": 100003,
		"script": "# script \"lisp\"\n# background \"flower_garden\"\n# bgm \"bgm001\" 0\n# body 101411\n# pos 101411 4\n# body 500511\n# pos 500511 2\n# textboxarrow 0 3\n# chara 101411\n@ティルフィング\n異族は…殲滅できたようです\nさすが、私と適合したマスターです…\n\n#serif 1\n# textboxarrow 1 1\n# chara 500511\n@ヴァジュラ\nだな！でもよ…\nちょっと戦力不足はいなめないぜ？\n\n# serif 0\n# chara 101411\n@ティルフィング\n確かに…そうですね…\n\n# imageset 0 \"black\"\n# imagealpha 0 0 0\n# imagelayer 0 1\n# chara 101411\n@ティルフィング\nマスター、教会へ行きましょう\n新たな仲間を呼び起こすのです\n\n# serif 1\n# textwindow \"close\"\n# imagealpha 0 1 0\n# imagepos 0 0 30\n# imageleftin 0 0.5\n\n# background \"Ragnarok\"\n# move 101411 3 0.1\n# mask 101411 off \n# imagerightout 0 0.5\n# delete 500511\n# serif 0\n# textboxarrow 0 2\n# chara 101411\n@ティルフィング\nここが我々が属する\nラグナロク教会です\nマスター、早速ですがこれを…\n\n# textwindow \"close\"\n# fadein \"black\" 1.0\n# background \"black\"\n# delete 101411\n# imageset 0 \"mana\"\n# imagepos 0 0 0\n# imagerightin 0 1.0\n\n# textwindow \"nomal\"\n# textboxarrow 0 0\n@ティルフィング\nこの姫石を使い、\n新たな仲間を呼び起こしてください\n必ず力になってくれるはずです"
	}
]