[
	{
		"ID": 100103041,
		"script": ";;1章3話_4　戦闘前\n;;//背景：街中（夜）\n# script \"lisp\"\n# background \"101_city_night3\"\n# bgmfile \"bgm271\" \"BgmLostRagnarokEvent\" 0\n# body 3103811\n# pos 3103811 3\n# scale 3103811 0.8 0\n# alpha 3103811 0 0\n# body 136\n# pos 136 3\n# scale 136 0.8 0\n# body 137\n# pos 137 1\n# scale 137 0.8 0\n# alpha 137 0 0\n# body 139\n# pos 139 5\n# scale 139 0.8 0\n# alpha 139 0 0\n# layer 139 5\n# layer 3103811 2\n# layer 136 3\n# layer 137 1\n# mask 136 off\n# face 136 \"angry\"\n# textflame 1 1\n# textboxarrow 0 2\n# chara 136\n@ナディア\n私は、マグメルに行くのは…\n反対です…\n\n# face 136 \"sad\"\n# textflame 1 1\n# textboxarrow 0 2\n# chara 136\n# voice 9968 \"nadia_0016\"\n@ナディア\nもう、これ以上…\n関係ない方々をまきこみたく\nありませんっ…\n\n# alpha 136 0 0.5\n# alpha 139 1 0.5\n# alpha 3103811 1 0.5\n# alpha 137 1 0.5\n# textflame 1 1\n# textboxarrow 0 3\n# chara 139\n# voice 9967 \"titania_0026\"\n@ティターニア\nナディア…\nそのような気遣いは\n無用なのですよ\n\n# textflame 1 1\n# textboxarrow 0 3\n# chara 139\n@ティターニア\n私達妖精にとっても、\nオベロンを襲った\n許し難い者達なのですから\n\n# mask 136 on\n# textflame 1 1\n# textboxarrow 0 2\n# chara 3103811\n@アルマス\nそうよ！\n関係ないとか\n寂しいこと言わないで\n\n# alpha 136 1 0.5\n# alpha 139 0 0.5\n# alpha 3103811 0 0.5\n# alpha 137 0 0.5\n# textflame 1 1\n# textboxarrow 0 2\n# chara 136\n# voice 9968 \"nadia_0014\"\n@ナディア\nありがとうございます…\nでも、私が首都マグメルに入れば\nきっとあの方々は攻めてきます\n\n# textflame 1 1\n# textboxarrow 0 2\n# chara 136\n@ナディア\nこれ以上、犠牲が出るのは…\n私が耐えられないんです…\n\n# move 137 1 0\n# waitandnext 0.01\n\n# move 137 2 0.5\n# alpha 137 1 0.5\n# move 136 4 0.5\n# face 137 \"sad\"\n# textflame 1 1\n# textboxarrow 0 1\n# chara 137\n# voice 9969 \"gill_0058\"\n@ギル\n姫様、優しすぎんだよ…\nそこが良いところでもあるんだけど\n\n# move 139 4 0\n# move 3103811 2 0\n# alpha 136 0 0.5\n# alpha 137 0 0.5\n# alpha 139 1 0.5\n# alpha 3103811 1 0.5\n# textflame 1 1\n# textboxarrow 0 3\n# chara 139\n# voice 9967 \"titania_0042\"\n@ティターニア\nそうですね…\nでは、ここはマスターに\n決めていただきましょう\n\n# face 3103811 \"angry\"\n# textflame 1 1\n# textboxarrow 0 1\n# chara 3103811\n# voice 1038 \"almace_0009\"\n@アルマス\nは…？\n絶最悪なんだけど、ティニ\n\n# textflame 1 1\n# textboxarrow 0 3\n# chara 139\n# voice 9967 \"titania_0065\"\n@ティターニア\nアルマス、何度も言うようですが\nマスターとあなたの間に信頼が\n生まれなければ――\n\n# face 3103811 \"sad\"\n# textflame 1 1\n# textboxarrow 0 1\n# chara 3103811\n# voice 1038 \"almace_0013\"\n@アルマス\nああ、もう…\nわかったわよ\nで、どうするの？\n\n# select \"南の壁に向かおう\" \"select_label_01\" \"敵の裏をかこう\" \"select_label_01\" \"別の通り道がある\" \"select_label_01\"\nああ、もう…\nわかったわよ\nで、どうするの？\n\n# label \"select_label_01\"\n# bgmfile \"bgm275\" \"BgmLostRagnarokEvent\" 0\n# face 3103811 \"angry\"\n# textflame 1 1\n# textboxarrow 0 1\n# chara 3103811\n# voice 1038 \"almace_0009\"\n@アルマス\nなに、言ってるのよっ！\n\n# face 3103811 \"surprise\"\n# textflame 1 1\n# textboxarrow 0 1\n# chara 3103811\n@アルマス\nん？\nあれ、でも…\n\n# face 3103811 \"normal\"\n# textflame 1 1\n# textboxarrow 0 3\n# chara 139\n# voice 9967 \"titania_0057\"\n@ティターニア\nなるほど…\n言われてみれば\nその通りですね\n\n# textflame 1 1\n# textboxarrow 0 3\n# chara 139\n@ティターニア\n四方を壁に囲まれているこの国から\n出るためには\n壁を越える必要があります\n\n# textflame 1 1\n# textboxarrow 0 1\n# chara 3103811\n@アルマス\nでも、北の壁にある抜け道以外に\n通れる場所なんてない…\nというかなかった\n\n# textflame 1 1\n# textboxarrow 0 3\n# chara 139\n@ティターニア\nですが、今は南の壁に\n大きな通り道ができています\n三国の兵が入ってきた穴が\n\n# alpha 139 0 0.5\n# alpha 3103811 0 0.5\n# alpha 136 1 0.5\n# alpha 137 1 0.5\n# face 137 \"normal\"\n# face 136 \"normal\"\n# textflame 1 1\n# textboxarrow 0 3\n# chara 136\n# voice 9968 \"nadia_0030\"\n@ナディア\nそこを兵士達に\n見つからず通り抜けられれば…\nそういうことですね\n\n# textflame 1 1\n# textboxarrow 0 1\n# chara 137\n# voice 9969 \"gill_0042\"\n@ギル\n逆転の発想ってやつだな！\nあんた意外とやるじゃん\n\n# alpha 139 1 0.5\n# alpha 3103811 1 0.5\n# alpha 136 0 0.5\n# alpha 137 0 0.5\n# textflame 1 1\n# textboxarrow 0 3\n# chara 139\n@ティターニア\n私達がティルヘルムの首都マグメルに\n逃げ延びようとするのは\n三国の軍も予想済みでしょう\n\n# textflame 1 1\n# textboxarrow 0 1\n# chara 3103811\n@アルマス\nむしろ今は北壁の方に\n敵兵が集まっていて、\n\n# textflame 1 1\n# textboxarrow 0 1\n# chara 3103811\n@アルマス\n反対の南壁が\n手薄になってる可能性が高い\nってわけね\n\n# alpha 139 0 0.5\n# alpha 3103811 0 0.5\n# alpha 136 1 0.5\n# alpha 137 1 0.5\n# textflame 1 1\n# textboxarrow 0 3\n# chara 136\n# voice 9968 \"nadia_0034\"\n@ナディア\nマグメルの方々を\nまきこむこともありませんから、\n私は賛成です\n\n# alpha 139 1 0.5\n# alpha 3103811 1 0.5\n# alpha 136 0 0.5\n# alpha 137 0 0.5\n# textflame 1 1\n# textboxarrow 0 1\n# chara 3103811\n@アルマス\n一か八かのところもあるけど…\nその作戦、乗った\n\n# alpha 139 0 0.5\n# alpha 3103811 0 0.5\n# alpha 136 1 0.5\n# alpha 137 1 0.5\n# textflame 1 1\n# textboxarrow 0 1\n# chara 137\n# voice 9969 \"gill_0007\"\n@ギル\nへへっ…\nちょっとワクワクしてきたぜ\n\n# alpha 139 1 0.5\n# alpha 3103811 1 0.5\n# alpha 136 0 0.5\n# alpha 137 0 0.5\n# textflame 1 1\n# textboxarrow 0 3\n# chara 139\n@ティターニア\nでは皆さん、\n南壁に向かいましょう\n\n;;//アルマス達が移動する\n# se \"SE_0719\"\n# fadeout \"black\" 1.5\n# waitandnext 2"
	}
]