[
	{
		"ID": 100212060,
		"script": ";;----------------------------------------------\n;;100212060\n;;第2-6話　タイトル：イノセント・ヒーラー\n;;----------------------------------------------\n# script \"lisp\"\n# background \"mamon_room\"\n# bgmfile \"bgm271\" \"BgmLostRagnarokEvent\" 0\n;;ムー\n# body 161\n# pos 161 4\n# scale 161 0.6 0\n# layer 161 3\n# mask 161 on\n# alpha 161 0 0\n;;レーヴァ\n# body 3100211\n# pos 3100211 3\n# scale 3100211 0.8 0\n# layer 3100211 1\n# mask 3100211 on\n# alpha 3100211 0 0\n;;カリス\n# body 3602511\n# pos 3602511 4\n# scale 3602511 0.8 0\n# layer 3602511 2\n# mask 3602511 on\n# alpha 3602511 0 0\n;;キプル\n# body 163\n# pos 163 3\n# scale 163 0.6 0\n# layer 163 3\n# mask 163 on\n# alpha 163 0 0\n;;シタ\n# body 3201611\n# pos 3201611 3\n# scale 3201611 0.8 0\n# layer 3201611 1\n# mask 3201611 on\n# alpha 3201611 0 0\n;;カーテンフェード\n# imageset 0 \"black\"\n# imagealpha 0 0 0\n# imagelayer 0 1\n;;黒バック\n# imageset 1 \"bg_black\"\n# imagepos 1 0 0\n# imagelayer 1 1\n# imageleftin 1 0\n# imagealpha 1 0 0\n# textwindow \"close\"\n# waitandnext 0.1\n\n;;◆背景：ハルモニア城内\n# se \"SE_0719\"\n# alpha 3201611 1 0.5\n# waitandnext 0.8\n\n# textwindow \"normal\"\n# textflame 1 1\n# textboxarrow 0 2\n# voice 320161 \"shita_t_0002\"\n# chara 3201611\n@シタ\nカリス、十分反省しましたか？\n\n# textwindow \"close\"\n# move 3201611 2 0.5\n# alpha 3602511 1 0.5\n# waitandnext 0.5\n\n# textwindow \"normal\"\n# textflame 1 1\n# textboxarrow 0 3\n# face 3602511 \"happy\"\n# voice 6025 \"chalice_t_0004\"\n# chara 3602511\n@カリス\nあ～！シタだ！\nシタ、シタ～っ、退屈だから\n外に出して～！\n\n# textflame 1 1\n# textboxarrow 0 3\n# chara 3602511\n@カリス\nカリスちゃんのミラクルを待ってる\n人達がたくさんいると思うんだよね～\nだから外に出たいんだ！\n\n# textflame 1 1\n# textboxarrow 0 1\n# voice 320161 \"shita_t_0009\"\n# face 3201611 \"sad\"\n# chara 3201611\n@シタ\n…反省の色が見られませんね\nいいですか、カリス\nあなたは契約違反をしました\n\n# textflame 1 1\n# textboxarrow 0 1\n# chara 3201611\n@シタ\n教皇様のお考えに反し、\nイミテーションの治療を行うという\n違反行為です\n\n# textflame 1 1\n# textboxarrow 0 3\n# face 3602511 \"sad\"\n# voice 6025 \"chalice_t_0002\"\n# chara 3602511\n@カリス\nね～ね～、\nシタはなんでいっつも敬語なの？\n\n# textflame 1 1\n# textboxarrow 0 3\n# face 3602511 \"normal\"\n# chara 3602511\n@カリス\nわたし達、友達だよね\nもっと砕けた感じで、おっけい！\n\n# textflame 1 1\n# textboxarrow 0 1\n# voice 320161 \"shita_t_0011\"\n# face 3201611 \"angry\"\n# chara 3201611\n@シタ\nおっけい、ではありません\nいけませんねえ\nまた罰を下すことになりますよ\n\n# alpha 163 1 0.3\n# textflame 1 1\n# textboxarrow 0 2\n# voice 9951 \"kipuru_0031\"\n# chara 163\n@キプル\nすすすすみませぇん…！\nいつもいつもカリスが\nご迷惑をおかけしてっ…\n\n# textflame 1 1\n# textboxarrow 0 2\n# chara 163\n@キプル\nカリスはもうそれはそれは\n深く反省しているんです…\nどうかお許し下さいませっ…\n\n# textflame 1 1\n# textboxarrow 0 1\n# voice 320161 \"shita_t_0013\"\n# face 3201611 \"usual\"\n# chara 3201611\n@シタ\nあなたが謝っても仕方ないんですけど\n…カリス、二度と無断で治療を\n行わないと約束できますか？\n\n# textflame 1 1\n# textboxarrow 0 3\n# face 3602511 \"angry\"\n# voice 6025 \"chalice_t_0011\"\n# chara 3602511\n@カリス\nむり！\nカリスちゃんはマジ天使なので\n分け隔てなく救済するんだよ～！\n\n# textwindow \"toge\"\n# se \"SE_4747\"\n# move 163 5 0.3\n# textsize 30\n# shake 0 0.6\n# textflame 1 1\n# textboxarrow 0 0\n# voice 9951 \"kipuru_0023\"\n# chara 163\n@キプル\nしょえぇぇぇぇぇ！！\nカリス、なんてことをっ…\n\n# textwindow \"normal\"\n# textsize 24\n# textflame 1 1\n# textboxarrow 0 1\n# face 3201611 \"sad\"\n# voice 320161 \"shita_t_0027\"\n# chara 3201611\n@シタ\n契約違反…ですね\nまだしばらく、あなたをここから\n出すわけにはいかないようです\n\n# textflame 1 1\n# textboxarrow 0 1\n# face 3201611 \"angry\"\n# chara 3201611\n@シタ\n…忘れないで下さいね\n\n# textflame 1 1\n# textboxarrow 0 1\n# chara 3201611\n@シタ\nあなたがそういう態度を\n取り続けるようなら、\n処断しなくてはなりません\n\n# textflame 1 1\n# textboxarrow 0 1\n# face 3201611 \"usual\"\n# voice 320161 \"shita_t_0026\"\n# chara 3201611\n@シタ\nそんなこと…\n誰も望んでいないんですよ\n\n;;シタが立ち去る\n# textwindow \"close\"\n# se \"SE_0740\"\n# alpha 3201611 0 0.5\n# waitandnext 0.8\n\n;;◆カリスとキプル\n# bgmfile \"bgm272\" \"BgmLostRagnarokEvent\" 0\n# alpha 163 0 0.5\n# alpha 3602511 0 0.5\n# waitandnext 0.5\n\n# mask 3602511 off\n# mask 163 off\n# pos 3602511 3\n# pos 163 4\n# face 3602511 \"normal\"\n# alpha 163 1 0.5\n# alpha 3602511 1 0.5\n# waitandnext 0.5\n\n# textwindow \"normal\"\n# textflame 1 1\n# textboxarrow 0 3\n# voice 9951 \"kipuru_0054\"\n# chara 163\n@キプル\nカリス！\nお願いですから少しは考えて\nものを言って下さい！\n\n# textflame 1 1\n# textboxarrow 0 3\n# chara 163\n@キプル\nキプルはカリスのことが\n心配で心配で…\n\n# textflame 1 1\n# textboxarrow 0 3\n# chara 163\n@キプル\nいつかキプルでは\n守りきれないことに\nなるかもしれません\n\n# textflame 1 1\n# textboxarrow 0 2\n# face 3602511 \"happy\"\n# voice 6025 \"chalice_t_0004\"\n# chara 3602511\n@カリス\nキプルは心配性だね～っ\nでも、シタだって教皇様だって\nきっと分かってくれるよ！\n\n# textflame 1 1\n# face 3602511 \"normal\"\n# textboxarrow 0 2\n# chara 3602511\n@カリス\nハルモニアの人達はもちろん、\nケイオスリオンの人も\n\n# textflame 1 1\n# textboxarrow 0 2\n# chara 3602511\n@カリス\nトレイセーマの人も\nイミテーションもみんな…\n\n# textflame 1 1\n# textboxarrow 0 2\n# face 3602511 \"happy\"\n# voice 6025 \"chalice_t_0021\"\n# chara 3602511\n@カリス\nわたしは救ってみせるんだ！\nそんなミラクル、期待しててねっ\n\n# textflame 1 1\n# textboxarrow 0 3\n# voice 9951 \"kipuru_0055\"\n# chara 163\n@キプル\nカリス…\nその気持ちは素晴らしいと\n思いますけど―\n\n# textflame 1 1\n# textboxarrow 0 3\n# chara 163\n@キプル\nここに監禁されていては\n元も子もないんですよ…\n\n# textflame 1 1\n# textboxarrow 0 2\n# face 3602511 \"sad\"\n# voice 6025 \"chalice_t_0027\"\n# chara 3602511\n@カリス\nそうなんだよね～\nマリアともまた会うって約束したし、\nそろそろ外に出たいな～\n\n# textflame 1 1\n# textboxarrow 0 3\n# voice 9951 \"kipuru_0009\"\n# chara 163\n@キプル\nだったらシタさんに反省した振りでも\n見せれば良かったんです…！\nどうしてそうしなかったんですかっ\n\n# textflame 1 1\n# textboxarrow 0 2\n# face 3602511 \"angry\"\n# voice 6025 \"chalice_t_0034\"\n# chara 3602511\n@カリス\nそんなの、やだ！\nシタは友達だよっ\n友達に嘘つくなんてできないっ\n\n# textflame 1 1\n# textboxarrow 0 3\n# voice 9951 \"kipuru_0027\"\n# chara 163\n@キプル\nはぁー…カリスはそうですよね…\nそこが良いところですからね…\nキプルキプルキプルキプル…\n\n# textflame 1 1\n# textboxarrow 0 2\n# face 3602511 \"normal\"\n# voice 6025 \"chalice_t_0061\"\n# chara 3602511\n@カリス\nそんなに悩まなくても大丈夫だよ～\nきっとすぐに…あ！ね～ね～、\nソロモンが言ってたこと覚えてる？\n\n# textflame 1 1\n# textboxarrow 0 3\n# voice 9951 \"kipuru_0032\"\n# chara 163\n@キプル\nソロモンさんですか…\nあの方もカリスのことを\n気にかけてくれて本当に助かります…\n\n# textflame 1 1\n# textboxarrow 0 2\n# chara 3602511\n@カリス\nそうじゃなくて～\nソロモンがティルヘルムに\n出かける前に言ってたの！\n\n# textflame 1 1\n# textboxarrow 0 2\n# face 3602511 \"happy\"\n# voice 6025 \"chalice_t_0005\"\n# chara 3602511\n@カリス\n“人類浄化計画”！\nイミテーションをみんな一つの区画に\n集めて生活しやすくするんだって\n\n# textflame 1 1\n# textboxarrow 0 2\n# chara 3602511\n@カリス\n教皇様もちゃんとイミテーションの\n生活を考えてたんだよ！\nさすが教皇様だよね～っ\n\n# textflame 1 1\n# textboxarrow 0 2\n# chara 3602511\n@カリス\n計画が順調に進んでるのか\n誰か教えてくれないかな～？\n\n# textflame 1 1\n# textboxarrow 0 3\n# voice 9951 \"kipuru_0002\"\n# chara 163\n@キプル\n次にシタさんが来たとき、\n尋ねてみたらどうですか？\n\n# textflame 1 1\n# textboxarrow 0 2\n# face 3602511 \"normal\"\n# voice 6025 \"chalice_t_0003\"\n# chara 3602511\n@カリス\nうんうん！そうだねっ\nシタともお喋りできるし、\n一石二鳥だよ～\n\n# textflame 1 1\n# textboxarrow 0 2\n# chara 3602511\n@カリス\n…それとも、\nフォルカスに聞いた方が\n良いのかな～？\n\n# textflame 1 1\n# textboxarrow 0 3\n# voice 9951 \"kipuru_0034\"\n# chara 163\n@キプル\nそれは畏れ多いでしょう…\nセイントキラーズのお一人と\n直接お話しするなんてっ…\n\n# textflame 1 1\n# textboxarrow 0 2\n# face 3602511 \"happy\"\n# voice 6025 \"chalice_t_0032\"\n# chara 3602511\n@カリス\nそうなんだ\nなんとなく、その方が良いかな～って\n思っただけだから気にしないで\n\n# textflame 1 1\n# textboxarrow 0 3\n# voice 9951 \"kipuru_0026\"\n# chara 163\n@キプル\nカリスの「なんとなく」はいつも\nとんでもないことを引き起こします\nから怖くてたまりません…\n\n# textflame 1 1\n# textboxarrow 0 2\n# face 3602511 \"sad\"\n# voice 6025 \"chalice_t_0026\"\n# chara 3602511\n@カリス\nむー…\nそんなことないよ～\nあれっ？\n\n;;◆レーヴァ\n;;窓を割ってレーヴァテインが室内に飛び込んでくる\n# bgm \"stop\"\n# textwindow \"close\"\n# alpha 3602511 0 0.3\n# alpha 163 0 0.3\n# se \"SE_9063\"\n# shake 0 0.8\n# fadein \"white\" 0.6\n# waitandnext 0.7\n\n# se \"SE_5257\"\n# alpha 3100211 1 0.5\n# alpha 161 1 0.5\n# waitandnext 0.5\n\n# se \"SE_5586\"\n# bgmfile \"bgm276\" \"BgmLostRagnarokEvent\" 0\n# textwindow \"normal\"\n# shake 0 0.5\n# textflame 1 1\n# textboxarrow 0 2\n# face 3100211 \"angry\"\n# voice 310021 \"revatein_ge_0038\"\n# chara 3100211\n@レーヴァテイン\nぐうぅぅっ…\nムー…あいつらはっ…？\nまだ…追ってきてる…？\n\n# textflame 1 1\n# textboxarrow 0 3\n# voice 9953 \"mwu_0027\"\n# chara 161\n@ムー\n大丈夫だ…\nとりあえず逃げ切ったみてぇだが…\n酷い傷だな\n\n# textflame 1 1\n# textboxarrow 0 2\n# voice 310021 \"revatein_ge_0014\"\n# chara 3100211\n@レーヴァテイン\nあのバカのせいよ\nなんてことを…\n\n# textwindow \"close\"\n# move 3100211 1 0.6\n# move 161 2 0.6\n# waitandnext 0.1\n\n# mask 3602511 on\n# mask 163 on\n# pos 3602511 4\n# pos 163 5\n# alpha 3602511 1 0.5\n# alpha 163 1 0.5\n# waitandnext 0.5\n\n# textwindow \"normal\"\n# textflame 1 1\n# textboxarrow 0 3\n# face 3602511 \"surprise\"\n# voice 6025 \"chalice_t_0002\"\n# chara 3602511\n@カリス\nお姉さん、誰～？\nえっ？怪我してるよ～\n早く手当てしないとっ\n\n# textflame 1 1\n# textboxarrow 0 3\n# chara 163\n@キプル\nカリス、早まってはいけません！\nその斬ル姫は他国の…\n\n# shake 0 0.6\n# textwindow \"toge\"\n# textflame 1 1\n# textsize 35\n# textboxarrow 0 3\n# voice 9951 \"kipuru_0023\"\n# chara 163\n@キプル\nしょえぇぇぇぇぇ！！\n\n# textwindow \"normal\"\n# textflame 1 1\n# textboxarrow 0 3\n# textsize 24\n# chara 163\n@キプル\nキプルと同じ\nオートアバターではありませんか！\nまさか他国にもいたなんてっ…"
	}
]