[
	{
		"ID": 100211160,
		"script": ";;第1-16話　タイトル：チーキー・プリズナー\n;;//背景：ケイオスリオン\n# script \"lisp\"\n# background \"300_devil_daytime03\"\n# bgmfile \"bgm272\" \"BgmLostRagnarokEvent\" 0\n# textwindow \"nomal\"\n# body 3100211\n# pos 3100211 1\n# layer 3100211 3\n# scale 3100211 0.8 0\n# brightness 3100211 0.3 0\n# body 3302811\n# pos 3302811 4\n# scale 3302811 0.8 0\n# layer 3302811 0\n# body 162\n# pos 162 5\n# layer 162 2\n# scale 162 0.6 0\n# alpha 162 0 0\n# body 161\n# pos 161 2\n# layer 161 4\n# scale 161 0.6 0\n# alpha 161 0 0\n# textflame 1 1\n# voice 3028 \"herena_a_0002\"\n# textboxarrow 0 3\n@ヘレナ\nなあ、レーヴァ\n話聞いてる？\n\n# voice 310021 \"revatein_ge_0022\"\n# brightness 3100211 1 0.5\n# face 3100211 \"surprise\"\n# textflame 1 1\n# textboxarrow 0 1\n@レーヴァテイン\nあ…ごめん\n\n# voice 3028 \"herena_a_0004\"\n# textflame 1 1\n# textboxarrow 0 3\n@ヘレナ\nヘレナとの出会いを思い出して\n懐かしくなってたわけじゃないよね？\n\n# face 3100211 \"normal\"\n# textflame 1 1\n# textboxarrow 0 3\n@ヘレナ\nくふっ\n\n# voice 310021 \"revatein_ge_0013\"\n# face 3100211 \"sad\"\n# textflame 1 1\n# textboxarrow 0 1\n@レーヴァテイン\n相変わらず、よく見てるのね\n\n# voice 3028 \"herena_a_0007\"\n# textflame 1 1\n# textboxarrow 0 3\n@ヘレナ\nまさか\nレーヴァが分かりやす過ぎるだけだ\n\n# voice 9953 \"mwu_0028\"\n# alpha 161 1 0.5\n# alpha 162 1 0.5\n# textflame 1 1\n# textboxarrow 0 1\n@ムー\nそうかー？\n\n# voice 9953 \"mwu_0027\"\n# face 3100211 \"normal\"\n# textflame 1 1\n# textboxarrow 0 1\n@ムー\n俺なんか未だに\nレヴァの考えてることなんざ、\nさっぱり分からねぇよ！\n\n# textflame 1 1\n# textboxarrow 0 3\n@ニール\nムーは大雑把だからね\n\n# voice 9953 \"mwu_0007\"\n# textflame 1 1\n# textboxarrow 0 1\n@ムー\n器が大きいと言ってくれ！\nなにしろ俺は最大最強の幻獣――\n\n# voice 310021 \"revatein_ge_0007\"\n# bgmfile \"bgm271\" \"BgmLostRagnarokEvent\" 0\n# face 3100211 \"angry\"\n# face 3302811 \"surprise\"\n# textflame 1 1\n# textboxarrow 0 1\n@レーヴァテイン\n黙って\n…一度、皆を集める\nヘレナはカリスを呼んできて\n\n# voice 3028 \"herena_a_0028\"\n# face 3302811 \"usual\"\n# textflame 1 1\n# textboxarrow 0 3\n@ヘレナ\nなにか話したいことでも？\n\n# voice 310021 \"revatein_ge_0003\"\n# textflame 1 1\n# textboxarrow 0 1\n@レーヴァテイン\nそうよ…\nそろそろナディアを迎えに行くわ"
	}
]