[
	{
		"ID": 10026302,
		"script": "# script \"lisp\"\n# background \"antiquity\"\n# bgm \"bgm001\" 0\n# body 100261\n# mask 100261 off\n# pos 100261 3\n# textboxarrow 0 2\n# chara 100261\n# textflame 0 0\n@\nせっかくの水着での休日\n\n# textflame 0 0\n@\nレーヴァテインになんとか\nリフレッシュをしてもらいたい\nマスターはある策に出た\n\n# textflame 1 1\n# voice 1002 \"revatein_0013\"\n# chara 100261\n@レーヴァテイン\nまた来たの？\nだから、ここから離れる気は…\n\n# face 100261 \"worry1\"\n# voice 1002 \"revatein_0009\"\n# chara 100261\n@レーヴァテイン\n…なに、それ？\n\n# face 100261 \"worry1\"\n# voice 1002 \"revatein_0011\"\n@レーヴァテイン\nそんなトロピカルジュース\n持ってきても無駄よ\n\n# voice 1002 \"revatein_0014\"\n# chara 100261\n@レーヴァテイン\nそんな焼きとうもろこし\n持ってきても無駄よ\n\n# face 100261 \"worry2\"\n# voice 1002 \"revatein_0023\"\n# chara 100261\n@レーヴァテイン\nそんな真珠持ってきても無駄よ\n…って、どうしたの？それ！\n潜って獲ってきたの！？\n\n# face 100261 \"worry1\"\n# voice 1002 \"revatein_0027\"\n# chara 100261\n@レーヴァテイン\n…まったく\n\n# voice 1002 \"revatein_0013\"\n# chara 100261\n@レーヴァテイン\nもう…今度はなに？\n\n# select \"日焼け止め…塗ってあげようか…？\" \"select_label_01\" \"寝そべってくれたら、日焼け止めを…\" \"select_label_02\" \"魅力的な白い肌に…日焼け止めを…\" \"select_label_03\"\nもう…今度はなに？\n\n# label \"select_label_01\"\n# labeljump \"select_label_end\"\n# chara 100261\n@レーヴァテイン\n…………は？\n\n# label \"select_label_02\"\n# labeljump \"select_label_end\"　\n# chara 100261\n@レーヴァテイン\n…………は？\n\n# label \"select_label_03\"\n# labeljump \"select_label_end\"\n# chara 100261\n@レーヴァテイン\n…………は？\n\n# face 100261 \"normal\"\n# label \"select_label_end\"\n# voice 1002 \"revatein_0007\"\n# chara 100261\n@レーヴァテイン\nふ〜ん…そんなこと言って、\n私の体に触ろうっていうの…？\nこの…\n\n# face 100261 \"angry\"\n# textwindow \"toge\"\n# textsize 34\n# voice 1002 \"revatein_kyara_1013\" \n# chara 100261\n@レーヴァテイン\nヘンタイ！\n\n# textwindow \"normal\"\n# textsize 24\n# textflame 0 0\n@\n彼女の言葉が鋭く突き刺さる\n\n# textflame 0 0\n@\nマスターは彼女に向き直り、\n真正面から聞いてみた\n\n# textflame 0 0\n@\n“本当の理由を教えてよ”\n\n# face 100261 \"worry2\"\n# textflame 1 1\n# voice 1002 \"revatein_0013\" \n# chara 100261\n@レーヴァテイン\n…………\n\n# voice 1002 \"revatein_0003\" \n# chara 100261\n@レーヴァテイン\n女にはね…\n知られたくないこともあるのよ\n\n# textflame 0 0\n@\n夏の日差しとは対照的な\n暗い目を落とした彼女\n\n# textflame 0 0\n@\nマスターはもうそれ以上、\n聞くのをやめた"
	}
]