[
	{
		"ID": 100211091,
		"script": ";;1-9_戦闘前\n;;第1-9話　タイトル：チーキー・プリズナー\n;;背景：ケイオスリオン城内\n# script \"lisp\"\n# background \"300_devil_room\"\n# bgmfile \"bgm295\" \"BgmLostRagnarokBattle003\" 0\n;;レーヴァテイン\n# body 3100211\n# mask 3100211 off\n# pos 3100211 3\n# scale 3100211 0.8 0\n# alpha 3100211 0 0\n;;ムー\n# body 161\n# pos 161 4\n# scale 161 0.6 0\n# alpha 161 0 0\n;;ヘレナ\n# body 3302811\n# pos 3302811 4\n# scale 3302811 0.8 0\n# alpha 3302811 0 0\n;;ニール\n# body 162\n# pos 162 3\n# scale 162 0.6 0\n# alpha 162 0 0\n;;ゲバルト伯爵\n# body 160\n# mask 160 off\n# pos 160 3\n# scale 160 0.8 0\n# layer 3100211 1\n# layer 161 4\n# layer 3302811 2\n# layer 162 5\n# layer 160 3\n# textflame 1 1\n# textboxarrow 0 2\n# chara 160\n@ゲバルト伯爵\n天上の神秘を内に秘め、\nはかなく舞い落ちてきた新雪は\n銀の輝きで衆生の心を惑わす\n\n# textflame 1 1\n# textboxarrow 0 2\n# chara 160\n@ゲバルト伯爵\n凍てつく鉄槌が胸を打ち、\nさんざめく波に体は千々と乱れた\n\n# face 160 \"angry\"\n# textflame 1 1\n# textboxarrow 0 2\n# chara 160\n@ゲバルト伯爵\n下界の無情を凝り固めた苦界に、\n鮮烈なる異邦人を迎えるとは、\n穢土は地獄か極楽か！\n\n# alpha 160 0 0.5\n# alpha 161 1 0.5\n# alpha 3100211 1 0.5\n# textflame 1 1\n# textboxarrow 0 3\n# chara 161\n# voice 9953 \"mwu_0026\"\n@ムー\n…なんだ、こいつ？\n気持ち悪ぃな\n\n# face 3100211 \"sad\"\n# textflame 1 1\n# textboxarrow 0 2\n# chara 3100211\n@レーヴァテイン\nムー、黙って\n\n# imageset 1 \"bg_white_circle\"\n# imagelayer 1 2\n# imagealpha 1 0 0\n# imagescale 1 1.2 0\n# textflame 1 1\n# textboxarrow 0 2\n# chara 3100211\n@レーヴァテイン\nこの男が、ゲバルト卿…\n\n;;回想シーン\n;;背景：ケイオスリオン\n# se \"SE_0742\"\n# bgmfile \"bgm271\" \"BgmLostRagnarokEvent\" 0\n# background \"300_devil_night03\"\n# fadein \"white\" 0.5\n# imagepos 1 0 30\n# imagealpha 1 1 0\n# alpha 161 0 0\n# mask 3100211 on\n# move 3100211 2 0\n# alpha 3302811 1 0\n# textflame 1 1\n# face 3100211 \"angry\"\n# textboxarrow 0 1\n# chara 3100211\n@レーヴァテイン\n…交換条件はなに？\n\n# textflame 1 1\n# textboxarrow 0 3\n# chara 3302811\n# voice 3028 \"herena_a_0031\"\n@ヘレナ\n話が早いな\nヘレナの悪戯を手伝って欲しいんだ\nそんなに難しいことじゃない\n\n# textflame 1 1\n# textboxarrow 0 3\n# chara 3302811\n@ヘレナ\nゲバルト卿の城に行って、\n宝物庫から大切な宝物を盗むだけの\n簡単な作業だよ\n\n# textflame 1 1\n# textboxarrow 0 3\n# chara 3302811\n# voice 3028 \"herena_a_0004\"\n@ヘレナ\n…くふっ\n\n# move 161 3 0\n# alpha 161 1 0.5\n# textflame 1 1\n# textboxarrow 0 2\n# chara 161\n# voice 9953 \"mwu_0010\"\n@ムー\nお宝泥棒とは穏やかじゃねえな！\nレヴァを悪党に\n仕立て上げるつもりかよ！\n\n# textflame 1 1\n# textboxarrow 0 3\n# chara 3302811\n@ヘレナ\nだから、ちょっとした悪戯だよ\n\n# face 3302811 \"sad\"\n# textflame 1 1\n# textboxarrow 0 3\n# chara 3302811\n@ヘレナ\nゲバルト卿が宝物庫に\nすごい宝物を隠してるのは\n知ってるんだけど…\n\n# textflame 1 1\n# textboxarrow 0 3\n# chara 3302811\n# voice 3028 \"herena_a_0028\"\n@ヘレナ\nヘレナには\n一度も見せてくれたことが\nないんだよね\n\n# face 3302811 \"normal\"\n# textflame 1 1\n# textboxarrow 0 3\n# chara 3302811\n@ヘレナ\nどんな物なのか興味があるんだ\n\n# textflame 1 1\n# textboxarrow 0 1\n# chara 3100211\n@レーヴァテイン\n…自分で見つければ良いのに、\nどうして私に頼むの？\n\n# textflame 1 1\n# textboxarrow 0 3\n# chara 3302811\n@ヘレナ\n場所は分かってる\nでも、ヘレナは近づけないよう\n封印が施してあるんだ\n\n# alpha 162 1 0.5\n# alpha 3302811 0 0.5\n# alpha 3100211 0 0.5\n# alpha 161 0 0.5\n# textflame 1 1\n# textboxarrow 0 2\n# chara 162\n# voice 9952 \"nir_0028\"\n@ニール\n霊装支配されてる\n斬ル姫専用の封印ってところね\n\n# alpha 162 0 0.5\n# alpha 3302811 1 0.5\n# alpha 3100211 1 0.5\n# alpha 161 1 0.5\n# textflame 1 1\n# textboxarrow 0 3\n# chara 3302811\n# voice 3028 \"herena_a_0002\"\n@ヘレナ\nアナタは誰にも使役されてないみたい\nだから、宝物庫にも入れるだろ\n\n# textflame 1 1\n# textboxarrow 0 3\n# chara 3302811\n@ヘレナ\nお宝がどんなものか分かったら\nヘレナは満足だから、\n盗んだ物はすぐに戻せば良い\n\n# textflame 1 1\n# textboxarrow 0 3\n# chara 3302811\n# voice 3028 \"herena_a_0004\"\n@ヘレナ\n城中、大騒ぎになるだろうけど、\nなんの実害もないちょっとした悪戯だ\n手伝ってくれるよね…くふっ\n\n# face 3100211 \"sad\"\n# textflame 1 1\n# textboxarrow 0 1\n# chara 3100211\n@レーヴァテイン\n…………\n\n# textflame 1 1\n# textboxarrow 0 2\n# chara 161\n# voice 9953 \"mwu_0040\"\n@ムー\nレヴァに泥棒の真似事させるのは\n気が進まねぇが、\nそのくらいなら確かに可愛いもんだ\n\n# textflame 1 1\n# textboxarrow 0 2\n# chara 161\n# voice 9953 \"mwu_0001\"\n@ムー\n悪魔人達に一泡吹かせることも\nできて面白そうだぜ！\nどうするよ、レヴァ？\n\n# face 3100211 \"normal\"\n# textflame 1 1\n# textboxarrow 0 1\n# chara 3100211\n# voice 310021 \"revatein_ge_0013\"\n@レーヴァテイン\n…分かった\n交渉成立ね\n\n# textflame 1 1\n# textboxarrow 0 3\n# chara 3302811\n# voice 3028 \"herena_a_0030\"\n@ヘレナ\n嬉しいなあ\nレーヴァテインに\n手伝ってもらえるなら百人力だよ\n\n# textflame 1 1\n# textboxarrow 0 3\n# chara 3302811\n# voice 3028 \"herena_a_0004\"\n@ヘレナ\n…くふっ\n\n# textflame 1 1\n# textboxarrow 0 3\n# chara 3302811\n@ヘレナ\n段取りはまた後で\n先にアナタ達の探し物を\n見つけてあげないとね\n;;回想終了"
	}
]