[
	{
		"ID": 100211130,
		"script": ";;第1-13話　タイトル：チーキー・プリズナー\n;;//背景：大穴付近\n# script \"lisp\"\n# background \"101_plain_daytime\"\n# bgmfile \"bgm272\" \"BgmLostRagnarokEvent\" 0\n# textwindow \"nomal\"\n# body 3100211\n# mask 3100211 off\n# pos 3100211 2\n# scale 3100211 0.8 0\n# body 161\n# mask 161 off\n# pos 161 4\n# scale 161 0.6 0\n# layer 161 3\n# body 101415\n# pos 101415 4\n# scale 101415 0.8 0\n# alpha 101415 0 0\n# body 23\n# pos 23 2\n# scale 23 0.8 0\n# alpha 23 0 0\n# voice 9953 \"mwu_0004\"\n# textflame 1 1\n# textboxarrow 0 3\n@ムー\nいやーっ！\n久々に大暴れして\n気持ち良かったぜ\n\n# textflame 1 1\n# textboxarrow 0 3\n@ムー\n俺の勇姿に惚れ直したか、レヴァ？\nなんつってな！ははは！\n\n# textflame 1 1\n# textboxarrow 0 1\n@レーヴァテイン\n…………\n\n# voice 9953 \"mwu_0001\"\n# move 161 3 0.5\n# textflame 1 1\n# textboxarrow 0 2\n@ムー\nおーい、レヴァ？\n目ぇ開けて寝るとか\n器用な真似しないでくれよー\n\n# voice 310021 \"revatein_ge_0013\"\n# textflame 1 1\n# textboxarrow 0 1\n@レーヴァテイン\n起きてるわ…\nティルフィングをどこに運ぼうか\n考えていただけよ\n\n# voice 9953 \"mwu_0028\"\n# move 161 4 0.5\n# textflame 1 1\n# textboxarrow 0 3\n@ムー\nちょっと待てよ\nその前にヘレナ達を助けに行こうぜ\n多分、まずいことになってんだろうし\n\n# textflame 1 1\n# textboxarrow 0 3\n@ムー\nピンチのところに颯爽と駆けつけて\n「大丈夫ですか、お嬢さん」\nとか言ってな！\n\n# voice 9953 \"mwu_0042\"\n# textflame 1 1\n# textboxarrow 0 3\n@ムー\n「まあ、なんて素敵な幻獣様なの！\n　抱いて！」とか言われてな！\nいやあ、もてる幻獣は辛いわーっ\n\n# textflame 1 1\n# textboxarrow 0 1\n@レーヴァテイン\n…………\n\n# voice 9953 \"mwu_0022\"\n# textflame 1 1\n# textboxarrow 0 3\n@ムー\nえええええ！？\n無視かよっ\nツッコんでくれよぉっ…\n\n# bgmfile \"bgm271\" \"BgmLostRagnarokEvent\" 0\n# textflame 1 1\n# textboxarrow 0 3\n@ムー\n冗談抜きで、ヘレナ達が伯爵の怒りを\n買ってたらどうすんだよ？\n俺達のせいだぜっ\n\n# voice 310021 \"revatein_ge_0007\"\n# textflame 1 1\n# textboxarrow 0 1\n@レーヴァテイン\n彼女はそんなにバカじゃない…\n上手く言い逃れる\n\n# face 3100211 \"sad\"\n# textflame 1 1\n# textboxarrow 0 1\n@レーヴァテイン\nそれに、彼女との約束は果たした\nお互いに貸し借りはなしよ\n\n# face 3100211 \"angry\"\n# textflame 1 1\n# textboxarrow 0 1\n@レーヴァテイン\nもう忘れて、\n次のことに意識を向けないと…\n使命を果たさないといけない\n\n# voice 9953 \"mwu_0001\"\n# textflame 1 1\n# textboxarrow 0 3\n@ムー\n…なぁ、レヴァ\n本気で言ってんのか？\nだとしたら、さすがの俺も怒るぜ\n\n# textflame 1 1\n# textboxarrow 0 3\n@ムー\n宝物を奪われた伯爵がこのままで\n済ますわけがねぇ！\nきっと追っ手がかかる…\n\n# textflame 1 1\n# textboxarrow 0 3\n@ムー\nそんときはヘレナを出すはずだ\nでも、ヘレナはすぐ悪魔人達を\nからかったりするから\n\n# textflame 1 1\n# textboxarrow 0 3\n@ムー\n伯爵はきっとヘレナに\nきっつい洗脳を施して\n\n# textflame 1 1\n# textboxarrow 0 3\n@ムー\n絶対に逆らわない人形みたく\n作り直そうとするぜ！\n\n# textflame 1 1\n# textboxarrow 0 3\n@ムー\nお前だってトレイセーマで見ただろ！\n霊装支配専用の施設で\nなにが行われていたのかっ\n\n# textflame 1 1\n# textboxarrow 0 3\n@ムー\nここであいつを解放してやるんだよ！\nそうしたら、きっと良い仲間になるぜ\nお互いに良いことずくめじゃねぇか！\n\n# move 161 3 0.5\n# textflame 1 1\n# textboxarrow 0 2\n@ムー\nなあ、助けに行こうぜレヴァ！\nそんで「素敵、抱いて！」って――\n\n# voice 310021 \"revatein_ge_0014\"\n# face 3100211 \"angry\"\n# move 3100211 3 0.5\n# textflame 1 1\n# textboxarrow 0 2\n@レーヴァテイン\n黙って\n\n# se \"SE_0694\"\n# shake 0 0.5\n# waitandnext 0.5\n\n# textflame 1 1\n# textboxarrow 0 2\n@ムー\nムギュギュギュギュッ…\n\n# shake 0 0.5\n# move 161 4 0.3\n# move 3100211 2 0.3\n# textflame 1 1\n# textboxarrow 0 3\n@ムー\nム…グアハアアアアアア！！\n黙ってられるかあああ！！\n\n# voice 310021 \"revatein_ge_0022\"\n# face 3100211 \"surprise\"\n# textflame 1 1\n# textboxarrow 0 1\n@レーヴァテイン\n！？\n\n# bgmfile \"bgm170\" \"BgmPJZero_EV001\" 0\n# textflame 1 1\n# textboxarrow 0 3\n@ムー\nここは意地でも言わせてもらう！\nレヴァ！お前には仲間が必要なんだよ\n一人で背負い込もうとすんじゃねえ！\n\n# voice 310021 \"revatein_ge_0010\"\n# face 3100211 \"angry\"\n# textflame 1 1\n# textboxarrow 0 1\n@レーヴァテイン\n私は一人でもやれる…\n\n# voice 9953 \"mwu_0007\"\n# move 161 3 0.3\n# textflame 1 1\n# textboxarrow 0 2\n@ムー\nふっざけんな！\nだったら、これはなんだ！？\n\n;;//ムーがレーヴァテインから聖釘ヘレナを奪う\n# textflame 1 1\n# textboxarrow 0 2\n@ムー\nこの釘、宝物庫から\n持ち出してきてんじゃねえか！\n俺もやっとわかったぞ、この釘は…\n\n# textflame 1 1\n# textboxarrow 0 2\n@ムー\n聖釘ヘレナ！\n伝説の武具の一つだ！\n\n# textflame 1 1\n# textboxarrow 0 2\n@ムー\nお前、前に言ってたよなっ\n\n# textflame 1 1\n# textboxarrow 0 2\n@ムー\n伝説の武具を手にすれば、\n斬ル姫のキラーズが活性化して\n霊装支配を破れるって\n\n# textflame 1 1\n# textboxarrow 0 2\n@ムー\nマスターがいないと安定しないとか\n力が増幅しないとかも言ってたが、\n今はどうでもいい！\n\n# textflame 1 1\n# textboxarrow 0 2\n@ムー\nようするに、こいつをヘレナに渡せば\nあいつは解放されるんだ！\nあのヘンテコ伯爵からなっ\n\n# textflame 1 1\n# textboxarrow 0 2\n@ムー\n仲間なんていらねぇなら、\nなんでこれを持ってきた！？\nあそこに捨ててくりゃ良かったろ！\n\n# face 3100211 \"sad\"\n# textflame 1 1\n# textboxarrow 0 1\n@レーヴァテイン\nたまたまよ…\n\n# textflame 1 1\n# textboxarrow 0 2\n@ムー\nたまたまだとぉっ？\n言い訳にもなってねぇぞ！\nレヴァ、ヘレナを仲間にしようぜ！\n\n# voice 310021 \"revatein_ge_0011\"\n# face 3100211 \"angry\"\n# textflame 1 1\n# textboxarrow 0 1\n@レーヴァテイン\n…あんな嘘つきは信用できない\n\n# voice 9953 \"mwu_0009\"\n# textflame 1 1\n# textboxarrow 0 2\n@ムー\n素直じゃねえってんなら\nレヴァもどっこいどっこいだろうが！\nああ、それでも構わねぇよ！\n\n# textflame 1 1\n# textboxarrow 0 2\n@ムー\n俺様は世界を背負う\n最大最強の幻獣バハムート様だぞ！\n器のでかさなめんじゃねえ！\n\n# textflame 1 1\n# textboxarrow 0 2\n@ムー\nそしてレヴァ！\nお前は俺と一心同体だ\n\n# textflame 1 1\n# textboxarrow 0 2\n@ムー\n可愛らしい嘘なんざ、\nどーんと受け止める\n大物っぷりを見せろよ！\n\n# textflame 1 1\n# textboxarrow 0 2\n@ムー\nそれこそがどでかい使命を\n背負った者の器ってもんだ！！\n\n# voice 310021 \"revatein_ge_0027\"\n# textflame 1 1\n# textboxarrow 0 1\n@レーヴァテイン\n…なに言ってるの\n器だとか大物だとか、\nそんなの関係ない\n\n# textflame 1 1\n# textboxarrow 0 1\n@レーヴァテイン\n私は託されたの…\nティルフィングに…兄さんに…\n人類の未来を…！\n\n# textflame 1 1\n# textboxarrow 0 2\n@ムー\nだから一人で背負うなって\n何度も言ってんだろうが！！\n\n# textflame 1 1\n# textboxarrow 0 1\n@レーヴァテイン\n私が託されたのよ…！\n私が背負うべきでしょ…！\n\n# voice 9953 \"mwu_0014\"\n# textflame 1 1\n# textboxarrow 0 2\n@ムー\nお前だけが背負うことじゃねぇだろ！\nそこで眠ってるお嬢ちゃんも、\nお前の兄さんってやつも…\n\n# textflame 1 1\n# textboxarrow 0 2\n@ムー\nレヴァ一人に全部背負わせて\n平気な面してられるような、\n薄情な奴だったのか！？\n\n# face 3100211 \"surprise\"\n# textflame 1 1\n# textboxarrow 0 1\n@レーヴァテイン\n…！\n\n# textwindow \"close\"\n# fadeout \"white\" 0.5\n# waitandnext 0.5\n\n# face 23 \"smile_1\"\n# face 101415 \"smile\"\n# alpha 3100211 0 0\n# alpha 161 0 0\n# alpha 23 1 0\n# alpha 101415 1 0\n# background \"underwild\"\n# waitandnext 0.5\n\n# fadein \"white\" 0.5\n# waitandnext 2\n\n# fadeout \"white\" 0.5\n# waitandnext 0.5\n\n# alpha 3100211 1 0\n# alpha 161 1 0\n# alpha 23 0 0\n# alpha 101415 0 0\n# background \"101_plain_daytime\"\n# face 3100211 \"sad\"\n# waitandnext 0.5\n\n# fadein \"white\" 0.5\n# waitandnext 0.5\n\n# textwindow \"nomal\"\n# textflame 1 1\n# textboxarrow 0 2\n@ムー\nみんなで背負ってなにが悪いっ？\nでっけぇ使命なら、\nむしろ大勢で背負うもんだぜ！\n\n# textflame 1 1\n# textboxarrow 0 2\n@ムー\nま、俺は余裕で世界も背負える\n史上最大にして\n最強の幻獣だけどな！\n\n# se \"SE_0694\"\n# face 3100211 \"normal\"\n# move 3100211 3 0.5\n# textflame 1 1\n# textboxarrow 0 2\n@レーヴァテイン\nムー…\n\n# voice 9953 \"mwu_0015\"\n# textflame 1 1\n# textboxarrow 0 2\n@ムー\nうっ…！\nレヴァ…首はやめて…\nシャレにならねぇって…\n\n# voice 310021 \"revatein_ge_0004\"\n# face 3100211 \"shy\"\n# textflame 1 1\n# textboxarrow 0 2\n@レーヴァテイン\n…ありがと\n\n# move 161 4 0.25\n# textflame 1 1\n# textboxarrow 0 3\n@ムー\nうわっ！\n\n# textflame 1 1\n# textboxarrow 0 3\n@ムー\n…デレか？\nデレ期が来たのかレヴァ！？\nようやく俺の格好良さに――\n\n# voice 310021 \"revatein_ge_0002\"\n# face 3100211 \"angry\"\n# textflame 1 1\n# textboxarrow 0 2\n@レーヴァテイン\n行くわよ\n\n;;//レーヴァテインが走り去る\n# se \"SE_5575\"\n# textwindow \"close\"\n# alpha 3100211 0 0.5\n# move 3100211 2 0.5\n# waitandnext 0.5\n\n# textwindow \"nomal\"\n# textflame 1 1\n# textboxarrow 0 3\n@ムー\nあれー…\nデレ期短すぎんぞーっ\n;;//ムーも追いかける\n\n# se \"SE_4747\"\n# textwindow \"close\"\n# alpha 161 0 1\n# move 161 2 1\n# waitandnext 0.5\n\n# fadeout \"black\" 1\n# waitandnext 1"
	}
]