[
	{
		"ID": 100505033,
		"script": "# background \"400_angel_town_daytime\"\n# bgmfile \"bgm276\" \"BgmLostRagnarokEvent\" 0\n# body 3103811\n# pos 3103811 2\n# scale 3103811 0.8 0\n# body 3100711\n# pos 3100711 2\n# scale 3100711 0.8 0\n# alpha 3100711 0 0\n# body 139\n# pos 139 3\n# scale 139 0.8 0\n# alpha 139 0 0\n# layer 139 3\n# mask 139 off\n# body 3104011\n# pos 3104011 4\n# scale 3104011 0.8 0\n# alpha 3104011 0 0\n# body 3104111\n# pos 3104111 2\n# scale 3104111 0.8 0\n# alpha 3104111 0 0\n# body 3300111\n# pos 3300111 4\n# scale 3300111 0.8 0\n# body 3501711\n# pos 3501711 4\n# scale 3501711 0.8 0\n# alpha 3501711 0 0\n# textwindow \"nomal\"\n# textflame 1 1\n# textboxarrow 0 1\n# face 3103811 \"sad\"\n# voice 1038 \"almace_battle_0007\"\n# face 3300111 \"sad\"\n@アルマス\nぐうっ…！\n\n# voice 330011 \"ronginusu_t_0017\"\n# textboxarrow 0 3\n@ロンギヌス\nそんなっ…\n\n# voice 310071 \"arondaito_ge_battle_0008\"\n# alpha 3300111 0 0.5\n# alpha 3103811 0 0.5\n# face 3100711 \"angry\"\n# alpha 3100711 1 0.5\n# alpha 3501711 1 0.5\n# textboxarrow 0 1\n@アロンダイト\nまだです…\n\n# voice 350171 \"grimoire_ge_0024\"\n# textboxarrow 0 3\n@グリモワール\nこんな…ありえない…\n\n# voice 1040 \"morallta_0020\"\n# alpha 3100711 0 0.5\n# alpha 3501711 0 0.5\n# alpha 3104011 1 0.5\n# alpha 3104111 1 0.5\n# textboxarrow 0 3\n# face 3104011 \"happy\"\n@モラルタ\nそれが、あり得るんだな～\nさて、誰からとどめを刺そうかな～♪\n\n# face 3103811 \"angry\"\n# alpha 3104011 0 0.5\n# alpha 3104111 0 0.5\n# mask 3103811 off\n# move 3103811 3 0\n# alpha 3103811 1 0.5\n# textboxarrow 0 2\n@アルマス\n…待ちなさい\n私はまだ、倒れてないわよ\nこの剣は決して折れない！\n\n# alpha 3103811 0 0.5\n# alpha 139 1 0.5\n# face 139 \"surprise\"\n@ティターニア\nアルマス…ダメっ…\n\n# textboxarrow 0 3\n# alpha 3104011 1 0.5\n# alpha 3104111 1 0.5\n# alpha 139 0 0.5\n@モラルタ\nはい、けって～い！\nアルマスちゃん死刑！！\n"
	}
]