[
	{
		"ID": 100701061,
		"script": "# script \"lisp\"\n# background \"beast_world\"\n# bgmfile \"bgm278\" \"BgmLostRagnarokBattle002\" 0\n;;----------------------------------------------------------\n# body 151\n# pos 151 3\n# scale 151 0.8 0\n# layer 151 2\n# alpha 151 0 0\n# mask 151 off\n# face 151 \"normal\"\n# body 152\n# pos 152 3\n# scale 152 0.8 0\n# layer 152 3\n# alpha 152 0 0\n# mask 152 off\n# face 152 \"normal\"\n# body 153\n# pos 153 3\n# scale 153 0.8 0\n# layer 153 2\n# alpha 153 0 0\n# mask 153 off\n# face 153 \"normal\"\n# body 154\n# pos 154 3\n# scale 154 0.8 0\n# layer 154 2\n# alpha 154 0 0\n# mask 154 off\n# face 154 \"normal\"\n# body 3102511\n# pos 3102511 3\n# scale 3102511 0.8 0\n# layer 3102511 2\n# alpha 3102511 0 0\n# mask 3102511 off\n# face 3102511 \"normal\"\n# body 3100111\n# pos 3100111 3\n# scale 3100111 0.8 0\n# layer 3100111 2\n# alpha 3100111 0 0\n# mask 3100111 off\n# face 3100111 \"normal\"\n;;-----------------------------------------\n;;背景：トレイセーマ\n# face 153 \"usual\"\n# move 151 1 0\n# face 151 \"normal\"\n# alpha 151 1 0\n# mask 151 on\n# move 152 3 0\n# face 152 \"normal\"\n# alpha 152 1 0\n# mask 152 on\n# move 153 5 0\n# alpha 153 1 0\n# mask 153 on\n# textflame 1 1\n# textboxarrow 0 3\n# voice 9969 \"gill_0007\"\n@ギル\n久し振りのトレイセーマだな\nこの耳も久々だぜ！\n\n# face 151 \"normal\"\n# textboxarrow 0 1\n# voice 1038 \"almace_0007\"\n@アルマス\n何でテンション上がってるのよ…\nガンバンテインのお陰でスムーズに\n入国できたわね\n\n# face 152 \"normal\"\n# textboxarrow 0 2\n# voice 9967 \"titania_0006\"\n@ティターニア\nとはいえ、ここから首都まで\nかなりありますよ\n気を引き締めて下さいね\n\n# face 153 \"normal\"\n# textboxarrow 0 3\n# voice 9969 \"gill_0001\"\n@ギル\nそういや、ユノは元気にしてっかな？\n時間があったら『奴隷区』にも…\n\n;;ユノに変装したケラウノスが通り過ぎる\n# alpha 151 0 0.5\n# alpha 152 0 0.5\n# alpha 153 0 0.5\n# move 154 5 0\n# face 154 \"normal\"\n# alpha 154 1 0.5\n# textboxarrow 0 0\n# waitandnext 0.5\n\n# leftout 154 1\n# waitandnext 1\n\n# alpha 154 0 0.5\n# face 153 \"surprise\"\n# alpha 151 1 0.5\n# alpha 152 1 0.5\n# alpha 153 1 0.5\n# textboxarrow 0 3\n# voice 9969 \"gill_0023\"\n@ギル\nへっ？\nあれっ…？\n今、ユノが通りかからなかったか！？\n\n# face 151 \"angry\"\n# textboxarrow 0 1\n@アルマス\n何、言ってんのよ\nしっかりしなさい\n\n# face 153 \"sad\"\n# textboxarrow 0 3\n# voice 9969 \"gill_0030\"\n@ギル\nおかしいなあ…\nそんな気がしたんだけど…\n\n;;ムラマサ\n# bgm \"bgm005\" 0\n# alpha 151 0 0.5\n# alpha 152 0 0.5\n# alpha 153 0 0.5\n# face 3102511 \"angry\"\n# move 3102511 3 0\n# alpha 3102511 1 0.5\n# mask 3102511 off\n# textboxarrow 0 2\n# voice 310251 \"muramasa_ge_0002\"\n@？？？\nそなた達、しばし待たれよ\n不審な点がある故、調べさせて頂く\n\n# alpha 3102511 0 0.5\n# face 153 \"surprise\"\n# move 153 3 0\n# alpha 153 1 0.5\n# mask 153 on\n# textboxarrow 0 2\n# voice 9969 \"gill_0023\"\n@ギル\nギクッ…\nな、なんだよいきなりっ\n俺の格好になにか文句があんのかっ？\n\n# face 3102511 \"normal\"\n# move 3102511 2 0\n# alpha 3102511 1 0.5\n# mask 3102511 on\n# textboxarrow 0 1\n# move 153 4 0.5\n@？？？\n拙者は識別系統Ｂ・○八\nムラマサ・獣刻・ヤマタノオロチと\n申す\n\n# textboxarrow 0 1\n@ムラマサ\nそなたの耳…作り物ではあるまいか？\n\n# face 153 \"angry\"\n# textboxarrow 0 3\n# voice 9969 \"gill_0010\"\n@ギル\n斬ル姫かよっ…\nあーっ！\nそういうの形態差別だぞーっ\n\n# face 3102511 \"normal\"\n# textboxarrow 0 1\n@ムラマサ\nふむ…そのようなつもりは微塵もない\n少しでいいので検めさせて頂きたい\n\n# textboxarrow 0 3\n@ギル\nえっ…そんなのイヤだよ…！\n警備兵さーん！\n斬ル姫に絡まれてるから助けてーっ\n\n# alpha 3102511 0 0.5\n# face 151 \"normal\"\n# move 151 2 0\n# alpha 151 1 0.5\n# mask 151 on\n# textboxarrow 0 1\n@アルマス\nギル、たくましくなったわね…\nとはいえ、ちょっとまずいかも…\n\n# alpha 153 0 0.5\n# move 152 4 0\n# face 152 \"surprise\"\n# alpha 151 1 0.5\n# alpha 152 1 0.5\n# textboxarrow 0 3\n# voice 9967 \"titania_0042\"\n@ティターニア\n斬ル姫が単独行動しているというのも\n驚きです…\n彼女は特別なのでしょうか…？\n\n# alpha 151 0 0.5\n# alpha 152 0 0.5\n# face 3102511 \"normal\"\n# alpha 3102511 1 0.5\n# face 153 \"normal\"\n# alpha 153 1 0.5\n# textboxarrow 0 1\n@ムラマサ\nそなたが拒むなら、\nそちらの御仁でも構わぬが…失礼！\n\n;;ムラマサが剣を一閃する\n# effectbody 1000 1 100 0 1\n# effectstart 1000\n# se \"SE_5743\"\n# fadein \"red\" 0.5\n# waitandnext 1\n\n# face 153 \"surprise\"\n# textboxarrow 0 3\n# voice 9969 \"gill_0023\"\n@ギル\nはへ…？\n俺の耳が…耳が取れたぁ！？\n\n# face 3102511 \"normal\"\n# textboxarrow 0 1\n# voice 310251 \"muramasa_ge_0040\"\n@ムラマサ\nなるほど\n脱着式の耳とは畏れ入りました\nそなた達、曲者ですねっ\n\n# face 153 \"angry\"\n# textboxarrow 0 3\n# voice 9969 \"gill_0009\"\n@ギル\nそんな強引なやり方、ありかよぉ！？\n\n# textboxarrow 0 1\n@ムラマサ\n正直に申しますと、\nそなた達のことは\nケラウノスから聞いていました\n\n# textboxarrow 0 1\n@ムラマサ\n大人しく縛について下さい！\n\n# alpha 3102511 0 0.5\n# alpha 153 0 0.5\n# face 151 \"surprise\"\n# move 151 2 0\n# alpha 151 1 0.5\n# textboxarrow 0 1\n# move 152 4 0\n# alpha 152 1 0.5\n# voice 1038 \"almace_0009\"\n@アルマス\nケラウノス？\n誰よ、それっ？\n\n# face 152 \"surprise\"\n# textboxarrow 0 3\n# voice 9967 \"titania_0015\"\n@ティターニア\nそれより早くここから離れましょう！\nトレイセーマ兵に囲まれたら\n厄介です\n\n# face 151 \"normal\"\n# textboxarrow 0 1\n# voice 1038 \"almace_0003\"\n@アルマス\n分かってる！\n斬ル姫一人だけなら楽勝よ！\nこっちには四人いるんだからっ\n\n# alpha 151 0 0.5\n# alpha 152 0 0.5\n# face 3102511 \"normal\"\n# move 3102511 3 0\n# alpha 3102511 1 0.5\n# mask 3102511 off\n# textboxarrow 0 2\n# voice 310251 \"muramasa_ge_0027\"\n@ムラマサ\n数に頼むのは常道とはいえ\n必勝ではありません\nそれに、こちらには…\n\n# alpha 3102511 0 0.5\n# face 3100111 \"normal\"\n# move 3100111 3 0\n# alpha 3100111 1 0.5\n# mask 3100111 off\n# textboxarrow 0 2\n# voice 310011 \"masamune_ge_0007\"\n@マサムネ\n待たせたな、ムラマサ\n\n# alpha 3100111 0 0.5\n# face 3102511 \"angry\"\n# alpha 3102511 1 0.5\n# textboxarrow 0 2\n@ムラマサ\n姉様、ご足労いただき\nありがたく存じます\n\n# alpha 3102511 0 0.5\n# face 3100111 \"normal\"\n# alpha 3100111 1 0.5\n# textboxarrow 0 2\n@マサムネ\nケラウノスに急かされた故、\n拙者一人で先行したが、\nじきに兵士も駆けつける\n\n# textboxarrow 0 2\n# voice 310011 \"masamune_ge_0039\"\n@マサムネ\nそれにしても、ほほう…\n懐かしい顔ぶれだ\n\n# mask 3100111 on\n# face 151 \"angry\"\n# move 151 2 0\n# alpha 151 1 0.5\n# mask 151 on\n# textboxarrow 0 1\n# move 3100111 4 0.5\n# voice 1038 \"almace_0038\"\n@アルマス\nマサムネ！\nまたあなたと戦うことになるなんてね\n今度は負けない！\n\n# face 3100111 \"angry\"\n# textboxarrow 0 3\n# voice 310011 \"masamune_ge_0007\"\n@マサムネ\nラグナロク王国で刃をまじえて\n以来か…相手にとって不足無し！\n\n# alpha 151 0 0.5\n# move 3102511 2 0\n# face 3102511 \"angry\"\n# alpha 3102511 1 0.5\n# mask 3102511 on\n# textboxarrow 0 1\n@ムラマサ\n姉様、後ろの斬ル姫三人は\n拙者にお任せ下さい！\n\n# textboxarrow 0 1\n# voice 310251 \"muramasa_ge_0029\"\n@ムラマサ\n拙者もオーダーキラーズの一人！\nこのくらい押し勝ってみせます\n\n# textboxarrow 0 3\n@マサムネ\n頼もしいな！\nでは、拙者も存分に\n刀を振るうとしよう！"
	}
]