[
	{
		"ID": 10082204,
		"script": "# script \"lisp\"\n# background \"wild\"\n# bgm \"bgm000\" 0\n# body 100821\n# mask 100821 off\n# pos 100821 3\n# alpha 100821 0 0\n# textboxarrow 0 0\n# chara 100821\n# textflame 0 0\n@\n数日後─\n\n# alpha 100821 1 1\n# voice 1008 \"guramu_0002\"\n# textflame 1 0\n# textboxarrow 0 2\n# face 100821 \"happy\"\n# chara 100821\n@グラム\nヤホーッ！！\n\n# textflame 0 0\n@\n空を見上げるマスター\n\n# textflame 0 0\n@\nそこには、まだ少し危なげだが\n立派にドラゴンを乗りこなす\nグラムの姿があった\n\n# voice 1008 \"guramu_0005\"\n# textflame 1 0\n# chara 100821\n@グラム\n…あっ！マスター！！\n見て、見て！もう、ここまで\n乗れるようになったよ～！\n\n# textflame 0 0\n@\nこちらに気づき、\n嬉しそうに手を振る彼女\n\n# textflame 0 0\n@\nよそ見してると危ないよ\nマスターがそう言うも…\n\n# face 100821 \"usual\"\n# textflame 1 0\n# chara 100821\n@グラム\nへっちゃら、へっちゃら～！\nこの竜殺しのグラムには…\n\n# face 100821 \"surprise\"\n# voice 1008 \"guramu_0022\"\n# textflame 1 0\n# textwindow \"toge\"\n# textsize 30\n# chara 100821\n@グラム\n…って、\nきゃあっ！！\n\n# textwindow \"nomal\"\n# textsize 24\n# textflame 0 0\n@\n心配した通り、\nドラゴンの背から落ちる彼女\n高さは優に５メートルは超えている\n\n# face 100821 \"angry\"\n# textwindow \"nomal\"\n# textsize 24\n# voice 1008 \"guramu_0037\"\n# textflame 1 0\n# chara 100821\n@グラム\n…くっ！\nしまっ…っ！\n\n# textflame 0 0\n@\n落下するカラダ…\nこのままでは\n地面への激突は免れ…\n\n# face 100821 \"sad\"\n# se \"SE_0656\"\n# textflame 0 0\n@\nドスゥッ！！\n\n# face 100821 \"surprise\"\n# textflame 1 0\n# chara 100821\n@グラム\n！！\n…マ、マスター！\n\n# textflame 0 0\n@\n身を挺して彼女を守ったのは、\nマスターだった\n\n# bgm \"bgm003\" 0\n# textflame 1 0\n# chara 100821\n@グラム\n…！\nだ、大丈夫！？\nど、どうして…！？\n\n# select \"もう…心配かけるんじゃないよ\" \"select_label_01\" \"君は…大切な仲間だからね\" \"select_label_02\" \"君に怪我が無ければ、何より…\" \"select_label_03\"\n…！\nだ、大丈夫！？\nど、どうして…！？\n\n# label \"select_label_01\"\n# labeljump \"select_label_end\"\n# chara 100821\n@グラム\n…！\n心配…してくれてるの…？\n私のこと…\n\n# label \"select_label_02\"\n# labeljump \"select_label_end\"\n# chara 100821\n@グラム\n…！\n仲間…？配下じゃなくて…\n仲間だと言ってくれるの…？\n\n# label \"select_label_03\"\n# labeljump \"select_label_end\"\n# chara 100821\n@グラム\n…そんな！\nマスターの方が\n怪我しちゃったのに…！\n\n# label \"select_label_end\"\n# face 100821 \"sad\"\n# voice 1008 \"guramu_0031\"\n# textflame 1 0\n# chara 100821\n@グラム\nごめん、マスター…\nありがとう…\n\n# textflame 1 0\n# chara 100821\n@グラム\nうぅん…！\n今、助けてもらった事じゃなくて…\nもちろん、それもあるけど…！\n\n# textflame 1 0\n# chara 100821\n@グラム\n前にも言ったけど、私は…\n信じていた人に裏切られて以来、\n今まで疑ってばかりの人生だったの\n\n# textflame 1 0\n# chara 100821\n@グラム\nだから、正直マスターのことも…\n\n# textflame 1 0\n# chara 100821\n@グラム\n信じてなかった…\n\n# textflame 1 0\n# chara 100821\n@グラム\n信じるのが…怖かった…\n\n# textflame 1 0\n# chara 100821\n@グラム\nでも…\nドラゴンに乗ろうとする私を\n見守ってくれたり…\n\n# textflame 1 0\n# chara 100821\n@グラム\n乗れたら…\n自分のことのように喜んでくれたり…\n\n# textflame 1 0\n# chara 100821\n@グラム\nそして、今も…自分を顧みず…\n助けてくれた…\n\n# face 100821 \"shy\"\n# textflame 1 0\n# chara 100821\n@グラム\nだから…ありがとう…\n\n# textflame 1 0\n# chara 100821\n@グラム\n人を信じる心を…\n取り戻させてくれて…\n\n# face 100821 \"happy\"\n# voice 1008 \"guramu_0030\"\n# textflame 1 0\n# chara 100821\n@グラム\nありがとう！！\n\n# textflame 0 0\n@\n次の瞬間、彼女の体が輝き始めた\n\n# face 100821 \"surprise\"\n# textflame 1 0\n# chara 100821\n@グラム\nこれは…！\n\n# textflame 1 0\n# chara 100821\n@グラム\n信じる心が…新しい奥義を！？\n\n# face 100821 \"angry\"\n# textflame 1 0\n# chara 100821\n@グラム\n新技『飛竜信眼剣』！\n開眼！！\n\n# se \"SE_0602\"\n# textflame 0 0\n@\nそれはまさしく、\n彼女が更なるスキルに\n目覚めた瞬間だった\n\n# face 100821 \"shy\"\n# textflame 1 0\n# chara 100821\n@グラム\nマスター…\n私…これからは…\nあなたのために…\n\n# textflame 0 0\n@\n潤んだ瞳でマスターを見つめる彼女\nしかし…\n\n# voice 1008 \"guramu_0023\"\n# face 100821 \"surprise\"\n# textflame 1 0\n# chara 100821\n@グラム\n…って、ん？\nちょ、ちょっと！\n\n# face 100821 \"shy\"\n# textflame 1 0\n# chara 100821\n@グラム\nい、いつまで抱きかかえてんのよ！？\n怪我も大した事ないんなら、\n離してよ、も、もう！！\n\n# textflame 0 0\n@\n赤い顔で、我に返ったように\nマスターから飛びのく彼女\nそのままドラゴンの背に飛び乗る\n\n# face 100821 \"angry\"\n# textflame 1 0\n# chara 100821\n@グラム\nハッ！！\n\n# textflame 0 0\n@\n大空へと飛んでゆくその背中には、\n今までにない頼もしさが宿っていた\n\n# face 100821 \"normal\"\n# imageset 0 \"c100821\"\n# imagealpha 0 0 0\n# textflame 1 0\n# chara 100821\n@グラム\nねぇ、ドラゴン…\n私…\n\n# imagealpha 0 1 0\n# imagepos 0 0 0 \n# voice 1008 \"guramu_kyara_0017\"\n# fadein \"white\" 3\n# textwindow \"close\"\n\n# textwindow \"nomal\"\n# voice 1008 \"guramu_0004\"\n# textflame 1 0\n# chara 100821\n@グラム\nやっと、心から\n信じられる人に出会えたよ"
	}
]