[
	{
		"ID": 10085204,
		"script": ";;【EP4】\n# script \"lisp\"\n# background \"courtyard\"\n# bgm \"bgm002\" 0\n# alpha 116 0 0\n# body 116\n# pos 116 3\n# mask 116 off\n# textflame 0 0\n@\n「方天画戟からグラムが呼び出された」\nそんな噂を聞いて、マスターは\n校舎裏に急いでいた\n\n# alpha 116 1 0.5\n# textflame 1 1\n# textboxarrow 0 2\n# chara 116\n# face 116 \"surprise\"\n@グラム\nあ、マスター…！\nもしかして、誰かから聞いた…？\n\n# textflame 0 0\n@\nバツが悪そうに苦笑いするグラム\nしかし方天画戟の姿はない…\n\n# textflame 0 0\n@\nマスターは肌で感じていた\nもう、勝負はついたあとだ、と…\n\n# textflame 1 1\n# textboxarrow 0 2\n# chara 116\n# face 116 \"sad\"\n@グラム\nえっと、誰も見てないしなー…って\n思ってですね…？\n\n# textboxarrow 0 2\n# chara 116\n# voice 10085 \"guramu_0008\"\n# face 116 \"shy\"\n@グラム\nそのー…\n一発、かましちゃいました！\nあははは…\n\n# textflame 0 0\n@\nつまり…\n勝負はグラムの勝利だった、\nということだろう\n\n# textflame 0 0\n@\n怪我をした様子もないのはよかったが\nマスターはグラムが気がかりだった\n\n# textflame 1 1\n# textboxarrow 0 2\n# chara 116\n# face 116 \"sad\"\n@グラム\n心配…してくれるんだね？\nありがとう…\n確かに、ケンカは封印したし、ね…\n\n# textboxarrow 0 2\n# chara 116\n# face 116 \"usual\"\n@グラム\nだけど、いいの\nただ暴れまわってた\nあの頃とは違うから\n\n# textboxarrow 0 2\n# chara 116\n@グラム\n理由があって拳を振るう…\nとでも言えばいいのかな？\nそれは…悪くないなって思うから\n\n# textboxarrow 0 2\n# chara 116\n@グラム\nだから！\nなにかあったら…私に言ってよ！\n\n# textboxarrow 0 2\n# chara 116\n# voice 10085 \"guramu_0004\"\n# face 116 \"happy\"\n@グラム\nマスターが困ってたら助けてあげる\n誰かのために使える力があるって…\nなんか素敵かなって、思うんだ！\n\n# se \"SE_0602\"\n# textboxarrow 0 2\n# chara 116\n@グラム\n『鬼迫の陽隠』-ブレイブナイツ-\nマスターにはドラゴンキラーが\nついてるぞ！なんてね…！\n\n# textflame 0 0\n@\n照れ隠しなのか…\n大げさにVサインをして笑うグラム\n\n# textflame 0 0\n@\nその笑顔が眩しいと思った\nマスターだったが…\n\n# textflame 0 0\n# face 116 \"surprise\"\n@\n次の瞬間には\n血相を変えて\nグラムに駆け寄っていた\n\n# textflame 1 1\n# textboxarrow 0 2\n# chara 116\n# voice 10085 \"guramu_0023\"\n@グラム\nえ…う、腕？\nどう、って…別に…？\n\n# textboxarrow 0 2\n# chara 116\n# face 116 \"usual\"\n@グラム\nあちゃー…確かに…\n派手に動いて、ちょっと\n傷口開いちゃったかな…？\n\n# textflame 0 0\n@\n先日マスターをかばって作った\nグラムの腕の傷から\n少し血が溢れていた\n\n# textflame 1 1\n# textboxarrow 0 2\n# chara 116\n# voice 10085 \"guramu_0022\"\n# face 116 \"surprise\"\n@グラム\nすぐ保健室行って見てもらうから\n心配は…って、マスター！？\n\n# textflame 0 0\n@\n言うより早くマスターは\n新しい絆創膏を取り出して\nグラムの腕に貼っていた\n\n# textflame 1 1\n# textboxarrow 0 2\n# chara 116\n# face 116 \"shy\"\n@グラム\nも、もう…\nこういうときだけ強引なんだから…\n\n# textboxarrow 0 2\n# chara 116\n# voice 10085 \"guramu_0028\"\n@グラム\nそれができるなら…\n普段からもっとグイグイ\n来てくれても…\n\n# textflame 0 0\n@\nぶつぶつとひとりごとを言うグラム\nどこか照れているようだったが…\n急にいたずらっぽくにやにやし始めた\n\n# textflame 1 1\n# textboxarrow 0 2\n# chara 116\n# voice 10085 \"guramu_0020\"\n# face 116 \"happy\"\n@グラム\nはは～ん…\nさては優しいふりして！\n私の腕に触りたいだけでしょ～！\n\n# textflame 0 0\n@\nグラムはマスターを\nからかい始めるのだった\n\n# textflame 0 0\n@\n…本当はグラムの照れ隠しなのだが\n\n# textflame 0 0\n@\nそんな女心には気づかずに\nこういうときに限って\n急に慌てるのがマスターなのである\n\n# select \"そうだよね…さわっちゃってたね…\" \"select_label_01\" \"そ、そんなつもりじゃ…！\" \"select_label_02\" \"き、綺麗な腕だよね…！\" \"select_label_03\"\nそんな女心には気づかずに\nこういうときに限って\n急に慌てるのがマスターなのである\n\n# label \"select_label_01\"\n# labeljump \"select_label_end\"\n# textflame 1 1\n# textboxarrow 0 2\n# chara 116\n# face 116 \"angry\"\n@グラム\n急に照れないでよ！\n\n# label \"select_label_02\"\n# labeljump \"select_label_end\"\n# textflame 1 1\n# textboxarrow 0 2\n# chara 116\n# face 116 \"surprise\"\n@グラム\n…なんでそこで慌てるの！？\n\n# label \"select_label_03\"\n# labeljump \"select_label_end\"\n# textflame 1 1\n# textboxarrow 0 2\n# chara 116\n# face 116 \"angry\"\n@グラム\nまじまじと見ないでー！\n\n# label \"select_label_end\"\n# imageset 0 \"c100851\"\n# imagealpha 0 0 0\n# waitandnext 0.3\n\n;;一枚絵ボイス/グラム「いや…いいんだけどさ、いいんだよ？…でもちょっとそういうの誤解しちゃうからさ♪」\n# imagealpha 0 1 0\n# imagepos 0 0 0 \n# fadein \"white\" 3\n# voice 10085 \"guramu_kyara_0013\"\n# textwindow \"close\"\n"
	}
]