[
	{
		"ID": 10133202,
		"script": "# script \"lisp\"\n# background \"foot_mountain_village\"\n# bgm \"bgm003\" 0\n# body 101331\n# mask 101331 off\n# pos 101331 3\n# face 101331 \"worry\"\n# textflame 0 0\n@\n数日後─\nまた図書館で一緒になる\nマスターとパラケルスス\n\n# face 101331 \"normal\"\n# textflame 1 1\n# textboxarrow 0 2\n# chara 101331\n@パラケルスス\n…あ、マスター\n\n# face 101331 \"sad\"\n# chara 101331\n@パラケルスス\nこの前は…大きな声を出して、\nすまなかった…\n冷静さを欠いていたよ\n\n# face 101331 \"surprise\"\n# chara 101331\n@パラケルスス\n…あ、いや、これは…\n\n# textflame 0 0\n@\n彼女が隠したのは、\n恋愛について書かれた書物\n\n# textflame 1 1\n# chara 101331\n@パラケルスス\nこ、恋をしているとかじゃないぞ！？\n最も曖昧かつ抽象的なものを\n研究しようと思ってるだけで…\n\n# select \"恋バナみたいに机上の空論も楽しいよ\" \"select_label_01\" \"体験しないとわかんないこともあるよ\" \"select_label_02\" \"別に恋をするのは悪いことじゃないよ\" \"select_label_03\"\nこ、恋をしているとかじゃないぞ！？\n最も曖昧かつ抽象的なものを\n研究しようと思ってるだけで…\n\n# label \"select_label_01\"\n# labeljump \"select_label_end\"\n@パラケルスス\nでも…やはり経験に基づいた理論も\n時には必要になるわけで…\n\n# label \"select_label_02\"\n# labeljump \"select_label_end\"\n@パラケルスス\nそうなんだ！実際に体験しないと！\n…こ、興奮などしていない！\n\n# label \"select_label_03\"\n# labeljump \"select_label_end\"\n@パラケルスス\nやっぱり…マスターもそう思うか？\n\n# face 101331 \"sad\"\n# label \"select_label_end\"\n# chara 101331\n@パラケルスス\n座学は所詮、座学\n実地経験には遠く及ばない\n\n# chara 101331\n@パラケルスス\n実体験から理解できる\n思考や想いも\nきっとあるはずなんだ\n\n# textflame 0 0\n@\nそう言ったかと思うと、\n俯いてしまう彼女\n\n# face 101331 \"shy\"\n# textflame 1 1\n# chara 101331\n@パラケルスス\nこんな…今まで無かった想い\n見ているだけで…\nドキドキするような…\n\n# textflame 1 1\n# chara 101331\n@パラケルスス\n君ともっと一緒にいたい\nその手をつなぎたい\nその腕に抱き締められたい…\n\n# chara 101331\n@パラケルスス\nこんなの…どれもこれも無かった感情\n\n# chara 101331\n@パラケルスス\nこれが…恋…\nこ、恋とは…\n\n# textflame 0 0\n@\n大丈夫？とマスターが声を掛ける\n\n# face 101331 \"surprise\"\n# textflame 1 1\n# chara 101331\n@パラケルスス\nわ、わからん！！\n\n# textflame 0 0\n@\n突然、大声を出し、\n顔を真っ赤にして出て行く\nパラケルススだった"
	}
]