[
	{
		"ID": 10149211,
		"script": ";;-----------------------------------------\n;;■学園ティルフィング　キャラクエ　シナリオ\n;;【ＥＰ１】\n;;スクリプト最後の背景：教室02_朝\n;;背景：教室02_朝\n;;-----------------------------------------\n# script \"lisp\"\n# background \"classroom02_morning\"\n# bgm \"bgm002\" 0\n;;-----------------------------------------\n;;学園ティルフィング\n# body 101491\n# pos 101491 3\n# scale 101491 0.8 0\n# layer 101491 2\n# alpha 101491 0 0\n# mask 101491 off\n;;-----------------------------------------\n;;【キャラクエの方向性案】\n;;マスターの監視役のような立ち居地におり、これまでは親密に会話をすることもなかったが、\n;;生徒として会話をする内にマスターの魅力を知って、穏やかな表情で微笑む\n;;【ＥＰ１】\n# textflame 0 0\n@\n教室\n\n;;モノローグ\n@\n生徒達がざわざわと騒いでいる\n\n;;モノローグ\n@\n先日行われた小テストが\n返ってきたのだ\n\n;;モノローグ\n@\nはぁ……\nマスターは浮かない顔で、\nため息をついている\n\n;;モノローグ\n@\n――と、\n\n# voice 10149 \"tyrufing_0002\"\n# move 101491 3 0\n# face 101491 \"surprise\"\n# alpha 101491 1 0.5\n# mask 101491 off\n# textflame 1 1\n# textboxarrow 0 2\n@ティルフィング\nどうしたんですか？\n\n;;モノローグ\n# textflame 0 0\n@\n声を掛けてきたのは、\nティルフィングだ\n\n# face 101491 \"normal\"\n# textflame 1 1\n# textboxarrow 0 2\n@ティルフィング\n点数が良くなかったんですか？\n\n;;モノローグ\n# textflame 0 0\n@\nわわっ！\nと咄嗟に隠すも、\n図星なマスター\n\n# textflame 1 1\n# textboxarrow 0 2\n@ティルフィング\n大丈夫です\n次、がんばれば、\nいいじゃないですか\n\n;;モノローグ\n# textflame 0 0\n@\n励まされたのだが、\nマスターの表情は冴えない\n\n;;モノローグ\n@\nこのままじゃ、\n次の期末テストは確実に赤点だ…\nと嘆くマスター\n\n# voice 10149 \"tyrufing_0022\"\n# face 101491 \"surprise\"\n# textflame 1 1\n# textboxarrow 0 2\n@ティルフィング\n赤点…？\n\n# voice 10149 \"tyrufing_0015\"\n# face 101491 \"sad\"\n# textboxarrow 0 2\n@ティルフィング\nそれだと、留年…\n\n# textboxarrow 0 2\n@ティルフィング\nいえ、もしかしたら…落第\n\n;;モノローグ\n# textflame 0 0\n@\nわぁぁぁ！おどかさないでよ！\nと頭をかきむしるマスター\n\n;;モノローグ\n@\nするとティルフィングは…\n\n# voice 10149 \"tyrufing_0002\"\n# face 101491 \"normal\"\n# textflame 1 1\n# textboxarrow 0 2\n@ティルフィング\nあの…\n\n# textboxarrow 0 2\n@ティルフィング\nもし良ければ放課後、\n残って私と一緒に勉強しませんか？\n\n# textboxarrow 0 2\n@ティルフィング\n分からないところは、\n私が教えてあげられるかも\n知れませんし\n\n;;モノローグ\n# textflame 0 0\n@\nえ！本当に！？\nティルフィングは成績優秀な優等生\nそれは願ってもないことだ\n\n;;モノローグ\n@\nしかしマスターは不思議がる\n\n# face 101491 \"surprise\"\n# textflame 1 1\n# textboxarrow 0 2\n@ティルフィング\nどうしました？\nそんな顔して…\n\n;;モノローグ\n# textflame 0 0\n@\nティルフィングとは、\n特に親しいというわけではない\n\n;;モノローグ\n@\nむしろ、ほとんど話したことがない\nなのに、どうしてそこまで\nしてくれるの？と、マスターが尋ねる\n\n# voice 10149 \"tyrufing_0022\"\n# textflame 1 1\n# textboxarrow 0 2\n@ティルフィング\n……え？\n\n# face 101491 \"normal\"\n# textboxarrow 0 2\n@ティルフィング\nべ、別に深い理由はありません\nただ、アナタが困ってたから\n\n;;モノローグ\n# textflame 0 0\n@\n正義感の強い彼女らしい答えだった\n\n;;モノローグ\n@\n続けて、マスターは尋ねる\nでも大丈夫なの？\nきみの勉強の邪魔になるんじゃ…？\n\n# textflame 1 1\n# textboxarrow 0 2\n@ティルフィング\nいいえ、大丈夫です\n\n# textboxarrow 0 2\n@ティルフィング\nアナタに教えることで、\n私自身も勉強になると思います\n\n# face 101491 \"happy\"\n# textboxarrow 0 2\n@ティルフィング\nだから、一緒にがんばりましょう\n\n;;モノローグ\n# textflame 0 0\n@\nかくして、ティルフィングと\nマスターの放課後居残り勉強が\n始まったのだった"
	}
]