[
	{
		"ID": 10149213,
		"script": ";;-----------------------------------------\n;;■学園ティルフィング　キャラクエ　シナリオ\n;;【ＥＰ２】戦闘後\n;;スクリプト最後の背景：教室02_昼\n;;背景：通学路(昼)\n;;-----------------------------------------\n# script \"lisp\"\n# background \"schoolroad_afternoon\"\n# bgm \"bgm002\" 0\n;;-----------------------------------------\n;;学園ティルフィング\n# body 101491\n# pos 101491 3\n# scale 101491 0.8 0\n# layer 101491 2\n# alpha 101491 0 0\n# mask 101491 off\n;;-----------------------------------------\n;;学園ティルフィング一枚絵\n# imageset 0 \"c101491\"\n# imagelayer 0 3\n# imagealpha 0 0 0\n;;-----------------------------------------\n;;モノローグ\n# textflame 0 0\n@\nティルフィングとマスターが\n駆け付けたおかげで、\nケンカは無事収まった\n\n;;モノローグ\n@\nありがとう、君のおかげだよ\nと、ティルフィングに\n礼を言うマスター\n\n# voice 10149 \"tyrufing_0027\"\n# move 101491 3 0\n# face 101491 \"sad\"\n# alpha 101491 1 0.5\n# mask 101491 off\n# textflame 1 1\n# textboxarrow 0 2\n@ティルフィング\nまったくアナタという人は…\n\n# textboxarrow 0 2\n@ティルフィング\n自分を犠牲にしてまで、\n友達のケンカを止めるなんて…\n\n# textboxarrow 0 2\n@ティルフィング\nしょうがない人ですね\n\n# face 101491 \"normal\"\n# textboxarrow 0 2\n@ティルフィング\nさあ、すぐに帰りましょう\nまだ間に合うかもしれません！\n\n;;モノローグ\n# alpha 101491 0 0.5\n# textflame 0 0\n@\n二人は急いで学校へと\n戻るのだった\n\n# textwindow \"close\"\n# fadeout \"black\" 1\n# waitandnext 1.2\n\n# background \"classroom02_afternoon\"\n# subfillrect 0 \"red\" 0 0 0.3\n# waitandnext 0.2\n\n# fadein \"black\" 1\n# waitandnext 1\n\n;;モノローグ\n# bgm \"bgm003\" 0\n# textwindow \"normal\"\n@\n夕暮れ時の校舎――\n\n# move 101491 3 0\n# face 101491 \"sad\"\n# alpha 101491 1 0.5\n# mask 101491 off\n# textflame 1 1\n# textboxarrow 0 2\n@ティルフィング\nやっぱり…テスト\n終わってしまいましたね\n\n;;モノローグ\n# textflame 0 0\n@\n夕日に照らされた教室は、\nすっかりもぬけの殻だ\n\n# voice 10149 \"tyrufing_0004\"\n# face 101491 \"normal\"\n# textflame 1 1\n# textboxarrow 0 2\n@ティルフィング\nでも…不思議と後悔はありません\n\n;;モノローグ\n# textflame 0 0\n@\n席に腰掛ける２人\n\n# textflame 1 1\n# textboxarrow 0 2\n@ティルフィング\nアナタが人気のある理由…\n\n# textboxarrow 0 2\n@ティルフィング\nそれは純粋で一生懸命、\nそして何より、\n\n# textboxarrow 0 2\n@ティルフィング\n自分を犠牲にしてでも\n誰かを助けられる……\n\n# textboxarrow 0 2\n@ティルフィング\n大きな“優しさ”だったのですね\n\n# voice 10149 \"tyrufing_0005\"\n# face 101491 \"happy\"\n# textboxarrow 0 2\n@ティルフィング\nアナタには…\n勉強では学べない\n大切なことを教わりました\n\n# textboxarrow 0 2\n@ティルフィング\nアナタのように純粋で一生懸命、\nそして人にやさしく\n\n# textboxarrow 0 2\n@ティルフィング\n私も…\nそうありたいと思います\n\n;;モノローグ\n# textflame 0 0\n@\nそう言った彼女の笑顔は、\nとても温かで優しかった\n\n;;■一枚絵指定\n;;★５\n;;背景：放課後の教室（夕方）\n;;表情：「アナタって不思議な人ですね」と、優しく微笑んでいるイメージです\n;;構図：放課後二人きりの教室で、マスターの席の向かいに座ってマスターに微笑んでいます。\n;;一枚絵ボイス：「アナタには、他の人にはない魅力があるのですね…。だから、みんなもきっと救われた…。\n;;あの、ちゃんと言えていませんでしたが…アナタには感謝しているのです…\n;;ありがとうございます」\n;;\n;;※シチュエーションとしましては、勉強をマスターに教えながらおしゃべりをし、\n;;心の距離が近づいたことで自然に微笑んでいるイメージです。\n;;あくまでイメージですので、イラストに合っていれば、異なるシチュエーションでも問題ございません！\n;;変更後のボイス：「なんだか…いいですね」\n;;ホワイトアウト\n# textflame 0 0\n# imagealpha 0 1 0\n# imagepos 0 0 0\n# fadein \"white\" 3\n# buttonsout 0 0\n# textwindow \"close\"\n# voice 10149 \"tyrufing_g_kyara_0025\"\n\n# frameout 0 1\n\n# waitandnext 0.8\n\n# fadeout \"black\" 1.5\n# waitandnext 1.5"
	}
]