[
	{
		"ID": 10235201,
		"script": "# script \"lisp\"\n# background \"town\"\n# bgm \"bgm000\" 0\n# textboxarrow 0 2\n# body 102311\n# mask 102311 off\n# pos 102311 3\n# face 102311 \"normal\"\n# textflame 0 0\n@\n街に入ったマスターの部隊\nそこでアスカロンは、\n一人の少女と出会う\n\n# textflame 1 1\n@アスカロン\n…どうしたの？\nなぜ、泣いているの…？\n\n# textflame 0 0\n@\n路地裏で涙していた\nその少女には、\nとある事情があった\n\n# face 102311 \"surprise\"\n# voice 1023 \"ascalon_0022\"\n# textflame 1 1\n@アスカロン\nえ？ならず者集団の\nボスに嫁入り…？\nどうして、そんな事に…！？\n\n# textflame 0 0\n@\n聞けば、ボスに見初められてしまい、\n無理やり結婚させられそうに\nなっているのだと言う\n\n# face 102311 \"sad\"\n# textflame 1 1\n@アスカロン\n誰も…助けてくれないんだ…\n街の大人たち…みんな怖がって…\n\n# textflame 0 0\n@\n涙を流し続ける少女\n\n# voice 1023 \"ascalon_0029\"\n# face 102311 \"happy\"\n# textflame 1 1\n@アスカロン\n…よしっ！\nわかったわ\n\n# voice 1023 \"ascalon_0004\"\n# textflame 1 1\n@アスカロン\n任せて…！\nそのならず者たち…\n私がやっつけてあげる！！\n\n# textflame 0 0\n@\nキル姫とバレたら騒ぎになるよ…！\nマスターが慌てて、\nアスカロンに耳打ちする\n\n# textsize 16\n# face 102311 \"normal\"\n# textflame 1 1\n@アスカロン\nわかってます…\nでも、この子の涙を見てたら私…！！\n\n# textsize 36\n# textflame 1 1\n@アスカロン\n許せないんです！！\n\n# textsize 24\n# textflame 0 0\n@\n驚くマスター\nアスカロンが珍しく\n声を荒げたからだ\n\n# voice 1023 \"ascalon_0031\"\n# face 102311 \"worry\"\n# textflame 1 1\n@アスカロン\n…あ、ご、ごめんなさい\n\n# textflame 0 0\n@\nあの…あなた達は…？\n不安そうに尋ねる少女\n\n# face 102311 \"surprise\"\n# voice 1023 \"ascalon_0022\"\n# textflame 1 1\n@アスカロン\nわ、私たち？えっと…その…\n\n# face 102311 \"surprise\"\n@アスカロン\n剣士！そう…私は\n剣術の修行をしながら\n世界を回る剣士なの\n\n@アスカロン\nえ？この人…？\n\n# face 102311 \"worry\"\n# voice 1023 \"ascalon_0023\"\n@アスカロン\nそ、そそ、そんな…！\nこ、恋人じゃなくて…マスター！\nいや、じゃなくて…！師匠！\n\n# face 102311 \"surprise\"\n@アスカロン\nそう！私の剣術の師匠なの！！\n\n# textflame 0 0\n@\nあぁ…話がどんどんおかしな方向へ…\nと心配になってくるマスター\n\n# face 102311 \"normal\"\n# textflame 1 1\n@アスカロン\n心配しないで！\nあなたの運命…\n私が変えてあげるから！！\n\n# textflame 0 0\n@\n弱きを見ると\n助けずにはいられないアスカロン\nその目には闘志の炎が燃えていた"
	}
]