[
	{
		"ID": 10231102,
		"script": "# script \"lisp\"\n# background \"004_wildland\"\n# bgm \"bgm003\" 0\n# body 102311\n# mask 102311 off\n# pos 102311 3\n# textflame 1 1\n# textboxarrow 0 2\n# voice 1023 \"ascalon_0001\"\n# face 102311 \"sad\"\n@アスカロン\n私が食べる時間も寝る時間も\n惜しんで、特訓する理由…\nそれは…\n\n@アスカロン\n怖いから…です…\n\n@アスカロン\n遠い太古の世界…\n私は巨人に打たれた剣として\n生まれました…それはすなわち…\n\n# face 102311 \"worry\"\n# voice 1023 \"ascalon_0017\"\n@アスカロン\n巨人の…\n“呪い”によって\n生み出された剣という事です…\n\n@アスカロン\nその呪いは、脈々と受け継がれ\n今も私の体の中に流れています…\n\n@アスカロン\nひとたび、巨人の呪いの力が\n発動すれば…\n私という殻を破り現れてしまう…\n\n# face 102311 \"sad\"\n# voice 1023 \"ascalon_0015\"\n@アスカロン\nそうなれば、私は自我を失い…\n醜く巨大化してしまうのです…\nそれが…怖い…\n\n# voice 1023 \"ascalon_0024\"\n@アスカロン\n…だから！そうならないように！\n呪いの力を制御できるように、\n日々鍛錬…た、たん、れ、ん…\n\n# textflame 0 0\n@\n…あれ？何か彼女の様子が…\n目をこするマスター\n\n# face 102311 \"normal\"\n# textflame 1 1\n# textboxarrow 0 2\n@アスカロン\n…ヌゥゥウアァァアアァッ…！！\n\n# textflame 0 0\n@\n！！\n\n# textflame 0 0\n@\n目つきと顔つきが一瞬で…\nこれってまさか…\n言ったそばから巨人の呪い…！？\n\n# textflame 1 1\n# textboxarrow 0 2\n@アスカロン\n鍛錬…しているんです！！\n\n# textflame 0 0\n@\n…あれ？…すぐ…\n元に戻った…\n再度、目をこするマスター\n\n# textflame 1 1\n# textboxarrow 0 2\n# face 102311 \"surprise\"\n# voice 1023 \"ascalon_0022\"\n@アスカロン\n…ハッ！！\n\n# face 102311 \"worry\"\n# voice 1023 \"ascalon_0007\"\n@アスカロン\n…い、今の話…\n皆さんには内緒ですよ！\nマスターと私の秘密です！！\n\n# textflame 0 0\n@\nどうやら記憶に無いらしい\n困ったものだ…\nそんな事を考えていると…\n\n# face 102311 \"surprise\"\n# textflame 1 1\n# textboxarrow 0 2\n@アスカロン\n…ん？何でしょう…？\n上から小石が…\n\n# voice 1023 \"ascalon_0022\"\n@アスカロン\n…あっ！！\n\n# textflame 0 0\n@\n見上げると、そこには\n一頭の巨大な熊が…\n\n# select \"縄張りを荒らされたと…怒ってるんだ\" \"select_label_01\" \"危ない！逃げろ…！！\" \"select_label_02\" \"ダメだ！かなう相手じゃない…！！\" \"select_label_03\"\n見上げると、そこには\n一頭の巨大な熊が…\n\n# face 102311 \"normal\"\n# label \"select_label_01\"\n# labeljump \"select_label_end\"\n# textflame 1 1\n# textboxarrow 0 2\n@アスカロン\n下がってて下さい！ここは私が…！\n\n# face 102311 \"normal\"\n# label \"select_label_02\"\n# labeljump \"select_label_end\"\n# textflame 1 1\n# textboxarrow 0 2\n@アスカロン\nお任せ下さい！ここは私が…！\n\n# face 102311 \"normal\"\n# label \"select_label_03\"\n# labeljump \"select_label_end\"\n# textflame 1 1\n# textboxarrow 0 2\n@アスカロン\nマスターをお守りするのが…\n私の使命です！\n\n# label \"select_label_end\"\n# textflame 0 0\n@\n体長３メートル以上、自分の身長の\n２倍以上ある熊を追い払おうと\n応戦する彼女…しかし…\n\n# face 102311 \"surprise\"\n# textflame 1 1\n# textboxarrow 0 2\n# voice 1023 \"ascalon_0018\"\n@アスカロン\n…あっ！い…衣服が…！\n\n# textflame 0 0\n@\n彼女が発する闘気に耐えられず、\nはち切れそうになる\nベルトやコルセット\n\n# face 102311 \"worry\"\n# textflame 1 1\n# textboxarrow 0 2\n@アスカロン\nこ…これが外れたら私…\n呪いが解けて…巨人に…！\n\n# voice 1023 \"ascalon_0024\"\n@アスカロン\nイヤッ！そんなの…！\n\n# textflame 0 0\n@\n彼女の目は、恐怖で慄いていた"
	}
]