[
	{
		"ID": 10251103,
		"script": "# script \"lisp\"\n# background \"antiquity\"\n# bgm \"bgm003\" 0\n# body 102511\n# mask 102511 off\n# pos 102511 3\n# textboxarrow 0 2\n# face 102511 \"irregular\"\n# chara 102511\n@ムラマサ\n…ふぅぅぅぅ\n\n# textflame 0 0\n@\n針を持ち、目を閉じて\n精神を統一しているムラマサ\n\n# voice 1025 \"muramasa_unit_0010\"\n# face 102511 \"angry\"\n# textflame 1 1\n# textwindow \"toge\"\n# textsize 36\n# chara 102511\n@ムラマサ\nいざっ！\n参ります！！\n\n# face 102511 \"normal\"\n# textflame 0 0\n# textwindow \"normal\"\n# textsize 24\n@\n瞬く間に、ズボンの膝の穴を\n修繕していくムラマサ\n\n# voice 1025 \"muramasa_battle_0002\"\n# face 102511 \"angry\"\n# textflame 1 1\n# textwindow \"normal\"\n# textsize 24\n# chara 102511\n@ムラマサ\nはっ！\n\n# textflame 0 0\n@\nその手はいつしか光を纏い、\n恐るべき速さで動いていた\n\n# textflame 1 1\n# textwindow \"toge\"\n# textsize 30\n# chara 102511\n@ムラマサ\n見えたッ！\nこれぞ剣技に通ずる極意！\n\n# textflame 1 1\n# chara 102511\n@ムラマサ\n新技『剣陣まつり縫い』！\n開眼ッッッ！！！\n\n# se \"SE_0602\"\n# textflame 0 0\n# textsize 24\n@\nそれはまさしく彼女が\n新たなるスキルに\n目覚めた瞬間だった\n\n# voice 1025 \"muramasa_kyara_1004\"\n# face 102511 \"happy\"\n# textflame 1 1\n# textwindow \"normal\"\n# chara 102511\n@ムラマサ\n主君…できました！\n\n# voice 1025 \"muramasa_0004\"\n# textflame 0 0\n@\n満面の笑みで手渡すムラマサ\n\n# select \"刺繍…すっごい上手なんだね！\" \"select_label_01\" \"刺繍が得意だったんだね！\" \"select_label_02\" \"得意なこと、あるじゃん？\" \"select_label_03\"\n満面の笑みで手渡すムラマサ\n\n# face 102511 \"surprise\"\n# label \"select_label_01\"\n# labeljump \"select_label_end\"\n# textflame 1 1\n# charar 102511\n@ムラマサ\nありがたき御言葉！\nしかし…\n\n# face 102511 \"irregular\"\n# label \"select_label_02\"\n# labeljump \"select_label_end\"\n# textflame 1 1\n# charar 102511\n@ムラマサ\n恐れ入りまする！\nでも…\n\n# face 102511 \"surprise\"\n# label \"select_label_03\"\n# labeljump \"select_label_end\"\n# textflame 1 1\n# charar 102511\n@ムラマサ\n主君！\nあなたは…！\n\n# voice 1025 \"muramasa_0002\"\n# face 102511 \"normal\"\n# label \"select_label_end\"\n# textflame 1 1\n# charar 102511\n@ムラマサ\n本当は知ってらしたのですね…？\n拙者の特技を\nだから、わざわざ頼んで下さった\n\n# textflame 1 1\n# charar 102511\n@ムラマサ\n主君のおかげで…目が覚めました\n\n# textflame 1 1\n# charar 102511\n@ムラマサ\n今でも姉様を超えることが\n目標に変わりはありませぬ…\nしかし…\n\n# face 102511 \"angry\"\n# textflame 1 1\n# imageset 0 \"c102511\"\n# imagealpha 0 0 0\n# charar 102511\n@ムラマサ\n姉の姿をそっくり写すのではなく！\n“自分らしく”精進し、いつの日か\n必ず姉を超えてみせます！！\n\n# imagealpha 0 1 0\n# imagepos 0 0 0 \n# fadein \"white\" 3\n# voice 1025 \"muramasa_kyara_0025\"\n# textwindow \"close\"\n\n# textwindow \"nomal\"\n# textflame 0 0\n@\nそう言い放った彼女の目に、\nもう不安の陰りはなかった"
	}
]