[
	{
		"ID": 10252203,
		"script": ";;【EP3】\n# script \"lisp\"\n# background \"forest\"\n# bgm \"bgm002\" 0\n# body 102521\n# mask 102521 off\n# pos 102521 3\n# textflame 0 0\n@\nピンチに陥った\nムラマサの前に現れた\n小さな炎\n\n# textflame 1 1\n# textboxarrow 0 2\n# chara 102521\n# voice 1025 \"muramasa_kyara_1001\"\n# face 102521 \"surprise\"\n@ムラマサ\nあ…あなたは…！？\n\n# serif 1\n# textflame 1 1\n# textboxarrow 1 1\n@鬼火\n僕は鬼火\n\n# textflame 1 1\n# textboxarrow 0 2\n# chara 102521\n@ムラマサ\nお…鬼火…さん？\n\n# serif 1\n# textflame 1 1\n# textboxarrow 1 1\n@鬼火\n「助けて」って言ってたけど…\n君を助けに来たわけじゃないよ\n\n# textflame 1 1\n# textboxarrow 0 2\n# chara 102521\n# voice 1025 \"muramasa_0022\"\n@ムラマサ\n…え？\n\n# serif 1\n# textflame 1 1\n# textboxarrow 1 1\n@鬼火\n僕は君の“闘気”の一部\nつまり…君自身ってわけさ\n\n# textflame 1 1\n# textboxarrow 0 2\n# chara 102521\n# voice 1025 \"muramasa_0042\"\n@ムラマサ\nほ、ほんとに…？\n\n# serif 1\n# textflame 1 1\n# textboxarrow 1 1\n@鬼火\nほんとさ、その証拠に…\nもっと精神を集中してごらん\n\n# textflame 0 0\n@\nブロロロロ…！\n眼前に迫る巨大イノシシ\n\n# textflame 1 1\n# textboxarrow 0 2\n# chara 102521\n# face 102521 \"angry\"\n@ムラマサ\nう…うん！\n\n# textflame 0 0\n@\nなりふり構ってられず、\n彼女が意識を高める\n\n# textflame 1 1\n# textboxarrow 0 2\n# chara 102521\n# voice 1025 \"muramasa_kyara_1008\"\n# face 102521 \"surprise\"\n@ムラマサ\n…あ！\n\n# textflame 0 0\n@\nボォォォォォッ！！\n\n@\n…と、彼女の手から\n放たれる紫色の炎\n\n# textflame 1 1\n# textboxarrow 0 2\n# chara 102521\n@ムラマサ\n炎が…剣に！？\n\n# voice 1025 \"muramasa_0006\"\n@ムラマサ\nこれが…私のチカラ！？\n\n# textflame 0 0\n@\nグロロロローーッ！\n彼女に突っ込んでくるイノシシ\n\n# textflame 1 1\n# textboxarrow 0 2\n# chara 102521\n# se \"SE_0602\"\n# voice 1025 \"muramasa_battle_0002\"\n# face 102521 \"angry\"\n@ムラマサ\nはぁぁーーーーっ！！\nくらえ！奥義！！\n『霊蒼剣・鬼乃焔』\n\n# textflame 0 0\n@\n巻き上がる大きな火柱\n驚いたイノシシは、\n森の奥へと逃げ去っていった\n\n# textflame 1 1\n# textboxarrow 0 2\n# chara 102521\n# face 102521 \"surprise\"\n@ムラマサ\nはぁ…はぁ…\n今の…本当に私が…？\n\n# serif 1\n# textflame 1 1\n# textboxarrow 1 1\n@鬼火\n初めてにしちゃ、\nなかなか上出来だったね\nじゃ\n\n# textflame 1 1\n# textboxarrow 0 2\n# chara 102521\n# voice 1025 \"muramasa_kyara_1001\"\n@ムラマサ\nあ、待って！\n\n# textflame 0 0\n@\n待った！？\nと、帰って来るマスター\n\n# textflame 1 1\n# textboxarrow 0 2\n# chara 102521\n@ムラマサ\nあ、それ…\n元気の出るものって…\n\n@ムラマサ\n…薬草\n\n# textflame 0 0\n@\n彼女の膝の怪我に\n薬草を塗りながら、\nマスターが語り掛ける\n\n# select \"自信がなくても大丈夫\" \"select_label_01\" \"人生は経験や慣れだから\" \"select_label_02\" \"傷付く度に補強すればいいよ\" \"select_label_03\"\n彼女の膝の怪我に\n薬草を塗りながら、\nマスターが語り掛ける\n\n# label \"select_label_01\"\n# labeljump \"select_label_end\"\n# textflame 1 1\n# textboxarrow 0 2\n# chara 102521\n@ムラマサ\n本当…ですか…？\n\n# label \"select_label_02\"\n# labeljump \"select_label_end\"\n# textflame 1 1\n# textboxarrow 0 2\n# chara 102521\n# face 102521 \"sad\"\n@ムラマサ\n…素質や…才能じゃないと…\n\n# label \"select_label_03\"\n# labeljump \"select_label_end\"\n# textflame 1 1\n# textboxarrow 0 2\n# chara 102521\n# face 102521 \"normal\"\n@ムラマサ\n傷ついても…それを補えば…\n\n# label \"select_label_end\"\n# textflame 0 0\n@\nそうやって経験が増えるごとに\n自分の中に手札も増える\nそれが…きっと自信になるから\n\n# textflame 1 1\n# textboxarrow 0 2\n# chara 102521\n# voice 1025 \"muramasa_0031\"\n# face 102521 \"normal\"\n@ムラマサ\n…ありがとう…ございます\n\n# face 102521 \"shy\"\n@ムラマサ\n私…謝らなきゃって…\n思ってました…\n\n@ムラマサ\nこっちに来てから…\nいつも元気づけて\nもらってばかりで\n\n# voice 1025 \"muramasa_0030\"\n# face 102521 \"normal\"\n@ムラマサ\nでも…今は…\nありがとうと言いたい…！\n\n# face 102521 \"shy\"\n@ムラマサ\nこんなダメな私に…\nここまで優しくしてくれて…\n\n# voice 1025 \"muramasa_0001\"\n@ムラマサ\n主君、私…\n\n# face 102521 \"happy\"\n@ムラマサ\nがんばります！！\n\n# voice 1025 \"muramasa_0004\"\n@ムラマサ\nこの世界で…\nマスターの助けになれるぐらい…\nがんばります！！\n\n@ムラマサ\nあんな弱気はもう卒業！\n\n# voice 1025 \"muramasa_0005\"\n@ムラマサ\nもっともっと強くなるぞ！\nエイエイオーッ！！\n\n# imageset 0 \"c102521\"\n# imagealpha 0 0 0\n# imagepos 0 0 0\n# textflame 0 0\n@\n己を奮い立たせる彼女の目に、\nもう不安の陰りはなかった\n\n;;■一枚絵指定「こんなに良き主君は他にはおりませんっ！\n;;私っ、頑張りますから、だから、ずっと主君のお傍に…置いてください」\n;;muramasa_kyrara_0027.wav\n# voice 1025 \"muramasa_kyara_0027\"\n# imagealpha 0 1 0\n# imagepos 0 0 0\n# fadein \"white\" 3\n# textwindow \"close\""
	}
]