[
	{
		"ID": 10281203,
		"script": "# script \"lisp\"\n# background \"plain\"\n# bgm \"bgm000\" 0\n# body 102811\n# mask 102811 off\n# pos 102811 3\n# textboxarrow 0 2\n# textflame 0 0\n# chara 102811\n# textflame 0 0\n@\n森の中を進み続ける\nダーインスレイヴと\nマスター\n\n@\n２人はとうとう、\n隣組のコースに\n出てしまった\n\n# face 102811 \"sad\"\n# voice 1028 \"dainsleif_0013\"\n# textflame 1 1\n@ダーインスレイヴ\n…くっ！\nこのままではきりがない…！\nなんとかしなければ…\n\n# textflame 0 0\n@\n心を痛める彼女\n次の瞬間…！\n\n# face 102811 \"normal\"\n# textflame 1 1\n@ダーインスレイヴ\n放て…最高の一打を！！\nいくぞ！\n\n# textflame 0 0\n@\nコースにティーを突き刺し、\nその上にボールを置く\n\n# select \"ここでプレイしてる人が怒ってるよ！\" \"select_label_01\" \"めちゃめちゃマナー違反だよ！！\" \"select_label_02\" \"ルールは守ろうよ！！\" \"select_label_03\"\nコースにティーを突き刺し、\nその上にボールを置く\n\n# face 102811 \"normal\"\n# label \"select_label_01\"\n# labeljump \"select_label_end\"\n# textflame 1 1\n# chara 102811\n@ダーインスレイヴ\n百も承知…だが！\n\n# face 102811 \"normal\"\n# label \"select_label_02\"\n# labeljump \"select_label_end\"\n# textflame 1 1\n# chara 102811\n@ダーインスレイヴ\n確かにその通り…だが！\n\n# face 102811 \"normal\"\n# label \"select_label_03\"\n# labeljump \"select_label_end\"\n# textflame 1 1\n# chara 102811\n@ダーインスレイヴ\n詫びは入れる…だが！\n\n# label \"select_label_end\"\n# face 102811 \"surprise\"\n# voice 1028 \"dainsleif_0013\"\n# textflame 1 1\n@ダーインスレイヴ\nそれでも…今やらなければ\nならないことがあるんだ！\n\n# face 102811 \"normal\"\n@ダーインスレイヴ\nいくぞ！！\n# voice 1028 \"dainsleif_0013\"\n\n# face 102811 \"surprise\"\n@ダーインスレイヴ\nダー\n\n@ダーインスレイヴ\nイン\n\n@ダーインスレイヴ\nスレイヴ！！\n\n#se \"SE_4810\"\n# textflame 0 0\n@\n『バキィィィィィッ！！』\n\n# textflame 1 1\n@ダーインスレイヴ\n…！今の感覚…！\n新奥義『ギルティショット』\n開眼…！？\n\n#se \"SE_0602\"\n# textflame 0 0\n@\nそれは彼女が新たなる\nスキルに目覚めた瞬間だった\n\n@\n光を放ち飛んでいく打球\n落ちた先で『パキィッ！』と\nなにかが砕ける音がした\n\n# face 102811 \"happy\"\n# voice 1028 \"dainsleif_0029\"\n# textflame 1 1\n@ダーインスレイヴ\nよし…ワンオンだ\n\n# textflame 0 0\n@\n音のした方角へ駆けて行く２人\nそこには１匹のフェアリーがいた\n\n# face 102811 \"normal\"\n# textflame 1 1\n@ダーインスレイヴ\n見ろ\n\n# face 102811 \"sad\"\n@ダーインスレイヴ\n誰かが捨てた\nゴミが足に絡まり、\n怪我をしてしまったんだ\n\n# textflame 0 0\n@\n彼女の放った打球は、\nフェアリーの足に絡みついていた\nゴミを砕いていた\n\n# voice 1028 \"dainsleif_0019\"\n# textflame 1 1\n@ダーインスレイヴ\n可哀そうに…\n\n# textflame 0 0\n@\nそう言って、\nフェアリーを抱きかかえる彼女\n\n# face 102811 \"angry\"\n# textflame 1 1\n@ダーインスレイヴ\nだからイヤなんだ\nマナーやルールを守らない奴は\n\n# face 102811 \"normal\"\n@ダーインスレイヴ\nどこかで\n誰かが傷ついているということを\nまるで考えちゃいない\n\n# face 102811 \"sad\"\n@ダーインスレイヴ\n…そう言いながら、\nわたしも破ってしまったがな\n\n# textflame 0 0\n@\n迷惑を掛けた人たちに\n詫びる彼女\n\n# face 102811 \"normal\"\n# textflame 1 1\n@ダーインスレイヴ\nいい恰好をしても、\nそれが誰かを不快にする事もある…\n\n# face 102811 \"sad\"\n@ダーインスレイヴ\n偉そうに言いはしたが、\n結局、人は…\n\n@ダーインスレイヴ\n自分のルールの中でしか\n生きられないということか…\n\n# bgm \"stop\"\n# textflame 0 0\n@\n肩を落とす彼女に\nマスターが声を掛ける\n\n@\nそれでも守りたかったんでしょ？\n小さな命を…\nルールやマナーを破ってでも\n\n# bgm \"bgm002\" 0\n# face 102811 \"surprise\"\n# textflame 1 1\n@ダーインスレイヴ\n…！そんなわたしを…\nおぬしは褒めてくれるのか…？\n\n# face 102811 \"happy\"\n# voice 1028 \"dainsleif_0020\"\n@ダーインスレイヴ\n…ふっ、ありがたい\n\n@ダーインスレイヴ\n「情けないマスター」という言葉…\n\n@ダーインスレイヴ\n取り消そう\n# voice 1028 \"dainsleif_0031\"\n\n# imageset 0 \"c102811\"\n# imagealpha 0 0 0\n# face 102811 \"happy\"\n# chara 102811\n# textflame 1 1\n@ダーインスレイヴ\nおぬしは誠…\n心広き御仁だ\n\n# imagealpha 0 1 0\n# imagepos 0 0 0 \n# fadein \"white\" 3\n# voice 1028 \"dainsleif_kyara_0025\"\n# textwindow \"close\"\n\n# textwindow \"nomal\"\n# textflame 0 0\n@\n彼女の男前で爽やかな笑顔に、\n惚れ惚れするマスターだった"
	}
]