[
	{
		"ID": 10281204,
		"script": "# script \"lisp\"\n# background \"plain\"\n# bgm \"bgm002\" 0\n# body 102811\n# mask 102811 off\n# pos 102811 3\n# face 102811 \"normal\"\n# textboxarrow 0 2\n# textflame 0 0\n# chara 102811\n# textflame 0 0\n@\nあれから数日後\n\n@\nフェアリーを飼うことにした\nダーインスレイヴ\n\n# face 102811 \"surprise\"\n# textflame 1 1\n@ダーインスレイヴ\nお、おぬし…\nちょっといいか…？\n\n# textflame 0 0\n@\nダーインスレイヴから\n声を掛けられるマスター\n\n# face 102811 \"shy\"\n# textflame 1 1\n@ダーインスレイヴ\nいや、その…\n一言、礼を言いたくてな\n\n# face 102811 \"normal\"\n@ダーインスレイヴ\nルールやマナーを守るという\nわたしの信念、誇り…\n\n# face 102811 \"happy\"\n@ダーインスレイヴ\nおぬしのおかげで失わずに済んだ\n\n# face 102811 \"normal\"\n@ダーインスレイヴ\n戦闘という\n特殊な状況下で\n生きている以上…\n\n# voice 1028 \"dainsleif_0013\"\n@ダーインスレイヴ\nそれを失えば、\n性根は粗野で下劣なものに\nなってしまう…\n\n@ダーインスレイヴ\nそう思ってはいても…\n己の信念に疑いを\n持ってしまうこともある\n\n# face 102811 \"happy\"\n@ダーインスレイヴ\nでも、おぬしのような…\n頼れるマスターがいれば、\nその心配はなさそうだ\n\n@ダーインスレイヴ\n礼を言うぞ、マスター\n\n# textflame 0 0\n@\n素直に頭を下げる彼女\n\n# face 102811 \"normal\"\n# textflame 1 1\n@ダーインスレイヴ\nその想い、確信が…\nわたしに新たなる力を\n授けたようだ\n\n#se \"SE_0602\"\n# textflame 0 0\n@\nそれは彼女の新スキル\n『ギルティセイバー』\n誕生の瞬間だった\n\n# face 102811 \"happy\"\n# textflame 1 1\n@ダーインスレイヴ\nま、そういうわけだ\nこれからも、よろ…\n\n# face 102811 \"surprise\"\n# voice 1028 \"dainsleif_kyara_1013\"\n@ダーインスレイヴ\nきゃっ！\n\n# textflame 0 0\n@\n悲鳴を上げる彼女\n突然、フェアリーが\n彼女に頬ずりしたからだ\n\n# face 102811 \"shy\"\n# voice 1028 \"dainsleif_kyara_2013\"\n# textflame 1 1\n@ダーインスレイヴ\nあっ、ああっ！\n\n# select \"今、「きゃっ」って…\" \"select_label_01\" \"女の子みたいな声出たけど…\" \"select_label_02\" \"あれ？意外と…？\" \"select_label_03\"\nあっ、ああっ！\n\n# face 102811 \"shy\"\n# label \"select_label_01\"\n# labeljump \"select_label_end\"\n# textflame 1 1\n# chara 102811\n@ダーインスレイヴ\n……おほん…なんのことだ…？\n\n# face 102811 \"shy\"\n# label \"select_label_02\"\n# labeljump \"select_label_end\"\n# textflame 1 1\n# chara 102811\n@ダーインスレイヴ\nだ、出しておらん！\n\n# face 102811 \"shy\"\n# label \"select_label_03\"\n# labeljump \"select_label_end\"\n# textflame 1 1\n# chara 102811\n@ダーインスレイヴ\n意外と…なんだ！？\n今のは忘れろ！\n\n# label \"select_label_end\"\n# textflame 0 0\n@\n紳士で男前な君でも、\n可愛い声出すんだね\nと、ニヤケ顔のマスター\n\n# face 102811 \"shy\"\n# voice 1028 \"dainsleif_0042\"\n# textflame 1 1\n@ダーインスレイヴ\n…ば、ばかっ！\nそんなことで嬉しそうに…！\n\n# imageset 0 \"c102811\"\n# imagealpha 0 0 0\n# face 102811 \"shy\"\n# chara 102811\n# textflame 1 1\n@ダーインスレイヴ\nやっぱり、器の小さい\n情けないマスターだ！！\nふん！\n\n# imagealpha 0 1 0\n# imagepos 0 0 0 \n# fadein \"white\" 3\n# voice 1028 \"dainsleif_kyara_0026\"\n# textwindow \"close\"\n\n# textwindow \"nomal\"\n# textflame 0 0\n@\n顔を赤くして焦る姿が、\nまた妙に女の子っぽくて愛らしかった"
	}
]