[
	{
		"ID": 10352203,
		"script": ";;【EP3】（オチ）\n# script \"lisp\"\n# background \"town_night\"\n# bgm \"bgm002\" 0\n# body 103521\n# pos 103521 3\n# mask 103521 off\n# alpha 103521 0 0\n# face 103521 \"sad\"\n# textflame 0 0\n@\nはぐれてしまった友達を探すため、\n小さな女の子の手を引き、\n街を歩くダモクレスとマスター\n\n# alpha 103521 1 0.5\n# chara 103521\n# textflame 1 1\n# textboxarrow 0 2\n# voice 1035 \"damocles_0028\"\n@ダモクレス\nう～ん…\n\n# textflame 0 0\n@\nだが、少女の友達は\nなかなか見つからない\n\n# textflame 1 1\n# voice 1035 \"damocles_0019\"\n@ダモクレス\n…はぁ～\n\n# voice 1035 \"damocles_0018\"\n@ダモクレス\nやばい…クレス…\nちょっと、お腹空いてきた～…\nもう、ずっと歩いてるも～ん\n\n# textflame 0 0\n@\nその言葉に不安を覚え、\nまた泣き始める少女\n\n# textflame 1 1\n# voice 1035 \"damocles_0031\"\n# face 103521 \"usual\"\n@ダモクレス\nあぁ、ごめん、ごめん！\n大丈夫だよ\n\n@ダモクレス\n絶対にお友達、見つかるから！\n\n# textflame 0 0\n@\nそう声を掛けても、\n少女は泣き止まない…\n\n# textflame 1 1\n# voice 1035 \"damocles_0019\"\n# face 103521 \"sad\"\n@ダモクレス\n…………\n\n# voice 1035 \"damocles_0001\"\n@ダモクレス\nねぇ、マスター\n\n@ダモクレス\n前は、マスターを助けるためなら\n“あるがまま”にも\n逆らえるって言ったけど…\n\n@ダモクレス\nクレス、今は…\n\n@ダモクレス\nこの子を助けたい…\n\n@ダモクレス\n笑顔にしたい\n\n# voice 1035 \"damocles_0004\"\n# face 103521 \"usual\"\n@ダモクレス\nだってハロウィンは、\n子ども達が笑顔になる\nお祭りでしょ！\n\n# voice 1035 \"damocles_0029\"\n# face 103521 \"happy\"\n@ダモクレス\nもう泣かないで！\nクレスに任せて！！\nね、お嬢ちゃん\n\n# select \"でも、どうするの？\" \"select_label_01\" \"夜も更けて真っ暗だよ…？\" \"select_label_02\" \"なにかいい方法、あるの…？\" \"select_label_03\"\nもう泣かないで！\nクレスに任せて！！\nね、お嬢ちゃん\n\n# label \"select_label_01\"\n# labeljump \"select_label_end\"\n# textflame 1 1\n# voice 1035 \"damocles_0028\"\n# face 103521 \"usual\"\n@ダモクレス\n探してダメなら…\n\n# label \"select_label_02\"\n# labeljump \"select_label_end\"\n# textflame 1 1\n# voice 1035 \"damocles_0028\"\n# face 103521 \"usual\"\n@ダモクレス\n探してダメなら…\n\n# label \"select_label_03\"\n# labeljump \"select_label_end\"\n# textflame 1 1\n# voice 1035 \"damocles_0028\"\n# face 103521 \"usual\"\n@ダモクレス\n探してダメなら…\n\n# label \"select_label_end\"\n# face 103521 \"angry\"\n@ダモクレス\n向こうから来させる！！\n\n;;ギザギザ吹き出し\n;;吹き出し大きく\n# serif 0\n# textwindow \"close\"\n# serif 1\n# textsize 35\n# textwindow \"toge\"\n# textboxarrow 1 2\n# voice 1035 \"damocles_battle_0001\"\n@ダモクレス\nいっけーーーっ！！\n\n# fadein \"white\" 1\n# se \"SE_4825\"\n# waitandnext 1\n\n# serif 1\n# textwindow \"close\"\n# serif 0\n# textflame 0 0\n# textwindow \"nomal\"\n@\n天に向かって、\n剣を掲げる彼女\n\n@\nそんなことしたら…\nキル姫だってバレちゃうよ！\n小声で彼女に告げるマスター！\n\n# textflame 1 1\n@ダモクレス\nそれでもいい！嫌われても…\nクレスに愛があれば\n問題ないないない！！\n\n# textflame 0 0\n@\n剣先から放たれた大きな光は、\nハロウィンの夜空で輝くのだった\n\n# se \"SE_0602\"\n# textflame 1 1\n# voice 1035 \"damocles_battle_0004\"\n@ダモクレス\n新技『零式・夜な夜な吸血鬼』！！\n\n# face 103521 \"usual\"\n@ダモクレス\n愛の光よ…\nこの子を救って！！\n\n# imageset 0 \"black\"\n# imagealpha 0 0 0\n# imagelayer 0 1\n# textflame 0 0\n@\nその心が彼女に、\n新たなるスキルをもたらした\n\n@\n少し経つと…\n\n# imagealpha 0 1 0\n# imagepos 0 0 30\n# imageleftin 0 0.5\n# serif 0\n# textwindow \"close\"\n# serif 1\n# textwindow \"close\"\n# waitandnext 1\n\n# imagealpha 0 0 0.5\n# imagerightout 0 0.5\n# serif 0\n# textwindow \"nomal\"\n# textflame 1 1\n# voice 1035 \"damocles_0006\"\n# face 103521 \"surprise\"\n@ダモクレス\nあっ！！\n見て！！\n\n# textflame 0 0\n@\n光を花火と思った子ども達が\nぞろぞろと集まってくる\n\n@\nその中には、\n少女の友達グループも混ざっており…\n\n# textflame 1 1\n# voice 1035 \"damocles_0020\"\n# face 103521 \"happy\"\n@ダモクレス\n良かったね！\n\n# textflame 0 0\n@\nその優しさに触れ、少女は\nダモクレスを嫌ったりはしなかった\n\n@\n笑顔で手を振り、みんなと一緒に\n街へと帰って行くのだった\n\n# textflame 1 1\n@ダモクレス\nもう迷子になっちゃダメだよ～！\nばいば～い！\n\n# textflame 0 0\n@\n…と、次の瞬間\n\n# alpha 103521 0 0.3\n# shake 0 0.3\n# se \"SE_3001\"\n# face 103521 \"sad\"\n@\n『バターン！』\n\n@\nな～～～っ！？\nどど、どうしたの！？\n\n# alpha 103521 1.0 0.5\n# textflame 1 1\n# voice 1035 \"damocles_0019\"\n@ダモクレス\nあぁ…お腹空いた…\nマスター…\n助けて……\n\n# textflame 0 0\n@\n…と、だらしない声を出している\n\n@\n愛があれば問題ないんじゃないの？\n悪戯っぽく尋ねるマスター\n\n# textflame 1 1\n# voice 1035 \"damocles_0018\"\n@ダモクレス\nこればっかりは…\n愛をもってしても……\nダメみたい～～～\n\n# textflame 0 0\n@\n起こして…とばかりに\n倒れたまま、\n手を差し出してくる彼女\n\n@\nやれやれ…\nしょうがないから\nおんぶしてあげ…\n\n@\nいてーーーっ！！\n\n# textflame 1 1\n# face 103521 \"angry\"\n@ダモクレス\nウガーーッ！\nマスターの血を吸わせろー！\n\n# voice 1035 \"damocles_0005\"\n# face 103521 \"happy\"\n@ダモクレス\nなぁ～んてね♪\nあはははは！\n\n# voice 1035 \"damocles_0001\"\n@ダモクレス\nマスター！クレスのこと、\n助けようとしてくれて\nありがとッ！！\n\n# textflame 0 0\n@\n助けてくれる人を噛むなよ…\n\n# imageset 0 \"c103521\"\n# imagealpha 0 0 0\n@\nそう思いながらも、\n彼女が見せた優しさを思い出し、\n微笑むマスターだった\n\n# imagealpha 0 1 0\n# imagepos 0 0 0\n# fadein \"white\" 3\n# textwindow \"close\"\n# voice 1035 \"damocles_kyara_2006\"\n;;「…やっぱり問題だよ～！　マスター、なんか食べさせて～～～」"
	}
]