[
	{
		"ID": 10351203,
		"script": ";;【EP3】(オチ)\n# script \"lisp\"\n# background \"forest\"\n# bgm \"bgm002\" 0\n# body 103511\n# pos 103511 3\n# mask 103511 off\n# textflame 1 1\n# textboxarrow 0 2\n# chara 103511\n# voice 1035 \"damocles_kyara_1013\"\n# face 103511 \"surprise\"\n@ダモクレス\nどぉしたの、マスター？\n\n# textflame 0 0\n@\n生あるものはいつか死ぬ\nだから、あるがままにしておけばいい\nそう告げる彼女に反論するマスター\n\n# textflame 0 0\n@\n「あるがまま」に逆らえば\n助かることもあるかも知れない\n\n# textflame 0 0\n@\nいや、きっと助かる\nそう強く信じていれば\n\n# textflame 1 1\n# textboxarrow 0 2\n# chara 103511\n# face 103511 \"usual\"\n@ダモクレス\n「あるがまま」を変えられる\n強い想いがある…ってこと？\n\n# textboxarrow 0 2\n# chara 103511\n# voice 1035 \"damocles_0013\"\n@ダモクレス\nふぅ～ん…そうなんだ\n\n# textflame 0 0\n@\nよくわからないといった\n雰囲気の彼女\n話が少し難しかったか\n\n# textflame 1 1\n# textboxarrow 0 2\n# chara 103511\n# voice 1035 \"damocles_0024\"\n# face 103511 \"surprise\"\n@ダモクレス\n…あ！\n\n# textflame 0 0\n@\nその時、突然吹いた突風\n\n# textflame 0 0\n@\n煽られ、今度はマスターが\n木から落ちそうに…\n\n# textflame 1 1\n# textboxarrow 0 2\n# chara 103511\n# voice 1035 \"damocles_battle_0001\"\n# face 103511 \"angry\"\n@ダモクレス\nえいっ！！\n\n# textflame 0 0\n@\n目にも止まらぬ速さで\n彼女がマスターの腕を掴んだ\n\n# textflame 1 1\n# textboxarrow 0 2\n# chara 103511\n# face 103511 \"usual\"\n@ダモクレス\nマスターが言ったのって…\nこういうこと？\n\n# textboxarrow 0 2\n# chara 103511\n@ダモクレス\nう～ん、よくわかんないけど…\n\n# textboxarrow 0 2\n# chara 103511\n# face 103511 \"sad\"\n@ダモクレス\n確かにマスターが死んだらヤだな\nクレス、悲しくなっちゃう\n\n# textboxarrow 0 2\n# chara 103511\n# voice 1035 \"damocles_0004\"\n# face 103511 \"happy\"\n@ダモクレス\n大好きな人が喜んでくれるなら\n「あるがまま」じゃないのも\nアリかな♪\n\n# textflame 0 0\n@\nその心の変化が彼女に新たなるスキル\n\n# se \"SE_0602\"\n# textflame 0 0\n@\n『零式・気侭な遊戯』\n-ボヘミアン・アクト-\nを与えていた\n\n# textflame 1 1\n# textboxarrow 0 2\n# chara 103511\n# voice 1035 \"damocles_0001\"\n# face 103511 \"usual\"\n@ダモクレス\nねぇ、マスター\n\n# textboxarrow 0 2\n# chara 103511\n# face 103511 \"happy\"\n@ダモクレス\nばぁっ！！\n\n# textflame 0 0\n@\n木に足を掛け\n逆さづりになって\nおどける彼女\n\n# textflame 1 1\n# textboxarrow 0 2\n# chara 103511\n# voice 1035 \"damocles_0005\"\n# face 103511 \"usual\"\n@ダモクレス\nあはははは！\nねぇ、またクレスのこと\n助けてくれる？\n\n# select \"もちろんだよ\" \"select_label_01\" \"いつでもね\" \"select_label_02\" \"「あるがまま」に逆らってもね\" \"select_label_03\"\nあはははは！\nねぇ、またクレスのこと\n助けてくれる？\n\n# label \"select_label_01\"\n# labeljump \"select_label_end\"\n# textflame 1 1\n# textboxarrow 0 2\n# chara 103511\n@ダモクレス\nへへへ、そっか！じゃあ…\n\n# label \"select_label_02\"\n# labeljump \"select_label_end\"\n# textflame 1 1\n# textboxarrow 0 2\n# chara 103511\n@ダモクレス\nふ～ん、えへへ！じゃあ…\n\n# label \"select_label_03\"\n# labeljump \"select_label_end\"\n# textflame 1 1\n# textboxarrow 0 2\n# chara 103511\n@ダモクレス\nへ～、かっこいい～！じゃあ…\n\n# label \"select_label_end\"\n# textflame 1 1\n# textboxarrow 0 2\n# chara 103511\n@ダモクレス\nクレスもマスターのこと\n助けてあげるね！\n\n# textflame 0 0\n@\n嬉しそうに微笑む彼女\n\n# textflame 1 1\n# textboxarrow 0 2\n# chara 103511\n# face 103511 \"surprise\"\n@ダモクレス\nえ？見えてる？\n\n# textflame 0 0\n@\n宙吊りになっていたため\nまた衣服がめくれ上がっている\n\n# textflame 1 1\n# textboxarrow 0 2\n# chara 103511\n# face 103511 \"happy\"\n@ダモクレス\nあはははは！ぺろ～ん♪\n\n# textboxarrow 0 2\n# chara 103511\n# face 103511 \"usual\"\n@ダモクレス\nあははは！いいの、いいの！\n愛さえあれば問題ないよ～！\n\n# textflame 0 0\n@\n慌てたマスターが\nすごく問題だ、と注意しても\nダモクレスは気にした様子もない\n\n# textflame 1 1\n# textboxarrow 0 2\n# chara 103511\n# face 103511 \"happy\"\n@ダモクレス\nなんか“愛”のこと\nまた少しだけわかった気がする！\nあははは！ \n\n# imageset 0 \"c103511\"\n# imagealpha 0 0 0\n# textflame 0 0\n@\nまだまだあどけなさの残る彼女に\n振り回されっ放しのマスターだった\n\n# imagealpha 0 1 0\n# imagepos 0 0 0 \n# fadein \"white\" 3\n# voice 1035 \"damocles_kyara_1001\"\n# textwindow \"close\"\n;;一枚絵ボイス：ダモクレス「…わーっ！　あはははは、びっくりした？　ねぇ、びっくりした？」（「自己紹介」より一部カット）"
	}
]