[
	{
		"ID": 10361204,
		"script": ";;【EP4】(オチ)\n# script \"lisp\"\n# background \"plain\"\n# bgm \"bgm002\" 0\n# body 103611\n# pos 103611 3\n# mask 103611 off\n# alpha 103611 0 0\n# textflame 0 0\n@\nあれから数日後\n\n# alpha 103611 1 1\n# textflame 1 1\n# textboxarrow 0 2\n# chara 103611\n# voice 1036 \"ragnarok_0009\"\n# face 103611 \"surprise\"\n@ラグナロク\nなに、その顔？\n\n# textboxarrow 0 2\n# chara 103611\n# face 103611 \"angry\"\n@ラグナロク\nせっかく世界が\n祝福してくれているような\n朝なのに寝ぼけてるの？\n\n# textboxarrow 0 2\n# chara 103611\n# face 103611 \"usual\"\n@ラグナロク\n早く顔、洗ってきなさい\n\n# textflame 0 0\n@\nあの日以来\n彼女は変わった\n\n# textflame 0 0\n@\n隊の仲間とも\n距離を取らなくなった\n\n# textflame 1 1\n# textboxarrow 0 2\n# chara 103611\n# voice 1036 \"ragnarok_0004\"\n@ラグナロク\nあなたと一緒にいて\n少し考え方が変わったの\n\n# textboxarrow 0 2\n# chara 103611\n@ラグナロク\n今までの私は\n０世代から託された想いを\n一人で背負っていた\n\n# textboxarrow 0 2\n# chara 103611\n# voice 1036 \"ragnarok_0037\"\n# face 103611 \"sad\"\n@ラグナロク\nそれは…私をどす黒き孤独の闇に\nいざなっていた\nでも…\n\n# textboxarrow 0 2\n# chara 103611\n# face 103611 \"usual\"\n@ラグナロク\nここには光り輝く新たな仲間がいる\n\n# textboxarrow 0 2\n# chara 103611\n@ラグナロク\n託された想いを分かち合える\n尊き大切な仲間が\n\n# textboxarrow 0 2\n# chara 103611\n# face 103611 \"happy\"\n@ラグナロク\nそして…温かな目で\nいつも見守ってくれている\nあなたが\n\n# textboxarrow 0 2\n# chara 103611\n# face 103611 \"usual\"\n@ラグナロク\nみんながいれば…\nもう怖くない\n\n# textboxarrow 0 2\n# chara 103611\n@ラグナロク\nみんなと一緒に\nこの世界を導いて行きたい\n\n# textboxarrow 0 2\n# chara 103611\n# voice 1036 \"ragnarok_0003\"\n@ラグナロク\nそう…\n平和の鐘が鳴る歓びの世界へと\n\n# textflame 0 0\n@\n彼女の想いが\nさらなるスキルをもたらす\n\n# textflame 1 1\n# se \"SE_0602\"\n# textboxarrow 0 2\n# chara 103611\n@ラグナロク\n『遍く革命旗』\n-ジェネシス・フラッグ-…\n\n# textboxarrow 0 2\n# chara 103611\n@ラグナロク\nこの技が\n新たな世界の鍵にならんことを\n\n# textflame 0 0\n@\n彼女の放つ光を受けていると\n不思議と力をもらえるマスター\n\n# select \"これからもずっと共に戦おう\" \"select_label_01\" \"一緒に平和な世界を作ろう\" \"select_label_02\" \"君がいれば心強いよ\" \"select_label_03\"\n彼女の放つ光を受けていると\n不思議と力をもらえるマスター\n\n# label \"select_label_01\"\n# labeljump \"select_label_end\"\n# textflame 1 1\n# textboxarrow 0 2\n# chara 103611\n# face 103611 \"surprise\"\n@ラグナロク\n…ずっと？\n\n# label \"select_label_02\"\n# labeljump \"select_label_end\"\n# textflame 1 1\n# textboxarrow 0 2\n# chara 103611\n# face 103611 \"surprise\"\n@ラグナロク\n…あなたと？\n\n# label \"select_label_03\"\n# labeljump \"select_label_end\"\n# textflame 1 1\n# textboxarrow 0 2\n# chara 103611\n# face 103611 \"surprise\"\n@ラグナロク\n…それは分かるけど\n\n# label \"select_label_end\"\n# textflame 0 0\n@\n君のマスターとして、僕もがんばるよ\n平和の鐘が鳴る輝ける世界に\n出来るように\n\n# textflame 1 1\n# textboxarrow 0 2\n# chara 103611\n# voice 1036 \"ragnarok_0028\"\n# face 103611 \"usual\"\n@ラグナロク\n…う～ん\n\n# textboxarrow 0 2\n# chara 103611\n@ラグナロク\nそう言われても\n今一つピンと来ないな～\nキミってどこか頼りないから\n\n# textflame 0 0\n@\n時の経過と共に\nすっかりイジられるようになった\nマスター\n\n# textflame 1 1\n# textboxarrow 0 2\n# chara 103611\n# face 103611 \"happy\"\n@ラグナロク\nあなたも\nマスターとしての重責を\n背負わなくていいのよ？\n\n# textboxarrow 0 2\n# chara 103611\n# voice 1036 \"ragnarok_0005\"\n@ラグナロク\n安心して？\nキミのことは\n私が守ってあげるから♪\n\n# textboxarrow 0 2\n# chara 103611\n@ラグナロク\n私と…運命を共にしましょうか\n\n# imageset 0 \"c103611\"\n# imagealpha 0 0 0\n# textflame 0 0\n@\nもう彼女との距離感は\nすっかりなくなっていた\n\n;;ラグナロク「ん～、キミに言われてもなぁ…。でも、なんか悪くない感じ」\n# imagealpha 0 1 0\n# imagepos 0 0 0 \n# fadein \"white\" 3\n# voice 1036 \"ragnarok_event_1007\"\n# textwindow \"close\""
	}
]