[
	{
		"ID": 110204012,
		"script": ";;------------------------------------------------------------\n;;背景：平原\n;;ステージ11：211002050\n;;戦闘後会話のみ\n;;------------------------------------------------------------\n# script \"lisp\"\n# background \"plain\"\n# bgm \"bgm003\" 0\n# body 3103811\n# pos 3103811 2\n# scale 3103811 0.8 0\n# body 139\n# pos 139 4\n# scale 139 0.8 0\n# mask 139 off\n# mask 3103811 off\n# imageset 0 \"beginner_quest_04\"\n# imagealpha 0 0 0\n# imagelayer 0 1\n# imageset 1 \"beginner_quest_arrow_2\"\n# imagealpha 1 0 0\n# imagelayer 1 2\n# textflame 1 1\n# textboxarrow 0 3\n# chara 139\n@ティターニア\n武具は装備して敵を倒したり、\n他の武具を錬成素材として\n使用したりすることで\n\n# imagepos 0 0 0\n# imagepos 1 115 -110\n# textflame 1 1\n# textboxarrow 0 3\n# chara 139\n@ティターニア\n武具RANKを\n上げることができます\n\n# face 3103811 \"happy1\"\n# textflame 1 1\n# textboxarrow 0 1\n# chara 3103811\n@アルマス\n武具はRANKが上がるほど\n強くなって武具スキルを\n覚えることもあるわ\n\n;;//ユニット・武具画面のスクショを表示して説明\n# serif 0\n# textwindow \"close\"\n# imagealpha 0 1 0.5\n# alpha 3103811 0 0.5\n# alpha 139 0 0.5\n# move 3103811 1 0.5\n# move 139 5 0.5\n# waitandnext 0.5\n\n# imagealpha 1 1 0.3\n# waitandnext 0.5\n\n# imagealpha 1 0 0.3\n# waitandnext 0.5\n\n# serif 0\n# textwindow \"normal\"\n# imagealpha 1 1 0.3\n# textboxarrow 0 0\n# chara 139\n# voice 9967 \"titania_0002\"\n@ティターニア\n武具の錬成はここから\n行うことができます\n\n# textflame 1 1\n# textboxarrow 0 0\n# chara 3103811\n@アルマス\n通常の武具の最高RANKは\n５までしか鍛えることが\nできないけど…\n\n# textflame 1 1\n# textboxarrow 0 0\n# chara 3103811\n@アルマス\n同じ武具で錬成を行うことで\n最高RANKを\n１つ上げることができるの\n\n# textflame 1 1\n# textboxarrow 0 0\n# chara 139\n@ティターニア\nRANKは最大１０まで\n上げることができます\n\n# textflame 1 1\n# textboxarrow 0 0\n# chara 139\n@ティターニア\nまた、素材の中には\n『錬成のインゴット』という\n\n# textflame 1 1\n# textboxarrow 0 0\n# chara 139\n@ティターニア\n武具錬成用の\n特別な素材もあります\n\n# textflame 1 1\n# textboxarrow 0 0\n# chara 3103811\n@アルマス\n『インゴット』を利用すれば\n一気に武具を\n強化することができるの\n\n# face 3103811 \"normal\"\n# imagealpha 0 0 0.5\n# imagealpha 1 0 0.5\n# alpha 3103811 1 0.5\n# alpha 139 1 0.5\n# move 3103811 2 0.5\n# move 139 4 0.5\n# textflame 1 1\n# textboxarrow 0 3\n# chara 139\n@ティターニア\nただ、素材として使用した武具や\nインゴットは消滅してしまうので\n注意してください\n\n# face 139 \"happy\"\n# textflame 1 1\n# textboxarrow 0 3\n# chara 139\n# voice 9967 \"titania_0006\"\n@ティターニア\nさっそく『錬成のインゴット』を\nプレゼントしますので\n錬成してみてくださいね"
	}
]