[
	{
		"ID": 110204014,
		"script": ";;------------------------------------------------------------\n;;背景：平原\n;;ステージ13：211002052\n;;戦闘なし会話のみ\n;;------------------------------------------------------------\n# script \"lisp\"\n# background \"plain\"\n# bgm \"bgm003\" 0\n# body 3103811\n# pos 3103811 2\n# scale 3103811 0.8 0\n# body 139\n# pos 139 4\n# scale 139 0.8 0\n# mask 139 off\n# mask 3103811 off\n# imageset 0 \"beginner_quest_01\"\n# imagealpha 0 0 0\n# imagelayer 0 1\n# imageset 1 \"beginner_quest_arrow_1\"\n# imagealpha 1 0 0\n# imagelayer 1 2\n# imageset 2 \"beginner_quest_02\"\n# imagealpha 2 0 0\n# imagelayer 2 3\n# imagescale 2 0.8 0\n# textflame 1 1\n# textboxarrow 0 1\n# chara 3103811\n# voice 1038 \"almace_0001\"\n@アルマス\nもしAPが尽きたら\nデイリーミッションを\n確認しなさい\n\n;;//フッターバナーの画像を表示して説明\n# serif 0\n# textwindow \"close\"\n# move 3103811 1 0.5\n# move 139 5 0.5\n# alpha 3103811 0 0.5\n# alpha 139 0 0.5\n# imagealpha 0 1 0.3\n# imagepos 0 0 0\n# imagepos 1 213 60\n# waitandnext 0.5\n\n# imagealpha 1 1 0.3\n# waitandnext 0.5\n\n# imagealpha 1 0 0.3\n# waitandnext 0.5\n\n# serif 0\n# textwindow \"normal\"\n# imagealpha 1 1 0.3\n# imagepos 2 0 0 0\n# textflame 1 1\n# textboxarrow 0 0\n# chara 139\n@ティターニア\nデイリーミッションへは\nここから遷移できます\n\n;;//ミッション画面の画像を表示して説明\n# imagealpha 1 0 0.5\n# imagemoveto 0 0 100 0.5\n# imagealpha 2 1 0.5\n# imagemoveto 2 0 -50 0.5\n# imagepos 2 50 0\n# textflame 1 1\n# textboxarrow 0 0\n# chara 139\n@ティターニア\nデイリーミッションでは\n４時間ごとにAPをもらえたり…\n\n# textflame 1 1\n# textboxarrow 0 0\n# chara 139\n@ティターニア\n１日１回、統合や強化をすれば、\n『ファンキルメダル』が\nもらえます\n\n# imagealpha 0 0 0.5\n# imagealpha 2 0 0.5\n# move 3103811 2 0.5\n# move 139 4 0.5\n# alpha 3103811 1 0.5\n# alpha 139 1 0.5\n# textflame 1 1\n# textboxarrow 0 1\n# chara 3103811\n@アルマス\n『ファンキルメダル』は\nショップでいろいろなアイテムと\n交換できるから…\n\n# textflame 1 1\n# textboxarrow 0 1\n# chara 3103811\n@アルマス\n集めておいて損はないわ"
	}
]