[
	{
		"ID": 1120101,
		"script": ";;-----------------------------------------\n;;■□■１－２改修案■□■\n;;整形済み\n;;【１－２－１（バトル前）】\n;;スクリプト最後の背景：foot_mountain_village\n;;-----------------------------------------\n# script \"lisp\"\n# background \"foot_mountain_village\"\n# bgm \"bgm002\" 0\n;;----------------------------------------------------------\n;;ティルフィング\n# body 24\n# pos 24 3\n# scale 24 0.8 0\n# layer 24 2\n# alpha 24 0 0\n# mask 24 off\n# face 24 \"normal\"\n;;デュリン\n# body 0\n# pos 0 3\n# scale 0 0.8 0\n# layer 0 2\n# alpha 0 0 0\n# mask 0 off\n# face 0 \"normal\"\n;;-----------------------------------------\n;;背景:foot_mountain_village\n# voice 9999 \"durin_0039\"\n# move 24 2 0\n# face 24 \"normal\"\n# alpha 24 1 0\n# mask 24 on\n# move 0 4 0\n# face 0 \"normal\"\n# alpha 0 1 0\n# mask 0 on\n# textflame 1 1\n# textboxarrow 0 3\n@デュリン\n…そっか…ティルフィング\nよく考えたらアンタも、今ひとつ\n流れが飲み込めてないのよね？\n\n# textboxarrow 0 3\n@デュリン\nまずは、世界樹“ユグドラシル”を\n目指すの\n\n# voice 1014 \"tyrufing_0022\"\n# face 24 \"surprise\"\n# textboxarrow 0 1\n@ティルフィング\n世界樹…“ユグドラシル”？\n\n# textboxarrow 0 3\n@デュリン\nこのラグナ大陸の中心にそびえ立つ、\nでっかーい世界樹\nそこがアタシ達の目指すべき場所なの\n\n# voice 1014 \"tyrufing_0028\"\n# face 24 \"normal\"\n# textboxarrow 0 1\n@ティルフィング\nどうして、そこに…？\nマスターの洗礼を受けるのよね？\n教会なら近くにも…\n\n# voice 9999 \"durin_0011\"\n# textboxarrow 0 3\n@デュリン\n教会じゃダメ…マスターの洗礼は、\nユグドラシルの麓にある\nラグナ大聖堂でしか行われてないの\n\n# textboxarrow 0 3\n@デュリン\nそこでマスターの称号を授かって、\nはじめてラグナロク教会が…\n\n# textboxarrow 0 3\n@デュリン\n “キラープリンセス”の指揮権を\n正式に認めたことになるの\n\n# voice 1014 \"tyrufing_0040\"\n# textboxarrow 0 1\n@ティルフィング\n総本山でなければ、\n認可が下りないのね？\n\n# face 0 \"happy\"\n# textboxarrow 0 3\n@デュリン\nそう！\nさぁ、のんびりしていられないわよ！\n\n# voice 9999 \"durin_0006\"\n# textboxarrow 0 3\n@デュリン\nマスターとなる為…\nいざ、ユグドラシルへ！\n\n# bgm \"bgm007_011\" 0\n# se \"SE_5205\"\n# face 24 \"angry\"\n# textboxarrow 0 1\n@ティルフィング\n“異族”です！\n下がってください！！\n\n# face 0 \"usual\"\n# textboxarrow 0 3\n@デュリン\n張り切ってるわね、ティルフィング\n\n# textboxarrow 0 1\n@ティルフィング\n…ラグナ大聖堂まで\n何があろうと無事にお連れします"
	}
]