[
	{
		"ID": 1121001,
		"script": "# script \"lisp\"\n# background \"foot_mountain_village\"\n# bgm \"bgm008\" 0\n# body 0\n# pos 0 5\n# body 101411\n# mask 101411 off\n# pos 101411 3\n# textboxarrow 0 2\n# voice 1014 \"tyrufing_0036\"\n# chara 101411\n@ティルフィング\n“異族”の最後の一体を追撃します！\nデュリン、\nマスターをお願いします！\n\n# layer 0 3\n# textboxarrow 0 0\n# move 0 3 0.3\n# serif 1\n# textboxarrow 1 2\n# leftout 101411 0.5\n# chara 0\n# se \"SE_5000\"\n@デュリン\nあの異形の者たちは“異族”…\n人々を喰らう、人間の上位捕食者\nであり…この大陸最大の脅威よ\n\n# serif 1\n# chara 0\n…近寄らないほうがいいわ、\nいきなり寄生されることも\nあるんだから\n\n# se \"SE_4815\"\n# shake 0 0.5\n# serif 0\n# chara 101411\n# voice 1014 \"tyrufing_0038\"\n@ティルフィング\n…クッ…この…！\n\n# serif 1\n# chara 0\n@デュリン\nそんな大陸の脅威を斬り刻めるのは、\nキラープリンセスだけ…なのに…\nどうも人々の受けが悪いのよね\n\n# se \"SE_4815\"\n# shake 0 0.5\n# serif 0\n# voice 1014 \"tyrufing_0029\"\n# chara 101411\n@ティルフィング\n…これで終わりよ…っ！\n\n# serif 1\n# chara 0\n@デュリン\n彼女達…対象を殺す瞬間、\n快楽に満ちたような\n表情を浮かべるでしょ？\n\n# serif 1\n# chara 0\nそれが、人々を\n気味悪がらせてるのよ\n\n# serif 1\n# chara 0\n# body 810004\n# reversal 810004 0\nその証拠に…誰が名付けたのかは\n知らないけど、キラープリンセスには\n通り名があるの…\n\n# rightout 0 0.5\n# pos 101411 4\n# leftin 101411 0.8\n# pos 810004 2\n# leftin 810004 0.8\n# serif 0\n# textboxarrow 1 0\n# textboxarrow 0 3\n# chara 101411\n# voice 1014 \"tyrufing_0037\"\n@ティルフィング\n…消えなさい！！\n\n# face 101411 \"mad\"\n# fadein \"red \" 1.5\n# shake 0 0.5\n# se \"SE_4815\"\n# alpha 810004 0. 2.5\n\n# face 101411 \"normal\"\n# move 101411 3 1\n# serif 1\n# textboxarrow 0 0\n# chara 0\n@デュリン\n“恍惚の斬殺者”\nそれが、\n彼女たちに与えられた通り名…\n\n# serif 1\n# chara 0\n異族をこともなく肉片に変える\nあの子たちは…\n\n# serif 1\n# chara 0\n世間から不気味に見え…\n忌み嫌われる存在なの\n\n# select \"…斬殺者だなんてあんまりじゃないか！\" \"select_label_01\" \"彼女は…優しい人間なのに…\" \"select_label_01\"\n世間から不気味に見え…\n忌み嫌われる存在なの\n\n# label \"select_label_01\"\n# labeljump \"select_label_end\"\n# layer 101411 1\n# pos 0 4\n# rightin 0 0.3\n# move 101411 2 0.3\n# serif 0\n# textboxarrow 0 3\n# chara 0\n# voice 9999 \"durin_0007\"\n@デュリン\nふふ、熱くなっちゃって…\n少しはマスターっぽく\nなってきたじゃない？\n\n# label \"select_label_end\"\n# serif 0\n# chara 0\nさぁ…近くの村で、\nひと息入れましょう"
	}
]