[
	{
		"ID": 1141001,
		"script": "# script \"lisp\"\n# background \"plain\"\n# bgm \"bgm003\" 0\n# body 101411\n# pos 101411 2\n# body 0\n# pos 0 4\n# textboxarrow 0 3\n# chara 0\n@デュリン\nやっぱ“海”が近いせいかしら…\nこのあたりは異族の数が多いわね…\n\n# layer 0 3\n# serif 1\n# textboxarrow 1 1\n# chara 101411\n@ティルフィング\nこのラグナ大陸を取り囲む、\n大いなる“海”…異族はその海から\n出現すると言われているのです\n\n# serif 1\n# chara 101411\nなので、海周辺は\n一般人立ち入り禁止区域…\n\n# serif 1\n# chara 101411\n侵入が許されてるのは、\n王国政府の人間と私達ラグナロクの\n関係者だけなのです\n\n# serif 0\n# chara 0\n# voice 9999 \"durin_0027\"\n@デュリン\n…表向きはね\n\n# face 101411 \"surprised\"\n# serif 1\n# chara 101411\n# voice 1014 \"tyrufing_0022\"\n@ティルフィング\nえ？\n\n# serif 0\n# chara 0\n@デュリン\nどこからか勝手に入り込んで、\n住みついてるヤツらがいるのよ\n\n# serif 0\n# chara 0\n異族だらけのこんなところに\nわざわざ…理解に苦しむけどね\n\n# face 0 \"occur\"\n# serif 0\n# chara 0\n# voice 9999 \"durin_0001\"\n…アンタも記憶を失ってたとはいえ\nこんな場所で寝っ転がってて\nよく無事だったわね？\n\n# serif 0\n# chara 0\nアタシ達が通りかからなきゃ、\n間違いなく死んでたわよ？\n\n# face 101411 \"normal\"\n# serif 1\n# chara 101411\n# voice 1014 \"tyrufing_0013\"\n@ティルフィング\nでも…マスターが\nここにいらっしゃらなければ、\n私達は…\n\n# face 0 \"normal\"\n# serif 0\n# chara 0\n@デュリン\nは？\n\n# serif 1\n# chara 101411\n@ティルフィング\nここにいてくださったおかげで…\n私はマスターと巡り会えたんです。\nだから…\n\n# select \"記憶を失くした者同士…運命的にも思えるな\" \"select_label_01\" \"最後まで共に闘い、必ず記憶を取り戻そう\" \"select_label_01\"\nここにいてくださったおかげで…\n私はマスターと巡り会えたんです。\nだから…\n\n# label \"select_label_01\"\n# labeljump \"select_label_end\"\n# serif 0\n# face 101411 \"surprised\"\n# textboxarrow 0 1\n# chara 101411\n@ティルフィング\nえ…？\nあ…は、はいっ！！\n\n# label \"select_label_end\"\n# serif 1\n# chara 0\n# textboxarrow 1 3\n# voice 9999 \"durin_0039\"\n@デュリン\n…あらぁ？\n\n# face 101411 \"shy\"\n# serif 0\n# chara 101411\n# voice 1014 \"tyrufing_0023\"\n@ティルフィング\n…な、なに？\n\n# serif 1\n# chara 0\n@デュリン\nどうしたのティルフィング？\nなに…動揺してんの？\n\n# serif 0\n# chara 101411\n@ティルフィング\nな、なにを言ってるの？！\nわ、私は、その…\n\n# serif 0\n# chara 101411\nと、ともかく、先を急ぎましょう！\n街まではもうすぐなんだから…！\n\n# serif 1\n# chara 0\n# voice 9999 \"durin_0046\"\n@デュリン\n…ふふ"
	}
]