[
	{
		"ID": 1320502,
		"script": "# script \"lisp\"\n# body 101411\n# pos 101411 1\n# body 0\n# pos 0 3\n# body 4\n# pos 4 5\n# scale 101411 0.8 0\n# scale 0 0.7 0\n# scale 4 0.8 0\n# layer 0 1\n# textboxarrow 0 2\n# face 0 \"angry\"\n# chara 0\n@デュリン\n考えてごらんなさいよ！\nアタシたちは、アイツの隊の\n不始末に駆け回ってやってんのよ！？\n\n# serif 0\n# textboxarrow 0 2\n# chara 0\n@デュリン\nそれを、なにさ！\n言うに事欠いて、ペチャ…ああっ！！\nムカつくっ！！！\n\n# serif 1\n# textboxarrow 1 3\n# chara 4\n@トト\nデュリン、\nなんでそんなに怒ってるの？\nペチャパイって、どういう意味？\n\n# serif 0\n# textboxarrow 0 2\n# face 0 \"normal\"\n# chara 0\n@デュリン\nグ…ッ！\nス…スレンダーで、\n素敵なレディのことよ…\n\n# serif 1\n# textboxarrow 1 3\n# chara 4\n@トト\nスレンダー…？\n\n# serif 0\n# textboxarrow 0 2\n# face 0 \"angry\"\n# chara 0\n@デュリン\n胸が大きくない女性のことよっ！！\n\n# serif 1\n# textboxarrow 1 3\n# face 4 \"smile01\"\n# chara 4\n@トト\nああ！だったら、そうだね！\nじゃあ、怒ること無いよ！\n\n# serif 1\n# textboxarrow 1 3\n# chara 4\n@トト\nデュリンは、\n胸が小さい素敵な女性だよ！！\n\n# flush \"white\" 0.1 1\n# clash 0\n# se \"SE_4812\"\n# serif 0\n# textboxarrow 0 2\n# chara 0\n@デュリン\n黙れ、クソガキっ！！！\n\n# serif 1\n# textboxarrow 1 3\n# face 4 \"sad\"\n# chara 4\n@トト\n痛いっ！！\nなんで怒るんだよ！\n全然、ワケわかんないよっ！？\n\n# serif 1\n# textboxarrow 1 1\n# chara 101411\n@ティルフィング\n…ねぇ、デュリン\n\n# serif 0\n# textboxarrow 0 2\n# face 0 \"occur\"\n# chara 0\n@デュリン\n…なによ？\nアンタのフォローが\n一番刺さりそうなんだけど\n\n# serif 1\n# textboxarrow 1 1\n# chara 101411\n@ティルフィング\nデュリン…そのまま、\n自我を失うほど\n感情的になんてなれないわよね？\n\n# serif 0\n# textboxarrow 0 2\n# face 0 \"angry\"\n# chara 0\n@デュリン\nハァ！？\nアンタも、バカにしてるわけ！？\n\n# serif 0\n# textboxarrow 0 2\n# chara 0\n@デュリン\n一人で、自我を失うほど\n感情的になんて……っ！\n…ロンギヌスのこと…？\n\n# serif 1\n# textboxarrow 1 1\n# chara 101411\n@ティルフィング\nええ…外的な要因もなく、\n制御出来なくなるまでに感情が昂ぶる\n…そんなことってあるのかしら？"
	}
]