[
	{
		"ID": 1330101,
		"script": ";;-----------------------------------------\n;;■□■３－３改修案■□■\n;;整形済み\n;;【３－３－１（バトル前）】\n;;スクリプト最後の背景：wild\n;;-----------------------------------------\n# script \"lisp\"\n# background \"wild\"\n# bgm \"bgm031\" 0\n;;----------------------------------------------------------\n;;ティルフィング\n# body 24\n# pos 24 3\n# scale 24 0.8 0\n# layer 24 1\n# alpha 24 0 0\n# mask 24 off\n# face 24 \"normal\"\n;;デュリン\n# body 0\n# pos 0 3\n# scale 0 0.8 0\n# layer 0 3\n# alpha 0 0 0\n# mask 0 off\n# face 0 \"normal\"\n;;ディーン\n# body 6\n# pos 6 3\n# scale 6 0.8 0\n# layer 6 1\n# alpha 6 0 0\n# mask 6 off\n# face 6 \"normal\"\n;;トト\n# body 4\n# pos 4 3\n# scale 4 0.8 0\n# layer 4 2\n# alpha 4 0 0\n# mask 4 off\n# face 4 \"normal\"\n;;暴走ロンギヌス\n# body 300111\n# pos 300111 3\n# scale 300111 0.8 0\n# layer 300111 2\n# alpha 300111 0 0\n# mask 300111 off\n# face 300111 \"normal\"\n;;-----------------------------------------\n;;背景:wild\n# voice 9998 \"toto_0024\"\n# move 24 1 0\n# face 24 \"normal\"\n# alpha 24 1 0\n# mask 24 on\n# move 4 3 0\n# face 4 \"angry\"\n# alpha 4 1 0\n# mask 4 on\n# textflame 1 1\n# textboxarrow 0 2\n# move 6 5 0\n# face 6 \"normal\"\n# alpha 6 1 0\n# mask 6 on\n@トト\n天使！？\n天使を見たって言ってたの！？\n\n# voice 9997 \"deen_0049\"\n# face 6 \"angry\"\n# textboxarrow 0 3\n@ディーン\nんだよ…うっせーな、クソガキ\nイカレたヤツの\nたわごとだっつってんだろ？\n\n# face 24 \"angry\"\n# textboxarrow 0 1\n@ティルフィング\nいえ、彼女の暴走と\n関わりがあるかもしれません…\n聞かせて下さい\n\n# voice 9997 \"deen_0031\"\n# textboxarrow 0 3\n@ディーン\nなんなんだよ、\nティルフィングまで…？\n\n# textboxarrow 0 3\n@ディーン\nだから…暴走する直前、\nロンギヌスが呟いたんだよ\n\n# textboxarrow 0 3\n@ディーン\n私の行動を“カミノツカイ”が\n望まれてる…とか、なんとか…\n\n# voice 9998 \"toto_0023\"\n# textboxarrow 0 2\n@トト\nカミノツカイ…？\n\n# textboxarrow 0 3\n@ディーン\n物を知らねぇガキだな…\n神話に出てくる天使だよ\n\n# alpha 24 0 0.5\n# move 0 1 0\n# face 0 \"normal\"\n# alpha 0 1 0.5\n# mask 0 on\n# textboxarrow 0 1\n@デュリン\nロンギヌスの行動を…\nカミノツカイが望んでる…？\n\n# textboxarrow 0 2\n@トト\n物を知らないのは、どっちだよ！？\nいるんだよ、天使は…\nこの目で見たもん！！\n\n# textboxarrow 0 2\n@トト\nなんで仲間の言うことを\n信じてやらないんだよ！\n\n# voice 9997 \"deen_0011\"\n# textboxarrow 0 3\n@ディーン\nああん？なんだよ、急に…\nまとわりつくなよ、クソガキ！\n\n# se \"SE_4602\"\n# shake 1 1\n# fadein \"white\" 1\n# waitandnext 1\n\n# voice 1014 \"tyrufing_0022\"\n# alpha 0 0 0.5\n# face 24 \"surprise\"\n# alpha 24 1 0.5\n# textboxarrow 0 1\n@ティルフィング\nトト！\n首飾りが…！\n\n# voice 9998 \"toto_0023\"\n# textboxarrow 0 2\n@トト\nえ？あ…！\n\n# se \"SE_9092\"\n# alpha 24 0 0.5\n# alpha 4 0 0.5\n# alpha 6 0 0.5\n# move 300111 3 0\n# face 300111 \"mad\"\n# alpha 300111 1 0.5\n# mask 300111 off\n# textboxarrow 0 2\n@暴走ロンギヌス\nッ！！\n\n# voice 1014 \"tyrufing_0037\"\n# alpha 300111 0 0.5\n# face 24 \"angry\"\n# alpha 24 1 0.5\n# textboxarrow 0 1\n# alpha 4 1 0.5\n# alpha 6 1 0.5\n@ティルフィング\nロンギヌス…！？\n向かってくる！食い止めるわ！\n下がって！！\n\n# se \"SE_4815\"\n# shake 1 1\n# fadein \"red\" 1\n# waitandnext 1\n\n# se \"SE_4601\"\n# alpha 24 0 0.5\n# alpha 4 0 0.5\n# alpha 6 0 0.5\n# alpha 300111 1 0.5\n# textboxarrow 0 2\n@暴走ロンギヌス\nッ…グ…ググッ…\n\n# voice 9998 \"toto_0027\"\n# alpha 300111 0 0.5\n# move 0 2 0\n# face 0 \"normal\"\n# alpha 0 1 0.5\n# mask 0 on\n# move 4 4 0\n# alpha 4 1 0.5\n# mask 4 on\n# textboxarrow 0 3\n@トト\nう…うあ…！\n\n# face 0 \"angry\"\n# alpha 0 1 0.5\n# textboxarrow 0 1\n# alpha 4 1 0.5\n@デュリン\nトト！\n首飾りを急いで拾って！！\n\n# voice 1014 \"tyrufing_0038\"\n# alpha 0 0 0.5\n# alpha 4 0 0.5\n# move 24 3 0\n# alpha 24 1 0.5\n# mask 24 off\n# textboxarrow 0 2\n@ティルフィング\nな、なんて力…！\nみんな、逃げて！！"
	}
]