[
	{
		"ID": 1351002,
		"script": ";;-----------------------------------------\n;;■□■３－５改修案■□■\n;;整形済み\n;;【３－５－４（バトル前）】\n;;スクリプト最後の背景：bog\n;;-----------------------------------------\n# script \"lisp\"\n# background \"bog\"\n# bgm \"bgm005\" 0\n;;----------------------------------------------------------\n;;ティルフィング\n# body 24\n# pos 24 3\n# scale 24 0.8 0\n# layer 24 2\n# alpha 24 0 0\n# mask 24 off\n# face 24 \"normal\"\n;;デュリン\n# body 0\n# pos 0 3\n# scale 0 0.8 0\n# layer 0 3\n# alpha 0 0 0\n# mask 0 off\n# face 0 \"normal\"\n;;トト\n# body 4\n# pos 4 3\n# scale 4 0.8 0\n# layer 4 2\n# alpha 4 0 0\n# mask 4 off\n# face 4 \"normal\"\n;;-----------------------------------------\n;;背景:bog\n# voice 9998 \"toto_0001\"\n# move 24 1 0\n# face 24 \"normal\"\n# alpha 24 1 0\n# mask 24 on\n# move 0 3 0\n# face 0 \"usual2\"\n# alpha 0 1 0\n# mask 0 on\n# move 4 5 0\n# face 4 \"normal\"\n# alpha 4 1 0\n# mask 4 on\n# textflame 1 1\n# textboxarrow 0 3\n@トト\nね、ねぇ！本当にいいの！？\nあの人、意識が戻ったんでしょ！？\n\n# face 0 \"normal\"\n# textboxarrow 0 2\n@デュリン\nみたいね…\n\n# voice 9998 \"toto_0023\"\n# textboxarrow 0 3\n@トト\nみたいねって…！\n止めなくていいの！？\n\n# voice 1014 \"tyrufing_0003\"\n# textboxarrow 0 1\n@ティルフィング\n…これ以上、\nアタシたちからはなにも言えない\n彼らが決めたことですもの\n\n# textboxarrow 0 3\n@トト\n彼らって…\nディーンが一人で決めたんだろ！？\n\n# textboxarrow 0 2\n@デュリン\n今、ロンギヌスは自我を\n取り戻しているけど…\nまた、いつ錯乱するかわからない\n\n# textboxarrow 0 2\n@デュリン\n一度、暴走してしまった以上…\nその危険性を払拭するのは難しいの\n\n# textboxarrow 0 3\n@トト\nそんな！\n\n# textboxarrow 0 2\n@デュリン\nアタシたちはなによりも第一に、\n人々の安全を考えなきゃいけないの\n\n# textboxarrow 0 2\n@デュリン\n人々の生活を脅かすとあらば、\nたとえ仲間でも\n情を捨てなければならない\n\n# textboxarrow 0 1\n@ティルフィング\n…ディーン隊が追いついたみたい\n\n# voice 9999 \"durin_0006\"\n# textboxarrow 0 2\n@デュリン\n…行くわよ\n乗りかかった船だもの、\n最後まで見届けましょう"
	}
]