[
	{
		"ID": 1420502,
		"script": "# script \"lisp\"\n# body 101411\n# pos 101411 1\n# body 0\n# pos 0 2\n# body 7\n# pos 7 3\n# body 6\n# pos 6 5\n# scale 101411 0.8 0\n# scale 0 0.7 0\n# scale 7 0.8 0\n# scale 6 0.8 0\n# layer 0 1\n# textboxarrow 0 2\n# chara 7\n@？？？\nぬうう…\nチョコマカとすばしっこい…！\n止まらんか！この、異族めっ！！\n\n# serif 1\n# textboxarrow 1 3\n# face 6 \"sad\"\n# voice 9997 \"deen_0015\"\n# chara 6\n@ディーン\n危ねっ！！\nだから、違うっつってんだろ！\nどうやったら見間違えるんだよ！？\n\n# serif 0\n# textboxarrow 0 2\n# chara 7\n@？？？\nピーチクパーチク、\nなにをほざいておる！？\n\n# serif 0\n# face 7 \"angry\"\n# textboxarrow 0 2\n# chara 7\n@？？？\nバカめ…おぬしらの目的は\nわかっておるんじゃぞ？\n\n# serif 1\n# textboxarrow 1 1\n# chara 0\n@デュリン\nっ…！\nまさか、入域許可証のありかを…\n\n# serif 0\n# textboxarrow 0 2\n# chara 7\n@？？？\nこのイモじゃろ？\nおぬしらにくれてやるイモなど、\nひとつも無いわっ！！\n\n# serif 1\n# face 6 \"angry\"\n# textboxarrow 1 3\n# chara 6\n@ディーン\nいらんっ！！\n\n# serif 0\n# textboxarrow 0 1\n# chara 101411\n@ティルフィング\nそんなにたくさんの食糧を抱えて…\nどこへ行かれるおつもりですか？\n\n# serif 1\n# face 7 \"normal\"\n# textboxarrow 1 2\n# chara 7\n@？？？\n教えてやるつもりもないし、\nくれてやるイモも無い\n\n# serif 0\n# textboxarrow 0 1\n# voice 9999 \"durin_0002\"\n# chara 0\n@デュリン\nもう…耳が遠いのかしら？\n…ねぇ！入域許可証を持ってる人、\n知らない！？\n\n# serif 1\n# textboxarrow 1 2\n# face 7 \"angry\"\n# chara 7\n@？？？\nバカモン！！\nワシのどこが、\n20代に見えるんじゃ！？\n\n# serif 0\n# voice 9999 \"durin_0027\"\n# textboxarrow 0 1\n# chara 0\n@デュリン\nダメだ、こりゃ…\n…っ！\nティルフィング、後ろ！\n\n# serif 0\n# textboxarrow 0 1\n# face 101411 \"angry\"\n# chara 101411\n@ティルフィング\nくっ！\nともかく安全なところまで、\nお爺さんを誘導しましょう！"
	}
]