[
	{
		"ID": 1431003,
		"script": ";;バトル\n;;【４－３－３（バトル後）】\n# background \"004_wildland\"\n# bgm \"bgm005\" 0\n# body 24\n# pos 24 3\n# scale 24 0.8 0\n# alpha 24 1 0\n# body 6\n# pos 6 5\n# scale 6 0.8 0\n# alpha 6 1 0\n# body 0\n# pos 0 1\n# scale 0 0.8 0\n# alpha 0 1 0\n# body 7\n# pos 7 3\n# scale 7 0.8 0\n# alpha 7 0 0\n# body 4\n# pos 4 3\n# scale 4 0.8 0\n# alpha 4 0 0\n# mask 4 off\n;;# voice 1014 \"\"\n# face 24 \"angry\"\n# textboxarrow 0 2\n@ティルフィング\n“素性を明かせば”…\nそれは、どういう意味ですか…？\n\n# textboxarrow 0 3\n# voice 9997 \"deen_0050\"\n# face 6 \"angry\"\n@ディーン\nおい、ティルフィング！\n話は異族を殲滅し\n終えてからにしようぜ？\n\n# textboxarrow 0 2\n# alpha 0 0 0.5\n# alpha 24 0 0.5\n# alpha 6 0 0.5\n# alpha 7 1 0.5\n# mask 7 off\n@学者さま\nわかっておるぞ…おぬしらの秘密は、\n全部お見通しじゃわい\n\n# textboxarrow 0 1\n# alpha 0 1 0.5\n# alpha 24 1 0.5\n# alpha 6 1 0.5\n# alpha 7 0 0.5\n# voice 9999 \"durin_0028\"\n# face 0 \"occur\"\n@デュリン\n秘密…？\nなによ、それ？\n\n# textboxarrow 0 2\n# alpha 0 0 0.5\n# alpha 24 0 0.5\n# alpha 6 0 0.5\n# face 7 \"smile\"\n# alpha 7 1 0.5\n@学者さま\nホッホッホ\nおぬしら…異族ではないじゃろ！！！\n\n# textboxarrow 0 3\n# alpha 0 1 0.5\n# alpha 24 1 0.5\n# alpha 6 1 0.5\n# alpha 7 0 0.5\n# voice 9997 \"deen_0026\"\n;;# face 6 \"\"\n@ディーン\nマジかよ、この爺さん…\n\n# textboxarrow 0 1\n# voice 9999 \"durin_0052\"\n# face 0 \"angry\"\n@デュリン\nだーかーら！！\nアタシたちはラグナロクの者だって…\n\n# textboxarrow 0 2\n# alpha 0 0 0.5\n# alpha 24 0 0.5\n# alpha 6 0 0.5\n# alpha 7 1 0.5\n@学者さま\nむ…？\nラグナロク…？\n王都の…教会のことかえ？\n\n# textboxarrow 0 2\n# alpha 7 0 0.5\n# alpha 4 1 0.5\n;;# voice 9998 \"\"\n# face 4 \"angry\"\n@トト\n最初から、そう言ってるだろ！？\n\n# alpha 4 0 0.5\n# face 7 \"angry\"\n# alpha 7 1 0.5\n@学者さま\n喝ーーーーーっ！！！\n\n# textboxarrow 0 1\n# alpha 0 1 0.5\n# alpha 24 1 0.5\n# alpha 6 1 0.5\n# alpha 7 0 0.5\n# voice 9999 \"durin_0022\"\n;;# face 0 \"\"\n@デュリン\nい…！？\n\n# textboxarrow 0 3\n# voice 9997 \"deen_0048\"\n;;# face 6 \"\"\n@ディーン\nな、なんだよ…！？\n\n# textboxarrow 0 2\n# alpha 0 0 0.5\n# alpha 24 0 0.5\n# alpha 6 0 0.5\n# face 7 \"normal\"\n# alpha 7 1 0.5\n@学者さま\nついにワシを狙うてきたか、\n王都の者たち…\n\n@学者さま\nおぬしらに“暦”は渡さんぞい！\n\n# select \"“暦”…？それはいったい…\" \"select_label_01\" \"ともかく、天文台で許可証を…\" \"select_label_02\"\nおぬしらに“暦”は渡さんぞい！\n\n# label \"select_label_01\"\n# labeljump \"select_label_end\"\n@学者さま\nむ！？\nなぜ“暦”のことを知っておる！？\n\n# label \"select_label_02\"\n# labeljump \"select_label_end\"\n@学者さま\nむ！？\nなぜ、通行手形が\n天文台にあることを…！？\n\n# label \"select_label_end\"\n# textboxarrow 0 3\n# alpha 0 1 0.5\n# alpha 24 1 0.5\n# alpha 6 1 0.5\n# alpha 7 0 0.5\n# voice 9997 \"deen_0010\"\n;;# face 6 \"\"\n@ディーン\n…ダメだ\nこの爺さんと話してると、\nこっちまでおかしくなってくるぜ\n\n# textboxarrow 0 1\n;;# voice 9999 \"\"\n;;# face 0 \"\"\n@デュリン\nティルフィング！ディーン！\n一斉に来るわ、気を抜かないで！\n\n# textboxarrow 0 2\n# voice 1014 \"tyrufing_0022\"\n;;# face 24 \"\"\n@ティルフィング\n…っ！！\n\n# textboxarrow 0 2\n# alpha 0 0 0.5\n# alpha 24 0 0.5\n# alpha 6 0 0.5\n# alpha 4 1 0.5\n# voice 9998 \"toto_0026\"\n;;# face 4 \"\"\n@トト\nうわっ…！\n\n# textboxarrow 0 3\n# move 4 2 0.5\n# move 24 4 0\n# alpha 24 1 0.5\n;;# voice 1014 \"\"\n;;# face 24 \"\"\n@ティルフィング\nトト！？\n\n# textboxarrow 0 1\n;;# voice 9998 \"\"\n;;# face 4 \"\"\n@トト\nじ、爺ちゃんが…！\n\n# textboxarrow 0 2\n# move 24 5 0.5\n# move 4 1 0.5\n# move 0 3 0\n# alpha 0 1 0.5\n;;# voice 9999 \"\"\n;;# face 0 \"\"\n@デュリン\nちょ…学者さまは！？\nまさか、異族に…\n\n# textboxarrow 0 1\n;;# voice 9998 \"\"\n;;# face 4 \"\"\n@トト\n爺ちゃんが…\nすごい勢いで、走って行った…\n\n# textboxarrow 0 2\n# voice 9999 \"durin_0052\"\n;;# face 0 \"\"\n@デュリン\nは…？"
	}
]