[
	{
		"ID": 1451003,
		"script": ";;バトル\n;;【４－５－３（バトル後）】\n# background \"004_observatory\"\n# bgm \"bgm005\" 0\n# body 0\n# pos 0 3\n# scale 0 0.8 0\n# layer 0 2\n# alpha 0 1 0\n# body 6\n# pos 6 5\n# scale 6 0.8 0\n# layer 6 1\n# alpha 6 1 0\n# body 24\n# pos 24 1\n# scale 24 0.8 0\n# layer 24 1\n# alpha 24 1 0\n# body 7\n# pos 7 3\n# scale 7 0.8 0\n# layer 7 2\n# alpha 7 0 0\n# body 4\n# pos 4 5\n# scale 4 0.8 0\n# layer 4 1\n# alpha 4 0 0\n;;# voice 9999 \"\"\n# face 0 \"angry\"\n# textboxarrow 0 2\n@デュリン\n見えたわ！\nアルファマ村よ！\n\n# textboxarrow 0 3\n;;# voice 9997 \"\"\n# face 6 \"angry\"\n@ディーン\nその前に、\nとんでもねぇ数の異族が\n待ち受けてるけどな…\n\n# voice 9997 \"deen_0010\"\n;;# face 6 \"\"\n@ディーン\nチッ、回避するか？\n\n# textboxarrow 0 1\n# voice 1014 \"tyrufing_0011\"\n# face 24 \"angry\"\n@ティルフィング\nダメです！\n一刻も早く、\nお爺さんをお医者さんに…\n\n# textboxarrow 0 2\n# alpha 0 0 0.5\n# face 7 \"happy\"\n# alpha 7 1 0.5\n@学者さま\nふむ…気にせんでよい\nほれ、バカチン…\nさっさと回避の道を行かんか\n\n# textboxarrow 0 3\n# voice 9997 \"deen_0011\"\n;;# face 6 \"\"\n@ディーン\nああん！？\n\n# textboxarrow 0 1\n# voice 1014 \"tyrufing_0013\"\n# face 24 \"sad\"\n@ティルフィング\nでも…\n\n# textboxarrow 0 2\n@学者さま\nおぬしらには礼を言うべきじゃのう\n…最後の最後に、\n楽しい旅が出来たわい\n\n# textboxarrow 0 3\n# move 0 5 0\n# alpha 0 1 0.5\n# alpha 6 0 0.5\n;;# voice 9999 \"\"\n# face 0 \"normal\"\n@デュリン\nえ…？\n\n# textboxarrow 0 2\n@学者さま\nもう、急ぐ必要は無い…\nワシの目にはもう、\n光が届かんようじゃ\n\n# textboxarrow 0 1\n# voice 1014 \"tyrufing_0022\"\n# face 24 \"surprise\"\n@ティルフィング\nっ！！\nそんな…っ！？完全に光が！？\n\n# textboxarrow 0 3\n# alpha 0 0 0.5\n# alpha 6 1 0.5\n# voice 9997 \"deen_0015\"\n;;# face 6 \"\"\n@ディーン\nっ！！\nテ…テメェ、爺ぃ！！\nくだらねぇ冗談言ってんじゃねぇぞ！\n\n# face 7 \"smile\"\n# textboxarrow 0 2\n@学者さま\nホッホッホ…\n婆さんとの約束は果たせなんだが、\n仕方あるまいて\n\n# face 7 \"happy\"\n@学者さま\nそれよりも…\n最後の最後にこんな旅が出来て、\nワシは幸せもんじゃわい\n\n# textboxarrow 0 3\n# alpha 6 0 0.5\n# alpha 4 1 0.5\n;;# voice 9998 \"\"\n# face 4 \"sad\"\n@トト\n爺…ちゃん…\n\n# face 7 \"sad\"\n# textboxarrow 0 2\n@学者さま\nただのう…\n\n# textboxarrow 0 1\n;;# voice 1014 \"\"\n;;# face 24 \"\"\n@ティルフィング\nえ…？\n\n# textboxarrow 0 2\n@学者さま\n…惜しむらくは\n…最後にひと目でも\n…せがれの顔を見たかったのう\n\n# textboxarrow 0 1\n# voice 1014 \"tyrufing_0015\"\n# face 24 \"sad\"\n@ティルフィング\nお爺さん…\n\n# bgm \"bgm035\" 0\n# textboxarrow 0 3\n;;# voice 9998 \"\"\n;;# face 4 \"\"\n@トト\nそんな…！\n泣かないでよ爺ちゃん！！\n\n# textboxarrow 0 3\n# alpha 6 1 0.5\n# alpha 4 0 0.5\n# voice 9997 \"deen_0017\"\n;;# face 6 \"\"\n@ディーン\nぐ…っ…チクショーッ！！\nお前ら、隊列を組め！！\nモタモタすんな！！！\n\n# textboxarrow 0 3\n# alpha 6 0 0.5\n# alpha 0 1 0.5\n;;# voice 9999 \"\"\n# face 0 \"sad\"\n@デュリン\nディーン！？\n\n# alpha 0 0 0.5\n# alpha 6 1 0.5\n;;# voice 9997 \"\"\n;;# face 6 \"\"\n@ディーン\n諦めてんじゃねぇ！！\n医者に診せてみなきゃ\nわかんねぇだろうが！！なぁ！？\n\n# textboxarrow 0 1\n# voice 1014 \"tyrufing_0001\"\n;;# face 24 \"\"\n@ティルフィング\nマスター！\n\n# select \"一点突破だ！一気に駆け抜けるぞ！\" \"select_label_01\" \"異族を倒し、道を切り拓け！行くぞ！\" \"select_label_02\"\nマスター！\n\n# textboxarrow 0 2\n# label \"select_label_01\"\n# labeljump \"select_label_end\"\n# face 7 \"angry\"\n@学者さま\nな…！？バ、バカモン！\n無駄だと言うとるに！？\n\n# textboxarrow 0 2\n# label \"select_label_02\"\n# labeljump \"select_label_end\"\n# face 7 \"angry\"\n@学者さま\nな…っ！？\n聞いとらんかったのか！？\nワシの目は、もう…\n\n# textboxarrow 0 1\n# label \"select_label_end\"\n;;# voice 1014 \"\"\n# face 24 \"angry\"\n@ティルフィング\n行きます！！\n\n# textwindow \"close\"\n# alpha 24 0 0.5\n# waitandnext 1\n\n# textwindow \"nomal\"\n# textboxarrow 0 3\n# move 4 4 0\n# move 7 2 0.5\n# alpha 6 0 0.5\n# alpha 4 1 0.5\n;;# voice 9998 \"\"\n# face 4 \"normal\"\n@トト\n爺ちゃん…止めても無駄だよ\n僕らは、いつもこうなんだもん\n\n# face 7 \"sad\"\n# textboxarrow 0 1\n@学者さま\nぬぅ…じゃ、じゃがのう…\n\n# textboxarrow 0 3\n# move 0 4 0\n# alpha 4 0 0.5\n# alpha 0 1 0.5\n# voice 9999 \"durin_0027\"\n# face 0 \"occur\"\n@デュリン\n言っても聞かないのよ\nまったく…バカっていうか、\nお人好しっていうか…\n\n# textboxarrow 0 1\n@学者さま\n…………\n\n# textboxarrow 0 3\n# alpha 0 0 0.5\n# alpha 4 1 0.5\n;;# voice 9998 \"\"\n;;# face 4 \"\"\n@トト\nん…ノート？\n爺ちゃん…なにしてんの？\n\n# face 7 \"normal\"\n# textboxarrow 0 1\n@学者さま\nおぬしら王都に向かうと\n言っとったのう？\n…これを、おぬしらに預けたい\n\n# textboxarrow 0 3\n# alpha 0 1 0.5\n# alpha 4 0 0.5\n;;# voice 9999 \"\"\n# face 0 \"normal\"\n@デュリン\n…？\nなによ、この分厚いノートは？\n\n# textboxarrow 0 1\n@学者さま\nワシの研究のすべてじゃ\n言うたじゃろ…長きに渡り、\n研究を続けてきたと…\n\n# textboxarrow 0 3\n;;# voice 9999 \"\"\n;;# face 0 \"\"\n@デュリン\nえ！\n王都に追われるきっかけとなった\n研究！？…なんなの、これ！？\n\n# textboxarrow 0 1\n@学者さま\n…“暦(こよみ)”じゃ\n\n# textboxarrow 0 3\n;;# voice 9999 \"\"\n;;# face 0 \"\"\n@デュリン\n暦…？\n\n# textboxarrow 0 1\n@学者さま\nうむ、これはワシが、\n星の巡りから独自に導き出した\n正確な暦じゃ\n\n# textboxarrow 0 3\n;;# voice 9999 \"\"\n;;# face 0 \"\"\n@デュリン\n…？\nそれがどうして王都の逆鱗に？\n\n# textboxarrow 0 1\n@学者さま\nこの暦があれば、\n王国が隠す“真の歴史”を\n暴くことが出来るからじゃ\n\n# textboxarrow 0 3\n;;# voice 9999 \"\"\n;;# face 0 \"\"\n@デュリン\nは？\n真の…歴史！？\n\n# textboxarrow 0 1\n@学者さま\nそうじゃ\n\n@学者さま\n残念じゃがこのラグナ大陸の歴史は\n…ねつ造されておる\n\n# textboxarrow 0 3\n# voice 9999 \"durin_0023\"\n# face 0 \"angry\"\n@デュリン\nな…っ！？\n\n# textboxarrow 0 1\n@学者さま\nともかくじゃ、\nこの暦を王都の…\n\n# se \"SE_3006\"\n# textboxarrow 0 2\n# fadein \"red\" 0.5\n# move 24 3 0\n# alpha 7 0 0.5\n# alpha 0 0 0.5\n# alpha 24 1 0.5\n# mask 24 off\n;;# voice 1014 \"\"\n# face 24 \"angry\"\n@ティルフィング\n危ないっ！！\n\n# textboxarrow 0 1\n# face 7 \"angry\"\n# alpha 7 1 0.5\n# alpha 0 1 0.5\n# alpha 24 0 0.5\n@学者さま\nむ…！？\n…い、今っ！\n\n# textboxarrow 0 2\n# alpha 7 0 0.5\n# alpha 0 0 0.5\n# alpha 24 1 0.5\n# mask 24 off\n;;# voice 1014 \"\"\n;;# face 24 \"\"\n@ティルフィング\nみんな、話は後に！\n油断しないで！\n\n# textboxarrow 0 3\n# alpha 7 1 0.5\n# alpha 0 1 0.5\n# alpha 24 0 0.5\n# voice 9999 \"durin_0058\"\n# face 0 \"angry\"\n@デュリン\nごめん…ほら、行くわよ！\nトト、学者さまの手を引いてあげて！\n\n# face 7 \"happy\"\n# textboxarrow 0 1\n@学者さま\nおお…お！\nおお！！\n\n# textboxarrow 0 3\n# alpha 0 0 0.5\n# alpha 4 1 0.5\n;;# voice 9998 \"\"\n;;# face 4 \"\"\n@トト\n爺ちゃん…？\n\n# textboxarrow 0 1\n@学者さま\n神が…願いを叶えたもうた…！！\nなんと美しい…\n星がまたたいておる！！\n\n# textboxarrow 0 3\n;;# voice 9998 \"\"\n;;# face 4 \"\"\n@トト\n星…？\n\n;;# voice 9998 \"\"\n;;# face 4 \"\"\n@トト\n違うよ…あれは、\nティルフィングたちの\n剣から出る火花…\n\n# alpha 0 1 0.5\n# alpha 4 0 0.5\n;;# voice 9999 \"\"\n;;# face 0 \"\"\n@デュリン\nシッ！\n\n# alpha 0 0 0.5\n# alpha 4 1 0.5\n# voice 9998 \"toto_0023\"\n;;# face 4 \"\"\n@トト\nえ…！？\n\n# alpha 0 1 0.5\n# alpha 4 0 0.5\n# voice 9999 \"durin_0021\"\n# face 0 \"happy\"\n@デュリン\n凄いわ！\nなんて凄い流星群なの！？\n…ねぇ、トト？\n\n# alpha 0 0 0.5\n# alpha 4 1 0.5\n# voice 9998 \"toto_0023\"\n;;# face 4 \"\"\n@トト\nえ？\nあ…う、うんっ！\n\n# textboxarrow 0 1\n@学者さま\nおお！\n婆さん、見えるか…\nこの美しい流星たちが…\n\n@学者さま\nこれこそ…\nワシが婆さんに\n見せたかった光景なんじゃ…おお！！"
	}
]