[
	{
		"ID": 1530102,
		"script": ";;-----------------------------------------\n;;1530102\n;;4/6　全員のスケールを0.8に統一\n;; 　　テキストの表示位置をキャラ毎に固定に変更\n;;-----------------------------------------\n# script \"lisp\"\n# body 101411\n# pos 101411 1\n# body 0\n# pos 0 3\n# body 4\n# pos 4 5\n# scale 101411 0.8 0\n# scale 0 0.8 0\n# scale 4 0.8 0\n# layer 0 1\n# serif 0\n# textboxarrow 0 1\n# face 101411 \"angry\"\n# voice 1014 \"tyrufing_0049\"\n# chara 101411\n@ティルフィング\nく…っ！\nまた、逃げられました！\n\n# serif 0\n# textboxarrow 0 3\n# voice 9998 \"toto_0053\"\n# chara 4\n@トト\n大丈夫、ティルフィング？\n\n# serif 0\n# textboxarrow 0 1\n# voice 1014 \"tyrufing_0003\"\n# chara 101411\n@ティルフィング\nええ…\nなんなのかしら、あの変異種…\nまるで動きが読めない…\n\n# serif 0\n# textboxarrow 0 3\n# chara 4\n@トト\nティルフィングが、\n逃げられちゃうなんて…\nやっぱ、異族が強くなってんのかな？\n\n# serif 1\n# textboxarrow 1 2\n# chara 0\n@デュリン\n…………\n\n# serif 0\n# textboxarrow 0 3\n# chara 4\n@トト\n…？\nデュリン…？\n\n# serif 1\n# textboxarrow 1 2\n# voice 9999 \"durin_0044\"\n# chara 0\n@デュリン\n…ん？\nああ…そうね\n\n# serif 0\n# textboxarrow 0 1\n# face 101411 \"normal\"\n# chara 101411\n@ティルフィング\n…デュリン、これからどうするの？\n\n# serif 1\n# textboxarrow 1 2\n# voice 9999 \"durin_0025\"\n# chara 0\n@デュリン\nどう…しよう…\n\n# serif 0\n# textboxarrow 0 1\n# voice 1014 \"tyrufing_0022\"\n# chara 101411\n@ティルフィング\nえ…？\n\n# serif 1\n# textboxarrow 1 2\n# chara 0\n@デュリン\n関所と敵対したってことは、\n王立軍に刃向ったようなもの…\nただで済むはずがない\n\n# serif 1\n# textboxarrow 1 2\n# face 0 \"sad\"\n# chara 0\n@デュリン\nううん…ヘタすれば、\nアタシ達…\nもう終わっちゃったのかも…\n\n# serif 0\n# textboxarrow 0 3\n# face 4 \"sad\"\n# voice 9998 \"toto_0026\"\n# chara 4\n@トト\nそんな…っ！？\n\n# serif 1\n# textboxarrow 1 2\n# voice 9999 \"durin_0025\"\n# chara 0\n@デュリン\nねぇ、マジでどうしよう…！？\nもう、全然わかんない…\nどうしたらいいの、アタシ達…！？\n\n# serif 1\n# textboxarrow 1 2\n# chara 0\n@デュリン\nアンタ、マスターでしょ！？\nなんとか言ってよ！\n\n# serif 0\n# textboxarrow 0 1\n# chara 101411\n@ティルフィング\nデュリン…\n"
	}
]