[
	{
		"ID": 1531003,
		"script": ";;【５－３－２（バトル後）】\n# script \"lisp\"\n# background \"005_Wilderness\"\n# bgm \"bgm005\" 0\n# body 24\n# pos 24 2\n# scale 24 0.8 0\n# alpha 24 1 0\n# body 0\n# pos 0 4\n# scale 0 0.8 0\n# alpha 0 1 0\n# body 4\n# pos 4 3\n# scale 4 0.8 0\n# alpha 4 0 0\n# voice 1014 \"tyrufing_0037\"\n# face 24 \"angry\"\n# textboxarrow 0 1\n@ティルフィング\nっ…ぅ！\n異族が次から次へと…！\n\n# textboxarrow 0 3\n# voice 9999 \"durin_0027\"\n@デュリン\nトトが姿を消して、およそ２時間…\nここまで探していないとなると…\n\n# textboxarrow 0 1\n@ティルフィング\nやめて！\n縁起でもないことを言わないで！\n\n# face 0 \"serious2\"\n# textboxarrow 0 3\n@デュリン\nこれだけ異族が出没してんのよ？\n子供がひとり、\n無事でいると考えるほうが…\n\n# voice 1014 \"tyrufing_0065\"\n# face 24 \"mad2\"\n# textboxarrow 0 1\n@ティルフィング\nいい加減にして！！\nどうしていつも、\nそんなことを言うのよ！\n\n# textboxarrow 0 3\n# voice 9999 \"durin_0007\"\n# face 0 \"normal\"\n@デュリン\nアタシは事実を言ってんの\n冷静に現状を見つめなければ、\n適切な対処法は見つけられないわ\n\n# bgm \"bgm003\" 0\n# voice 1014 \"tyrufing_0043\"\n# face 24 \"sad\"\n# textboxarrow 0 1\n@ティルフィング\n…デュリンは\n…トトを置いていきたいの？\n\n# textboxarrow 0 3\n# face 0 \"serious2\"\n@デュリン\n…この状況を鑑みれば、\nそれが一番ベストな対処法よね\n\n# face 24 \"mad2\"\n# textboxarrow 0 1\n@ティルフィング\n客観的な意見じゃなくて！\n私はアナタの気持ちを聞いてるの！\n\n# face 24 \"sad\"\n# textboxarrow 0 1\n@ティルフィング\n連れて行きたくないなら、\nハッキリそう言えば…\n\n# textboxarrow 0 3\n# voice 9999 \"durin_0049\"\n# face 0 \"angry\"\n@デュリン\nっ…バカじゃないの？\n…連れて行きたいに\n…決まってんじゃん\n\n# voice 1014 \"tyrufing_0022\"\n# face 24 \"surprise\"\n# textboxarrow 0 1\n@ティルフィング\nえ…？\n\n# voice 9999 \"durin_0061\"\n# face 0 \"angry2\"\n# textboxarrow 0 3\n@デュリン\nあ…ち、違うわよ！？\n\n# voice 9999 \"durin_0007\"\n# face 0 \"angry\"\n# textboxarrow 0 3\n@デュリン\nディーンも消えた上に、\nあのガキまでいなくなったんじゃ…\n振り出しに戻るみたいでしょ！？\n\n# face 0 \"serious\"\n# textboxarrow 0 3\n@デュリン\n今までの時間が\n全部無駄になるのがイヤなだけよ\n\n# face 24 \"normal\"\n# textboxarrow 0 1\n@ティルフィング\nデュリン…\n\n# voice 9999 \"durin_0051\"\n# face 0 \"occur\"\n# textboxarrow 0 3\n@デュリン\nその熱い眼差し、やめなさいよ…\nともかく時間がない、\n早く見つけ出さなきゃ…\n\n# face 24 \"angry\"\n# textboxarrow 0 1\n@ティルフィング\n学者さまに分けたおかげで、\nトトの賢者の石は効力が薄れてる…\n急がないと！\n\n# bgm \"stop\"\n# voice 9999 \"durin_0052\"\n# face 0 \"angry\"\n# textboxarrow 0 3\n@デュリン\nあ…っ！\n待って…それだわ！\n\n# voice 1014 \"tyrufing_0022\"\n# face 24 \"surprise\"\n# textboxarrow 0 1\n@ティルフィング\n…どれ？\n\n# bgm \"bgm031\" 0\n# textboxarrow 0 3\n@デュリン\n異族の気配が集まっているところ…\nそこにトトはいる！\n…感じ取って！\n\n# face 24 \"angry\"\n# textboxarrow 0 1\n@ティルフィング\n…っ！！\n\n;;場面転換\n# imageset 0 \"black\"\n# imagealpha 0 0 0\n# imagelayer 0 1\n# waitandnext 0.1\n\n;;暗転挟む\n# imagealpha 0 1 0\n# imagepos 0 0 30\n# imageleftin 0 0.5\n# serif 0\n# textwindow \"close\"\n# serif 1\n# textwindow \"close\"\n# waitandnext 1\n\n# alpha 24 0 0\n# alpha 0 0 0\n# alpha 4 1 0\n;;# background \"\"\n# imagealpha 0 0 0.5\n# imagerightout 0 0.5\n# serif 0\n# textwindow \"nomal\"\n# voice 9998 \"toto_0027\"\n# face 4 \"angry\"\n# textboxarrow 0 2\n@トト\nはぁ…はぁ…っ！\n来るなよ！来るなって…っ！\nっ…うわぁーっ！！！\n\n;;ティル登場\n# alpha 24 1 0.5\n# move 4 5 0.2\n# pos 24 3\n# rightin 24 0.2\n# face 24 \"angry\"\n# waitandnext 0.2\n# se \"SE_4765\"\n# shake 1 0.2\n# fadein \"white\" 0.5\n# waitandnext 0.5\n\n# se \"SE_4830\"\n# serif 0\n# textwindow \"normal\"\n# voice 1014 \"tyrufing_battle_0002\"\n# textboxarrow 0 2\n@ティルフィング\nっ！！\n\n# voice 9998 \"toto_0051\"\n# textboxarrow 0 3\n@トト\nえ…！？\nティ、ティルフィング！？\n\n# voice 1014 \"tyrufing_unit_1014\"\n# face 24 \"mad2\"\n# textboxarrow 0 2\n@ティルフィング\nマスター！\nデュリン！トトをお願い！\n…行きます！！\n\n# move 0 2 0\n# alpha 24 0 0.5\n# alpha 0 1 0.5\n# textboxarrow 0 1\n# voice 9999 \"durin_0049\"\n# face 0 \"angry\"\n@デュリン\nよりによって、あの変異種！\nティルフィング、\n深追いはしないで！！\n\n# textboxarrow 0 3\n@トト\nデュリン！\nどうして…！？\n\n# voice 9999 \"durin_0027\"\n# face 0 \"occur\"\n# textboxarrow 0 1\n@デュリン\nったく…\n頭が悪いことは知ってたけど、\nここまでバカだとは思わなかったわ\n\n# voice 9998 \"toto_0023\"\n# face 4 \"normal\"\n# textboxarrow 0 3\n@トト\nえ…？\n\n# voice 9999 \"durin_0007\"\n# face 0 \"angry2\"\n# textboxarrow 0 1\n@デュリン\nティルフィング、\n無茶苦茶怒ってたからね…\n\n# face 0 \"occur\"\n@デュリン\n異族の次に斬り刻まれるのは、\nアンタかもよ？\n…ねぇ？\n\n# select \"デュリン、俺達は作戦を練り直すぞ\" \"select_label_01\" \"トトはティルフィングに任せよう\" \"select_label_02\"\n異族の次に斬り刻まれるのは、\nアンタかもよ？\n…ねぇ？\n\n# label \"select_label_01\"\n# labeljump \"select_label_end\"\n# face 0 \"serious2\"\n@デュリン\n時間がないもんね\n…ほら、ティルフィングが戻ってきた\n覚悟しなさい\n\n# label \"select_label_02\"\n# face 0 \"serious2\"\n@デュリン\n誰かさんのせいで、\n時間を大幅にロスしたからね…\n\n# labeljump \"select_label_end\"\n# face 0 \"normal\"\n@デュリン\n速いとこ、作戦を練らないと\n…ほら、ティルフィングが戻ってきた\n覚悟しなさい\n\n# label \"select_label_end\"\n# voice 9998 \"toto_0023\"\n# textboxarrow 0 3\n@トト\nえ…！？\nあ…ちょ、ちょっと！\n\n# bgm \"bgm003\" 0\n# move 0 1 0.5\n# move 4 5 0.5\n# move 24 3 0\n# alpha 24 1 0.5\n# face 24 \"angry\"\n# voice 1014 \"tyrufing_0015\"\n# textboxarrow 0 2\n@ティルフィング\nはぁ…はぁ…マスター、すみません…\nまた、取り逃がしてしまいました…\n\n# face 0 \"serious2\"\n# textboxarrow 0 1\n@デュリン\n仕方ないわ\nとりあえずは、\n被害がなかっただけ良しとしましょう\n\n# voice 9998 \"toto_0039\"\n# textboxarrow 0 3\n@トト\nティ、ティルフィング！\nあ、あの…\n\n# voice 9998 \"toto_0033\"\n# face 4 \"sad\"\n@トト\nあの…ご、ごめん…\nなにも言わずに…これじゃ…\nディーンと同じだよね…\n\n# textboxarrow 0 2\n@ティルフィング\n…………\n\n# textboxarrow 0 3\n@トト\n…僕がいなければ、\n問題はないんでしょ？\n\n@トト\nもう…みんなに…\n迷惑かけたくないんだ…\n\n# textboxarrow 0 2\n@ティルフィング\n…………\n\n# textboxarrow 0 3\n@トト\n…祀官様との約束を\n気にしてるんだよね？\n\n# face 4 \"normal\"\n@トト\nもういいよ、ティルフィング…\n爺ちゃんの目を治すことだけに、\n専念して…\n\n# se \"SE_0737\"\n# fadein \"red\" 0.5\n# voice 9998 \"toto_0041\"\n# face 4 \"sad\"\n@トト\n痛…っ！\n…ティ、ティルフィング？\n\n# bgm \"bgm035\" 0\n# face 24 \"sad\"\n# textboxarrow 0 2\n@ティルフィング\nなんて…バカな子なの？\n約束のためなんかじゃないわ…\n\n# face 4 \"normal\"\n# textboxarrow 0 3\n@トト\nえ…？\n\n# voice 9998 \"toto_0053\"\n# face 4 \"sad\"\n@トト\nティル…フィング…！\n\n# voice 1014 \"tyrufing_0069\"\n# face 24 \"angry\"\n# textboxarrow 0 2\n@ティルフィング\nアナタはもう、私達の仲間なの！！\nもう二度と…\n一人で勝手に消えたりしないで！！！\n\n# voice 9998 \"toto_0017\"\n# textboxarrow 0 3\n@トト\n…ご、ごめん！\nごめんよ、ティルフィング…っ！！\nグス…う…うわぁーっ！！！"
	}
]