[
	{
		"ID": 1640603,
		"script": ";;４－１０＜戦闘終了後＞\n# script \"lisp\"\n# background \"006_town_TotalEclipse\"\n# bgm \"bgm013\" 0\n# body 810004\n# pos 810004 1\n# layer 810004 1\n# reversal 810004 0\n# alpha 810004 0 0\n# body 200641\n# pos 200641 5\n# body 24\n# pos 24 1\n# layer 24 2\n# face 24 \"angry\"\n# scale 24 0.8 0\n# scale 200641 0.8 0\n# scale 810004 0.8 0\n# textflame 1 1\n# textboxarrow 0 3\n# chara 200641\n# face 200641 \"surprise\"\n@ダグダ\nティルフィング！！\n後ろだってばぁ！！！\n\n# serif 1\n# textboxarrow 1 1\n# textboxarrow 0 0\n# leftin 810004 0.5\n# alpha 810004 1 0\n# alpha 200641 0 0.3\n# move 24 5 0.5\n# chara 810004\n@異族\nグギャギャギャギャ－ッ！！！\n\n# serif 0\n# textboxarrow 0 3\n# chara 101411\n@ティルフィング\n…速さが自慢のようだけど\n…私には、\nそれを補う仲間がいるの…\n\n# serif 0\n# textboxarrow 0 3\n# chara 101411\n# voice 1014 \"tyrufing_unit_0008\"\n# face 24 \"mad2\"\n@ティルフィング\n…安心して逝きなさい！\n\n;;一閃…ボス異族を討ち倒すティルフィング\n# se \"SE_4815\"\n# textboxarrow 0 0\n# fadein \"red\" 1\n# move 24 3 0.3\n# body 0\n# pos 0 3\n# layer 0 3\n# scale 0 0.7 0\n# alpha 0 0 0\n# face 0 \"angry2\"\n# body 4\n# pos 4 5\n# scale 4 0.8 0\n# alpha 4 0 0\n# face 4 \"smile01\"\n\n# se \"SE_3001\"\n# serif 1\n# textboxarrow 1 3\n# alpha 810004 0 0.5\n# move 24 1 0.5\n# rightin 4 0.5\n# rightin 0 0.5\n# alpha 4 1 0\n# alpha 0 1 0\n# chara 4\n@トト\nや、やったぁーっ！！！\n\n# serif 0\n# textboxarrow 0 2\n# chara 0\n@デュリン\nもう…！\nギリギリじゃないの…！\n\n# serif 1\n# textboxarrow 1 1\n# chara 101411\n# face 24 \"sad\"\n@ティルフィング\nハァ…ハァ…\n…やはり、\n王立軍の救援に向かいましょう…\n\n# serif 0\n# textboxarrow 0 2\n# chara 0\n# voice 9999 \"durin_0076\"\n# face 0 \"angry\"\n@デュリン\nアンタ…！\nまだ、そんなことを言ってんの！？\n\n# serif 1\n# textboxarrow 1 1\n# chara 101411\n@ティルフィング\n王立軍の相手は\nリベリオンだけじゃない…\n\n# serif 1\n# textboxarrow 1 1\n# chara 101411\n@ティルフィング\nこんな異族も相手に\nしなくちゃならない…\n\n# serif 1\n# textboxarrow 1 1\n# body 6\n# pos 6 5\n# scale 6 0.8 0\n# alpha 6 0 0\n# face 6 \"sad\"\n# chara 101411\n# face 24 \"angry\"\n@ティルフィング\nそんな彼らを、\n放っておけって言うんですか？\n\n# serif 0\n# textboxarrow 0 3\n# alpha 6 1 0.5\n# alpha 4 0 0.5\n# chara 6\n# voice 9997 \"deen_0041\"\n@ディーン\nそりゃ、そうだけどよ…\n\n# serif 1\n# textboxarrow 1 2\n# chara 0\n# face 0 \"serious\"\n@デュリン\n…リベリオンが襲ってきたら、\nどうするつもりよ？\n\n# serif 0\n# textboxarrow 0 1\n# chara 101411\n# voice 1014 \"tyrufing_kyara_1006\"\n# face 24 \"surprise\"\n@ティルフィング\nえ…？\n\n# serif 1\n# textboxarrow 1 2\n# chara 0\n# face 0 \"serious2\"\n@デュリン\nレンの話じゃ、\nリベリオンは悪魔じゃない…\n人間なのよ？\n\n# serif 1\n# textboxarrow 1 2\n# chara 0\n# face 0 \"serious\"\n@デュリン\nアンタはその正義感で…\nキルオーダーに背き、\n人間を斬り殺すわけ？\n\n# serif 0\n# textboxarrow 0 1\n# chara 101411\n# voice 1014 \"tyrufing_0024\"\n# face 24 \"sad\"\n@ティルフィング\n…！\n…そ、それは…\n\n;;黒奏官\n# bgm \"bgm013\" 0.3\n# bgm \"bgm023\" 0.3\n# serif 1\n# textboxarrow 1 0\n# body 41\n# pos 41 5\n# scale 41 0.8 0\n# alpha 41 0 0\n@？？？\n…この非常事態だ\nキルオーダーのことは、\n気に留めなくて構わん\n\n# serif 0\n# textboxarrow 0 2\n# chara 0\n@デュリン\nえ…？\n\n;;姿を現わす黒奏官\n# rightin 41 0.8\n# alpha 41 1 0\n# alpha 6 0 0.5\n# body 28\n# pos 28 1\n# scale 28 0.8 0\n# alpha 28 0 0\n# layer 28 1\n# face 28 \"surprise\"\n\n# serif 1\n# textboxarrow 1 1\n# leftin 28 0.5\n# alpha 28 1 0\n# alpha 24 0 0.5\n# chara 28\n@レン\n…！\nアナタ…あの時の…！\n\n# serif 0\n# textboxarrow 0 1\n# textboxarrow 1 0\n# pos 6 1\n# alpha 6 1 0.5\n# alpha 28 0 0.5\n# chara 6\n# face 6 \"angry\"\n@ディーン\n…！\nこ、黒奏官…！\n\n# serif 1\n# textboxarrow 1 3\n# chara 41\n# voice 9983 \"kokusohkan_0003\"\n@黒奏官\n洗礼前の部隊と聞いた\nキルオーダーには準じない\n…多少の逸脱は、目を瞑ろう\n\n# serif 0\n# textboxarrow 0 2\n# chara 0\n# face 0 \"serious2\"\n@デュリン\nアナタが黒奏官…\n…そのような許可を、\n独断で出されてよろしいんですか？\n\n# serif 1\n# textboxarrow 1 3\n# chara 41\n@黒奏官\n此度の件に関し、\n教皇様より特命を受けている\n\n# serif 1\n# textboxarrow 1 3\n# chara 41\n@黒奏官\nこの判断は、\n教皇様の判断と同義ということだ\n\n# serif 1\n# textboxarrow 1 3\n# chara 41\n@黒奏官\n…お前たちも\n手を貸すつもりなら構わんぞ？\n\n# serif 0\n# textboxarrow 0 1\n# chara 6\n# face 6 \"normal\"\n@ディーン\nえ…？\nあ、ああ…\n\n# serif 1\n# textboxarrow 1 2\n# chara 0\n# face 0 \"serious2\"\n@デュリン\n…なんなんですか、いったい？\n政府も教会も、躍起になって…\n\n# serif 1\n# textboxarrow 1 2\n# chara 0\n# face 0 \"serious\"\n@デュリン\n…その男は、\nいったい何者なんですか？\n\n# serif 0\n# textboxarrow 0 3\n# chara 41\n# voice 9983 \"kokusohkan_0028\"\n@黒奏官\n知らんのか？\n\n# serif 0\n# textboxarrow 0 3\n# chara 41\n# voice 9983 \"kokusohkan_0004\"\n# face 41 \"smile\"\n@黒奏官\n終わりなき夜と共に現れ、\n世に災厄を呼び寄せる悪魔だよ…\nクク…\n\n# serif 1\n# textboxarrow 1 2\n# chara 0\n# face 0 \"serious2\"\n@デュリン\n…………\n\n# serif 1\n# textboxarrow 1 2\n# chara 0\n# face 0 \"serious\"\n@デュリン\n…どうする？\n\n# select \"…王立軍を、見殺しには出来ない\" \"select_label_01\" \"世の脅威を、放置は出来ない\" \"select_label_02\"\n…どうする？\n\n# label \"select_label_01\"\n# labeljump \"select_label_end\"\n# serif 0\n# textboxarrow 0 3\n# chara 41\n# voice 9983 \"kokusohkan_0005\"\n@黒奏官\nクク…ヤツを始末出来たなら、\n王都勤務も夢ではないぞ？\n\n# label \"select_label_02\"\n# labeljump \"select_label_end\"\n# serif 0\n# textboxarrow 0 3\n# chara 41\n# voice 9983 \"kokusohkan_0005\"\n@黒奏官\nクク…ヤツを始末出来たなら、\n王都勤務も夢ではないぞ？\n\n# label \"select_label_end\"\n# serif 1\n# textboxarrow 1 1\n# alpha 6 0 0.5\n# alpha 28 1 0.5\n# chara 28\n# voice 9984 \"ren_0010\"\n# face 28 \"angry\"\n@レン\n待ってよ！\nリベリオンを討たせるつもり…！？\n\n;;ジッとレンに目を向ける黒奏官\n# serif 0\n# textboxarrow 0 3\n# chara 41\n# voice 9983 \"kokusohkan_0013\"\n# face 41 \"normal\"\n@黒奏官\n…彼女はこちらで預かろう\n戦地に連れてゆくのは危険だ\n…異論はあるまい？\n\n# serif 1\n# textboxarrow 1 1\n# chara 28\n# voice 9984 \"ren_0009\"\n# face 28 \"surprise\"\n@レン\nは！？\nなにを勝手なことを…！！\n\n# serif 0\n# textboxarrow 0 3\n# body 100161\n# pos 100161 3\n# scale 100161 0.8 0\n# alpha 100161 0 0\n# chara 41\n# voice 9983 \"kokusohkan_0053\"\n@黒奏官\n…マサムネ\n\n;;音も無く現れ、レンを抱きかかえるマサムネ\n# serif 1\n# textboxarrow 1 1\n# alpha 100161 1 0.8\n# alpha 0 0 0.5\n# voice 9984 \"ren_0010\"\n@レン\nちょ、ちょっと！\n離しなさいよ！！\n\n# serif 0\n# textboxarrow 0 1\n# textboxarrow 1 0\n# alpha 100161 0 0.5\n# alpha 28 0 0.5\n# pos 0 1\n# alpha 0 1 0.5\n# chara 0\n# face 0 \"serious2\"\n@デュリン\n…まるで、人質みたいね？\n\n# serif 1\n# textboxarrow 1 3\n# chara 41\n# voice 9983 \"kokusohkan_0010\"\n@黒奏官\n…言葉には気を付けろ\n\n# serif 1\n# textboxarrow 1 3\n# chara 41\n@黒奏官\n世を脅かす脅威を滅するのも、\nラグナロクの使命…\nしかと心に刻んで挑むのだ…！"
	}
]