[
	{
		"ID": 1730603,
		"script": ";;３－１０＜戦闘終了後＞\n;;【指定】bgm037\n# script \"lisp\"\n# background \"006_town\"\n# bgmfile \"bgm037\" \"BgmStory004\" 0\n# body 960023\n# pos 960023 1\n# scale 960023 0.8 0\n# alpha 960023 0 0\n# body 0\n# pos 0 5\n# mask 0 off\n# layer 0 1\n# alpha 0 0 0\n# body 44\n# pos 44 5\n# alpha 44 0 0\n# body 24\n# pos 24 5\n# body 810004\n# pos 810004 1\n# reversal 810004 0\n# scale 810004 0.8 0\n# scale 44 0.8 0\n# scale 24 0.8 0\n# scale 0 0.7 0\n# textflame 1 1\n# textboxarrow 0 3\n# chara 101411\n# voice 1014 \"tyrufing_0029\"\n# face 24 \"mad2\"\n@ティルフィング\nハァァァァァァーッ！！！！\n\n;;【指定】SE_9121\n;;一閃…異族、最後の一体を切り倒すティルフィング\n# se \"SE_9121\"\n# fadein \"red\" 1\n# textboxarrow 0 0\n# move 24 3 0.3\n# waitandnext 1.2\n\n;;【指定】SE_3001\n;;崩れ落ちるボス異族\n# se \"SE_3001\"\n# serif 1\n# textboxarrow 1 0\n# alpha 810004 0 0.8\n@異族\nグ…グガッ…！！！\n\n# serif 0\n# textboxarrow 0 2\n# chara 101411\n# voice 1014 \"tyrufing_0064\"\n@ティルフィング\nハァ…ハァ…！\n…デュリン！！\nリベリオンさんは！？\n\n# serif 1\n# textboxarrow 1 3\n# rightin 0 0.5\n# alpha 0 1 0\n# chara 0\n# voice 9999 \"durin_0023\"\n# face 0 \"worry\"\n@デュリン\nな…なんなのよ、アイツ…\n\n# serif 0\n# textboxarrow 0 2\n# chara 101411\n# voice 1014 \"tyrufing_0022\"\n# face 24 \"surprise\"\n@ティルフィング\nえ…？\n\n# serif 1\n# textboxarrow 1 3\n# chara 0\n@デュリン\nあのカミノツカイと対等に…！\n本当に悪魔のようだわ…！\n\n# serif 0\n# textboxarrow 0 2\n# chara 101411\n# voice 1014 \"tyrufing_0022\"\n@ティルフィング\n…！\n\n;;カミノツカイと対峙しているリベリオン\n# serif 0\n# textboxarrow 0 3\n# textboxarrow 1 0\n# alpha 24 0 0.3\n# alpha 0 0 0.3\n# leftin 44 0.5\n# leftin 960023 0.5\n# alpha 44 1 0\n# alpha 960023 1 0\n# chara 44\n@リベリオン\n人目もはばからず\nお前らを登場させたってことは…\nよほど痺れを切らしているようだな\n\n# chara 44\n# voice 9979 \"rebellion_0013\"\n# face 44 \"sad\"\n@リベリオン\nつまり…\n俺達の目論見は\n既にバレてるってことか…\n\n# serif 1\n# textboxarrow 1 1\n@カミノツカイ\n…………\n\n# serif 0\n# textboxarrow 0 3\n# chara 44\n# voice 9979 \"rebellion_0004\"\n# face 44 \"smile\"\n@リベリオン\nだったら派手にやらせてもらうぜ？\nこの大陸の覇権は\n俺達が握らせてもらう\n\n# chara 44\n@リベリオン\n神々の意思に従わぬ者が\n統治者になった時、\nお前らがどう出るか…見ものだな\n\n# serif 1\n# textboxarrow 1 1\n@カミノツカイ\n神を怖れぬ不届き者め…\nその罪の重さを知るがいい…\n\n;;【指定】BGM停止\n# bgm \"stop\"\n# serif 0\n# textboxarrow 0 3\n# chara 44\n# face 44 \"angry\"\n@リベリオン\n悪いな…\n俺は、神を奉ったことは\nないんだよ\n\n;;【指定】SE_8009\n;;激突…一瞬の静寂ののち、真っ二つに切り裂かれるカミノツカイ\n# se \"SE_8009\"\n# fadein \"red\" 1\n# textboxarrow 0 0\n# move 44 3 0.3\n# waitandnext 1.2\n\n# serif 1\n# textboxarrow 1 3\n# pos 24 5\n# rightin 24 0.3\n# alpha 24 1 0\n# chara 101411\n# voice 1014 \"tyrufing_0024\"\n# face 24 \"mad2\"\n@ティルフィング\n！！！\n\n;;【指定】SE_6029\n;;光の粒子となり、カミノツカイが消失\n# se \"SE_6029\"\n# fadein \"white\" 2\n# alpha 960023 0 2\n# waitandnext 2.5\n\n# serif 0\n# textboxarrow 0 3\n# textboxarrow 1 0\n# move 24 3 0.5\n# move 44 1 0.5\n# alpha 0 1 0.5\n# chara 0\n# voice 9999 \"durin_0022\"\n@デュリン\nま、まさか…！？\nカミノツカイを…！？\n\n;;【指定】bgm005\n# bgm \"bgm005\" 0\n# serif 1\n# textboxarrow 1 1\n# chara 44\n# face 44 \"normal\"\n@リベリオン\nフゥ…\nどうやらそっちも片付いたようだな\n助かったぜ、ティルフィング\n\n# serif 0\n# textboxarrow 0 2\n# chara 101411\n# voice 1014 \"tyrufing_kyara_1006\"\n# face 24 \"sad\"\n@ティルフィング\nえ…\nあ、あの…\n\n# select \"神を…殺したのか…！？\" \"select_label_01\" \"大陸の…覇権を握る…！？\" \"select_label_02\"\nえ…\nあ、あの…\n\n# label \"select_label_01\"\n# labeljump \"select_label_end\"\n# serif 1\n# textboxarrow 1 1\n# chara 44\n@リベリオン\nん…？\nああ…気にするな\n大したことじゃない\n\n# label \"select_label_02\"\n# labeljump \"select_label_end\"\n# serif 1\n# textboxarrow 1 1\n# chara 44\n@リベリオン\nん…？\nああ…気にするな\n大したことじゃない\n\n# label \"select_label_end\"\n# serif 0\n# textboxarrow 0 3\n# chara 0\n# voice 9999 \"durin_navi_1108\"\n# face 0 \"serious\"\n@デュリン\nちょ、ちょっと待って！\nアンタ、本当に仲間なの…！？\n\n# serif 1\n# textboxarrow 1 1\n# chara 44\n# voice 9979 \"rebellion_0009\"\n# face 44 \"irregular\"\n@リベリオン\nあ？\nずっと、そう言ってるだろうが\n\n# serif 0\n# textboxarrow 0 3\n# chara 0\n# voice 9999 \"durin_0042\"\n# face 0 \"worry\"\n@デュリン\nで、でも…\nアンタ、今…天使を…\n神に背くつもりなの！？\n\n# serif 1\n# textboxarrow 1 1\n# chara 44\n# voice 9979 \"rebellion_0004\"\n# face 44 \"smile\"\n@リベリオン\nまぁ\nそうなるな\n\n# serif 0\n# textboxarrow 0 3\n# chara 0\n# voice 9999 \"durin_0010\"\n@デュリン\nそうなるなって…！？\n\n# serif 1\n# textboxarrow 1 1\n# chara 44\n# face 44 \"normal\"\n@リベリオン\n神でも、悪魔でもない\n俺が味方するのはただひとつ…\n人間だけだ\n\n# serif 0\n# textboxarrow 0 2\n# chara 101411\n# voice 1014 \"tyrufing_0022\"\n@ティルフィング\n…！"
	}
]