[
	{
		"ID": 1740302,
		"script": ";;４－５＜戦闘画面＞\n;;【指定】bgm004\n;;地下水路を行くディーン達\n# script \"lisp\"\n# background \"underground_waterway\"\n# bgm \"bgm004\" 0\n# body 28\n# pos 28 1\n# body 39\n# pos 39 1\n# body 40\n# pos 40 5\n# body 6\n# pos 6 3\n# alpha 39 0 0\n# scale 6 0.8 0\n# scale 39 0.8 0\n# scale 40 0.8 0\n# scale 28 0.8 0\n# textflame 1 1\n# textboxarrow 0 1\n# chara 28\n# voice 9984 \"ren_0041\"\n# face 28 \"surprise\"\n@レン\nすごい…！\n市場街の地下にこんな立派な\n地下水路があるなんて…！\n\n# serif 1\n# textboxarrow 1 2\n# chara 6\n# voice 9997 \"deen_0011\"\n# face 6 \"angry\"\n@ディーン\nうるせぇ！\n\n# serif 1\n# chara 6\n# voice 9997 \"deen_0017\"\n@ディーン\nクソッ、レーヴァテイン…\nまさか、あんなヤツに…！？\n…チクショウ！！\n\n# serif 1\n# chara 6\n# voice 9997 \"deen_0010\"\n@ディーン\nなんなんだ、\nあの黒奏官ってヤロウは…！\n\n# serif 1\n# chara 6\n@ディーン\nラグナロクの上層部は\nアイツの動きを把握してんのかよ！？\n\n# serif 0\n# textboxarrow 0 3\n# chara 40\n@エドガー\n…いや、\nおそらくアイツは\nラグナロクの者じゃない\n\n# serif 1\n# textboxarrow 1 1\n# alpha 28 0 0.3\n# alpha 39 1 0.5\n# chara 39\n# voice 9981 \"carlo_0022\"\n@カルロ\nそれはどういう意味かな？\n\n;;ジッと考え、重い口を開くエドガー\n# serif 0\n# textboxarrow 0 3\n# chara 40\n# voice 9982 \"edgar_0028\"\n@エドガー\nあくまで推論だが…\n黒奏官…あの男は、\n王政府の手の者だと思う\n\n# serif 1\n# textboxarrow 1 2\n# chara 6\n# face 6 \"normal\"\n@ディーン\n王政府…？\nなんで王政府が出てくるんだ？\n\n# serif 0\n# textboxarrow 0 3\n# chara 40\n@エドガー\nこれはサイラスが遺した、\nある遺品を目にして感じたことだ\n\n# chara 40\n@エドガー\nこの推測が正しければ…\nサイラスが監視対象に\nされていたことも頷ける\n\n# serif 1\n# textboxarrow 1 2\n# chara 6\n# face 6 \"angry\"\n@ディーン\nあ…？\nなんなんだよ、\nその遺品って？\n\n# serif 0\n# textboxarrow 0 3\n# chara 40\n@エドガー\n『地質調査書』だ\n\n# serif 1\n# textboxarrow 1 2\n# chara 6\n# voice 9997 \"deen_0024\"\n@ディーン\n地質調査書…？\n\n# serif 0\n# textboxarrow 0 3\n# chara 40\n@エドガー\nもっとも、\nそれはフェイクだと思う\n\n# chara 40\n# voice 9982 \"edgar_0028\"\n@エドガー\nおそらく、\nサイラスの真の目的は…\n\n# chara 40\n# face 40 \"irregular\"\n@エドガー\n異族の出没状況を\n探ることにあったんだ\n\n# serif 1\n# textboxarrow 1 1\n# alpha 39 0 0.3\n# alpha 28 1 0.5\n# chara 28\n# voice 9984 \"ren_0022\"\n# face 28 \"angry\"\n@レン\n異族の出没状況…？\nなによ、それ？\n\n# serif 0\n# textboxarrow 0 3\n# chara 40\n# face 40 \"normal\"\n@エドガー\n俺は自分なりに、\nその地質調査書に向き合ってみた\n\n# chara 40\n@エドガー\nそこで気づいたんだ…\n異族が意図的な出没の仕方を\nしていることに\n\n# serif 1\n# textboxarrow 1 1\n# alpha 28 0 0.3\n# alpha 39 1 0.5\n# chara 39\n# face 39 \"irregular\"\n@カルロ\n…？\nどういうことかね…？\n\n# serif 0\n# textboxarrow 0 3\n# chara 40\n@エドガー\n…正直、俺もその考えに至って\nゾッとしたよ\n\n# chara 40\n@エドガー\nだが…\nサイラスが克明に記した調査書が\nその考えを確信に変えたんだ\n\n# serif 1\n# textboxarrow 1 2\n# chara 6\n# voice 9997 \"deen_0010\"\n# face 6 \"angry\"\n@ディーン\n…もったいぶるな\nさっさと聞かせろよ\n\n# serif 0\n# textboxarrow 0 3\n# chara 40\n@エドガー\n異族は、\nこの大陸の人口が\n増え過ぎぬよう…\n\n# chara 40\n@エドガー\nそして減り過ぎぬよう\n調整するかのように出没している\n\n# chara 40\n# face 40 \"irregular\"\n@エドガー\nつまり…人口調整の役割を\n果たしているんだ\n\n# serif 1\n# textboxarrow 1 1\n# alpha 39 0 0.3\n# alpha 28 1 0.5\n# chara 28\n# voice 9984 \"ren_1015\"\n# face 28 \"surprise\"\n@レン\n人口調整…！？\n\n# serif 0\n# textboxarrow 0 2\n# chara 6\n# face 6 \"sad\"\n@ディーン\nなに言ってんだよ、お前…？\nそんなことができるわけ…\n\n# serif 1\n# textboxarrow 1 3\n# chara 40\n# face 40 \"normal\"\n@エドガー\nできるさ\n異族への対応を\n遅らせればいいだけの話なんだから\n\n# serif 0\n# textboxarrow 0 2\n# chara 6\n# voice 9997 \"deen_0024\"\n# face 6 \"angry\"\n@ディーン\n…！\n対応を遅らせる…！？\n\n# serif 1\n# textboxarrow 1 3\n# chara 40\n@エドガー\n見えてきただろ？\n\n# serif 1\n# chara 40\n@エドガー\n王立軍を派遣する王政府…\nひいては王室の力があれば、\nそれも可能なんだ\n\n# serif 1\n# chara 40\n@エドガー\n俺の考えでは…\n王政府は、異族という存在を\n人口調整に利用している\n\n# serif 0\n# textboxarrow 0 2\n# chara 6\n@ディーン\nな…！？"
	}
]