[
	{
		"ID": 1750603,
		"script": ";;５－１０＜戦闘終了後＞\n;;【指定】bgm035\n;;マサムネと対峙しているティルフィング\n# script \"lisp\"\n# background \"castle_wall\"\n# bgm \"bgm035\" 0\n# body 100161\n# pos 100161 1\n# scale 100161 0.8 0\n# body 24\n# pos 24 5\n# scale 24 0.8 0\n# textflame 1 1\n# textboxarrow 0 3\n# chara 101411\n# voice 1014 \"tyrufing_0037\"\n# face 24 \"angry\"\n# layer 100161 1\n@ティルフィング\nクッ…！\n\n# serif 1\n# textboxarrow 1 1\n# chara 100161\n# voice 10016 \"masamune_k_0039\"\n# face 100161 \"angry\"\n@マサムネ\n…一人で来るとは、\nなにを考えている？\n力の差はわかりきっているはずだ\n\n# serif 0\n# textboxarrow 0 3\n# chara 101411\n# face 24 \"mad2\"\n@ティルフィング\n私は、\n私の力で乗り越えて\n行かなければならない…！\n\n# chara 101411\n@ティルフィング\nあの壁の向こう側には\n自分の力で\n辿り着かなければいけないの…！\n\n# serif 1\n# textboxarrow 1 1\n# chara 100161\n# voice 10016 \"masamune_k_0007\"\n# face 100161 \"normal\"\n@マサムネ\nフン…\n\n;;【指定】SE_5226\n;;フッと姿を消すマサムネ\n# fadein \"black\" 0.5\n# se \"SE_5226\"\n# textboxarrow 1 0\n# alpha 100161 0 0.5\n# waitandnext 1\n\n# serif 0\n# textboxarrow 0 3\n# chara 101411\n# face 24 \"angry\"\n@ティルフィング\n！？\n消えた…！？\n\n;;ティルフィングの背後に姿を現すマサムネ\n# serif 1\n# textboxarrow 1 3\n# textboxarrow 0 0\n# pos 100161 5\n# rightin 100161 0.3\n# alpha 100161 1 0\n# move 24 2 0.3\n# chara 100161\n# face 100161 \"angry\"\n@マサムネ\n唯一可能性があるとすれば、\n他のキル姫達との連携技…\n\n# serif 1\n# chara 100161\n@マサムネ\nそれすらも棄てたお前に\nもはや勝機はない\n\n# serif 1\n# chara 100161\n# voice 10016 \"masamune_k_0029\"\n@マサムネ\nあの世で後悔するがいい！！\n\n# serif 0\n# textboxarrow 0 1\n# chara 101411\n# voice 1014 \"tyrufing_0029\"\n# face 24 \"mad2\"\n@ティルフィング\nクッ…！\nタァァァァァァーッ！！！\n\n;;【指定】SE_5743\n;;ギャリンと飛び散る火花\n;;マサムネの一撃を弾き返すティルフィング\n# se \"SE_5743\"\n# fadein \"white\" 1\n# textboxarrow 1 0\n# textboxarrow 0 0\n# move 100161 3 0.3\n# waitandnext 1.2\n\n# serif 1\n# textboxarrow 1 3\n# move 100161 5 0.3\n# chara 100161\n# voice 10016 \"masamune_k_0023\"\n# face 100161 \"normal\"\n@マサムネ\n返した…？\n\n# serif 0\n# textboxarrow 0 1\n# chara 101411\n@ティルフィング\n…負けられない！\nあの壁の向こうに、\n私を待つ人がいるのなら…！\n\n# serif 1\n# textboxarrow 1 3\n# chara 100161\n# voice 10016 \"masamune_k_0022\"\n@マサムネ\nなに…？\n\n# serif 0\n# textboxarrow 0 1\n# chara 101411\n@ティルフィング\nどんな障害があろうと…\n私はこの道を、\n迷わずに進まなければいけない！\n\n# chara 101411\n@ティルフィング\n私の帰りを待ってくれている人が\nそこにいるかも\nしれないのだから…！！\n\n# serif 1\n# textboxarrow 1 3\n# chara 100161\n# face 100161 \"angry\"\n@マサムネ\n眼差しに迷いがない…\n相応に答えるのが筋というものか\n\n# serif 1\n# chara 100161\n@マサムネ\n…奥義にて迎え討つ\nそなたのゆく道…\nこの剣で闇に閉ざしてくれる\n\n;;グッと剣を構えるマサムネ\n# serif 0\n# textboxarrow 0 1\n# chara 101411\n# voice 1014 \"tyrufing_0037\"\n# face 24 \"angry\"\n@ティルフィング\n…！\n\n# serif 1\n# textboxarrow 1 3\n# chara 100161\n# voice 10016 \"masamune_k_0029\"\n@マサムネ\n“黒式・一紅閃”！！！\n\n;;【指定】SE_9077\n;;一閃…凄まじい剣撃が、ティルフィングを襲う\n# se \"SE_9077\"\n# fadein \"red\" 1\n# textboxarrow 1 0\n# textboxarrow 0 0\n# move 100161 3 0.3\n# waitandnext 1.5\n\n# serif 0\n# textboxarrow 0 1\n# move 24 1 0.5\n# chara 101411\n# voice 1014 \"tyrufing_0038\"\n# face 24 \"sad\"\n@ティルフィング\nグ…！！！\n…ウグッ…！！！\n\n# serif 1\n# textboxarrow 1 2\n# chara 100161\n# voice 10016 \"masamune_k_0029\"\n@マサムネ\n…終わりだ！！\n\n# serif 0\n# textboxarrow 0 1\n# chara 101411\n# face 24 \"angry\"\n@ティルフィング\n…け…消せ…ない…\n\n# serif 1\n# textboxarrow 1 2\n# chara 100161\n# face 100161 \"normal\"\n@マサムネ\n…？\n\n# serif 0\n# textboxarrow 0 1\n# chara 101411\n@ティルフィング\n消せはしない…！\n\n# serif 1\n# textboxarrow 1 2\n# chara 100161\n# voice 10016 \"masamune_k_0038\"\n# face 100161 \"angry\"\n@マサムネ\nなに…！？\n\n# serif 0\n# textboxarrow 0 1\n# chara 101411\n# face 24 \"mad2\"\n@ティルフィング\n愛する人が遺してくれた\n意志の炎は…\n誰にも消せはしない！！！！\n\n;;【指定】SE_5715\n;;マサムネの剣撃を弾き返すティルフィング\n# se \"SE_5715\"\n# fadein \"white\" 1\n# textboxarrow 1 0\n# textboxarrow 0 0\n# move 100161 5 0.5\n# waitandnext 1.5\n\n# serif 1\n# textboxarrow 1 3\n# chara 100161\n@マサムネ\nなんだと…！？\n\n# serif 0\n# textboxarrow 0 1\n# chara 101411\n@ティルフィング\nショック・トゥ・キル！！！！！\n\n;;一閃…閃光のごとく、マサムネを駆け抜けるティルフィング\n;;【指定】SE_5655\n# se \"SE_5655\"\n# flush \"white\" 0.1 3\n# textboxarrow 1 0\n# textboxarrow 0 0\n# layer 24 2\n# layer 100161 1\n# rightout 24 0.3\n# waitandnext 2.5\n\n# serif 1\n# textboxarrow 1 3\n# chara 100161\n# face 100161 \"sad\"\n@マサムネ\nグ…\nガハッ…！！！\n\n;;【指定】SE_3001\n;;崩れ落ちるマサムネ\n# se \"SE_3001\"\n# textboxarrow 1 0\n# alpha 100161 0 1\n# waitandnext 1.5\n\n# serif 0\n# textboxarrow 0 2\n# move 24 3 0\n# alpha 24 1 0.5\n# mask 24 off\n# chara 101411\n@ティルフィング\nハァ…ハァ…\n\n;;ゆっくりと内壁に目を向けるティルフィング\n# serif 0\n# textboxarrow 0 2\n# chara 101411\n# face 24 \"sad\"\n@ティルフィング\n…悠久の時を超え\n\n# serif 0\n# chara 101411\n@ティルフィング\nアナタは待ち続けてくれているの…？\n\n# serif 0\n# chara 101411\n@ティルフィング\n…お母さん！！"
	}
]