[
	{
		"ID": 20025103,
		"script": "# script \"lisp\"\n# background \"highland_snow\"\n# bgm \"bgm003\" 0\n# body 200251\n# mask 200251 off\n# pos 200251 3\n# textflame 1 1\n# textboxarrow 0 2\n# voice 2002 \"aimuru_0007\"\n@アイムール\n店など探さなくても、\nこんな所にあったんじゃないですか\nツリー\n\n# textflame 0 0\n@\nそう言って、武器を構える彼女\nしかし…\n\n# face 200251 \"sad\"\n# textflame 1 1\n# textboxarrow 0 2\n# voice 2002 \"aimuru_1018\"\n@アイムール\n…！\n\n@アイムール\nもの言わぬ木とはいえ…\n命に変わりはない…\n無益な殺生は…\n\n# select \"どうしたの？ピタリと止まっちゃって\" \"select_label_01\" \"あれ…？切るんじゃ…ないの？\" \"select_label_02\" \"大きいツリーを…作るんじゃ…\" \"select_label_03\"\nもの言わぬ木とはいえ…\n命に変わりはない…\n無益な殺生は…\n\n# face 200251 \"normal\"\n# label \"select_label_01\"\n# labeljump \"select_label_end\"\n@アイムール\nい、いえ…やはり、\n街に戻りましょう…\n\n# face 200251 \"normal\"\n# label \"select_label_02\"\n# labeljump \"select_label_end\"\n@アイムール\n…それは…できません\n\n# face 200251 \"normal\"\n# label \"select_label_03\"\n# labeljump \"select_label_end\"\n@アイムール\n確かに大きいですね…でも…\n\n# label \"select_label_end\"\n# voice 2002 \"aimuru_0001\"\n@アイムール\nマスターの言う通り、\n今日は諦めましょう\n\n# textflame 0 0\n@\n彼女が街へと踵を返した時、\n山の上の方からゴゴゴゴ…！\nと、大きな音が\n\n# face 200251 \"surprise\"\n# textflame 1 1\n# textboxarrow 0 2\n# voice 2002 \"aimuru_0022\"\n@アイムール\n…！あれは…雪の塊！！\nこちらに転がってくる…！！\n\n# textflame 0 0\n@\n真っ直ぐに、木に向かって\n突進してくる雪の玉\n\n# face 200251 \"sad\"\n# textflame 1 1\n# textboxarrow 0 2\n# voice 2002 \"aimuru_0029\"\n@アイムール\n木も…何十何百年と生きてきた命！\nハァァァァーーーッ！！\n\n# textflame 0 0\n@\n大きな音と共に、雪の玉は\n彼女の武器に破壊された\n\n# face 200251 \"surprise\"\n# textflame 1 1\n# textboxarrow 0 2\n@アイムール\nい、今のは…\n\n# face 200251 \"normal\"\n# se \"SE_0602\"\n@アイムール\nマスター！思わぬところで新奥義…\n『グランブリザード』\n完成です！！\n\n# textflame 0 0\n@\nそれはまさしく、\n彼女が新たなるスキルに\n目覚めた瞬間だった\n\n# textflame 0 0\n@\nそして…\n\n# textflame 1 1\n# textboxarrow 0 2\n# voice 2002 \"aimuru_0021\"\n@アイムール\n電飾に彩られた\nクリスマスツリーも\n綺麗ですが…\n\n# face 200251 \"smile\"\n# voice 2002 \"aimuru_0004\"\n@アイムール\nこの自然が織り成すツリーもまた…\nとても綺麗ですね\n\n# textflame 0 0\n@\nアイムールが砕いた玉が、\n粉雪となりツリーに\nキラキラと降り注いでいた\n\n# textflame 0 0\n@\n言った事を守ってくれて…\n優しい心を持ってくれてありがとう\nと礼を言うマスター\n\n# face 200251 \"angry\"\n# textflame 1 1\n# textboxarrow 0 2\n# voice 2002 \"aimuru_0042\"\n@アイムール\nな、なに言ってるんですか！？\n私はただ…マスターに言われた\n命令を遂行しただけです！\n\n# face 200251 \"sad\"\n@アイムール\nしかし…殲滅以外にも\n心を置いてみると、\nこのようなことも起こるのですね\n\n# voice 2002 \"aimuru_0005\"\n@アイムール\nクリスマスの奇跡…\nというやつでしょうか\n\n# face 200251 \"smile\"\n@アイムール\n美しい\n\n# textflame 0 0\n@\nクリスマスツリーに目を向け、\n呟く彼女\n\n# textflame 1 1\n# textboxarrow 0 2\n# voice 2002 \"aimuru_0001\"\n@アイムール\nマスター…\n\n# imageset 0 \"c200251\"\n# imagealpha 0 0 0\n# imagepos 0 0 0\n@アイムール\nメリークリスマス\n\n# voice 2002 \"aimuru_kyara_0018\"\n# imagealpha 0 1 0\n# imagepos 0 0 0\n# fadein \"white\" 3\n# textwindow \"close\"\n\n# textwindow \"nomal\"\n# textflame 0 0\n@\n月と星の光に照らされる白いツリー\nその前に立つ彼女の微笑みもまた、\nとても美しいものだった"
	}
]