[
	{
		"ID": 20035204,
		"script": ";;【EP4】\n# script \"lisp\"\n# background \"Schoolyard_daytime\"\n# bgm \"bgm002\" 0\n# body 67\n# pos 67 3\n# mask 67 off\n# face 67 \"normal\"\n# voice 2003 \"loveryus_0004\"\n# textboxarrow 0 2\n# textflame 1 1\n@ラブリュス\nラブリュスちゃんを\n甘いセリフでメロメロに\nしようったって～！\n\n# chara 200351\n# face 67 \"shy\"\n# voice 20035 \"loveryus_event_1003\"\n@ラブリュス\n…こういうの慣れてないから\nどうしていいか\nわからないっていうか…\n\n# chara 200351\n# face 67 \"happy\"\n# voice 2003 \"loveryus_0004\"\n@ラブリュス\n万能アイドル、ラブリュスちゃんの\nお弁当がおいしくて当然！\n\n# chara 200351\n# face 67 \"shy\"\n# voice 20035 \"loveryus_event_1003\"\n@ラブリュス\n…っていうことになってるけど\n本当にちゃんと食べてもらったのは\n君が初めてで…その…\n\n# textflame 0 0\n@\n素顔でいいと言われたラブリュスは\n明らかに混乱している\nしかしその様子が可愛い\n\n@\nお弁当が美味しいのは本当だ\nラブリュスにも食べてほしくて\n玉子焼きを差し出す\n\n;;ボイスカット依頼中\n# textflame 1 1\n# chara 200351\n# face 67 \"surprise\"\n# voice 20035 \"loveryus_g_item_1001\"\n@ラブリュス\nえぇ！？　今度はわたしの番！？\nで、でも…その玉子焼き…\nき、君の…！\n\n# chara 200351\n# face 67 \"shy\"\n@ラブリュス\nダメだよ…アイドル的にご法度だよ…\nだって、それ…\n間接、キ…きき、キ…\n\n# textflame 0 0\n@\n普段からは想像もできないほど\nラブリュスはモジモジしている\n\n@\nとっても地味でおとなしい\nそれが本当のラブリュスの\n素顔なのかもしれない\n\n# textflame 1 1\n# chara 200351\n# face 67 \"sad\"\n@ラブリュス\nや、やっぱり…こんなわたし\n可愛くないよ…？元気100倍な\nラブリュスちゃんじゃないと…\n\n# chara 200351\n# voice 20035 \"loveryus_event_1003\"\n@ラブリュス\nアイドルしてないわたしなんて…\n楽しいお話もできないし、\nマスター退屈しちゃうと思うし…\n\n# select \"本当の君を隠すためのアイドルなの？\" \"select_label_01\" \"ラブリュスちゃんも君も、同じ存在だ\" \"select_label_02\" \"背伸びしても本物にはなれないよ\" \"select_label_03\"\n@ラブリュス\nアイドルしてないわたしなんて…\n楽しいお話もできないし、\nマスター退屈しちゃうと思うし…\n\n# label \"select_label_01\"\n# labeljump \"select_label_end\"\n# textflame 1 1\n# textsize 24\n# chara 200351\n# face 67 \"sad\"\n@ラブリュス\nそれは！そうじゃない、はず…\n\n# label \"select_label_02\"\n# labeljump \"select_label_end\"\n# textflame 1 1\n# textsize 24\n# chara 200351\n# face 67 \"sad\"\n@ラブリュス\n同じだけど、違うような…ええと…\n\n# label \"select_label_03\"\n# labeljump \"select_label_end\"\n# textflame 1 1\n# textsize 24\n# chara 200351\n# face 67 \"surprise\"\n@ラブリュス\nラブリュスちゃんが背伸びした姿…？\n\n# label \"select_label_end\"\n# textflame 0 0\n@\nラブリュスがどういう理由で\nアイドルをしているのか\nまだよく知らない\n\n@\nでも、もし自信のない自分を\n隠すための姿ならば\nそれは違うと思った\n\n@\n事実ははっきり伝えなければならない\nそのままの君だって可愛いんだ\n自信をもってほしい、と\n\n# textflame 1 1\n# chara 200351\n# face 67 \"sad\"\n@ラブリュス\n…君の言うとおり\n私、無理してたと思う\n素の自分のままじゃダメだって…\n\n# chara 200351\n@ラブリュス\n無理、じゃダメなんだ\nいつものラブリュススマイルが\n自然にできるようじゃないと…\n\n# chara 200351\n# face 67 \"normal\"\n@ラブリュス\n真のアイドルにはなれない！\nそのためには、素顔の自分も\nちゃんと好きにならなきゃ…！\n\n#se \"SE_0602\"\n# textflame 0 0\n@\nそれはまさしく、\n彼女が新たなるスキルに\n目覚めた瞬間だった\n\n# textflame 1 1\n# chara 200351\n# face 67 \"happy\"\n# voice 2003 \"loveryus_0005\"\n@ラブリュス\n「ラブあんのうん」\n本当のわたしの笑顔が\n真のラブリュスちゃんスマイル！\n\n# textflame 0 0\n# imageset 0 \"c200351\"\n# imagealpha 0 0 0\n@\nそう言って笑う\nありのままの「ラブリュス」は\n今までで一番可愛かった\n\n# imagealpha 0 1 0\n# imagepos 0 0 0 \n# fadein \"white\" 3\n# voice 20035 \"loveryus_g_kyara_0025\"\n# textwindow \"close\""
	}
]