[
	{
		"ID": 20065201,
		"script": ";;【EP1】(フリ)\n# script \"lisp\"\n# background \"Schoolyard_daytime\"\n# bgm \"bgm002\" 0\n# body 200651\n# pos 200651 3\n# mask 200651 off\n# alpha 200651 0 0\n# textboxarrow 0 2\n# chara 200651\n# textflame 0 0\n@\nある午後の授業風景…\n\n# textflame 0 0\n@\nう～ん！\n天高くなんとやらな\nスポーツ日和だね～\n\n# voice 2006 \"daguda_0002\"\n# face 200651 \"happy\"\n# textflame 1 1\n# chara 200651\n# alpha 200651 1 0.3\n@ダグダ\nみんなガンバ～\nマラソンは自分との\n戦いだからね～\n\n# textflame 0 0\n@\nそう言いながら\n明らかに眠気と戦うのは\n体育のダグダ先生…\n\n# voice 2006 \"daguda_0004\"\n# face 200651 \"usual\"\n# textflame 1 1\n# chara 200651\n@ダグダ\n好きに走って\n適当に休憩してね～\n\n# textflame 1 1\n# chara 200651\n@ダグダ\nマラソンは自分のペースを\n守るのが一番重要だよ～\n\n# textflame 0 0\n@\n…と、誰よりも\nマイペースなダグダ先生の\nゆるゆるな指示が飛ぶ\n\n# textflame 0 0\n@\nお陰で授業の雰囲気も\nさっきからまったく\nピリッとしない\n\n# voice 2006 \"daguda_0007\"\n# textflame 1 1\n# chara 200651\n@ダグダ\n来週はマラソン大会だぞ～\n今のうちに体を慣らして\n怪我のないようにね～\n\n# voice 2006 \"daguda_g_kyara_1004\"\n# textflame 1 1\n# face 200651 \"happy\"\n# chara 200651\n@ダグダ\nそれにしてもこの季節って\n過ごしやすくてなんとも快適だよね～\nにゃむにゃむ…\n\n# textflame 0 0\n@\nリヤカーの上で\n今にも寝落ちしそうなダグダ先生\nまぁ、いつものことではあるのだが…\n\n# textflame 0 0\n@\n今日は普段にもましてゆるゆるだ\nその緩さはあきらかに\n生徒たちに伝染していた\n\n# voice 2006 \"daguda_0009\"\n# face 200651 \"usual\"\n# textflame 1 1\n# chara 200651\n@ダグダ\nほれ！歩くほどキツくないでしょ～が\nそこも～、休憩おしゃべりが\nちょっと長いぞ～\n\n# textflame 0 0\n@\n返事はするものの、\n生徒たちが態度を改める様子はない\n\n# textflame 0 0\n@\nこれは授業としてどうなのか…\nマスターは危機感を覚え始めていた\n"
	}
]