[
	{
		"ID": 20084304,
		"script": ";;==================================================\n;;【EP4】(オチ2)\n;;==================================================\n# script \"lisp\"\n# background \"town\"\n# bgm \"bgm002\" 0\n# body 200841\n# pos 200841 3\n# alpha 200841 0 0\n# mask 200841 off\n# textflame 0 0\n@\nあれからまた時が経ち\n\n# textflame 0 0\n@\n今日は２月１４日、\nバレンタインデー\n\n# voice 2008 \"perun_0004\"\n# alpha 200841 1 0.5\n# textboxarrow 0 2\n# textflame 1 1\n@ペルーン\n待っててね、みんな～！\n\n# textboxarrow 0 2\n# textflame 1 1\n@ペルーン\nあたしの特製手作りチョコ、\nもうすぐ完成するからね！\n\n# textflame 0 0\n@\n…と、チョコを作っている彼女\n\n# textflame 0 0\n@\nほんと、甘くておいしそうだね\n\n# textflame 0 0\n@\nマスターが彼女に声をかける\n\n# voice 2008 \"perun_0030\"\n# face 200841 \"smile\"\n# textboxarrow 0 2\n# textflame 1 1\n@ペルーン\nありがとう、マスター\n\n# voice 2008 \"perun_0004\"\n# face 200841 \"usual\"\n# textboxarrow 0 2\n# textflame 1 1\n@ペルーン\nあたし、もう全然孤独じゃないよ\n\n# textboxarrow 0 2\n# textflame 1 1\n@ペルーン\n毎日、ほんとの家族と\n一緒に暮らしてるみたい！\n\n# textboxarrow 0 2\n# textflame 1 1\n@ペルーン\nこんなにも優しい\nお姉ちゃん達がいるんだもんね！\n\n# textboxarrow 0 2\n# textflame 1 1\n@ペルーン\nみんなが優しくしてくれるから、\nあたしもみんなに\n優しくしたいと思える\n\n# voice 2008 \"perun_0005\"\n# face 200841 \"smile\"\n# textboxarrow 0 2\n# textflame 1 1\n@ペルーン\nだから、みんなに\nチョコをあげたいの！\n\n# voice 2008 \"perun_0039\"\n# face 200841 \"surprise\"\n# textboxarrow 0 2\n# textflame 1 1\n@ペルーン\nあ、わかった！\nこれが…\n\n# voice 2008 \"perun_0005\"\n# face 200841 \"smile\"\n# textboxarrow 0 2\n# textflame 1 1\n@ペルーン\n愛ってやつ？\n\n# face 200841 \"normal\"\n# textboxarrow 0 2\n# textflame 1 1\n@ペルーン\nなぁんてね♪\n\n# textflame 0 0\n@\n彼女が\nとても嬉しそうに\n笑顔を見せた\n\n# voice 2008 \"perun_0006\"\n# face 200841 \"simper\"\n# textboxarrow 0 2\n# textflame 1 1\n@ペルーン\nできた～！\n\n# textflame 0 0\n@\nペルーンの手作りチョコを\n姫達が頬張る\n\n# textflame 0 0\n@\nおいし～っ！\n\n# textflame 0 0\n@\n幸せそうな表情を見せる姫達\n\n# voice 2008 \"perun_0004\"\n# face 200841 \"usual\"\n# textboxarrow 0 2\n# textflame 1 1\n@ペルーン\nみんなを笑顔にできる力！\nこれがあたしの新しいスキル…\n\n# se \"SE_0602\"\n# face 200841 \"normal\"\n# textboxarrow 0 2\n# textflame 1 1\n@ペルーン\n『メルティサンディ』だよ♪\n\n# textboxarrow 0 2\n# textflame 1 1\n@ペルーン\nチョコと一緒に\n新必殺技もできちゃった！\n\n# textflame 0 0\n@\nそれは彼女が\n新たなスキルに目覚めた\n瞬間だった\n\n# voice 2008 \"perun_0001\"\n# face 200841 \"smile\"\n# textboxarrow 0 2\n# textflame 1 1\n@ペルーン\nねぇ、マスター\n\n# textflame 0 0\n@\nみんなから離れた場所で\nマスターに声を掛ける彼女\n\n# textboxarrow 0 2\n# textflame 1 1\n@ペルーン\nはい、これ\n\n# textboxarrow 0 2\n# textflame 1 1\n@ペルーン\nみんなにあげたのとは、\nまた別の特別製\n\n# voice 2008 \"perun_0005\"\n# face 200841 \"simper\"\n# textboxarrow 0 2\n# textflame 1 1\n@ペルーン\n本命チョコってやつだよ\n\n# textflame 0 0\n@\nえぇっ！\n驚いて、思わず声が出るマスター\n\n# face 200841 \"normal\"\n# textboxarrow 0 2\n# textflame 1 1\n@ペルーン\nへへ、な～んてね！\nマスター、\n赤くなってる～！\n\n# select \"あ、からかったな～！\" \"select_label_01\" \"あ、ウソついたな～！\" \"select_label_02\" \"ひどいな～、も～！\" \"select_label_03\"\nへへ、な～んてね！\nマスター、\n赤くなってる～！\n\n# label \"select_label_01\"\n# labeljump \"select_label_end\"\n# textboxarrow 0 2\n# textflame 1 1\n@ペルーン\nあはは！ごめんね♪\n\n# label \"select_label_02\"\n# labeljump \"select_label_end\"\n# textboxarrow 0 2\n# textflame 1 1\n@ペルーン\nえへへ、ウソじゃないよ♪\n\n# label \"select_label_03\"\n# labeljump \"select_label_end\"\n# textboxarrow 0 2\n# textflame 1 1\n@ペルーン\nかわいい～♪\n\n# label \"select_label_end\"\n# textboxarrow 0 2\n# textflame 1 1\n@ペルーン\nまだまだ甘いな～、\nマスターは！\n\n# textflame 0 0\n@\n彼女がイタズラっぽく笑った\n\n# voice 2008 \"perun_0004\"\n# face 200841 \"smile\"\n# textboxarrow 0 2\n# textflame 1 1\n@ペルーン\n本命かどうかは置いといて…\n\n# face 200841 \"simper\"\n# textboxarrow 0 2\n# textflame 1 1\n@ペルーン\nはい、甘いマスターには\nあまぁ～いチョコあげるね\n\n# imageset 0 \"c200841\"\n# imagealpha 0 0 0\n# textflame 0 0\n@\nそのとろけるような笑顔は、\nチョコより甘くて可愛らしかった\n\n# imagealpha 0 1 0\n# imagepos 0 0 0\n# fadein \"white\" 3\n# textwindow \"close\"\n# voice 2008 \"perun_kyara_0028\"\n;;ペルーン　「胸がドキドキしてる…。こんな気持ち初めてだよ…」\n"
	}
]