[
	{
		"ID": 20111101,
		"script": "# script \"lisp\"\n# background \"foot_mountain_village\"\n# bgm \"bgm003\" 0\n# body 201111\n# mask 201111 off\n# pos 201111 3\n;;黒準備\n# imageset 1 \"bg_black\"\n# imagepos 1 0 0\n# imagealpha 1 0 0\n# textflame 1 1\n# textboxarrow 0 2\n# voice 2011 \"Wazra_0001\"\n@ワズラ\nはい、マスター\nかしこまりました\n夕飯は７時からですね？\n\n# voice 2011 \"Wazra_0003\"\n@ワズラ\nその契約…必ず守ります！\n\n# imagepos 1 0 0\n# imagealpha 1 1 0.5\n\n# background \"foot_mountain_village_evening\"\n# textflame 0 0\n@\n約束を「契約」と呼び、\n守ることを何よりも重んずる少女\nワズラ\n\n# imagepos 1 0 0\n# imagealpha 1 0 0.5\n\n# face 201111 \"smile\"\n# textflame 1 1\n# textboxarrow 0 2\n# voice 2011 \"Wazra_0020\"\n@ワズラ\nできた〜！！時間は…６時５０分！\nうん、盛り付けの準備を入れたら\nピッタリですね\n\n# textflame 0 0\n@\n真面目で礼儀正しく本当にいい子…\n約束を破りさえしなければ…\n\n# face 201111 \"angry\"\n# textflame 1 1\n# textboxarrow 0 2\n# voice 2011 \"Wazra_kyara_1008\"\n@ワズラ\n…マスター？\n今、何時だと思ってるんですか？\n自分から時間を指定しておいて…\n\n# voice 2011 \"Wazra_0011\"\n@ワズラ\n５分も遅れてくるとは何事ですか！\n契約も守れないようなマスターは…\n\n# voice 2011 \"Wazra_0027\"\n@ワズラ\n罰ゲーム決定です！！\n\n# textflame 0 0\n@\nそう、彼女との契約を破ると、\nいつも罰ゲームを課されてしまうのだ\n\n# face 201111 \"mad\"\n# textflame 1 1\n# textboxarrow 0 2\n# voice 2011 \"Wazra_0004\"\n@ワズラ\nという事で、召し上がれ\nワズラ特製…ハバネロ１００本入り\n激辛スープです！\n\n# textflame 0 0\n@\n一口すすり、悶絶するマスター\n\n# textflame 1 1\n# textboxarrow 0 2\n# voice 2011 \"Wazra_0005\"\n@ワズラ\nオホホホ、いいリアクションですね！\nじゃあ、次の罰ゲームは…\n\n# face 201111 \"smile\"\n# voice 2011 \"Wazra_0008\"\n@ワズラ\nキスです\n\n# textflame 0 0\n@\n…え！？\n一瞬、ドキッとするマスター\n\n# face 201111 \"mad\"\n# textflame 1 1\n# textboxarrow 0 2\n# voice 2011 \"Wazra_0007\"\n@ワズラ\nこの…凶暴なドラゴンちゃんとね\n\n# textflame 0 0\n@\n必死の形相で\n炎を吐くドラゴンから\n逃げるマスター\n\n# face 201111 \"normal\"\n# textflame 1 1\n# textboxarrow 0 2\n# voice 2011 \"Wazra_0005\"\n@ワズラ\nうふふ、仕方ありませんわね\nそろそろ許してあげますわ\n\n# face 201111 \"smile\"\n# voice 2011 \"Wazra_0001\"\n@ワズラ\nマスター、\nもう破ってはいけませんわよ？\nケ・イ・ヤ・ク♪\n\n# textflame 0 0\n@\n普段は柔らかい物腰の彼女\nしかし、罰を実行している時の\n笑顔は本当に恐ろしい\n\n# face 201111 \"normal\"\n# textflame 1 1\n# textboxarrow 0 2\n# voice 2011 \"Wazra_kyara_1011\"\n@ワズラ\nじゃあ、契約を破らないように…\n指切りしましょ\n\n# textflame 0 0\n@\n彼女が、ここまで契約に\nこだわる理由は…\nふと気になるマスターだった"
	}
]