[
	{
		"ID": 20131202,
		"script": "# script \"lisp\"\n# background \"town\"\n# bgm \"bgm002\" 0\n# body 201311\n# mask 201311 off\n# pos 201311 3\n# textboxarrow 0 2\n# textflame 1 1\n# voice 2013 \"reshef_0013\"\n# chara 201311\n# face 201311 \"sad\"\n@レシェフ\n…ったく\n\n# chara 201311\n@レシェフ\nまさか本当に薪割りを\n全部やってくれるとはね…\n\n# voice 2013 \"reshef_0015\"\n# chara 201311\n@レシェフ\nそんなことされたら、\n付き合わなきゃ、\nしょうがないじゃんか\n\n# textflame 0 0\n@\nぶつくさと文句を言いながらも、\nマスターと街にやってきたレシェフ\n\n# textflame 1 1\n# voice 2013 \"reshef_0022\"\n# chara 201311\n# face 201311 \"happy\"\n@レシェフ\n…おっ！なに、あれ？\nすっごい楽しそう！\n行ってみよ！\n\n# voice 2013 \"reshef_0001\"\n# chara 201311\n@レシェフ\nもう！トロいよ、マスター！\n早く、早く！\n\n# textflame 0 0\n@\nマイペースに…というか、\nむしろわがままに\nマスターを連れ回す\n\n# textflame 0 0\n@\nしかし、その笑顔は\nとても楽しそうだ\n\n# textflame 1 1\n# chara 201311\n# face 201311 \"shy\"\n@レシェフ\nう〜、足痛い…\nマスター、おんぶ！\n\n# voice 2013 \"reshef_0027\"\n# chara 201311\n# face 201311 \"happy\"\n@レシェフ\n…って、冗談に決まってんでしょ！\n次はあそこ入ろ！！\n\n# textflame 0 0\n@\n歩き通しだった２人は、\n休憩がてら喫茶店に\n\n# textflame 0 0\n@\n一息ついたところで、\nマスターは気になっていた事を\nレシェフに尋ねてみた\n\n# select \"ろくなことにならないって…なんで？\" \"select_label_01\" \"なにか…悩んでることでもあるの？\" \"select_label_02\" \"いつも一人でいるのには理由が…？\" \"select_label_03\"\n一息ついたところで、\nマスターは気になっていた事を\nレシェフに尋ねてみた\n\n# textflame 1 1\n# label \"select_label_01\"\n# labeljump \"select_label_end\"　\n# chara 201311\n# face 201311 \"sad\"\n@レシェフ\n…え？いや…そんなこと…言ったかな\n\n# textflame 1 1\n# label \"select_label_02\"\n# labeljump \"select_label_end\"　\n# chara 201311\n# face 201311 \"sad\"\n@レシェフ\nな、悩みなんて…別に…て言うか…\n\n# textflame 1 1\n# label \"select_label_03\"\n# labeljump \"select_label_end\"　\n# chara 201311\n# face 201311 \"sad\"\n@レシェフ\nた、大した理由なんて…ないよ…\n\n# label \"select_label_end\"\n# textflame 1 1\n# voice 2013 \"reshef_0031\"\n# chara 201311\n@レシェフ\nごめんね、今日は…\n結局、あたしが\n連れ回す感じになっちゃって\n\n# chara 201311\n@レシェフ\n自分でもわかってんだ…\nみんなから…\n\n# voice 2013 \"reshef_0017\"\n# chara 201311\n# face 201311 \"amazed\"\n@レシェフ\n「疫病神」って\n呼ばれてること…\n\n# chara 201311\n# face 201311 \"sad\"\n@レシェフ\n古の…武器だった時代から、\nそう呼ばれてた\n\n# voice 2013 \"reshef_0015\"\n# chara 201311\n@レシェフ\n今もわがままで自分勝手で、\n他の姫達から好かれていないのも\n知ってる…\n\n# voice 2013 \"reshef_0008\"\n# chara 201311\n@レシェフ\nだからさ、せめて…\n戦闘でがんばるしかないって\n張り切ってんだけどね\n\n# chara 201311\n@レシェフ\nだからさ…\nこんな嫌われ者のあたしといても…\n\n# chara 201311\n@レシェフ\nろくなことになんないでしょ？\n\n# textflame 0 0\n@\n悲しい目を落とすレシェフ\n\n# textflame 0 0\n@\n熱血で勝気な彼女に、\nこんな想いがあったとは…\n驚きを隠せないマスターだった"
	}
]