[
	{
		"ID": 20171101,
		"script": "# script \"lisp\"\n# background \"plain\"\n# bgm \"bgm002\" 0\n# body 201711\n# mask 201711 off\n# pos 201711 3\n# textflame 1 1\n# textboxarrow 0 2\n# face 201711 \"cry\"\n# voice 2017 \"yagurushi_0016\"\n@ヤグルシ\nふぇ〜ん！！\nお姉ちゃん、\nごめんなさ〜い！\n\n# textflame 0 0\n@\n姉のアイムールに叱られ、\n泣いている少女ヤグルシ\n\n# textflame 1 1\n# textboxarrow 0 2\n# voice 2017 \"yagurushi_0015\"\n@ヤグルシ\nうぅ…マスターも…\nごめんなさぃ…\n\n# voice 2017 \"yagurushi_0022\"\n@ヤグルシ\n今日はウトウトと居眠りしてて…\n戦闘に参加できませんでした…\n\n# voice 2017 \"yagurushi_0031\"\n@ヤグルシ\nほんと、ごめんなさい！！\n\n# face 201711 \"sad\"\n@ヤグルシ\nはぁ〜、ヤグって…\nほんとにダメダメな子だぁ〜\n\n@ヤグルシ\n他の姫にも迷惑かけちゃったし…\nもっと強くなって、\nお返ししなくちゃ…\n\n# face 201711 \"usual\"\n# voice 2017 \"yagurushi_0005\"\n@ヤグルシ\nこうなったら…！\n\n# textflame 0 0\n@\n特訓？と身を乗り出すマスター\n\n# face 201711 \"surprise\"\n# textflame 1 1\n# textboxarrow 0 2\n# voice 2017 \"yagurushi_0028\"\n@ヤグルシ\n特訓って…どうやるの？\n\n# textflame 0 0\n@\nガクッっとずっこける\n\n# face 201711 \"cry\"\n# textflame 1 1\n# textboxarrow 0 2\n# voice 2017 \"yagurushi_0026\"\n@ヤグルシ\nふえ〜、お姉ちゃんがいないと\nわかんないよ〜\n\n# face 201711 \"surprise\"\n@ヤグルシ\n…！えぇ〜っ！！\n\n# face 201711 \"smile\"\n# voice 2017 \"yagurushi_0006\"\n@ヤグルシ\nマスター、手伝ってくれるの！？\nやった〜！やっさしい〜！\n\n# face 201711 \"sad\"\n@ヤグルシ\nでも、特訓の方法って…\n\n# face 201711 \"surprise\"\n# voice 2017 \"yagurushi_0020\"\n@ヤグルシ\n…え？ヤグの…\n好きなことでいいの！？\n\n# face 201711 \"usual\"\n@ヤグルシ\nじゃあ…\n\n# face 201711 \"normal\"\n# voice 2017 \"yagurushi_0004\"\n@ヤグルシ\n追いかけっこ！！\n\n# textflame 0 0\n@\nう〜ん、姉妹揃って\n追いかけっこが好きとは…\n変わってるというか何というか…\n\n# face 201711 \"usual\"\n# textflame 1 1\n# textboxarrow 0 2\n# voice 2017 \"yagurushi_0007\"\n@ヤグルシ\nじゃあ、いっくよ〜♪\n\n# textflame 0 0\n@\n大きな斧を肩に乗せ、\nマスターに向かって走りくる\nヤグルシだった"
	}
]