[
	{
		"ID": 2027122,
		"script": ";;【EP2】\n;;//背景：昼の荒野\n# bgm \"bgm003\" 0\n# background \"wild\"\n# body 202711\n# pos 202711 3\n# scale 202711 0.8 0\n# alpha 202711 0 0\n# mask 202711 off\n# body 810004\n# pos 810004 3\n# scale 810004 0.8 0\n# alpha 810004 1 0\n# mask 810004 off\n@異族\nグゥ…\n\n;;//演出：異族倒れる\n# alpha 810004 0 2\n# waitandnext 2\n\n# alpha 202711 1 0.5\n# textboxarrow 0 2\n# textflame 1 1\n# face 202711 \"sad\"\n;;# voice 2027 \"acht_0007\"\n@アハト\nこれで、問題はないと\nご理解いただけましたか…？\n\n# textflame 0 0\n@\n今回は平気だったけど、\n連携が必要なこともあるし、やっぱり\nみんなと鍛錬しないかと提案すると…\n\n# textboxarrow 0 2\n# textflame 1 1\n;;# face 202711 \"\"\n;;# voice 2027 \"\"\n@アハト\n…では、私の質問に答えてください\n私と答えが同じならば、\nアナタの意見に従います\n\n# textboxarrow 0 2\n# textflame 1 1\n# face 202711 \"surprise\"\n# voice 2027 \"acht_0001\"\n@アハト\n人が生きるために、必要なものは\nなんだとお考えですか？\n\n# select \"やっぱり愛かな？\" \"select_label_01\" \"うーん、お金かな？\" \"select_label_02\" \"仲間じゃないかな？\" \"select_label_03\"\n人が生きるために、必要なものは\nなんだとお考えですか？\n\n# label \"select_label_01\"\n# labeljump \"select_label_end\"\n# face 202711 \"sad\"\n# voice 2027 \"acht_0013\"\n@アハト\n…愛だけでは、何も守れません\n\n# label \"select_label_02\"\n# labeljump \"select_label_end\"\n# face 202711 \"sad\"\n# voice 2027 \"acht_0013\"\n@アハト\n…お金では、買えないものもあります\n\n# label \"select_label_03\"\n# labeljump \"select_label_end\"\n# face 202711 \"sad\"\n# voice 2027 \"acht_0013\"\n@アハト\n…仲間とはぐれたら、どうするんですか？\n\n# label \"select_label_end\"\n# textboxarrow 0 2\n# textflame 1 1\n# face 202711 \"sad\"\n# voice 2027 \"acht_0027\"\n@アハト\n…私とアナタは、やはり\n住む世界が違うようです\n\n# textboxarrow 0 2\n# textflame 1 1\n;;# face 202711 \"\"\n;;# voice 2027 \"\"\n@アハト\n与えられた任務は果たします…\nですが、それ以外のことは\nどうか構わないでください\n\n# textflame 0 0\n@\nそう言い放つと、\nアハトはマスターに背を向けて\n鍛錬に戻っていった\n\n# textflame 0 0\n@\nこれ以上は嫌がられるだけだと思い、\nマスターはこの場を去ることにした\n\n# textflame 0 0\n@\nしかし、このままではいられない、\nアハトの心を開くいい方法は\nないか、と考えるマスターだった\n\n;;//演出：時間経過\n# imageset 0 \"black\"\n# imagealpha 0 0 0\n# imagelayer 0 1\n# waitandnext 0.1\n\n;;暗転挟む\n# imagealpha 0 1 0\n# imagepos 0 0 30\n# imageleftin 0 0.5\n# serif 0\n# textwindow \"close\"\n# serif 1\n# textwindow \"close\"\n# waitandnext 1\n\n;;# background \"\"\n# imagealpha 0 0 0.5\n# imagerightout 0 0.5\n# serif 0\n# textwindow \"nomal\"\n# textboxarrow 0 2\n# textflame 1 1\n# face 202711 \"angry\"\n# voice 2027 \"acht_battle_0002\"\n@アハト\nたあ！\nやっ！\n\n# textflame 0 0\n@\n数日後、マスターは再び\n鍛錬するアハトの元へとやってきた\n\n# textflame 0 0\n@\nアハトはマスターに気がつくと、\nあきらかに迷惑そうな顔をした\n\n# textboxarrow 0 2\n# textflame 1 1\n# face 202711 \"sad\"\n# voice 2027 \"acht_0007\"\n@アハト\n構わないでほしいと、\nお伝えしたはずです…\n\n# textflame 0 0\n@\nそっけない態度は予想していたので、\nマスターはめげることなく、\nできるだけ明るく話しかける\n\n# textflame 0 0\n@\nそろそろお昼の時間だから、\n一緒にどうかと思って\nお弁当を持ってきたんだ、と言うと…\n\n# textboxarrow 0 2\n# textflame 1 1\n# face 202711 \"surprise\"\n# voice 2027 \"acht_0022\"\n@アハト\nこのいい匂いは\nそのお弁当から…？\n\n# textboxarrow 0 2\n# textflame 1 1\n# face 202711 \"sad\"\n;;# voice 2027 \"\"\n@アハト\n…………\n\n# textboxarrow 0 2\n# textflame 1 1\n# face 202711 \"shy\"\n# voice 2027 \"acht_0001\"\n@アハト\n…短い時間でしたら、\nお付き合いいたします\n\n# textflame 0 0\n@\nマスターのお弁当作戦は成功し、\nアハトと一緒の時間を獲得できた\n\n# textboxarrow 0 2\n# textflame 1 1\n;;# face 202711 \"\"\n;;# voice 2027 \"\"\n@アハト\n…………\n\n# textflame 0 0\n@\nアハトは無言で、一見無表情だが\nわずかに口元を緩ませながら、\n食べ進めていく\n\n# textflame 0 0\n@\nアハトのこんな表情は初めてだな、と\nマスターがその可愛らしさに\nニコニコしていると…\n\n# face 202711 \"angry\"\n# textboxarrow 0 2\n# textflame 1 1\n@アハト\nなにがおかしいんですか、\nそんなにニヤニヤして…\n\n# textflame 0 0\n@\nマスターは、おかしいんじゃなくて\nこの時間が楽しいんだよ、と返す\n\n# textboxarrow 0 2\n# textflame 1 1\n# face 202711 \"surprise\"\n# voice 2027 \"acht_0013\"\n@アハト\nそう…なのですか？\nアナタは変わってますね…\n\n# textflame 0 0\n@\nだれかと一緒にご飯を食べるのは\n楽しいことじゃない？と\nマスターはアハトに尋ねる\n\n# textboxarrow 0 2\n# textflame 1 1\n# face 202711 \"shy\"\n;;# voice 2027 \"\"\n@アハト\nそう…ですね\nイヤではないですが…\n\n# textflame 0 0\n@\n食事を一緒にしたことで\nアハトの気持ちも\n少し和らいだようだった\n\n# textboxarrow 0 2\n# textflame 1 1\n;;# face 202711 \"\"\n;;# voice 2027 \"\"\n@アハト\n…以前にもお話しましたが、\n元の世界には、私を救ってくれた\n恩人がいます\n\n# textboxarrow 0 2\n# textflame 1 1\n;;# face 202711 \"\"\n;;# voice 2027 \"\"\n@アハト\nあの人がくれた…おまもりが、\nこの世界でも私を守っていると\n信じているんです…\n\n# textboxarrow 0 2\n# textflame 1 1\n;;# face 202711 \"\"\n;;# voice 2027 \"\"\n@アハト\nその繋がりを実感したくて…\nだから、わざと危険な場所で\n鍛錬をしていました…\n\n# textflame 0 0\n@\nそう語るアハトの表情には\n深い愛情があらわれていた\n\n# textflame 0 0\n@\nその人は、アハトにとって\n本当に大事な人なんだね\nと、マスターは話しかける\n\n# textboxarrow 0 2\n# textflame 1 1\n;;# face 202711 \"\"\n;;# voice 2027 \"\"\n@アハト\nはい…\n\n# textflame 0 0\n@\nきっとまた会えるよ、\nその日が来ると信じよう\nと、マスターはアハトを励ました\n\n# textboxarrow 0 2\n# textflame 1 1\n;;# face 202711 \"\"\n# voice 2027 \"acht_0030\"\n@アハト\n…はい、ありがとうございます\n\n# textboxarrow 0 2\n# textflame 1 1\n# face 202711 \"surprise\"\n# voice 2027 \"acht_0001\"\n@アハト\nあの…もしよろしければ、\nまたお弁当をご一緒して\nいただけますか？\n\n# textflame 0 0\n@\nもちろん喜んで、とマスターは答え、\n次はどんなおかずがいいか聞いてみた\n\n# textboxarrow 0 2\n# textflame 1 1\n# face 202711 \"sad\"\n;;# voice 2027 \"\"\n@アハト\n嫌いな食べ物はありません…\nそうですね、お肉もお魚もいいけど、\n野菜や果物も食べたいし…\n\n# textflame 0 0\n@\nアハトは真剣な表情で、\nお弁当の内容について\n考え込んでしまった\n\n# textflame 0 0\n@\nその愛らしい姿に\nマスターは思わず笑ってしまう\n\n# textboxarrow 0 2\n# textflame 1 1\n# face 202711 \"sad\"\n# voice 2027 \"acht_0013\"\n@アハト\n…私は本気で悩んでいるんです、\n笑わないでください\n\n# imageset 4 \"mov2_3\"\n# imagealpha 4 0 0\n# imagelayer 4 1\n# textflame 0 0\n@\nその時、マスターたちの背後から\nお弁当の匂いに誘われたように\n異族の群れが現れた\n\n# se \"SE_0618\"\n# bgm \"bgm021_022\" 0\n# alpha 202711 0 0\n# shake 1 1\n# fadein \"red\" 0.5\n# imagealpha 4 1 0\n# imagepos 4 0 -100\n# textflame 1 1\n@異族の群れ\nグギャ！\n\n# fadein \"white\" 0.5\n# alpha 202711 1 0\n# imagealpha 4 0 0\n# textboxarrow 0 2\n# textflame 1 1\n# face 202711 \"surprise\"\n# voice 2027 \"acht_battle_0006\"\n@アハト\nまた…\n今度は…数が多いようですね\n\n# textflame 0 0\n@\nマスターは一度撤退し、隊のみんなと\n合流しよう、と言ったのだが、\nアハトは単騎で立ち向かっていく\n\n# textboxarrow 0 2\n# textflame 1 1\n# face 202711 \"angry\"\n;;# voice 2027 \"\"\n@アハト\nここは、私が守ります…\n安全な場所に隠れていてください\n\n# textboxarrow 0 2\n# textflame 1 1\n;;# face 202711 \"\"\n;;# voice 2027 \"\"\n@アハト\n…アハト、いきます"
	}
]