[
	{
		"ID": 2027124,
		"script": ";;【EP3】\n;;//背景：昼の荒野\n# bgm \"bgm003\" 0\n# background \"wild\"\n# body 202711\n# pos 202711 3\n# scale 202711 0.8 0\n# alpha 202711 1 0\n# mask 202711 off\n# textboxarrow 0 2\n# textflame 1 1\n# face 202711 \"angry\"\n# voice 2027 \"acht_battle_0002\"\n@アハト\nやっ！\nはあっ！\n\n# textboxarrow 0 2\n# textflame 1 1\n# face 202711 \"surprise\"\n;;# voice 2027 \"\"\n@アハト\nあ…\nあの人の気配だ…\n\n# textflame 0 0\n@\n隊のみんなと少し離れた場所で\n鍛錬するアハトに、お弁当を持った\nマスターが近づき、声をかける\n\n# textboxarrow 0 2\n# textflame 1 1\n# face 202711 \"happy\"\n# voice 2027 \"acht_0030\"\n@アハト\nいつも、ありがとうございます\n今日はどんなおかずですか？\n\n# textflame 0 0\n@\nそうして、今日もふたりだけの\n楽しいランチタイムが始まった\n\n# textboxarrow 0 2\n# textflame 1 1\n# face 202711 \"shy\"\n# voice 2027 \"acht_0001\"\n@アハト\n今日は、私が話をしても\nいいでしょうか？\n\n# textflame 0 0\n@\n不意にアハトがそう言い出し、\nマスターが頷くと、\nアハトは静かに語り始めた\n\n# textboxarrow 0 2\n# textflame 1 1\n;;# face 202711 \"\"\n;;# voice 2027 \"\"\n@アハト\n以前にもお話したように、\n私には大切な恩人がいます\n\n# textboxarrow 0 2\n# textflame 1 1\n;;# face 202711 \"\"\n;;# voice 2027 \"\"\n@アハト\nその人は、ひとりぼっちだった\n私を救ってくれた…私にとって\n“太陽”のような人なのです\n\n# textboxarrow 0 2\n# textflame 1 1\n;;# face 202711 \"\"\n;;# voice 2027 \"\"\n@アハト\nなにも信じられず、心を閉ざしていた\n私に、いつも明るく話しかけてくれて\n居場所も与えてくれました\n\n# textboxarrow 0 2\n# textflame 1 1\n# face 202711 \"happy\"\n@アハト\n…アナタは少しだけ、\nあの人に似ているかもしれません\n\n# textflame 0 0\n@\nマスターは、アハトの大切な人に\n似ているなんて光栄なことだ\nと、嬉しい気持ちを伝える\n\n# textboxarrow 0 2\n# textflame 1 1\n# face 202711 \"shy\"\n# voice 2027 \"acht_0004\"\n@アハト\nふふっ、なんだか恥ずかしいです…\n\n# textflame 0 0\n@\nそこに別のキル姫が通りがかり、\nマスターのお弁当に興味津々な様子で\n近づいてきた\n\n# textflame 0 0\n@\n一口食べたいと言い出したキル姫に\nマスターがおかずをあげるのを見て、\nアハトの表情が曇る\n\n;;できればモヤモヤ吹き出しで\n# face 202711 \"sad\"\n# voice 2027 \"acht_0013\"\n# move 202711 3 0\n# textflame 1 1\n# textwindow \"moya\"\n# textboxarrow 0 0\n# mask 202711 off\n@アハト\nそんなところまで\n似てなくてもいいのに…\n\n# textwindow \"nomal\"\n# textflame 0 0\n@\nキル姫がいなくなったあと、\nアハトの機嫌を損ねたことに\n気がついたマスターが慌てて謝るが…\n\n# textboxarrow 0 2\n# textflame 1 1\n# face 202711 \"surprise\"\n# voice 2027 \"acht_0007\"\n@アハト\n…なんのことでしょうか？\n私は鍛錬に戻りますので…\n\n# textflame 0 0\n@\n席を立つアハトを止めようとして\nマスターも立ち上がるが、\nバランスを崩して転びそうになる\n\n# textboxarrow 0 2\n# textflame 1 1\n# face 202711 \"angry\"\n# voice 2027 \"acht_0023\"\n@アハト\n危ないっ！\n\n# textflame 0 0\n@\nマスターを衝撃から守ろうとした\nアハトの体が輝き、\n新たな力が目覚める\n\n# textboxarrow 0 2\n# textflame 1 1\n# face 202711 \"sad\"\n# voice 2027 \"acht_0013\"\n@アハト\nもう…\n危なっかしくて目が離せませんね\n\n# textboxarrow 0 2\n# textflame 1 1\n;;# face 202711 \"\"\n;;# voice 2027 \"\"\n@アハト\nあの人は…\nアナタほど弱くなかったので、\nこんな気持ちは知りませんでした\n\n# se \"SE_0602\"\n# textboxarrow 0 2\n# textflame 1 1\n# face 202711 \"angry\"\n# voice 2027 \"acht_battle_0002\"\n@アハト\nこれからは…\nワタシがアナタを守ります…\nこの『『耐魔』ジョイント』で！\n\n# textflame 0 0\n@\n助けられたマスターは、\nアハトの輝きに驚きながらお礼を言う\n\n# textboxarrow 0 2\n# textflame 1 1\n# face 202711 \"normal\"\n;;# voice 2027 \"\"\n@アハト\nワタシは生き残る“強さ”が必要だと\n思っていましたが、アナタに会って\n守るための“強さ”を知りました…\n\n# textboxarrow 0 2\n# textflame 1 1\n# face 202711 \"happy\"\n# voice 2027 \"acht_0004\"\n@アハト\n今は…今だけは、\nアナタを守るために戦わせてください\n\n# imageset 1 \"c202711\"\n# imagealpha 1 0 0\n# imagelayer 1 1\n# textwindow \"nomal\"\n# textflame 0 0\n@\nそう言うと、アハトは照れたように\n微笑んだ\n\n# textwindow \"close\"\n# fadein \"white\" 3\n# imagealpha 1 1 0\n# imagepos 1 0 0\n# alpha 202711 0 0\n# voice 2027 \"acht_kyara_0025\"\n\n# buttonsout 0 0\n# textwindow \"close\"\n# frameout 0 1\n;;＜一枚絵＞\n;;★５\n;;背景：昼の荒野（あまり草木がない場所のイメージ）\n;;表情：汗を浮かべつつの柔らかな笑顔\n;;構図：汗を拭いつつマスターを見上げているイメージ\n;;　　　※構図イメージよりも、もう少し手の位置は上めでお願いいたします。\n;;ボイス：\n;;アハト　「あぁ、やっぱり。\n;;　　　　　最近、アナタの気配、わかるようになってきました」\n;;　　　　（ボイス選定前なので未決定）"
	}
]