[
	{
		"ID": 210061101,
		"script": ";;ナーゲルリング_海上編_EP1 ;;背景:ジャングルの川辺\n# script \"lisp\"\n# background \"sea_jungle_day\"\n# bgmfile \"bgm230\" \"BgmSeaEvent\" 0\n# body 2100611\n# pos 2100611 3\n# mask 2100611 off\n# alpha 2100611 0 0\n# textflame 0 0\n@\nみんなと共に川辺へ涼みに\nやってきたマスター\n\n# textflame 0 0\n@\n冷たい川の水にはしゃぐ姫たち\nそれに混じって遊ぶものの\nさすがに疲れてしまったマスター\n\n# textflame 0 0\n@\n川から上がり休もうかと思ったのが\nそこでふと…ナーゲルリングが\nいないことに気づく\n\n# imageset 0 \"black\"\n# imagealpha 0 0 0\n# imagelayer 0 1\n# textflame 0 0\n@\nいったいどこに行ったのだろう？\nマスターは彼女を探しに\n少し出歩くことにした\n\n;;場面転換の黒経過\n;;――場面転換――\n# imagealpha 0 1 0\n# imagepos 0 0 30\n# imageleftin 0 0.5\n# serif 0\n# textwindow \"close\"\n# serif 1\n# textwindow \"close\"\n# waitandnext 1\n\n# face 2100611 \"sad\"\n# alpha 2100611 1 0\n# waitandnext 0.1\n\n# imagealpha 0 0 0.5\n# imagerightout 0 0.5\n# serif 0\n# textwindow \"normal\" \n# textflame 1 1\n# textboxarrow 0 2\n# chara 2100611\n# voice 1006 \"nageruring_0028\"\n@ナーゲルリング\nむむむ…！\nまた逃げられました…\n\n# textflame 0 0\n@\n川べりにしゃがみこみ\nゴソゴソと何かをしている\n彼女の姿を見つけた\n\n# textflame 0 0\n@\nどうやら川の水に手を入れて\nなにかを探しているようだ…\n\n# face 2100611 \"angry\"\n# textflame 1 1\n# textboxarrow 0 2\n# chara 2100611\n# voice 1006 \"nageruring_0013\"\n@ナーゲルリング\nあともう少しだったのに…\n本当に、すばしっこいですね\n\n# textflame 0 0\n@\n彼女の背中に向かって\nなにを探しているのかと\n声を掛けるマスター\n\n# face 2100611 \"sad\"\n# textflame 1 1\n# textboxarrow 0 2\n# chara 2100611\n# voice 1006 \"nageruring_0023\"\n@ナーゲルリング\nそれはもちろん…って、マスター！？\n\n# textflame 1 1\n# textboxarrow 0 2\n# chara 2100611\n# voice 1006 \"nageruring_0015\"\n@ナーゲルリング\n急に後ろから来て…\n驚かさないでくださいよ…\n\n# textflame 1 1\n# textboxarrow 0 2\n# chara 2100611\n@ナーゲルリング\n本当にびっくりしました…\n心臓に悪いです…\n\n# textflame 0 0\n@\n驚かせてしまったことを謝り\nなにを探してたの？\nとマスター\n\n# face 2100611 \"angry\"\n# textflame 1 1\n# textboxarrow 0 2\n# chara 2100611\n@ナーゲルリング\nな、なんでもいいでしょ…\nマスターには関係ないです…\n\n# face 2100611 \"sad\"\n# textflame 1 1\n# textboxarrow 0 2\n# chara 2100611\n@ナーゲルリング\nそもそもマスターは\nどうしてここに来たのですか？\n\n# textflame 1 1\n# textboxarrow 0 2\n# chara 2100611\n@ナーゲルリング\nわ、私を探しに来たって…\nどうしてそんなことを…\n\n# face 2100611 \"angry\"\n# textflame 1 1\n# textboxarrow 0 2\n# chara 2100611\n# voice 1006 \"nageruring_0026\"\n@ナーゲルリング\nマスターはコテージで\n他の子たちと楽しく\n話してればいいじゃないですか…\n\n# textflame 1 1\n# textboxarrow 0 2\n# chara 2100611\n@ナーゲルリング\nそれとも私のことを\n子ども扱いでもしているのですか？\n\n# face 2100611 \"sad\"\n# textflame 1 1\n# textboxarrow 0 2\n# chara 2100611\n@ナーゲルリング\nそうだとしたら…\nやめてください…\n\n# textflame 1 1\n# textboxarrow 0 2\n# chara 2100611\n@ナーゲルリング\nマスターに心配される\n覚えはありませんから…\n\n# textflame 0 0\n@\nまるで自分から遠ざけるようなことを\n口にするナーゲルリング\n\n# textflame 0 0\n@\n水面を見つめている彼女は、\nどこか寂しそうだと感じた\nマスターであった"
	}
]