[
	{
		"ID": 210021103,
		"script": ";;【EP3】（オチ）\n# script \"lisp\"\n# background \"sea_jungle_day\"\n# bgmfile \"bgm230\" \"BgmSeaEvent\" 0\n# body 2100211\n# pos 2100211 3\n# mask 2100211 off\n# alpha 2100211 0 0\n# eye 2100211 \"close\"\n# face 2100211 \"angry\"\n# textflame 0 0\n@\n落とした果実を追い\n滝つぼに飛び込んでしまった\nレーヴァテイン\n\n# textflame 0 0\n@\nあれからしばらく経つが\n彼女が上がってくる様子は\n一向にない…\n\n# textflame 0 0\n@\nまさか、溺れて…\n\n# textflame 0 0\n@\n…と、その時だった\n\n# se \"SE_0655\"\n# shake 0 0.5\n# textflame 0 0\n@\n『ざば～～ん！！』\n\n# textflame 0 0\n@\n！！\n\n# textflame 0 0\n@\n滝つぼから大きな水柱が上がった\n\n# alpha 2100211 1 0.5\n# textflame 1 1\n# textboxarrow 0 2\n# chara 2100211\n@レーヴァテイン\nぶはぁっ！！\n\n# textflame 1 1\n# textboxarrow 0 2\n# chara 2100211\n# face 2100211 \"sad\"\n@レーヴァテイン\n…はぁ…はぁ…はぁ…\n\n# eye 2100211 \"normal\"\n# textflame 1 1\n# textboxarrow 0 2\n# chara 2100211\n# face 2100211 \"angry\"\n@レーヴァテイン\nなに…？\nそんな心配そうな顔で…\n\n# textflame 1 1\n# textboxarrow 0 2\n# chara 2100211\n# face 2100211 \"usual\"\n@レーヴァテイン\n言っとくけど…\n今のは新しい奥義だから\n心配なんか無用よ\n\n# se \"SE_0602\"\n# textflame 0 0\n@\nそれは彼女の新スキル\n『全部夏のせいだし』\n誕生の瞬間だった\n\n# textflame 1 1\n# textboxarrow 0 2\n# chara 2100211\n# eye 2100211 \"close\"\n@レーヴァテイン\n…よっと\n\n# textflame 0 0\n@\n岸に上がってくる彼女\nその手にはさっきの果実が…\n\n# textflame 1 1\n# textboxarrow 0 2\n# chara 2100211\n# eye 2100211 \"normal\"\n# face 2100211 \"angry\"\n@レーヴァテイン\n…なに？\n\n# textflame 0 0\n@\nどうして、そこまでして…\nその果実にそんなに価値があるの…？\nマスターが尋ねる\n\n# eye 2100211 \"close\"\n# textflame 1 1\n# textboxarrow 0 2\n# chara 2100211\n# voice 1002 \"revatein_0013\"\n# eye 2100211 \"close\"\n@レーヴァテイン\n…やれやれ\n\n# textflame 0 0\n@\n一息ついた彼女が答える\n\n# eye 2100211 \"normal\"\n# textflame 1 1\n# textboxarrow 0 2\n# chara 2100211\n# eye 2100211 \"normal\"\n# face 2100211 \"usual\"\n@レーヴァテイン\nあなたってさ…\n\n# textflame 1 1\n# textboxarrow 0 2\n# chara 2100211\n# face 2100211 \"angry\"\n@レーヴァテイン\n本当にバカなの？\n\n# textflame 0 0\n@\n！？\n\n# textflame 0 0\n@\nまさか…\nマスターはようやく気付いた\n\n# textflame 0 0\n@\nあれは…マスターが\n彼女にあげたものだったのだ\n\n# textflame 1 1\n# textboxarrow 0 2\n# chara 2100211\n# eye 2100211 \"close\"\n@レーヴァテイン\nま、隊の姫みんなに\n一つずつくれたものだけど…\n\n# textflame 0 0\n@\nそれでも彼女は…\n喜んでくれていたのだ\n嬉しがってくれていたのだ\n\n# textflame 1 1\n# textboxarrow 0 2\n# chara 2100211\n# eye 2100211 \"normal\"\n# face 2100211 \"normal\"\n@レーヴァテイン\nまぁ、こういうのも…\n夏の思い出…？だし\n\n# textflame 0 0\n@\nだから、木の上で\nあんなに大事そうに持っていたのか…\n\n# eye 2100211 \"close\"\n# textflame 1 1\n# textboxarrow 0 2\n# chara 2100211\n@レーヴァテイン\nでも、そのせいで\nこんなズブ濡れに\nなっちゃったわけだけど…\n\n# eye 2100211 \"normal\"\n# textflame 1 1\n# textboxarrow 0 2\n# chara 2100211\n# face 2100211 \"smile\"\n@レーヴァテイン\n新しい技も身につけたし、\nこれはこれでアリよね\n\n# select \"気付かないでゴメンね\" \"select_label_01\" \"そんなに大事にしてくれてたんだ\" \"select_label_02\" \"なんか…ありがとう\" \"select_label_03\"\n新しい技も身につけたし、\nこれはこれでアリよね\n\n# label \"select_label_01\"\n# labeljump \"select_label_end\"\n# textflame 1 1\n# textboxarrow 0 2\n# chara 2100211\n# voice 1002 \"revatein_0013\"\n# face 2100211 \"usual\"\n@レーヴァテイン\n…ふん\n\n# label \"select_label_02\"\n# labeljump \"select_label_end\"\n# textflame 1 1\n# textboxarrow 0 2\n# chara 2100211\n# voice 1002 \"revatein_0013\"\n# face 2100211 \"normal\"\n@レーヴァテイン\n別に…フツー\n\n# label \"select_label_03\"\n# labeljump \"select_label_end\"\n# textflame 1 1\n# textboxarrow 0 2\n# chara 2100211\n# voice 1002 \"revatein_0013\"\n# face 2100211 \"normal\"\n@レーヴァテイン\nなに、それ…？\n\n# label \"select_label_end\"\n# eye 2100211 \"close\"\n# textflame 1 1\n# textboxarrow 0 2\n# chara 2100211\n# voice 1002 \"revatein_0027\"\n@レーヴァテイン\nはぁ～あ\n\n# textflame 0 0\n@\n一息ついた後、彼女が言い放つ\n\n# textflame 1 1\n# textboxarrow 0 2\n# chara 2100211\n# eye 2100211 \"normal\"\n# face 2100211 \"normal\"\n@レーヴァテイン\nバッカみたい\n\n# textflame 0 0\n@\nそう言いながらも\n果実を頬張る彼女\n\n# textflame 1 1\n# textboxarrow 0 2\n# chara 2100211\n# voice 1002 \"revatein_0042\"\n@レーヴァテイン\nなによ…？\n\n# imageset 0 \"c2100211\"\n# imagealpha 0 0 0\n# textflame 0 0\n@\n言葉は素っ気ないが\nその目は喜びに満ちている\n気がした\n\n;;…なによ、めんどくさいなぁ…\n# voice 1002 \"revatein_kyara_0011\"\n# frameout 0 0.5\n# buttonsout 0 0.5\n# imagealpha 0 1 0\n# imagepos 0 0 0\n# fadein \"white\" 3\n# textwindow \"close\"\n"
	}
]