[
	{
		"ID": 210131103,
		"script": ";;EP3\n# script \"lisp\"\n# background \"sea_beach_day\"\n# bgmfile \"bgm255\" \"BgmSeaDate\" 0\n# body 2101311\n# pos 2101311 3\n# mask 2101311 off\n# chara 2101311\n# textflame 0 0\n# face 2101311 \"usual\"\n# textboxarrow 0 2\n@\nパラケルススから\nこの遊びには人数が必要と言われ\nマスターは何人かの姫を呼んでくる\n\n# face 2101311 \"angry\"\n# textflame 1 1\n@パラケルスス\n人数はそろったな\nそれではこれより\nビーチサッカーを行う！\n\n# textflame 1 1\n@パラケルスス\n走りづらく、パスも通りづらい\n技術が必要だぞ！\n\n# textflame 0 0\n@\nパラケルススの説明を受け\n姫たちはプレイを始める\n\n# textflame 0 0\n@\n最初はぎこちない動きだったが\n慣れてくるとスムーズになり\n皆、和気あいあいと楽しんでいる\n\n# face 2101311 \"smile\"\n# textflame 1 1\n# voice 1013 \"paracelsus_0004\"\n@パラケルスス\nふっ…\n\n# textflame 0 0\n@\nパラケルススの表情も柔らかくなった\nマスターがそう感じはじめた矢先…\n\n# bgm \"stop\"\n# face 2101311 \"angry\"\n# textflame 1 1\n# voice 1013 \"paracelsus_0010\"\n@パラケルスス\nそこ、今のボールは取れただろう？\n砂浜の上ではボールの挙動が違うのは\n充分承知していたはずだ！\n\n# textflame 0 0\n@\nパラケルススの辛らつな指摘に\n雰囲気が悪くなってしまう\n\n# face 2101311 \"sad\"\n# textflame 1 1\n@パラケルスス\nあ…\n\n# textflame 0 0\n@\nパラケルススもそれに気づいたのか\nばつの悪そうな表情になる\n\n# bgmfile \"bgm224\" \"BgmSeaEvent\" 0\n# textflame 0 0\n@\n今の言い方は良くなかったんじゃ\nとさとすマスター\n\n# textflame 1 1\n# voice 1013 \"paracelsus_0014\"\n@パラケルスス\nわたくしは間違ったことは\n言っていない…！\n\n# textflame 0 0\n@\nむくれたように反論してくる彼女に\nマスターはいったん同意する\nそして諭すように続ける\n\n# textflame 0 0\n@\nそれでも、キツい言い方をして\n相手が気分を害すると\n効率的なプレイができないよ、と\n\n# face 2101311 \"sad\"\n# textflame 1 1\n# voice 1013 \"paracelsus_0028\"\n@パラケルスス\nつまり、効率的なプレイのためには\n気をつかうことも大事だと…？\n\n# textflame 1 1\n# voice 1013 \"paracelsus_0040\"\n@パラケルスス\nそうか…\n他人に気をつかうことで\n人心をつかみ、場を掌握する…\n\n# face 2101311 \"usual\"\n# textflame 1 1\n@パラケルスス\n…人心掌握の方法論だな\n\n# textflame 0 0\n@\nいい気分でプレイしたほうが\nみんなの動きも良くなるしね\nとマスター\n\n# face 2101311 \"smile\"\n# textflame 1 1\n# voice 1013 \"paracelsus_0030\"\n@パラケルスス\nまた一つ、新たな視点を得た\n君には礼を言おう\n\n# se \"SE_0602\"\n# textflame 0 0\n@\nその時、パラケルススの身体が光る\n新たな力『センシングダガー』を\n会得した瞬間だった。\n\n;;背景：暗転\n;;背景：海\n# fadeout \"black\" 2\n# waitandnext 2.5\n\n# fadein \"black\" 1\n# bgmfile \"bgm255\" \"BgmSeaDate\" 0\n# face 2101311 \"usual\"\n# textflame 1 1\n@パラケルスス\n…よし\n\n# textflame 0 0\n@\nプレイの結果は、なんとか\nチームメイトとうまくやれた\nパラケルススのチームに軍配が上がる\n\n# face 2101311 \"smile\"\n# textflame 1 1\n# voice 1013 \"paracelsus_0005\"\n@パラケルスス\nははっ…勝ったな！\n\n# select \"効率的なプレイの勝利だね…！\" \"select_label_01\" \"嬉しそうだね…！\" \"select_label_02\" \"楽しめたみたいでよかったね！\" \"select_label_03\"\nははっ…勝ったな！\n\n# label \"select_label_01\"\n# labeljump \"select_label_end\"\n# textflame 1 1\n# textboxarrow 0 2\n# chara 2101311\n@パラケルスス\nああ。計算通りの結果だったな\n\n# label \"select_label_02\"\n# labeljump \"select_label_end\"\n# textflame 1 1\n# textboxarrow 0 2\n# chara 2101311\n@パラケルスス\n思い通りの試合運びが出来たからな\n\n# label \"select_label_03\"\n# labeljump \"select_label_end\"\n# textflame 1 1\n# textboxarrow 0 2\n# chara 2101311\n@パラケルスス\nまあ、悪くはなかったな\n\n# label \"select_label_end\"\n# textflame 1 1\n# voice 1013 \"paracelsus_0001\"\n@パラケルスス\nやはり、わたくしは一人のほうが\n性に合っていると思う\n\n# face 2101311 \"usual\"\n# textflame 1 1\n@パラケルスス\nだが、人と関わることで\n新たな発見があるというのは認めよう\n\n# textflame 0 0\n@\nそう言って\nパラケルススはチラリと\nマスターのほうを見る\n\n# face 2101311 \"smile\"\n# textflame 1 1\n# voice 1013 \"paracelsus_0008\"\n@パラケルスス\nだ、だから…君にはしばらく\nわたくしの研究対象に\nなってもらうからな…！\n\n# imageset 0 \"c2101311\"\n# imagealpha 0 0 0\n# textflame 0 0\n@\n照れたように言って\nふっと視線をそらした彼女に\nマスターはいいよ、と微笑んだ\n\n;;【一枚絵ボイス】ボイスカット必要\n;;「君は今、わたくしの研究対象だ」\n# frameout 0 0.5\n# buttonsout 0 0.5\n# voice 1013 \"paracelsus_kyara_1017\"\n# imagealpha 0 1 0\n# imagepos 0 0 0\n# fadein \"white\" 3\n# textwindow \"close\"\n"
	}
]