[
	{
		"ID": 210281103,
		"script": ";;【EP3】（オチ）//背景　砂浜（リゾート）\n# script \"lisp\"\n# background \"sea_beach_day\"\n# bgmfile \"bgm256\" \"BgmSeaDate\" 0\n# envbody 2005 11 0\n# effectpattern 2005 2 11\n# effectstart 2005\n# body 2102811\n# pos 2102811 3\n# mask 2102811 off\n# face 2102811 \"sad\"\n# serif 1\n# textwindow \"close\"\n# serif 0\n# textwindow \"close\"\n# waitandnext 0.5\n\n# serif 1\n# textwindow \"nomal\"\n# textboxarrow 1 0\n@水着の少女\nどうか、私と付き合ってください！\n\n# serif 0\n# textwindow \"nomal\"\n# textflame 0 0\n@\nダーインスレイヴは\n目にハートを浮かべんばかりに\n魅了されてる少女に迫られる\n\n# textflame 1 1\n# textboxarrow 0 2\n# chara 2102811\n# voice 1028 \"dainsleif_0028\"\n@ダーインスレイヴ\nい…いや、すまないが、わたしは…\n\n# textflame 0 0\n@\nさすがのダーインスレイヴも\n少女相手では力尽くで\n振り払うわけにもいかない\n\n# textflame 1 1\n# textboxarrow 0 2\n# chara 2102811\n@ダーインスレイヴ\nマ、マスター…っ\n\n# textflame 0 0\n@\nダーインスレイヴが\n戸惑いの目でマスターを見つめる\n\n# select \"ダーインスレイヴも女の子だ\" \"select_label_01\" \"彼女には好きな人がいるんだよ\" \"select_label_02\" \"本当は、彼女とお付き合いしてます！\" \"select_label_03\"\nダーインスレイヴが\n戸惑いの目でマスターを見つめる\n\n# label \"select_label_01\"\n# labeljump \"select_label_end\"\n# textflame 1 1\n# textboxarrow 0 2\n# chara 2102811\n@ダーインスレイヴ\nっ！マスター…\nわたしのことを、女の子だと…\n\n# label \"select_label_02\"\n# labeljump \"select_label_end\"\n# textflame 1 1\n# textboxarrow 0 2\n# chara 2102811\n@ダーインスレイヴ\nえっ！あの…\nき、気づいていたのか…！？\n\n# label \"select_label_03\"\n# labeljump \"select_label_end\"\n# textflame 1 1\n# textboxarrow 0 2\n# chara 2102811\n@ダーインスレイヴ\nマ、マスター！？\nば、バカなウソをつくんじゃない！\n\n# label \"select_label_end\"\n# face 2102811 \"usual\"\n# voice 1028 \"dainsleif_0003\"\n@ダーインスレイヴ\n…いや、そうだな\nわたしの口からハッキリ言おう\n\n# face 2102811 \"sad\"\n# voice 1028 \"dainsleif_0031\"\n@ダーインスレイヴ\nすまないな\nわたしは、おぬしの期待には\n応えられそうにない\n\n# face 2102811 \"normal\"\n@ダーインスレイヴ\nだが…\n想いだけはしっかりと\n受けとらせてもらおう\n\n# serif 1\n# textboxarrow 1 0\n@水着の少女\nうう…\n断り方までかっこいい…\n\n# fadein \"white\" 0.5\n# effectskip 2005\n# se \"SE_5575\"\n# serif 1\n# textwindow \"close\"\n# serif 0\n# textwindow \"nomal\"\n# textflame 0 0\n@\n彼女は吹っ切れた笑顔で\n友達のもとへと戻って行った\n\n# textflame 1 1\n# textboxarrow 0 2\n# chara 2102811\n# face 2102811 \"usual\"\n# voice 1028 \"dainsleif_0030\"\n@ダーインスレイヴ\nふう…これで一安心だな\nマスター、さっきは助かった\n\n# textflame 0 0\n@\n力になれたかな、と微笑むマスター\n\n# textflame 1 1\n# textboxarrow 0 2\n# chara 2102811\n# face 2102811 \"sad\"\n@ダーインスレイヴ\n…その、力になれたというか…\n\n# face 2102811 \"normal\"\n# voice 1028 \"dainsleif_0004\"\n@ダーインスレイヴ\nマスター…\nさっき言ってくれたこと…\nう、嬉しかったぞ\n\n# textflame 0 0\n@\n君は君だよ\nだから素敵なんだ\n\n# textflame 1 1\n# textboxarrow 0 2\n# chara 2102811\n# face 2102811 \"sad\"\n# voice 1028 \"dainsleif_0022\"\n@ダーインスレイヴ\n―！\n\n# face 2102811 \"usual\"\n@ダーインスレイヴ\nああ、そうか…\nわたしは、男らしさや女らしさという\n考えにとらわれていたが…\n\n# face 2102811 \"normal\"\n# voice 1028 \"dainsleif_0005\"\n@ダーインスレイヴ\nありのままでいいんだな\n大切なひとは、\nちゃんと見ていてくれるのだから\n\n@ダーインスレイヴ\n# voice 1028 \"dainsleif_0006\"\nああ、満たされる…\nこの気づきが、心の成長が、\nわたしに新たな力を授ける\n\n# se \"SE_0602\"\n@ダーインスレイヴ\nマスター\n新奥義『ギルティサンライト』習得だ\n\n# textflame 0 0\n@\nそれはまさしく\n彼女が新たなるスキルに\n目覚めた瞬間だった\n\n# textflame 1 1\n# textboxarrow 0 2\n# chara 2102811\n# face 2102811 \"usual\"\n@ダーインスレイヴ\nさて…とんだアクシデントに\n見舞われてしまったな\n\n# face 2102811 \"normal\"\n@ダーインスレイヴ\n落ち着いたところで\nデートの続きをしようではないか\nマスター\n\n# textflame 0 0\n@\nダーインスレイヴと、デート…\n言葉にされて、ドギマギするマスター\n\n# textflame 1 1\n# textboxarrow 0 2\n# chara 2102811\n# voice 1028 \"dainsleif_0020\"\n@ダーインスレイヴ\nふふっ、なにかおかしいか？\n男と女が二人っきりで過ごすのだ\nデートと言うほかないだろう？\n\n# imageset 0 \"c2102811\"\n# imagealpha 0 0 0\n# textflame 0 0\n@\n微笑むダーインスレイヴ\nその魅力に、くらりとしてしまう\nマスターだった\n\n「おぬしには見習うべきところがありそうだ。ん？　これは褒め言葉だぞ？」\n# voice 1028 \"dainsleif_kyara_0017\"\n# frameout 0 0.5\n# buttonsout 0 0.5\n# imagealpha 0 1 0\n# imagepos 0 0 0 \n# fadein \"white\" 3\n# textwindow \"close\"\n"
	}
]