[
	{
		"ID": 210280021,
		"script": ";;【EP1】ビター＆スウィーツ\n# script \"lisp\"\n# background \"town\"\n# bgmfile \"bgm203_204\" \"BgmGakuen004\" 0\n# body 302621\n# pos 302621 2\n# scale 302621 0.8 0\n# body 502721\n# pos 502721 4\n# scale 502721 0.8 0\n# textwindow \"nomal\"\n# face 302621 \"usual\"\n# face 502721 \"usual\"\n# textflame 0 0\n@\nマスターへのバレンタインチョコを\n探すため、街にやってきた\nグラーシーザとフライシュッツ\n\n# face 302621 \"smile\"\n# textflame 1 1\n# textboxarrow 0 1\n# voice 3026 \"grayside_0039\"\n@グラーシーザ\nマスターには、\nいつも世話になっているから、\nさいこうのチョコをさがさないとな！\n\n# voice 3026 \"grayside_0005\"\n@グラーシーザ\n感しゃの気持ちをみせることも、\nあたしのせいぎなのだ！\n\n# face 502721 \"happy\"\n# voice 5027 \"freischotz_0005\"\n# textboxarrow 0 3\n@フライシュッツ\nおねーちゃんは\nおいしいチョコに\n喜ぶマスターくんの顔が見たいな～♪\n\n# emotionbody 1000 10 502721 -60 250\n# effectpattern 1000 4 0\n# effectstart 1000\n# voice 5027 \"freischotz_0002\"\n@フライシュッツ\nほらほら！\nグラーシーザちゃん\nこれなんてどうかな～\n\n# effectskip 1000\n# voice 3026 \"grayside_0039\"\n# textboxarrow 0 1\n@グラーシーザ\nうん、あまくておいしいな！\nしかし、こんなにあまいと\n虫歯やひまんが心配だな…\n\n# textflame 0 0\n@\nその時、グラーシーザは\nビターチョコレートの売り文句に\n目をひかれた\n\n# face 302621 \"usual\"\n# textflame 1 1\n# voice 3026 \"grayside_0040\"\n# textboxarrow 0 1\n@グラーシーザ\nえーと…なになに？\nビターなチョコは体によく\n大人な味、か…\n\n# voice 3026 \"grayside_0005\"\n@グラーシーザ\nよし！マスターには\nこのビターチョコにしないか？\nけんこうは大事だからな！\n\n# se \"SE_5617\"\n# face 502721 \"angry\"\n# emotionbody 1001 8 502721 -70 250\n# effectpattern 1001 1 0\n# effectstart 1001\n# voice 5027 \"freischotz_0014\"\n# textboxarrow 0 3\n@フライシュッツ\nやだ～！\n甘くないチョコなんて\nチョコじゃないよ～！\n\n# face 302621 \"angry\"\n# voice 3026 \"grayside_0014\"\n# textboxarrow 0 1\n@グラーシーザ\nだが、\nマスターのけんこうに\nいいんだぞ？\n\n# effectskip 1001\n# voice 5027 \"freischotz_0013\"\n# textboxarrow 0 3\n@フライシュッツ\n…………\n\n# face 302621 \"usual\"\n# face 502721 \"usual\"\n# voice 5027 \"freischotz_0040\"\n@フライシュッツ\n…わかった\n\n# face 302621 \"smile\"\n# emotionbody 1002 10 302621 80 210\n# effectpattern 1002 3 0\n# effectstart 1002\n# voice 3026 \"grayside_0021\"\n# textboxarrow 0 1\n@グラーシーザ\nそうか、わかってくれたか！\n\n# face 502721 \"happy\"\n# face 302621 \"surprise\"\n# se \"SE_6504\"\n# effectskip 1002\n# emotionbody 1003 3 502721 0 290\n# effectpattern 1003 1 0\n# effectstart 1003\n# voice 5027 \"freischotz_0005\"\n# textboxarrow 0 3\n@フライシュッツ\nおねーちゃんは、\n甘くておいしい最高のチョコを\nひとりで探しに行きまーす♪\n\n# face 502721 \"normal\"\n# voice 5027 \"freischotz_0004\"\n@フライシュッツ\nグラーシーザちゃんは\nその苦くて健康にいいチョコを\nマスターくんに渡してあげて？ね？\n\n# emotionbody 1004 1 302621 30 250\n# effectpattern 1004 2 0\n# effectstart 1004\n# imageset 3 \"black\"\n# imagealpha 3 0 0\n# imagelayer 3 1\n# voice 3026 \"grayside_0022\"\n# textboxarrow 0 1\n@グラーシーザ\nえ？\nちょっとまて！\n店の外で、話し合おう！\n\n# se \"SE_0719\"\n# textwindow \"close\"\n# effectskip 1004\n# alpha 302621 0 0.5\n# alpha 502721 0 0.5\n# waitandnext 0.3\n\n;;//演出：場所移動\n# imagealpha 3 1 0\n# imagepos 3 0 30\n# imageleftin 3 0.5\n# waitandnext 0.6\n\n# face 302621 \"normal\"\n# face 502721 \"usual\"\n# alpha 302621 1 0\n# alpha 502721 1 0\n# waitandnext 0.2\n\n# imagealpha 3 0 0.5\n# imagerightout 3 0.5\n# waitandnext 0.5\n\n# serif 0\n# textwindow \"nomal\"\n# textflame 1 1\n# voice 3026 \"grayside_0028\"\n# textboxarrow 0 1\n@グラーシーザ\nどうしても\nビターチョコじゃ\nだめなのか？\n\n# face 502721 \"angry\"\n# voice 5027 \"freischotz_0013\"\n# textboxarrow 0 3\n@フライシュッツ\nおねーちゃんは、\n身も心もとろけるような\nあま～いチョコがいいんだもん！\n\n# textflame 0 0\n@\n二人がちょっとした言い合いを\n始めたその時、異族が上空に現れる\n\n# se \"SE_0618\"\n# serif 1\n@異族\nグギャアア！\n\n# face 302621 \"angry\"\n# serif 1\n# textwindow \"close\"\n# serif 0\n# textflame 1 1\n# voice 3026 \"grayside_0026\"\n# textboxarrow 0 1\n@グラーシーザ\nこんなところに、いぞくが！\nフライシュッツ！いくぞ！\n\n# se \"SE_5208\"\n# voice 5027 \"freischotz_0029\"\n# textboxarrow 0 3\n@フライシュッツ\nむっ！\n異族なんて\nさっさとやっつけちゃうから！"
	}
]