[
	{
		"ID": 210280203,
		"script": "# script \"lisp\"\n# background \"plain_night\"\n# bgmfile \"bgm276\" \"BgmLostRagnarokEvent\" 0\n# textwindow \"nomal\"\n# body 3400711\n# pos 3400711 2\n# scale 3400711 0.8 0\n# body 3201611\n# pos 3201611 4\n# scale 3201611 0.8 0\n# textwindow \"nomal\"\n# textflame 1 1\n# face 3400711 \"angry\"\n# face 3201611 \"angry\"\n# textboxarrow 0 1\n@シェキナー\n『ラファエルの純白』を\n持ってすれば！\n\n;;//攻撃演出など\n# face 3201611 \"surprise\"\n# move 3400711 3 0.2\n# waitandnext 0.1\n\n# voice 340071 \"shekina_t_battle_0001\"\n# face 3201611 \"sad\"\n# se \"SE_4815\"\n# effectbody 703 1 150 0 3\n# effectstart 703\n# shake 0 0.5\n# waitandnext 0.3\n\n# face 3201611 \"surprise\"\n# voice 320161 \"shita_t_battle_0005\"\n# textboxarrow 0 3\n@シタ\n至近距離からの一撃…！？\n\n# voice 340071 \"shekina_t_0029\"\n# se \"SE_4817\"\n# effectskip 703\n# effectbody 704 28 150 0 4\n# effectstart 704\n# face 3201611 \"sad\"\n# waitandnext 0.4\n\n;;//ダメージ演出\n# move 3400711 2 0.2\n# fadein \"red\" 0.5\n# shake 0 0.5\n# waitandnext 0.3\n\n# voice 320161 \"shita_t_battle_0006\"\n# face 3201611 \"sad\"\n# textboxarrow 0 3\n@シタ\nく…\n\n@シタ\n弓と矢をまるで剣や槍のように扱い、\n間合いを詰めるなんて…\n流石ですね\n\n# voice 340071 \"shekina_t_0004\"\n# face 3400711 \"usual\"\n# textboxarrow 0 1\n@シェキナー\n私に聖鎖されし天使の力、\n理解してもらえましたか？\n\n# voice 320161 \"shita_t_0003\"\n# face 3201611 \"usual\"\n# textboxarrow 0 3\n@シタ\nええ…合格です\n契約にもとづき、あなたを\n「鍵」確保の適任者として認めます\n\n# voice 340071 \"shekina_t_0005\"\n# face 3400711 \"normal\"\n# textboxarrow 0 1\n@シェキナー\nふふ、当然でしょう\nこの力をもって、全ての任務を\n完璧に遂行してみせます\n\n# voice 320161 \"shita_t_0036\"\n# textboxarrow 0 3\n@シタ\nお願いしますね\n教皇様も期待しておられる\nはずですから\n\n# textboxarrow 0 1\n@シェキナー\nええ、すぐに「鍵」を持ち帰ります\n皆にもそう伝えておいてください\n\n# textboxarrow 0 3\n@シタ\n分かりました\n\n# textboxarrow 0 1\n@シェキナー\n「鍵」が手に入れば\n世界の規律を正し、\n人々に神の祝福を与えることできる…\n\n# voice 340071 \"shekina_t_0005\"\n@シェキナー\nふふふ…楽しみだわ\n\n# textboxarrow 0 3\n@シタ\nでは、シェキナーさん\nご武運を――\n\n;;//シタはける\n;;//シェキナーセンター\n# alpha 3201611 0 0.5\n# move 3400711 3 0.5\n# textboxarrow 0 2\n@シェキナー\nさあ、待っていてくださいね\n「鍵」のお姫様…\n\n# textflame 0 0\n@\n余裕に満ちた笑みを浮かべながら\n彼女はティルヘルム遠征軍が\n集まる場所へと向かう\n\n# fadeout \"black\" 1\n# waitandnext 1"
	}
]