[
	{
		"ID": 210300010,
		"script": ";;【OP】\n;;//背景：街の中\n# script \"lisp\"\n# background \"town\"\n# bgm \"bgm002\" 0\n;;カラドボルグ\n# body 102611\n# pos 102611 3\n# scale 102611 0.8 0\n# alpha 102611 0 0\n# mask 102611 off\n;;ソラス\n# body 102711\n# pos 102711 5\n# scale 102711 0.8 0\n# alpha 102711 0 0\n# textwindow \"nomal\"\n# textflame 0 0\n@\n春のある日、うららかな陽の光に\n誘われ、街を散歩するマスターたち\n\n# textflame 0 0\n@\nもうすぐ訪れる『イースター』\n店先には卵とうさぎをモチーフにした\nカラフルな飾り物が並んでいた\n\n;; カラドボルグ、EP2まで通常衣装\n# se \"SE_0740\"\n# alpha 102611 1 0.5\n# textflame 1 1\n# textboxarrow 0 2\n# voice 1026 \"caladbolg_0001\"\n@カラドボルグ\nねぇ、マスター？\nもうすぐイースターですわね！\n\n# textflame 0 0\n@\nマスターと並んで歩いていた\nカラドボルグが弾んだ声で\n話しかける\n\n# textflame 1 1\n# face 102611 \"happy\"\n# textboxarrow 0 2\n# voice 1026 \"caladbolg_0002\"\n@カラドボルグ\nイースターの予定は\nもう決まっているのかしら？\n予定がないなら、私と一緒に…どう？\n\n# textflame 0 0\n@\nうーん、イースターかぁ…と\n考え込むマスター\n\n# textflame 0 0\n@\nと、そこへ足音とともに\nぬっと二人の間へ入ってくる人影に\nマスターは気がついた\n\n;;クラウソラス、EP3まで通常衣装\n# move 102611 2 0.5\n# move 102711 4 0.5\n# alpha 102711 1 0.5\n# textflame 1 1\n# textboxarrow 0 3\n@クラウ・ソラス\nカラドボルグ、\nまたマスターを困らせているのかい？\n\n# face 102611 \"normal\"\n# textflame 1 1\n# textboxarrow 0 1\n# voice 1026 \"caladbolg_0022\"\n@カラドボルグ\n誰かと思ったらクラウ・ソラス…\nもしかしてつけてましたの？\n\n# textflame 1 1\n# textboxarrow 0 1\n# voice 1026 \"caladbolg_0010\"\n@カラドボルグ\nなによ、もう\nせっかくマスターと楽しく\nおしゃべりをしてましたのに\n\n# textflame 1 1\n# textboxarrow 0 3\n# voice 1027 \"solais_0009\"\n@クラウ・ソラス\n人聞きが悪いな\n私はただカラドボルグが\nマスターに失礼を働かないか…\n\n# textflame 1 1\n# textboxarrow 0 3\n@クラウ・ソラス\nそれが気になって\n様子をうかがっていただけさ\n\n# emotionbody 1026 6 102611 48 194\n# effectpattern 1026 2 0\n# effectstart 1026\n# face 102611 \"angry\"\n# textflame 1 1\n# textboxarrow 0 1\n# voice 1026 \"caladbolg_0009\"\n@カラドボルグ\nつけてたんじゃないですの！\n悪趣味ですわ…\n\n# emotionbody 1027 6 102711 30 219\n# effectpattern 1027 2 0\n# effectstart 1027\n# textflame 1 1\n# textboxarrow 0 3\n@クラウ・ソラス\n悪趣味とはなんだ\nところ構わず服を脱ぎ始めるような\nそんな奴にいわれる筋合いはない！\n\n# textflame 1 1\n# textboxarrow 0 1\n# voice 1026 \"caladbolg_0013\"\n@カラドボルグ\nなんですって！\n美しいのだから、構わないでしょ\nそう思うわよね、マスター！\n\n# textflame 0 0\n@\nマスターはまあまあと二人をなだめる\nそして、そういえばと口を開く\n\n# textflame 0 0\n@\nイースターってなにをするのかな？\n実は、イースターのことを\nよく知らないんだよ、とマスター\n\n# effectskip 1026\n# effectskip 1027\n# emotionbody 2026 1 102611 20 280\n# effectpattern 2026 2 0\n# effectstart 2026\n# emotionbody 2027 1 102711 20 280\n# effectpattern 2027 2 0\n# effectstart 2027\n# face 102611 \"surprise\"\n# face 102711 \"surprise\"\n# textflame 1 1\n# textboxarrow 0 1\n# voice 1026 \"caladbolg_0023\"\n@カラドボルグ\nええっ！？\nそれは本当なの、マスター？\n\n# textflame 1 1\n# textboxarrow 0 3\n# voice 1027 \"solais_0017\"\n@クラウ・ソラス\nなんということだ、\nこれは由々しき事態だな…\n\n# effectskip 2027\n# effectskip 2026\n# textflame 0 0\n@\nイースターを知らないって\nそんなに大変なことなの？と\n驚くマスター\n\n# textflame 0 0\n@\nカラドボルグとクラウ・ソラスは\nそんなマスターを\n信じられない、という表情で見つめた"
	}
]