[
	{
		"ID": 210400010,
		"script": ";;【OP】\n# bgm \"bgm002\" 0\n# background \"plain\"\n# body 400711\n# mask 400711 off\n# pos 400711 3\n# scale 400711 0.8 0\n# alpha 400711 0 0\n# body 401711\n# mask 401711 off\n# pos 401711 3\n# scale 401711 0.8 0\n# alpha 401711 0 0\n# textwindow \"nomal\"\n# textflame 0 0\n@\n6月のある日…\nマスターは、スイハとシェキナーを\n野外訓練へと誘った\n\n# se \"SE_4301\"\n# alpha 401711 1 0.5\n# face 401711 \"angry\"\n# textflame 1 1\n# textboxarrow 0 2\n# voice 4017 \"suiha_battle_0001\"\n@スイハ\nやぁ！\nせいっ！\nたぁああああ！\n\n# textflame 0 0\n@\nスイハは、訓練用に置かれた的の\n中心を正確に射抜くと、的を破壊する\n\n# alpha 401711 0 0.5\n# alpha 400711 1 0.5\n# face 400711 \"happy\"\n# textflame 1 1\n# textboxarrow 0 2\n# voice 4007 \"shekina_0004\"\n@シェキナー\nいまの技はすごいですね…\nスイハさんは、日頃どんな\n訓練をされているんでしょうか？\n\n# textsize 23\n# textflame 0 0\n@\nシェキナーは、エンシェントキラーズの\nスイハに気後れしつつも、\nなんとか交流しようと話しかけている\n\n# textsize 24\n# alpha 401711 1 0.5\n# alpha 400711 0 0.5\n# textflame 1 1\n# face 401711 \"normal\"\n# textboxarrow 0 2\n@スイハ\n普通に…特訓を…\n\n# textflame 1 1\n# textboxarrow 0 2\n@スイハ\n…………\n\n# alpha 401711 0 0.5\n# alpha 400711 1 0.5\n# textflame 1 1\n# textboxarrow 0 2\n# face 400711 \"normal\"\n@シェキナー\n…………\n\n# textflame 0 0\n@\nしかし、スイハは緊張しているのか、\n無口な姿勢を崩せずに、\n会話が続かないようだ\n\n# face 400711 \"surprise\"\n# textflame 1 1\n# textboxarrow 0 2\n# voice 4007 \"shekina_0001\"\n@シェキナー\nあの、マスター…？ 彼女、\n私のこと迷惑がっていませんか…？\nとても距離を感じるんですけど…\n\n# face 400711 \"normal\"\n# textflame 1 1\n# textboxarrow 0 2\n# voice 4007 \"shekina_0028\"\n@シェキナー\n緊張しているだけ、ですか…\nそうは見えないんですけど…\n\n;;時間経過\n;;演出：スイハ立ち絵in\n# textwindow \"close\"\n# fadeout \"black\" 0.5\n# waitandnext 0.5\n\n# alpha 400711 0 0\n# waitandnext 0.2\n\n# fadein \"black\" 0.5\n# waitandnext 0.5\n\n# textwindow \"nomal\"\n# textflame 0 0\n@\n訓練の休憩時間になったので、\nマスターはスイハに話を聞こうと\n思ったのだが…\n\n# alpha 400711 1 0.5\n# textflame 1 1\n# textboxarrow 0 2\n# face 400711 \"happy\"\n# voice 4007 \"shekina_0004\"\n@シェキナー\nわぁ！\n\n# alpha 400711 0 0.5\n# alpha 401711 1 0.5\n# face 401711 \"surprise\"\n# mask 401711 on\n# textflame 1 1\n# textboxarrow 0 2\n# voice 4017 \"suiha_0022\"\n@スイハ\nど、どうしたんですか！？\n\n# mask 400711 on\n# move 400711 1 0\n# textboxarrow 0 2\n# waitandnext 0.1\n\n# move 400711 2 0.5\n# move 401711 4 0.5\n# alpha 400711 1 0.5\n# textflame 1 1\n# textboxarrow 0 1\n@シェキナー\n見てください！\nあそこで結婚式をしていますよ！\n\n# textflame 0 0\n@\nマスターにはよく見えないが、\nシェキナーは弓の使い手だからか、\n驚異の視力を持っているらしい\n\n# face 401711 \"normal\"\n# textflame 1 1\n# textboxarrow 0 3\n# voice 4017 \"suiha_0009\"\n@スイハ\n結婚…式？\n\n# textflame 1 1\n# textboxarrow 0 1\n# voice 4007 \"shekina_0020\"\n@シェキナー\nええ！ほら、とっても綺麗なドレス！\n会場の飾りつけも華やかで\nかわいいですね〜♪\n\n# textflame 1 1\n# textboxarrow 0 3\n# voice 4017 \"suiha_0002\"\n@スイハ\n結婚式とは、なんですか？\n\n# textflame 1 1\n# textboxarrow 0 1\n@シェキナー\n人間の風習ですよ！ほら、\n花嫁さんのウェディングドレス、\nすごく素敵じゃないですか？ \n\n# textflame 1 1\n# textboxarrow 0 3\n@スイハ\nあの、ウェディングドレス、とは…？\n\n# textflame 1 1\n# textboxarrow 0 1\n@シェキナー\nあの女性が着ている純白のドレスです！\n結婚式では、花嫁が\n白いドレスを着る風習があるんですよ\n\n# textflame 1 1\n# textboxarrow 0 3\n# voice 4017 \"suiha_0039\"\n@スイハ\nなるほど…興味深いですね\n花嫁の近くに似たドレスを着ている\n女性が数人いるようですが？\n\n# textflame 1 1\n# textboxarrow 0 1\n@シェキナー\nあの人達は、ブライズメイドです！\n花嫁と似たドレスを着て\n花嫁を守るのが起源らしいですよ\n\n# textflame 1 1\n# textboxarrow 0 3\n# voice 4017 \"suiha_0040\"\n@スイハ\nふむふむ…おや？\n花嫁が、花束を投げましたね\nあれには意味があるのですか？\n\n# textflame 1 1\n# textboxarrow 0 1\n@シェキナー\nあれはブーケトスですね\nあの花束を受け取れた女性が\n次に結婚できるっていわれてるんです\n\n# textflame 1 1\n# textboxarrow 0 1\n# voice 4007 \"shekina_0004\"\n@シェキナー\nだから、ほらっ！\n若い女の人たちがこぞって\n花束を受け取ろうとしています\n\n# textflame 1 1\n# textboxarrow 0 3\n# voice 4017 \"suiha_0002\"\n@スイハ\nどうしてあの女性達は、\n結婚したがっているのですか？\n\n# textflame 1 1\n# textboxarrow 0 1\n@シェキナー\nやっぱり結婚は女性の夢ですから\n愛し合う人と永遠の愛を誓う…\nとっても素敵です♪\n\n# textflame 1 1\n# textboxarrow 0 3\n@スイハ\n愛する人、ですか…\n愛とは親や兄弟に向ける感情と\n同じようなものでしょうか？\n\n# textflame 1 1\n# textboxarrow 0 1\n@シェキナー\nもともとの家族とは違うんですよ〜\n他人として出会って愛し合って…\nそれで、新しい家族を作るんです♪\n\n# textflame 1 1\n# textboxarrow 0 1\n@シェキナー\nだから、ずっと一緒にいるための\n儀式として、ああやって結婚式を\nするんですよ\n\n# face 401711 \"normal\"\n# textflame 1 1\n# textboxarrow 0 3\n@スイハ\nふうむ…わたくし達がマスターに\n忠誠を誓うことと、同じような感じ\n…でしょうか？\n\n# textflame 1 1\n# textboxarrow 0 1\n@シェキナー\n忠誠と愛は違いますよ〜！\n愛する人は、\n世界で一番大切な人なんです！\n\n# textflame 1 1\n# textboxarrow 0 3\n@スイハ\nわたくしは、マスターのためならば\n命を捨てても構いませんが？\nそれは、愛とは違うのですか？\n\n# textflame 1 1\n# face 400711 \"shy\"\n# textboxarrow 0 1\n# voice 4007 \"shekina_0042\"\n@シェキナー\nあうう…マスターのことは私も好き…\nって、そうじゃなくって！\n愛はキュンキュンするっていうか…\n\n# textflame 1 1\n# textboxarrow 0 3\n# voice 4017 \"suiha_0040\"\n@スイハ\nふ〜む…愛というものが根源にある\nそれが結婚式なのですね\n人間の風習は、本当に興味深い…\n\n# textflame 0 0\n@\n結婚式を見て会話を弾ませている\n二人の距離が少し縮まったようで、\nマスターは、なんとなく嬉しくなった\n\n# face 400711 \"happy\"\n# textflame 1 1\n# textboxarrow 0 1\n# voice 4007 \"shekina_0001\"\n@シェキナー\nマスター！\nもっと近くに見に行きましょう！\n\n# textflame 1 1\n# textboxarrow 0 3\n# voice 4017 \"suiha_0003\"\n@スイハ\nわたくしも、あの人間達の風習を\n近くで観察したいですね\n\n# textflame 0 0\n@\nそして結婚式がよく見える橋の上まで\n移動したマスター達は、とある\nできごとに遭遇するのだった\n\n"
	}
]