[
	{
		"ID": 210513041,
		"script": ";;-----------------------------------------\n;;バレンタイン3-1\n;;-----------------------------------------\n# script \"lisp\"\n# background \"church_room\"\n# bgmfile \"bgm363_364\" \"BgmValentine001\" 0\n;;-----------------------------------------\n;;アスカロン\n# body 3102321\n# pos 3102321 4\n# scale 3102321 0.8 0\n# layer 3102321 4 0\n# alpha 3102321 0 0\n;;フェイルノート\n# body 3401921\n# pos 3401921 2\n# scale 3401921 0.8 0\n# layer 3401921 3 0\n# alpha 3401921 0 0\n;;兵\n# body 3820001\n# pos 3820001 4\n# scale 3820001 0.8 0\n# alpha 3820001 0 0\n# entry 3820099 3820001\n# pos 3820099 2\n# scale 3820099 0.8 0\n# alpha 3820099 0 0\n# reversal 3820099 0\n;;-----------------------------------------\n# textwindow \"close\"\n# fadein \"black\" 1\n# waitandnext 1\n\n# alpha 3401921 1 0.5\n# alpha 3102321 1 0.5\n# face 3401921 \"usual\"\n# waitandnext 0.5\n\n# textflame 1 1\n# textwindow \"nomal\"\n# textboxarrow 0 1\n# voice 340192 \"failnaught_a_0002\"\n@フェイルノート\nあそこの部屋…\n兵たちがひっきりなしに\n出入りしているわね\n\n# textflame 1 1\n# textboxarrow 0 3\n# face 3102321 \"normal\"\n# voice 310232 \"ascalon_a_0003\"\n@アスカロン\nええ…それに皆、\n大きな箱を抱えて\n入っていきますね…！\n\n# textflame 1 1\n# textboxarrow 0 1\n@フェイルノート\n回収されたチョコの在り処は、\nきっとあそこで間違いないわ\n\n# textflame 1 1\n# textboxarrow 0 3\n@アスカロン\nどうします、陛下？\nもう一度正面突破ですか…？\n\n# textflame 1 1\n# textboxarrow 0 1\n@フェイルノート\n逃げ道のない屋内では危険よ\n囲まれたら突破は難しいもの\n\n# textflame 1 1\n# textboxarrow 0 1\n@フェイルノート\nどうにか兵たちの隙を突いて、\n部屋の中に侵入できれば\nいいのだけど…\n\n# imageset 0 \"black\"\n# imagealpha 0 0 0\n# imagelayer 0 1\n# textflame 1 1\n# textboxarrow 0 1\n# voice 340192 \"failnaught_a_0028\"\n@フェイルノート\n…そうね、定番だけれど、\nこの作戦で行ってみようかしら…\n\n;;演出：時間経過\n;;兵が二人登場するため、ＡとＢで区別しています。\n# imagealpha 0 1 0\n# imagepos 0 0 30\n# imageleftin 0 0.5\n# textwindow \"close\"\n# waitandnext 0.5\n\n# alpha 3401921 0 0\n# alpha 3102321 0 0\n# waitandnext 0.2\n\n# imagealpha 0 0 0.5\n# imagerightout 0 0.5\n# waitandnext 0.5\n\n# alpha 3820001 1 0.5\n# alpha 3820099 1 0.5\n# waitandnext 0.5\n\n# textflame 1 1\n# textwindow \"nomal\"\n# textboxarrow 0 1\n@ケイオスリオン兵\nよい、しょっ…！\nこの辺に下ろすぞ！\n\n# textflame 1 1\n# textboxarrow 0 3\n@ケイオスリオン兵\nわかった！\nせーの…よっと！\n\n;;ＳＥ：ドスンッ！（箱を下ろす音）\n# se \"SE_0877\"\n# shake 0 0.5\n# waitandnext 0.5\n\n;;ト書き：床に下ろした衝撃で、アスカロンが声を出してしまう\n# serif 1\n# textwindow \"nomal\"\n@？？？\nうっっ…！！\n\n# serif 1\n# textwindow \"close\"\n# serif 0\n# textflame 1 1\n# textboxarrow 0 1\n@ケイオスリオン兵\nふーっ…うん？\nなんか今、変な声しなかったか？\n\n# textflame 1 1\n# textboxarrow 0 3\n@ケイオスリオン兵\nそうか？　気のせいだろう\nさ、次の荷物運び行くぞ！\n\n;;ＳＥ：タッタッタッ…（兵たちが部屋を去る音）\n# se \"SE_0740\"\n# alpha 3820001 0 0.5\n# alpha 3820099 0 0.5\n# textwindow \"close\"\n# waitandnext 0.8\n\n;;演出：場所移動\n;;背景：黒（真っ暗な箱の中を表現）\n# imagealpha 0 1 0\n# imagepos 0 0 30\n# imageleftin 0 0.5\n# textwindow \"close\"\n# waitandnext 0.5\n\n# background \"bg_black\"\n# waitandnext 0.2\n\n# imagealpha 0 0 0.5\n# imagerightout 0 0.5\n# waitandnext 0.5\n\n# alpha 3401921 1 0.5\n# alpha 3102321 1 0.5\n# face 3401921 \"angry\"\n# face 3102321 \"angry\"\n# waitandnext 0.5\n\n# textflame 1 1\n# textwindow \"nomal\"\n# textboxarrow 0 1\n@フェイルノート\nふう～\nなんとか侵入成功ね…\n\n# textflame 1 1\n# textboxarrow 0 3\n# voice 310232 \"ascalon_a_0003\"\n@アスカロン\nは、はい…\nやりましたね陛下…！\n\n# emotionbody 1001 6 3401921 80 180\n# effectpattern 1001 1 1\n# effectstart 1001\n# textflame 1 1\n# textboxarrow 0 1\n# voice 340192 \"failnaught_a_0026\"\n@フェイルノート\nあのねぇ…\nやりましたね、じゃないわよ！\n\n# textflame 1 1\n# textboxarrow 0 1\n@フェイルノート\nねえアスカロン…？\nお前はなぜ、私と同じ箱に\n入ってきてしまったのかしらぁ…？\n\n# emotionbody 1002 9 3102321 60 180\n# effectpattern 1002 5 0\n# effectstart 1002\n# textflame 1 1\n# textboxarrow 0 3\n# face 3102321 \"sad\"\n# voice 310232 \"ascalon_a_0031\"\n@アスカロン\nも、申し訳ありませんっ！\n兵に見つかりそうになったので、\n慌ててしまってっ…！ \n\n# effectskip 1002\n# textflame 1 1\n# textboxarrow 0 1\n@フェイルノート\n大声を出さない！\nまったく…\n\n# textflame 1 1\n# textboxarrow 0 1\n# face 3401921 \"usual\"\n@フェイルノート\nいいわ、しばらくこのまま\n息をひそめて待っていましょう\n\n# textflame 1 1\n# textboxarrow 0 1\n# face 3401921 \"angry\"\n@フェイルノート\n兵の出入りがなくなり次第動くわよ\n…アスカロン？　聞いているの？\n\n# textflame 1 1\n# textboxarrow 0 3\n# face 3102321 \"angry\"\n# voice 310232 \"ascalon_a_0032\"\n@アスカロン\n…あっ、はい！\nだ、大丈夫です…！\n\n# emotionbody 1003 2 3401921 10 290\n# effectpattern 1003 1 1\n# effectstart 1003\n# textflame 1 1\n# textboxarrow 0 1\n# face 3401921 \"surprise\"\n@フェイルノート\n…？\nなによ…私の美貌に\n見惚れでもしていたの？\n\n# textflame 1 1\n# textboxarrow 0 3\n# face 3102321 \"sad\"\n@アスカロン\nいえ、その…！\n陛下って、思っていたよりも\n小さいんだなぁと思いまして…！\n\n# textflame 1 1\n# textboxarrow 0 1\n# face 3401921 \"angry\"\n@フェイルノート\nち・い・さ・い…？\n\n# textflame 1 1\n# textboxarrow 0 1\n# voice 340192 \"failnaught_a_0013\"\n@フェイルノート\nそれはどういう意味かしら…？\n返答次第では地獄を見るわよ…！！\n\n# emotionbody 1004 1 3102321 10 310\n# effectpattern 1004 2 0\n# effectstart 1004\n# textflame 1 1\n# textboxarrow 0 3\n# voice 310232 \"ascalon_a_0024\"\n@アスカロン\nひぃっ！？\nちちち違いますっ！\n悪い意味ではなくって…！\n\n# textflame 1 1\n# textboxarrow 0 3\n@アスカロン\nその…私の目には、\n陛下の御姿はいつも\n大きく頼もしく映っているので…\n\n# textflame 1 1\n# textboxarrow 0 3\n@アスカロン\n実際の御体を間近で見たら、\nこんなにも華奢な方なんだと\n驚いてしまったというか…！\n\n# textflame 1 1\n# textboxarrow 0 1\n# voice 340192 \"failnaught_a_0009\"\n@フェイルノート\nはあ、なにをいまさら…\nそんなの当たり前でしょう？\n\n# textflame 1 1\n# textboxarrow 0 1\n@フェイルノート\n私だってお前と同じ、\n今はただの斬ル姫なのだから\n\n# emotionbody 1005 1 3102321 10 310\n# effectpattern 1005 1 0\n# effectstart 1005\n# textflame 1 1\n# textboxarrow 0 3\n# face 3102321 \"surprise\"\n@アスカロン\nあっ！\nそ、そっか…そうですよね…\n私、なんだか勘違いして――\n\n;;ＳＥ：ドンッ！（箱に物がぶつかる音）\n# se \"SE_0878\"\n# shake 0 0.5\n# waitandnext 0.5\n\n# emotionbody 1006 1 3102321 10 310\n# effectpattern 1006 2 0\n# effectstart 1006\n# textflame 1 1\n# textboxarrow 0 3\n# face 3102321 \"sad\"\n# voice 310232 \"ascalon_a_0025\"\n@アスカロン\n――ひゃああぁっ！？\n\n;;演出：場所移動\n# imagealpha 0 1 0\n# imagepos 0 0 30\n# imageleftin 0 0.5\n# textwindow \"close\"\n# waitandnext 0.5\n\n# alpha 3401921 0 0\n# alpha 3102321 0 0\n;;背景：ケイオスリオン城内\n# background \"church_room\"\n# waitandnext 0.2\n\n# imagealpha 0 0 0.5\n# imagerightout 0 0.5\n# waitandnext 0.5\n\n# alpha 3820001 1 0.5\n# alpha 3820099 1 0.5\n# waitandnext 0.5\n\n# textflame 1 1\n# textwindow \"nomal\"\n# textboxarrow 0 3\n@ケイオスリオン兵\nいててて…おいっ！\nいきなり手を放すなよ、\n危ないだろう！\n\n# textflame 1 1\n# textboxarrow 0 1\n@ケイオスリオン兵\nわ、悪い…！\n足が箱に引っかか…って\n…ん？\n\n# textflame 0 0\n@\n衝撃で箱が倒れ、\n中からアスカロンと\nフェイルノートが飛び出す\n\n# alpha 3820001 0 0.5\n# alpha 3820099 0 0.5\n# alpha 3401921 1 0.5\n# alpha 3102321 1 0.5\n# face 3102321 \"angry\"\n# shake 0 0.5\n# se \"SE_4726\"\n# waitandnext 1\n\n# emotionbody 1007 1 3102321 10 310\n# effectpattern 1007 2 0\n# effectstart 1007\n# textflame 1 1\n# textboxarrow 0 3\n# voice 310232 \"ascalon_a_0037\"\n@アスカロン\nいったぁ～っ…はっ！？\n\n# alpha 3820001 1 0.5\n# alpha 3820099 1 0.5\n# alpha 3401921 0 0.5\n# alpha 3102321 0 0.5\n# textflame 1 1\n# textboxarrow 0 3\n@ケイオスリオン兵\nきっ、斬ル姫だ…！！\n侵入者！　侵入者だー！！\n\n# alpha 3820001 0 0.5\n# alpha 3820099 0 0.5\n# alpha 3401921 1 0.5\n# alpha 3102321 1 0.5\n# textflame 1 1\n# textboxarrow 0 1\n# voice 340192 \"failnaught_a_battle_0001\"\n@フェイルノート\nああもうっ…！\nこうなったらやるしかないわね！\n\n# imagealpha 0 1 0\n# imagepos 0 0 30\n# imageleftin 0 0.5\n# textwindow \"close\"\n# waitandnext 0.5\n\n# alpha 3102321 0 0\n# alpha 3401921 0 0\n# background \"bg_black\"\n# waitandnext 0.2"
	}
]