[
	{
		"ID": 210513070,
		"script": ";;-----------------------------------------\n;;バレンタイン6_ED\n;;-----------------------------------------\n# script \"lisp\"\n# background \"fairy_world\"\n# bgmfile \"bgm363\" \"BgmValentine001\" 0\n;;-----------------------------------------\n;;アスカロン\n# body 3102321\n# pos 3102321 4\n# scale 3102321 0.8 0\n# layer 3102321 4 0\n# alpha 3102321 0 0\n;;フェイルノート\n# body 3401921\n# pos 3401921 2\n# scale 3401921 0.8 0\n# layer 3401921 3 0\n# alpha 3401921 0 0\n;;兵\n# body 3820001\n# pos 3820001 4\n# scale 3820001 0.8 0\n# mask 3820001 off\n# alpha 3820001 0 0\n;;オッティモ\n# body 160\n# pos 160 2\n# scale 160 0.8 0\n# mask 160 off\n# alpha 160 0 0\n;;-----------------------------------------\n# textwindow \"close\"\n# fadein \"black\" 2\n# waitandnext 3\n\n# textflame 0 0\n# textwindow \"nomal\"\n@\n――ケイオスリオンでの騒動後\n\n# textflame 0 0\n@\n部屋にいたマスターのもとに、\n二人の斬ル姫がやってきた\n\n# alpha 3102321 1 0.5\n# alpha 3401921 1 0.5\n# face 3401921 \"usual\"\n# textflame 1 1\n# textboxarrow 0 3\n# face 3102321 \"happy\"\n# voice 310232 \"ascalon_a_0001\"\n@アスカロン\nマスターっ！\nアスカロン、ただいま戻りました！\n\n# textflame 1 1\n# textboxarrow 0 1\n# voice 340192 \"failnaught_a_0001\"\n@フェイルノート\n私も戻ったわよ、お前様\n…って、なぁにこの部屋？\nどこもかしこもチョコだらけじゃない\n\n# textflame 1 1\n# textboxarrow 0 3\n# face 3102321 \"normal\"\n@アスカロン\n斬ル姫のみんなからですね…？\nうぅ、妬ましい…\n…はっ、そうじゃなくてっ！\n\n# textflame 0 0\n@\nアスカロンは気を取り直し、\n小さな箱をマスターに差し出す\n\n# textflame 1 1\n# textboxarrow 0 3\n@アスカロン\nも、もしよければ…\n私のチョコも\n受け取っていただけますか？\n\n# se \"SE_6504\"\n# emotionbody 1001 3 3102321 10 290\n# effectpattern 1001 1 3\n# effectstart 1001\n# textflame 1 1\n# textboxarrow 0 3\n# face 3102321 \"happy\"\n# voice 310232 \"ascalon_a_0030\"\n@アスカロン\nあ…ありがとうございますっ！\nえへへ…やっぱりマスターって\nお優しい方ですねっ\n\n# textflame 1 1\n# textboxarrow 0 1\n# voice 340192 \"failnaught_a_0001\"\n@フェイルノート\n…よかったじゃない、お前様\nせいぜい味わって食べるといいわ\n\n# textflame 1 1\n# textboxarrow 0 3\n# face 3102321 \"surprise\"\n# voice 310232 \"ascalon_a_0002\"\n@アスカロン\n…あの、フェイルノート？\nあなたもマスターに\n渡すものがありますよね？\n\n# textflame 1 1\n# textboxarrow 0 1\n# face 3401921 \"sad\"\n@フェイルノート\n…な、なんのことかしら？\n私はお前がチョコを渡すのを\nただ見届けにきただけよ\n\n# emotionbody 1002 1 3102321 10 310\n# effectpattern 1002 1 0\n# effectstart 1002\n# textflame 1 1\n# textboxarrow 0 3\n# voice 310232 \"ascalon_a_0023\"\n@アスカロン\nええっ？\nち、ちょっと！\n話がちがいますよ！\n\n# textflame 1 1\n# textboxarrow 0 3\n# face 3102321 \"angry\"\n@アスカロン\n早く渡してください！\nそうでないと…\n\n# face 3102321 \"sad\"\n# textflame 1 1\n# textboxarrow 0 3\n@アスカロン\n私のチョコだけだと\n意味がないんですから…\n\n# textflame 1 1\n# textboxarrow 0 1\n@フェイルノート\nくう…わかっているわっ\n\n# textflame 1 1\n# textboxarrow 0 1\n# face 3401921 \"angry\"\n@フェイルノート\nほ…ほら！\n私からのチョコよ、受け取りなさい！\n\n# textflame 1 1\n# textboxarrow 0 1\n@フェイルノート\n日頃がんばっているお前様のために、\nこの私がわざわざ用意してあげたの\nありがたく思いなさい？\n\n# textflame 1 1\n# textboxarrow 0 1\n# face 3401921 \"sad\"\n@フェイルノート\n…なにを驚いているの？\nう、上に立つ者として、\n配下を労うのは当然のことでしょうっ\n\n# textflame 0 0\n@\nマスターは意外に思いつつも、\nありがとう、とフェイルノートに\n感謝の意を告げる\n\n# textflame 1 1\n# textboxarrow 0 3\n# face 3102321 \"angry\"\n# voice 310232 \"ascalon_a_0002\"\n@アスカロン\n…あ、あのっ！\nできればこの場で、\n箱を開けてもらってもいいですか？\n\n# textflame 0 0\n@\nアスカロンの頼みを聞き、\n二人からもらった箱を\n両方とも開けるマスター\n\n# textflame 0 0\n@\n出てきたのは、\nどちらもおいしそうなチョコ\nしかし、なにやら形が不思議で…\n\n# textflame 1 1\n# textboxarrow 0 3\n# face 3102321 \"sad\"\n@アスカロン\nど、どうでしょう…？\nこの形、なにか気づきませんか？\n\n# textflame 1 1\n# textboxarrow 0 1\n# face 3401921 \"angry\"\n# voice 340192 \"failnaught_a_0001\"\n@フェイルノート\n…首を傾げているわね\nお前様、本当にわからないの？\n\n# emotionbody 1003 6 3401921 80 180\n# effectpattern 1003 1 1\n# effectstart 1003\n# textflame 1 1\n# textboxarrow 0 1\n# voice 340192 \"failnaught_a_0026\"\n@フェイルノート\nああもうっ、じれったい！\n貸しなさい！\nほら、アスカロンはこっち！\n\n# textflame 1 1\n# textboxarrow 0 3\n# face 3102321 \"normal\"\n# voice 310232 \"ascalon_a_0003\"\n@アスカロン\nは、はいっ\n見ててくださいマスター！\n二つのチョコを合わせると――\n\n# se \"SE_0673\"\n# emotionbody 1004 3 3102321 10 290\n# effectpattern 1004 1 3\n# effectstart 1004\n# textflame 1 1\n# textboxarrow 0 3\n# face 3102321 \"happy\"\n# voice 310232 \"ascalon_a_0005\"\n@アスカロン\n…じゃーんっ！\nハートの形になるんですっ！\nど、どうでしょうか？　えへへっ…♪\n\n# textflame 1 1\n# textboxarrow 0 1\n# voice 340192 \"failnaught_a_0007\"\n@フェイルノート\n感謝しながら食べることね！\nお返しの貢ぎ物、\n期待しているわよ？\n\n# textflame 0 0\n@\n照れながらも協力し、\nハート型に組み立てたチョコを\nマスターに見せる二人\n\n# textflame 0 0\n@\n二人の甘い想いを感じながら、\nもちろん、と笑ってうなずく\nマスターなのだった\n\n# fadeout \"black\" 2\n# waitandnext 3"
	}
]