[
	{
		"ID": 220071102,
		"script": ";;EP2\n# script \"lisp\"\n# background \"sea_jungle_day\"\n# bgmfile \"bgm230\" \"BgmSeaEvent\" 0\n# body 2200711\n# pos 2200711 3\n# mask 2200711 off\n# scale 2200711 0.8 0\n# textboxarrow 0 2\n@シャルウル\n綺麗な湖ですね\n\n;;モノローグ\n# textflame 0 0\n@\nシャルウルの情報通りだ\nと、彼女を褒めるマスター\n\n# face 2200711 \"angry\"\n# textflame 1 1\n@シャルウル\n当たり前です\n私が集める情報に\n間違いはありません\n\n# face 2200711 \"sad\"\n# voice 2007 \"sharuuru_0013\"\n# textflame 1 1\n@シャルウル\nそれとも…\nマスターは疑っていたんですか？\n\n;;モノローグ\n# textflame 0 0\n@\nシャルウルにそう言われ\n慌てて首を横に振る\n\n# face 2200711 \"normal\"\n# voice 2007 \"sharuuru_0004\"\n# textflame 1 1\n@シャルウル\n冗談ですよ\n\n# textflame 1 1\n@シャルウル\nマスターは\n予想外の事が起こると\nあたふたするんですね\n\n# textflame 1 1\n@シャルウル\nさて、次はどうしましょうか？\n\n# textflame 1 1\n@シャルウル\n夕日までは…\nまだ時間があります\n\n# face 2200711 \"smile\"\n# textflame 1 1\n@シャルウル\nマスターは\nどこか行きたい場所とか\nありますか？\n\n# select \"少し疲れたな…\" \"select_label_01\" \"シャルウルが行きたい場所でいい\" \"select_label_02\" \"特にないかな\" \"select_label_03\"\nマスターは\nどこか行きたい場所とか\nありますか？\n\n# label \"select_label_01\"\n# labeljump \"select_label_end\"\n# textflame 1 1\n# textboxarrow 0 2\n# face 2200711 \"normal\"\n@シャルウル\nでは、コテージに戻って\n少し休みますか？\n\n# label \"select_label_02\"\n# labeljump \"select_label_end\"\n# textflame 1 1\n# textboxarrow 0 2\n@シャルウル\n私は、マスターと一緒ならば\nどこでもいいのですよ\n\n# label \"select_label_03\"\n# labeljump \"select_label_end\"\n# textflame 1 1\n# textboxarrow 0 2\n# face 2200711 \"sad\"\n@シャルウル\nマスターが行きたい場所が\nないとなると…\nどうしましょう\n\n# label \"select_label_end\"\n# textflame 0 0\n@\nいろいろ話し合ってみたが\n次の行動がいっこうに\n決まらない\n\n# face 2200711 \"normal\"\n# voice 2007 \"sharuuru_0028\"\n# textflame 1 1\n@シャルウル\n仕方ありませんね…\nこうなれば\n少し、情報を集めてきます！\n\n;;モノローグ\n# textflame 0 0\n@\n情報収集に行こうとしている\nシャルウルを呼び止めるマスター\n\n# face 2200711 \"sad\"\n# textflame 1 1\n@シャルウル\nマスター？\nどうかしましたか？\n\n# textflame 1 1\n@シャルウル\nえ？\n休暇なんだから情報を\n集めなくてもいい…？\n\n# textflame 1 1\n@シャルウル\nいえ…\nですが、これは私の…\n\n;;モノローグ\n# textflame 0 0\n@\nシャルウルと一緒に\n楽しみたいという事を\nシャルウルに説明する\n\n# face 2200711 \"angry\"\n# textflame 1 1\n@シャルウル\nですが…！\n\n# face 2200711 \"sad\"\n# textflame 1 1\n# voice 2007 \"sharuuru_0031\"\n@シャルウル\n…いえ、すいません\nそうですね\n\n# textflame 1 1\n@シャルウル\nマスターのために\nいろいろ調べましたけど…\n\n# textflame 1 1\n@シャルウル\nどうやら\n裏目に出てしまったみたいですね\n\n;;モノローグ\n# textflame 0 0\n@\nシャルウルが呟いた言葉は\n声が小さすぎて聞き取れない\n\n;;モノローグ\n# textflame 0 0\n@\n…少しの沈黙があり\nマスターはギクシャクした空気を\n感じてしまう\n\n# textflame 1 1\n@シャルウル\nマスター\nどうかしましたか…？\n\n;;モノローグ\n# textflame 0 0\n@\nシャルウルに対して\nなんでもないと答えるマスター\n\n# textflame 1 1\n@シャルウル\nそうですか…\n\n;;モノローグ\n# textflame 0 0\n@\nシャルウルの返事で気まずい空気が\n更に重くなった事に耐えられなくなる\n\n;;モノローグ\n# textflame 0 0\n@\n出掛けてくると言って\nマスターはその場を離れた\n\n# textflame 1 1\n@シャルウル\nあっ、マスター！\n\n# textflame 1 1\n@シャルウル\n行ってしまいました…\nって、あれ？\n\n# textflame 1 1\n@シャルウル\nマスターが向かった方向は\n私がまだ調べていない…\n\n# face 2200711 \"angry\"\n# textflame 1 1\n@シャルウル\nいけないっ！\nすぐにマスターを\n追いかけなければ…っ！\n"
	}
]