[
	{
		"ID": 220041102,
		"script": ";;パラシュ_海上編_EP2\n# script \"lisp\"\n# background \"sea_beach_day\"\n# bgmfile \"bgm255\" \"BgmSeaDate\" 0\n# body 2200411\n# pos 2200411 3\n# mask 2200411 off\n# textflame 1 1\n# textboxarrow 0 2\n# chara 2200411\n# face 2200411 \"usual\"\n@パラシュ\nふぅ…この調子で\nどんどん鍛えていくよ、マスター\n\n# textflame 0 0\n@\n自分の体力がまだ足りないのか\nまだ余裕そうな彼女の姿を見て\nうらやましくも思う\n\n# textflame 1 1\n# textboxarrow 0 2\n# chara 2200411\n# voice 2004 \"parashu_0022\"\n@パラシュ\nん、これだけやって\n疲れたりしないのかって？\n\n# face 2200411 \"angry\"\n@パラシュ\nボクはまだまだ…\nこれくらいで弱音を吐くほど\n生半可な鍛え方はしてないよ\n\n@パラシュ\nだから君にも\nボクくらいとまではいかなくても\nもっと強くなってもらいたいんだ\n\n# face 2200411 \"usual\"\n# voice 2004 \"parashu_0036\"\n@パラシュ\n少なくとも\n自分の身を自分で守れるくらいにはね\n\n# textflame 0 0\n@\n彼女らしい言葉だけど\n次はどれにしようかと考える姿は\nまるで海を楽しんでいるようだ\n\n# textflame 1 1\n# textboxarrow 0 2\n# chara 2200411\n# face 2200411 \"sad\"\n# voice 2004 \"parashu_0028\"\n@パラシュ\nって、なんだいマスター…\nそんなにじっと見られると\nさすがに困ってしまうよ…\n\n# select \"なんだか楽しそうだね？\" \"select_label_01\" \"海での特訓もいいね\" \"select_label_02\" \"なんだか今日は気合いがすごいね\" \"select_label_03\"\nって、なんだいマスター…\nそんなにじっと見られると\nさすがに困ってしまうよ…\n\n# label \"select_label_01\"\n# labeljump \"select_label_end\"\n# textflame 1 1\n# textboxarrow 0 2\n# chara 2200411\n@パラシュ\nそ、そう見えるかい？\n言っておくけどこれは特訓だ\nはしゃいだりはしていないよ？\n\n# label \"select_label_02\"\n# labeljump \"select_label_end\"\n# textflame 1 1\n# textboxarrow 0 2\n# chara 2200411\n# face 2200411 \"usual\"\n@パラシュ\nそうだろう？\nボクもここに来てよかったと\n心から思っているよ\n\n# label \"select_label_03\"\n# labeljump \"select_label_end\"\n# textflame 1 1\n# textboxarrow 0 2\n# chara 2200411\n@パラシュ\n特訓に気合を入れるのは当然だけど…\n海での特訓はきっと、普段できない\n貴重な体験になると思うからね\n\n# label \"select_label_end\"\n# face 2200411 \"usual\"\n@パラシュ\nそれはともかく…\n\n# voice 2004 \"parashu_0001\"\n@パラシュ\nマスター\nやっぱり動きが鈍ってきてるね\n\n# face 2200411 \"normal\"\n@パラシュ\nさすがにそろそろ\n休憩をいれようか…\n\n# fadein \"black\" 1\n# shake 0 1 \n# textflame 0 0\n@\nそれを聞いて\nビーチチェアで休もうとしたところで\n足下がふらつくマスター\n\n# bgmfile \"bgm234\" \"BgmSeaEventBattle\" 0\n# textflame 1 1\n# textboxarrow 0 2\n# chara 2200411\n# face 2200411 \"sad\"\n# voice 2004 \"parashu_0023\"\n@パラシュ\nあ、休憩といっても\nあまり長い時間はとらないよ？\n少しでも特訓を…って、マスター！？\n\n# face 2200411 \"angry\"\n@パラシュ\n体がふらふらしているし\n立っているのも辛そうじゃないか！\n\n@パラシュ\nほら、ボクに掴まって…\nまずはビーチチェアで\n横になるんだ！\n\n# textflame 0 0\n@\n情けない姿を見せてしまったかなと\n楽しそうだった彼女に\n申し訳ない気持ちが生まれる\n\n# textflame 1 1\n# textboxarrow 0 2\n# chara 2200411\n# face 2200411 \"usual\"\n@パラシュ\n倒れてごめんだって？\n君が謝る必要はないよ…\nむしろこれは…\n\n# textflame 0 0\n@\n今まで楽しそうにしていた彼女が\n徐々にその表情を曇らせていく\n\n# textflame 1 1\n# textboxarrow 0 2\n# chara 2200411\n# face 2200411 \"sad\"\n# voice 2004 \"parashu_0031\"\n@パラシュ\nまさか君が\nこんなになるまで無茶を…\n\n@パラシュ\nどうして\n早く言ってくれなかったんだい？\n\n# face 2200411 \"usual\"\n@パラシュ\nああいや…今はそんなことより\n体を休めることのほうが先決だ！\n\n# textflame 0 0\n@\n少し休めば元気になるよと\n彼女を安心させるために\n言ってみせるマスター\n\n# textflame 1 1\n# textboxarrow 0 2\n# chara 2200411\n@パラシュ\nいいから、横になるんだ…\n今、水とかを持ってくるから\nしばらくそのままでいるんだよ？"
	}
]