[
	{
		"ID": 220111103,
		"script": ";;背景：闇\n# script \"lisp\"\n# background \"sea_jungle_night\"\n# bgmfile \"bgm230\" \"BgmSeaEvent\" 0\n# body 2201111\n# pos 2201111 3\n# mask 2201111 off\n# face 2201111 \"sad\"\n# textflame 0 0\n# imageset 0 \"bg_black\"\n# imagealpha 0 0 0\n# imagelayer 0 1\n# waitandnext 0.1\n\n# imagepos 0 0 30\n# imagealpha 0 1 0\n# textflame 1 1\n# textboxarrow 0 0\n# chara 2201111\n# voice 2011 \"Wazra_0015\"\n@ワズラ\n…ひっく、マスター…\n起きて、ください…マスター…\n目を覚ましてください…\n\n# textflame 0 0\n@\nワズラの声に意識を取り戻す\nマスター\n\n;;背景:ジャングル（夜）\n# fadeout \"black\" 0.1\n# waitandnext 0.1\n\n# imagealpha 0 0 0\n# fadein \"black\" 0.5\n# textflame 1 1\n# textboxarrow 0 2\n# chara 2201111\n@ワズラ\nマスター！意識が戻ったんですね！\nよかった…本当に…\n心配しました…\n\n# textflame 1 1\n# textboxarrow 0 2\n# chara 2201111\n@ワズラ\nマスター…\nずっと気を失っていたんですよ\n目が覚めなかったらどうしようと…\n\n# textflame 0 0\n@\n今何時！？\nと焦って聞くマスター\n\n# face 2201111 \"usual\"\n# textflame 1 1\n# textboxarrow 0 2\n# chara 2201111\n@ワズラ\n今ですか？\nもう、夜です…\n\n# textflame 0 0\n@\nマスターは、星は？と尋ねる\n\n# textflame 1 1\n# textboxarrow 0 2\n# chara 2201111\n@ワズラ\n星は見えますが…\nマスターのお体が心配なので\n戻りましょう\n\n# face 2201111 \"sad\"\n# textflame 1 1\n# textboxarrow 0 2\n# chara 2201111\n@ワズラ\nというか、マスター\nさっきから、時間とか星とか\n言っていますが…\n\n# face 2201111 \"angry\"\n# textflame 1 1\n# textboxarrow 0 2\n# chara 2201111\n# voice 2011 \"Wazra_0011\"\n@ワズラ\n今はそんなことどうでもいいんです！\nどうして目を覚まして第一声が\n星についてなんですか！\n\n# face 2201111 \"sad\"\n# textflame 1 1\n# textboxarrow 0 2\n# chara 2201111\n@ワズラ\nいきなり岩場に進み始めるし…\n止めても聞かないし…\nワズラを置いていくし…\n\n# face 2201111 \"angry\"\n# textflame 1 1\n# textboxarrow 0 2\n# chara 2201111\n# voice 2011 \"Wazra_0027\"\n@ワズラ\n倒れていたマスターを見つけたとき\nワズラがどんな気持ちでいたのか\nわかりますか？\n\n# textflame 1 1\n# textboxarrow 0 2\n# chara 2201111\n@ワズラ\nマスターが目を覚ますまで\nワズラがどんな気持ちでいたのか\nわかりますか？\n\n# textflame 0 0\n@\nごめん、と言いつつ\nマスターは先ほどまで考えていた\n天気対策の話をする\n\n# face 2201111 \"sad\"\n# textflame 1 1\n# textboxarrow 0 2\n# chara 2201111\n@ワズラ\nマスター…\n\n# face 2201111 \"angry\"\n# textflame 1 1\n# textboxarrow 0 2\n# chara 2201111\n@ワズラ\nいくら契約とはいえ\nそこまでしなくていいです！\n\n# textflame 1 1\n# textboxarrow 0 2\n# chara 2201111\n@ワズラ\nもう、ワズラの気持ち\n何もわかってない！\n\n# textflame 1 1\n# textboxarrow 0 2\n# chara 2201111\n@ワズラ\nマスターと一緒にいたいから\n星を見ようって契約したのに\nマスターがいなくなっちゃだめです！\n\n# face 2201111 \"sad\"\n# textflame 1 1\n# textboxarrow 0 2\n# chara 2201111\n@ワズラ\n確かに、気持ちはとても\n嬉しいですよ。でも…でも！\n\n# textflame 0 0\n@\nマスターはワズラに謝りつつ\n次こそは星を見よう、と言う\n\n# face 2201111 \"usual\"\n# textflame 1 1\n# textboxarrow 0 2\n# chara 2201111\n# voice 2011 \"Wazra_0028\"\n@ワズラ\nマスター\n契約の意味、今度こそ\nちゃんと理解してますよね？\n\n# textflame 0 0\n@\n理解しているよ、と頷くマスター\n\n# textflame 1 1\n# textboxarrow 0 2\n# chara 2201111\n@ワズラ\nもう無茶しちゃいけませんよ…\n\n# textflame 0 0\n@\n自身のために\n頑張ってくれたマスターの姿に\nワズラは心を動かされた\n\n# textflame 0 0\n@\n彼女はマスターのため\nもっと頑張りたいと\n思いを新たにする\n\n# textflame 0 0\n@\nそうした強い気持ちによって…\n\n# textflame 0 0\n# se \"SE_0602\"\n@\nワズラは、新たなスキル\n『ブラムクラッシュ』を\n身につけた！\n\n# textflame 1 1\n# textboxarrow 0 2\n# chara 2201111\n# voice 2011 \"Wazra_0039\"\n@ワズラ\nこれは…新しい力…\nマスターがワズラから\n引き出してくれたのですね…\n\n# face 2201111 \"sad\"\n# textflame 1 1\n# textboxarrow 0 2\n# chara 2201111\n# voice 2011 \"Wazra_0031\"\n@ワズラ\nワズラ、ちょっと感情的に\nなってしまいました…\nごめんなさい…\n\n# face 2201111 \"smile\"\n# textflame 1 1\n# textboxarrow 0 2\n# chara 2201111\n# imageset 0 \"c2201111\"\n# imagealpha 0 0 0\n@ワズラ\nマスターが体を張って守って\nくれようとした契約を…\n今度は二人で守っていきましょうね\n\n# voice 2011 \"Wazra_kyara_0027\"\n# frameout 0 0.5\n# buttonsout 0 0.5\n# imagealpha 0 1 0\n# imagepos 0 0 0\n# fadein \"white\" 3\n# textwindow \"close\"\n;;私がいつも笑顔でいられるのは…マスターがいるからです…\n"
	}
]