[
	{
		"ID": 220171101,
		"script": ";;ヤグルシ・海上編\n;;■EP1//背景：海\n# script \"lisp\"\n# background \"sea_beach_day\"\n# bgmfile \"bgm255\" \"BgmSeaDate\" 0\n# body 2201711\n# pos 2201711 3\n# mask 2201711 off\n# textflame 1 1\n# textboxarrow 0 2\n# chara 2201711\n# face 2201711 \"smile\"\n# voice 2017 \"yagurushi_0002\"\n@ヤグルシ\nマスター、早く早く！\n\n# textflame 0 0\n@\nマスターはヤグルシに誘われ\n一緒に海に来ていた。\n\n# textflame 1 1\n# textboxarrow 0 2\n# chara 2201711\n# face 2201711 \"usual\"\n@ヤグルシ\n今日は\n特訓に付き合ってもらうんだ！\n\n# face 2201711 \"normal\"\n# voice 2017 \"yagurushi_0007\"\n@ヤグルシ\nヤグ、みんなに頼られるようになって\nお姉ちゃんをびっくりさせるの！\n\n# textflame 0 0\n@\nヤグルシが自主的に特訓だなんて…\nと、感心したマスターは\nなんの特訓をするのか尋ねた\n\n# textflame 1 1\n# textboxarrow 0 2\n# chara 2201711\n# face 2201711 \"sad\"\n# voice 2017 \"yagurushi_0028\"\n@ヤグルシ\nえっと、それはぁ…\nマスターにも一緒に考えて\nもらおうかな～～って\n\n# face 2201711 \"usual\"\n# voice 2017 \"yagurushi_0020\"\n@ヤグルシ\nえへへ…だめ？\n\n# textflame 0 0\n@\n上目使いで頼ってくる\n甘えっぷりに苦笑しつつ\nマスターは一緒に考えることに\n\n# textflame 0 0\n@\nマスターが\nどんなふうになりたいのか\nと尋ねると…\n\n# textflame 1 1\n# textboxarrow 0 2\n# chara 2201711\n# face 2201711 \"sad\"\n# voice 2017 \"yagurushi_0037\"\n@ヤグルシ\nう、うーん…\nそうだねぇ…\n\n# serif 1\n# textboxarrow 1 0\n@海水浴客1\n早く泳ごうぜ！\n\n# serif 1\n# textboxarrow 1 0\n@海水浴客2\nふふ、待って～\n\n# face 2201711 \"usual\"\n# voice 2017 \"yagurushi_0001\"\n@ヤグルシ\n…追いかけっこしたり\n泳いだりする特訓は？\n\n# textflame 0 0\n@\nマスターは\nそれじゃ特訓にならないよ\nと答える\n\n# textflame 1 1\n# textboxarrow 0 2\n# chara 2201711\n# face 2201711 \"sad\"\n# voice 2017 \"yagurushi_0013\"\n@ヤグルシ\n…でも～\n疲れる特訓とかはやだなぁ…\n\n# textflame 0 0\n@\nヤグルシは気もそぞろに\n楽しそうな海水浴客のほうをチラチラ\nその時――\n\n# bgmfile \"bgm234\" \"BgmSeaEventBattle\" 0\n# textflame 1 1\n# textboxarrow 0 2\n# chara 2201711\n# face 2201711 \"angry\"\n# voice 2017 \"yagurushi_0022\"\n@ヤグルシ\nあ…大変！\n誰か溺れてるよ！\n\n# imageset 0 \"black\"\n# imagescale 0 3 0\n# imagealpha 0 0 0\n# textflame 0 0\n@\nその声にマスターが慌てて\n助けに向かおうとするが…\n\n;;右から左へのカーテン黒スライド\n# imagealpha 0 1 0\n# imagepos 0 0 30\n# imageleftin 0 0.5\n# serif 1\n# textwindow \"close\"\n# serif 0\n# textwindow \"close\"\n# waitandnext 1\n\n# imagealpha 0 0 0.5\n# imagerightout 0 0.5\n# serif 0\n# textwindow \"nomal\"\n# textflame 1 1\n# textboxarrow 0 2\n# chara 2201711\n# face 2201711 \"sad\"\n@ヤグルシ\nあ…！\n\n# textflame 0 0\n@\nすぐさまライフセーバーが\n飛び出していき\nあっという間に救助する\n\n# textflame 1 1\n# textboxarrow 0 2\n# chara 2201711\n# voice 2017 \"yagurushi_0039\"\n@ヤグルシ\nすっごーい…！\n\n# textflame 0 0\n@\n自分たちの出る幕はなかったね\nとホッとしていると…\n\n# textflame 1 1\n# textboxarrow 0 2\n# chara 2201711\n# face 2201711 \"smile\"\n# voice 2017 \"yagurushi_0005\"\n@ヤグルシ\nヤグ、あんなふうに\nかっこよくなりたい！\n\n# textflame 0 0\n@\nヤグルシは\nライフセーバーを見て\n目をキラキラさせている\n\n# textflame 1 1\n# textboxarrow 0 2\n# chara 2201711\n# face 2201711 \"usual\"\n# voice 2017 \"yagurushi_0036\"\n@ヤグルシ\nだから～\nマスター、手伝って！"
	}
]