[
	{
		"ID": 220201102,
		"script": ";;ハルパー_海上編_EP2\n;;背景：プール\n# script \"lisp\"\n# background \"sea_resort_day\"\n# bgmfile \"bgm226\" \"BgmSeaEvent\" 0\n# body 2202011\n# pos 2202011 3\n# mask 2202011 off\n# textflame 1 1\n# textboxarrow 0 2\n# chara 2202011\n# voice 2020 \"harpe_0001\"\n# face 2202011 \"sad\"\n@ハルパー\nはぁ…少し暑くなってきましたね\nマスター、そこに扇があります\n\n# face 2202011 \"angry\"\n# chara 2202011\n@ハルパー\n言わなければわからないのですか？\nそれで私が涼めるよう\n早く扇いでください\n\n# chara 2202011\n# voice 2020 \"harpe_0036\"\n# face 2202011 \"smile\"\n@ハルパー\nああ…それと…\n私、少々喉が渇いてしまいました\nなにか冷たい飲み物をお願いしますね\n\n# chara 2202011\n# voice 2020 \"harpe_0004\"\n@ハルパー\nそうですね…\nココナッツジュースを所望します\n早く持ってきてください\n\n# textflame 0 0\n@\nハルパーの機嫌を直すため、\nせっせと奉仕するマスター\n\n# textflame 1 1\n# textboxarrow 0 2\n# chara 2202011\n# face 2202011 \"normal\"\n# voice 2020 \"harpe_0020\"\n@ハルパー\nあら…向こうが騒がしいですね…\nなにかあったんでしょうか？\n\n# textflame 0 0\n@\nハルパーが、クイッと顎で示す\nその方向を見ると、\n明らかに酔っぱらった男が…\n\n# textflame 0 0\n@\nどうやら男は酔った勢いで\n女性客にお触りをするなどの\n迷惑行為を働いているみたいだ\n\n# bgmfile \"bgm234\" \"BgmSeaEventBattle\" 0\n# textflame 1 1\n# textboxarrow 0 2\n# chara 2202011\n# face 2202011 \"angry\"\n@ハルパー\nあの酔っ払い…鼻の下を伸ばして、\n女性達にお触りしようと…\n\n# textflame 0 0\n@\nその呟きから\nハルパーの苛立ちが伝わる\n\n# select \"迷惑だなぁ…\" \"select_label_01\" \"許せない\" \"select_label_02\" \"あれは酷い\" \"select_label_03\"\nその呟きから\nハルパーの苛立ちが伝わる\n\n# label \"select_label_01\"\n# labeljump \"select_label_end\"\n# textflame 1 1\n# textboxarrow 0 2\n# chara 2202011\n@ハルパー\nええ、本当…\n\n# label \"select_label_02\"\n# labeljump \"select_label_end\"\n# textflame 1 1\n# textboxarrow 0 2\n# chara 2202011\n# face 2202011 \"normal\"\n@ハルパー\nマスターは正義感がお強いんですね\n\n# label \"select_label_03\"\n# labeljump \"select_label_end\"\n# textflame 1 1\n# textboxarrow 0 2\n# chara 2202011\n@ハルパー\n私も同意します\n\n# label \"select_label_end\"\n# textflame 1 1\n# textboxarrow 0 2\n# chara 2202011\n# voice 2020 \"harpe_0019\"\n# face 2202011 \"sad\"\n@ハルパー\nまったく、どこにでもいるのですね\nああいった不埒な輩は…\n\n# chara 2202011\n@ハルパー\n見るに堪えません\n理性の欠片も感じられないあの姿…\n\n# chara 2202011\n@ハルパー\n異族のほうがまだマシに思えるほど、\n愚かで醜いものです\n\n# chara 2202011\n# voice 2020 \"harpe_0004\"\n# face 2202011 \"smile\"\n@ハルパー\n我が姉、アダマスがここにいたら…\nすぐにでも“ちょん切って”\nいるのでしょうね…\n\n# textflame 0 0\n@\n止めた方が良いよね？\nハルパーに相談するマスター\n\n# textflame 1 1\n# textboxarrow 0 2\n# chara 2202011\n# voice 2020 \"harpe_0011\"\n# face 2202011 \"sad\"\n@ハルパー\n…面倒くさいです\n大体、私達には関係のないこと…\n自ら首を突っ込むなど愚の骨頂です\n\n# textflame 0 0\n@\n困っている人を放っておくなんて、\nそんな酷な事はできないよ\nなんて反論してみるが…\n\n# textflame 1 1\n# textboxarrow 0 2\n# chara 2202011\n@ハルパー\n…………\n\n# chara 2202011\n@ハルパー\nはあ…そんなに言うんでしたら、\nマスターひとりで行けば\nいいじゃないですか\n\n# chara 2202011\n@ハルパー\n…私は面倒なので、\n向こうでひと泳ぎしてきます\n\n# alpha 2202011 0 0.8\n# textflame 0 0\n@\nハルパーはそう言って去ってしまう\n\n# textflame 0 0\n@\n今日は厄日だ…\nため息を隠せないマスター\nさて、これからどうするべきか…\n"
	}
]