[
	{
		"ID": 221041510,
		"script": ";;-----------------------------------------\n;;ファンキル2019ウェディングイベントシナリオ\n;;タイトル：契約と計画のブライダル\n;;-----------------------------------------\n;;【OP】\n;;-----------------------------------------\n# script \"lisp\"\n# background \"004_outland\"\n# bgmfile \"bgm334\" \"BgmWedding001\" 0\n;;-----------------------------------------\n;;ソロモンウェディング\n# body 3503131\n# pos 3503131 3\n# scale 3503131 0.8 0\n# layer 3503131 3\n# alpha 3503131 0 0\n# mask 3503131 off\n;;ロンギヌスウェディング\n# body 3300121\n# pos 3300121 3\n# scale 3300121 0.8 0\n# layer 3300121 3\n# alpha 3300121 0 0\n# mask 3300121 off\n;;-----------------------------------------\n# textwindow \"close\"\n# fadein \"black\" 2\n# waitandnext 2\n\n# alpha 3503131 1 1\n# waitandnext 1.3\n\n# textwindow \"nomal\"\n# textflame 1 1\n# textboxarrow 0 2\n;;ソロモン（照）（以下、ウェディングVer）\n# voice 350313 \"solomon_t_0002\"\n@ソロモン\nねぇ、マスター…\nこんな日が来るなんて\n思いもしなかったわ…\n\n# textflame 1 1\n# textboxarrow 0 2\n# face 3503131 \"smile\"\n# voice 350313 \"solomon_t_0004\"\n@ソロモン\n私の出した最適解、\n貴方も信じてくれるよね？\n\n# textwindow \"close\"\n# alpha 3503131 0 1\n# waitandnext 1.3\n\n# alpha 3300121 1 1\n# waitandnext 1.3\n\n# textwindow \"nomal\"\n# textflame 1 1\n# textboxarrow 0 2\n;;ロンギヌス（照）（以下、ウェディングVer）\n# voice 330012 \"ronginusu_t_0001\"\n@ロンギヌス\nマスター…\n私の祈りは天に届いたようです\n\n# textflame 1 1\n# textboxarrow 0 2\n# face 3300121 \"shy\"\n# voice 330012 \"ronginusu_t_0004\"\n@ロンギヌス\n私の平穏は、主と共にあります\nどうか、これからもお側に…\n\n# se \"SE_0735\"\n# sedelay \"SE_0735\" 1\n# alpha 3300121 0 0.5\n;;モノローグ\n# textflame 0 0\n@\n6月の晴れた空の下、\n美しい花嫁を前に\nマスターの胸は早鐘を打つ\n\n;;モノローグ\n# textflame 0 0\n@\n二人に、自分の気持ちを\n伝えなければと思うほど、\n言葉がするすると逃げてしまう\n\n;;モノローグ\n# textflame 0 0\n@\nどうしてこんなことになったのかな\nと、ふと考えるマスター\nその始まりは、数日前にさかのぼる…"
	}
]