[
	{
		"ID": 221051243,
		"script": ";;-----------------------------------------\n;;賀正3-3\n;;-----------------------------------------\n# script \"lisp\"\n# background \"plain_night\"\n# bgmfile \"bgm358\" \"BgmNewYear002\" 0\n;;-----------------------------------------\n# body 3503221\n# pos 3503221 4\n# scale 3503221 0.8 0\n# layer 3503221 3\n# alpha 3503221 0 0\n# body 3200511\n# pos 3200511 2\n# scale 3200511 0.8 0\n# layer 3200511 3\n# alpha 3200511 0 0\n;;-----------------------------------------\n# textflame 0 0\n@\nミトゥムの活躍により\nハルモニア兵の大半が退けられた\n\n# alpha 3503221 1 0.5\n# alpha 3200511 1 0.5\n# textflame 1 1\n# textboxarrow 0 1\n# face 3200511 \"angry\"\n@ミトゥム\n残りは私ひとりで十分です\nさぁ、おふたりは先へ！\n\n# textflame 1 1\n# textboxarrow 0 3\n# face 3503221 \"sad\"\n# voice 350322 \"tiphereth_t_0028\"\n@ティファレト\nですが、それではミトゥムが…\n\n# textflame 1 1\n# textboxarrow 0 1\n# face 3200511 \"normal\"\n# voice 320051 \"mitwumu_t_0004\"\n@ミトゥム\nふふ、大丈夫ですよ\nそれよりもティファレトさんは\nご自分のことを優先してください\n\n# textflame 1 1\n# textboxarrow 0 3\n# face 3503221 \"surprise\"\n# voice 350322 \"tiphereth_t_0022\"\n@ティファレト\nミトゥム…\n\n# textflame 0 0\n@\n本当に大丈夫？\nマスターがそう尋ねると、\nミトゥムは自信ありげに頷いた\n\n# textflame 0 0\n@\nそれならあとはミトゥムに任せて\n先に行こう、とマスター\n\n# textflame 1 1\n# textboxarrow 0 3\n# voice 350322 \"tiphereth_t_0003\"\n@ティファレト\nえ、ええ、そうですね…\nくれぐれもご無事で、ミトゥム\n\n# textflame 1 1\n# textboxarrow 0 1\n# face 3200511 \"happy\"\n# voice 320051 \"mitwumu_t_0030\"\n@ミトゥム\nありがとうございます\n戻ったらまた私の歌を\n聞いてくださいね\n\n# textflame 1 1\n# textboxarrow 0 3\n# face 3503221 \"happy\"\n# voice 350322 \"tiphereth_t_0033\"\n@ティファレト\nはい、ぜひ…っ！\n\n# imageset 0 \"black\"\n# imagealpha 0 0 0\n# imagelayer 0 1\n# alpha 3503221 0 0.7\n# se \"SE_5575\"\n# textboxarrow 0 0\n# waitandnext 1\n\n;;演出：移動の暗転\n# imagealpha 0 1 0\n# imagepos 0 0 30\n# imageleftin 0 0.5\n# textwindow \"close\"\n# waitandnext 0.5\n\n# move 3503221 3 0\n# mask 3503221 off\n# alpha 3200511 0 0\n# waitandnext 0.2\n\n# imagealpha 0 0 0.5\n# imagerightout 0 0.5\n# waitandnext 0.5\n\n# textwindow \"nomal\"\n# textflame 0 0\n@\nそういえばミトゥムの勘違いを\n正せなかったね、とマスター\n\n# alpha 3503221 1 0.5\n# textflame 1 1\n# textboxarrow 0 2\n# face 3503221 \"happy\"\n# voice 350322 \"tiphereth_t_0004\"\n@ティファレト\nあ…そうですね\n何か言い訳を考えておかないと…ふふ\n\n# textflame 0 0\n@\n笑うティファレトを\n不思議に思うマスター\n\n# textflame 1 1\n# textboxarrow 0 2\n# face 3503221 \"shy\"\n@ティファレト\nその…なんだかいけないことを\nしているような気がして\n少しだけ…ワクワクしてしまいました\n\n# textflame 0 0\n@\nティファレトが楽しいならよかった\nそう思うマスターだった"
	}
]