[
	{
		"ID": 221041551,
		"script": ";;-----------------------------------------\n;;ファンキル2019ウェディングイベントシナリオ\n;;タイトル：契約と計画のブライダル\n;;【EP.4】親愛と信頼\n;;4_1\n;;スクリプト最後の背景：004_outland\n;;-----------------------------------------\n# script \"lisp\"\n# background \"004_outland\"\n# bgmfile \"bgm334_335\" \"BgmWedding001\" 0\n;;-----------------------------------------\n;;グラウ\n# body 164\n# pos 164 3\n# scale 164 0.6 0\n# layer 164 2\n# alpha 164 0 0\n# mask 164 off\n;;ソロモンウェディング\n# body 3503131\n# pos 3503131 3\n# scale 3503131 0.8 0\n# layer 3503131 2\n# alpha 3503131 0 0\n# mask 3503131 off\n;;ロンギヌスウェディング\n# body 3300121\n# pos 3300121 3\n# scale 3300121 0.8 0\n# layer 3300121 2\n# alpha 3300121 0 0\n# mask 3300121 off\n;;-----------------------------------------\n;;【EP.4】親愛と信頼\n;;モノローグ\n# textflame 0 0\n@\n街の外にある教会を目指して\n移動するソロモンたち\n\n;;モノローグ\n# textflame 0 0\n@\nマスターには目的地を隠すため、\n疲れているようだからといって\n強引にグラウに乗ってもらった\n\n;;モノローグ\n# textflame 0 0\n@\nソロモンとロンギヌスは\nその後ろを歩いてついていく\n\n;;ソロモン（以下、ウェディングVer）\n# move 3300121 2 0\n# face 3300121 \"usual\"\n# alpha 3300121 1 0.5\n# mask 3300121 on\n# move 3503131 4 0\n# face 3503131 \"usual\"\n# alpha 3503131 1 0.5\n# mask 3503131 on\n# textflame 1 1\n# textboxarrow 0 3\n# voice 350313 \"solomon_t_0002\"\n@ソロモン\nねぇ、ロンギヌス…\n\n;;ロンギヌス（以下、ウェディングVer）\n# textboxarrow 0 1\n# voice 330012 \"ronginusu_t_0003\"\n@ロンギヌス\nはい？\nなんでしょうか？\n\n# textboxarrow 0 3\n@ソロモン\nさっき、マスターと楽しそうに\n話しているのを見たのだけど…\n\n;;ロンギヌス（焦）\n# emotionbody 1000 9 3300121 10 160\n# effectpattern 1000 5 0\n# effectstart 1000\n# face 3300121 \"shy\"\n# textboxarrow 0 1\n# voice 330012 \"ronginusu_t_0023\"\n@ロンギヌス\nあ！あれは、ただ、その…\n相談に乗ってもらっただけです！\n\n# effectskip 1000\n# textboxarrow 0 1\n@ロンギヌス\n…いつから見ていたのですか？\n\n# face 3503131 \"happy\"\n# textboxarrow 0 3\n# voice 350313 \"solomon_t_0004\"\n@ソロモン\nそんなに慌てなくてもいいわよ\n話の内容までは\n聞こえなかったから、安心して？\n\n# textboxarrow 0 3\n@ソロモン\nロンギヌスはどうやって\nマスターと信頼を深めたの？\n参考にしたいから教えてほしいの\n\n# face 3300121 \"sad\"\n# textboxarrow 0 1\n# voice 330012 \"ronginusu_t_0028\"\n@ロンギヌス\nそう言われましても…\n私も、マスターと信頼関係が\nそれほど築けているとは思えません\n\n# textboxarrow 0 1\n@ロンギヌス\nマスターに対して、正論とはいえ\n強く言い過ぎてしまって、後で\n心配になることもありますし…\n\n# face 3503131 \"usual\"\n# textboxarrow 0 3\n# voice 350313 \"solomon_t_0028\"\n@ソロモン\nそうだったの…\nロンギヌスも不安なのね\n\n# emotionbody 1001 5 3503131 10 320\n# effectpattern 1001 1 0\n# effectstart 1001\n# face 3503131 \"surprise\"\n# textboxarrow 0 3\n@ソロモン\n…そうだわ！\nそれならロンギヌスも\n契約の儀を行えばいいのよ\n\n# face 3503131 \"happy\"\n# textboxarrow 0 3\n@ソロモン\n私とロンギヌスは同じ問題を\n抱えているのだから、\n解決方法も同じはずでしょ？\n\n# textboxarrow 0 3\n@ソロモン\nドレスも着ているし、\n教会も見つかった…\n準備は完璧に整っているわ\n\n;;ロンギヌス（驚）\n# face 3300121 \"surprise\"\n# textboxarrow 0 1\n# voice 330012 \"ronginusu_t_0022\"\n@ロンギヌス\nええっ？\nでも、私が大切な儀式に、\n参加するなんて…\n\n# face 3503131 \"angry\"\n# textboxarrow 0 3\n# voice 350313 \"solomon_t_0003\"\n@ソロモン\n大切な儀式だからこそ、\nロンギヌスが参加する意義があるの\n\n# textboxarrow 0 3\n@ソロモン\nこれが私の最適解！\n私の分析と考察を信じてくれる？\n\n;;できればもやもやフレームで\n# move 3300121 2 0\n# face 3300121 \"sad\"\n# mask 3300121 on\n# textboxarrow 0 0\n# textwindow \"moya\"\n@ロンギヌス\nソロモンを信じなかったこと…\nそれが私の過去の罪\n\n;;できればもやもやフレームで\n# textboxarrow 0 0\n@ロンギヌス\nだから、私はソロモンを信じる\nもう、同じ失敗はしたくないから…\n\n# face 3300121 \"angry\"\n# textboxarrow 0 1\n# textwindow \"normal\"\n# voice 330012 \"ronginusu_t_0036\"\n@ロンギヌス\nわかりました、\n私も儀式に参加させてください\n\n# textboxarrow 0 3\n# voice 350313 \"solomon_t_0032\"\n@ソロモン\nええ、運命を共に！\n必ず計画を成功させるわよ！\n\n# se \"SE_6504\"\n# emotionbody 1002 3 3300121 10 260\n# effectpattern 1002 1 3\n# effectstart 1002\n# face 3300121 \"normal\"\n# textboxarrow 0 1\n# voice 330012 \"ronginusu_t_0003\"\n@ロンギヌス\nはい…\nありがとうございます…\n\n;;できればもやもやフレームで\n# move 3300121 2 0\n# face 3300121 \"sad\"\n# mask 3300121 on\n# textboxarrow 0 0\n# textwindow \"moya\"\n@ロンギヌス\n私はソロモンを信じる、\nそれは決めていたことだけど…\n\n;;できればもやもやフレームで\n# textboxarrow 0 0\n@ロンギヌス\n彼女が、私に優しいのはどうして？\n私には、その優しさを\n受ける資格などないのに…\n\n# textboxarrow 0 3\n# textwindow \"normal\"\n# voice 350313 \"solomon_t_0002\"\n@ソロモン\nそろそろ目的地が近いわね\nグラウに付近を偵察してもらうわ\nマスター、降りてくれる？\n\n;;モノローグ\n# textflame 0 0\n# alpha 3300121 0 0.5\n# alpha 3503131 0 0.5\n@\nマスターが降りると、\nグラウは元の大きさに変化し、\n上空から周囲を確認する\n\n# move 164 2 0\n# alpha 164 1 0.5\n# mask 164 on\n# textflame 1 1\n# textboxarrow 0 1\n# move 3503131 4 0\n# face 3503131 \"usual\"\n# alpha 3503131 1 0.5\n# mask 3503131 on\n# voice 9950 \"glau_0013\"\n@グラウ\n…偵察終了しました\n目的地近辺にハルモニア兵を発見、\nどうしますか？\n\n# face 3503131 \"angry\"\n# textboxarrow 0 3\n@ソロモン\n目的達成の障壁になりうる要素は\nできるだけ排除しておきたいの\n\n# textboxarrow 0 1\n# voice 9950 \"glau_0033\"\n@グラウ\n承知しました\n戦闘に有利な場所を検索します\n\n# alpha 164 0 0.5\n# move 3300121 2 0\n# face 3300121 \"normal\"\n# alpha 3300121 1 0.5\n# mask 3300121 on\n# textboxarrow 0 1\n# voice 330012 \"ronginusu_t_0002\"\n@ロンギヌス\nあの…森に近い場所で戦えば\n集団に囲まれにくくなりますし、\nマスターも守りやすいかと…\n\n# face 3503131 \"happy\"\n# textboxarrow 0 3\n# voice 350313 \"solomon_t_0040\"\n@ソロモン\nなるほどね\nそれはいい作戦だわ！\n森の近くまで兵を誘導しましょう?"
	}
]