[
	{
		"ID": 221041531,
		"script": ";;-----------------------------------------\n;;ファンキル2019ウェディングイベントシナリオ\n;;タイトル：契約と計画のブライダル\n;;-----------------------------------------\n;;【EP.2_1】完璧な計画？\n;;-----------------------------------------\n# script \"lisp\"\n# background \"400_angel_town_daytime\"\n# bgmfile \"bgm334\" \"BgmWedding001\" 0\n;;-----------------------------------------\n;;ソロモン\n# body 3503111\n# pos 3503111 4\n# scale 3503111 0.8 0\n# layer 3503111 3\n# alpha 3503111 0 0\n;;ソロモンウェディング\n# body 3503131\n# pos 3503131 3\n# scale 3503131 0.8 0\n# layer 3503131 3\n# alpha 3503131 0 0\n;;グラウ\n# body 164\n# pos 164 2\n# scale 164 0.6 0\n# layer 164 3\n# alpha 164 0 0\n# mask 164 off\n;;ロンギヌス\n# body 3300111\n# pos 3300111 2\n# scale 3300111 0.8 0\n# layer 3300111 3\n# alpha 3300111 0 0\n;;ロンギヌスウェディング\n# body 3300121\n# pos 3300121 3\n# scale 3300121 0.8 0\n# layer 3300121 3\n# alpha 3300121 0 0\n;;ハルモニア兵\n# body 3810001\n# pos 3810001 3\n# scale 3810001 0.8 0\n# layer 3810001 3\n# alpha 3810001 0 0\n# mask 3810001 off\n# entry 3810003 3810001\n# pos 3810003 2\n# scale 3810003 0.8 0\n# layer 3810003 3\n# alpha 3810003 0 0\n# entry 3810002 3810001\n# reversal 3810002 0\n# pos 3810002 4\n# scale 3810002 0.8 0\n# layer 3810002 3\n# alpha 3810002 0 0\n;;-----------------------------------------\n;;モノローグ\n# textflame 0 0\n# textwindow \"nomal\"\n@\nブライダルイベントに湧く\nハルモニアの街で、マスターは\n痛いほど視線を感じていた\n\n;;モノローグ\n# textflame 0 0\n@\n美しい二人の花嫁を\n連れているのはどんな人物かと\nだれもが興味津々なのだ\n\n;;モノローグ\n# textflame 0 0\n@\n注目に耐えかねたマスターは、\n次はどこにいくの？早くいこう\nと、ソロモンに話しかける\n\n# alpha 3503131 1 0.5\n# mask 3503131 off\n# face 3503131 \"sad\"\n# voice 350313 \"solomon_t_0028\"\n# textflame 1 1\n# textboxarrow 0 2\n@ソロモン\nどこに行くかは、まだ言えないの…\n私を信じて、ついてきてくれる？\n\n;;モノローグ\n# textflame 0 0\n@\nマスターは、ソロモンに頷きながら、\nわかった、なんだかドキドキするね\nと、笑う\n\n# face 3503131 \"happy\"\n# voice 350313 \"solomon_t_0004\"\n# textflame 1 1\n# textboxarrow 0 2\n@ソロモン\nふふっ…\n\n;;モノローグ\n# textflame 0 0\n@\nそんな二人のやりとりを見ながら、\nロンギヌスも満足気に微笑む\n\n# alpha 3503131 0 0.5\n# alpha 3300121 1 0.5\n;;できればもやもやフレームで\n# face 3300121 \"normal\"\n# voice 330012 \"ronginusu_t_0004\"\n# move 3300121 3 0\n# textflame 1 1\n# textboxarrow 0 0\n# textwindow \"moya\"\n# mask 3300121 off\n@ロンギヌス\nよかった…順調そうですね\n…こうして見ていると、\nなにも問題がないように見えますが…\n\n# imageset 0 \"bg_white_circle\"\n# imagealpha 0 0 0\n# imagescale 0 1.4 0\n# imagelayer 0 1\n;;モノローグ\n# textflame 0 0\n@\nそう、心の中でつぶやくと同時に\nロンギヌスは、計画実行の前に\nソロモンから明かされた話を思い出す\n\n;;演出：回想シーン開始（以下、通常Ver）\n# se \"SE_0742\"\n# fadeout \"white\" 1\n# waitandnext 1\n\n# background \"plain\"\n# alpha 3300121 0 0\n# alpha 3503111 1 0\n# alpha 3300111 1 0\n# face 3503111 \"sad\"\n# face 3300111 \"normal\"\n# imagealpha 0 1 0\n# imagepos 0 0 30\n# textwindow \"close\"\n# waitandnext 0.5\n\n# fadein \"white\" 1\n# waitandnext 1\n\n# textflame 1 1\n# textwindow \"nomal\"\n# textboxarrow 0 3\n@ソロモン\n私のプランは完璧なのに\nマスターは採用してくれないのよ\n\n# textflame 1 1\n# textboxarrow 0 3\n@ソロモン\nそれで、私はマスターに\n信頼されていないと思ったの\n\n# textflame 1 1\n# textboxarrow 0 1\n@ロンギヌス\nちなみに、その計画というのは\nどういったものなのでしょうか？\n\n# face 3503111 \"normal\"\n# textflame 1 1\n# textboxarrow 0 3\n@ソロモン\nただの買い出し計画書よ？\n効率を重視して綿密に計算した、\n分刻みの完璧なスケジュールのね\n\n# textflame 1 1\n# textboxarrow 0 3\n@ソロモン\nマスターは苦笑いしたあと、\n効率を下げて、時間に余裕をもたせた\n計画に変更しようと言ったの\n\n# face 3503111 \"sad\"\n# textflame 1 1\n# textboxarrow 0 3\n@ソロモン\n私の計画は完璧なのに\nマスターに採用されなかった…\nそれは信頼が足りないからなのよ\n\n;;演出：回想シーン終了（以下、ウェディングVer）\n# fadeout \"white\" 1\n# waitandnext 1\n\n# background \"400_angel_town_daytime\"\n# alpha 3300121 1 0\n# alpha 3503111 0 0\n# alpha 3300111 0 0\n# face 3300121 \"usual\"\n# imagealpha 0 0 0\n# imagepos 0 0 30\n# textwindow \"close\"\n# waitandnext 0.5\n\n# fadein \"white\" 1\n# waitandnext 1\n\n;;できればもやもやフレームで\n# voice 330012 \"ronginusu_t_0028\"\n# move 3300121 3 0\n# textflame 1 1\n# textboxarrow 0 0\n# textwindow \"moya\"\n# mask 3300121 off\n@ロンギヌス\nおそらくマスターは、\n細かすぎるソロモンの計画に戸惑って\n苦笑いをしただけでしょう\n\n;;できればもやもやフレームで\n# move 3300121 3 0\n# textflame 1 1\n# textboxarrow 0 0\n# textwindow \"moya\"\n# mask 3300111 off\n@ロンギヌス\n今、目の前にいる二人の間には\nはっきりと信頼関係を感じます\n\n;;できればもやもやフレームで\n# move 3300121 3 0\n# textflame 1 1\n# textboxarrow 0 0\n# textwindow \"moya\"\n# mask 3300111 off\n@ロンギヌス\n疑うことなくソロモンについていく\nこれこそが信頼されている証です\n\n# alpha 3300121 0 0.5\n# move 3503131 4 0\n# alpha 3503131 1 0.5\n# mask 3503131 on\n# alpha 164 1 0.5\n# face 3503131 \"usual\"\n# voice 350313 \"solomon_t_0002\"\n# textflame 1 1\n# textwindow \"nomal\"\n# textboxarrow 0 3\n@ソロモン\nそろそろ出発するわよ\nグラウ、道案内をお願いね\n\n# voice 9950 \"glau_0033\"\n# textflame 1 1\n# textboxarrow 0 1\n@グラウ\n承知しました\nルート検索を開始します\n\n# alpha 3503131 0 0.5\n# alpha 164 0 0.5\n# textwindow \"close\"\n# waitandnext 0.6\n\n# alpha 3810001 1 1\n# waitandnext 2\n\n# alpha 3810001 0 1\n# waitandnext 1\n\n# bgmfile \"bgm271\" \"BgmLostRagnarokEvent\" 0\n# alpha 3503131 1 0.5\n# alpha 164 1 0.5\n# voice 9950 \"glau_0013\"\n# textflame 1 1\n# textwindow \"nomal\"\n# textboxarrow 0 1\n@グラウ\n…ソロモン、問題発生です\n進行方向に兵を発見しました\n\n;;モノローグ\n# textflame 0 0\n@\n今日はやけに兵が多いね\nと、マスターがいうと、\nグラウが答える\n\n# voice 9950 \"glau_0003\"\n# textflame 1 1\n# textboxarrow 0 1\n@グラウ\n本日のブライダルイベントを\n警備するため、多数の兵が\n出動したようです\n\n# textflame 1 1\n# textboxarrow 0 1\n@グラウ\nイベントに乗じて騒ぎを起こす\n不審者を探しているのかもしれません\n\n# emotionbody 1000 1 3300121 10 260\n# effectpattern 1000 1 0\n# effectstart 1000\n# alpha 3503131 0 0.5\n# alpha 164 0 0.5\n# alpha 3300121 1 0.5\n# face 3300121 \"surprise\"\n# voice 330012 \"ronginusu_t_0002\"\n# textflame 1 1\n# textboxarrow 0 2\n@ロンギヌス\nあ、兵がこちらに気づいたようです\nマスターを見て、なにか言っています\n\n# alpha 3300121 0 0.5\n# alpha 3810001 1 0.5\n;;モノローグ\n# textflame 0 0\n@\n天使人でないマスターが綺麗な花嫁を\n連れているのが気に入らないようで、\n兵はマスターをジロジロと睨む\n\n# alpha 3810001 0 0.5\n# move 3300121 2 0\n# alpha 3300121 1 0.5\n# mask 3300121 on\n# face 3300121 \"usual\"\n# alpha 3503131 1 0.5\n# textflame 1 1\n# textboxarrow 0 3\n@ソロモン\n私たちでマスターを隠しながら、\nなるべく静かに通り過ぎるわよ\n\n;;モノローグ\n# textflame 0 0\n@\nできるだけ目立たないように\n兵の前を通り過ぎようとした\nマスターたちだったが…\n\n# alpha 3300121 0 0.5\n# alpha 3503131 0 0.5\n# alpha 3810001 1 0.5\n# textflame 1 1\n# textboxarrow 0 2\n@ハルモニア兵長\n止まりなさい！\n私の目はごまかせませんよ！\n\n# alpha 3810001 0 0.5\n# alpha 3810003 1 0.5\n# alpha 3810002 1 0.5\n# textflame 1 1\n# textboxarrow 0 3\n@ハルモニア兵\n花嫁を二人も連れ歩くなど汚らわしい\n誇り高きハルモニアの民に\nあるまじき行為です…\n\n# textflame 1 1\n# textboxarrow 0 1\n@ハルモニア兵\n怪しいですね…侵入者なのでは？\n捕縛して、しかるべき処罰を…\n\n;;モノローグ\n# se \"SE_0648\"\n# textflame 0 0\n@\nハルモニア兵はそういって\nマスターの腕をつかみ、\n連行しようと強く引っ張る\n\n# emotionbody 1001 6 3503131 -50 260\n# effectpattern 1001 1 1\n# effectstart 1001\n# alpha 3810003 0 0.5\n# alpha 3810002 0 0.5\n# alpha 3300121 1 0.5\n# alpha 3503131 1 0.5\n# face 3300121 \"surprise\"\n# face 3503131 \"angry\"\n# voice 350313 \"solomon_t_0011\"\n# textflame 1 1\n# textboxarrow 0 3\n@ソロモン\n今すぐ、その手を放して\n花嫁と一緒にいるだけで\n捕縛だなんて理不尽すぎるわ\n\n# voice 330012 \"ronginusu_t_0027\"\n# textflame 1 1\n# textboxarrow 0 1\n@ロンギヌス\nソロモン…\n彼らがおとなしく従うような\n相手ではないとわかっていますよね？\n\n;;モノローグ\n# se \"SE_5207\"\n# textflame 0 0\n@\nそういうと、ロンギヌスは\n武器を出して構えた\nソロモンも同じく戦闘態勢をとる\n\n# alpha 3300121 0 0.5\n# alpha 3503131 0 0.5\n# alpha 3810001 1 0.5\n# textflame 1 1\n# textboxarrow 0 2\n@ハルモニア兵長\n……っ！\nなんと、武器を所持しているとは…\nやはり侵入者でしたか\n\n@ハルモニア兵長\n全員まとめて粛清します\nさぁ、ここで罪を償いなさい！"
	}
]