[
	{
		"ID": 221041443,
		"script": ";;-----------------------------------------\n;;ファンキル　バレンタインイベント　シナリオ\n;;【タイトル案】\n;;悪戯姫の甘い嘘\n;;【EP.4_3】ヘレナの実験室へようこそ\n;;背景：ケイオスリオン、屋外（可能であれば伯爵の領地）\n;;-----------------------------------------\n# background \"201_room\"\n# bgmfile \"bgm290\" \"BgmLostRagnarokEvent\" 0\n;;-----------------------------------------\n;;ヘレナ\n# body 3302821\n# pos 3302821 3\n# scale 3302821 0.8 0\n# alpha 3302821 1 0\n# mask 3302821 off\n;;ニール\n# body 162\n# pos 162 4\n# scale 162 0.6 0\n# alpha 162 1 0\n# layer 162 4\n# mask 162 off\n;;-----------------------------------------\n# textflame 1 1\n# textboxarrow 0 2\n# face 3302821 \"normal\"\n# voice 330282 \"herena_a_0002\"\n# chara 3302821\n@ヘレナ\n先輩…\nヘレナはここを片付けるから、\n先輩は外で待っていてくれ\n\n# sefif 0\n# textwindow \"close\"\n# fadeout \"black\" 1\n# waitandnext 1.5\n\n# fadein \"black\" 2\n# waitandnext 2\n\n# sefif 0\n# textwindow \"nomal\"\n# textflame 0 0\n@\nマスターが外に出たのを確認して、\nヘレナはニールに言った\n\n# textflame 1 1\n# textboxarrow 0 2\n# face 3302821 \"usual\"\n# voice 330282 \"herena_a_0028\"\n# chara 3302821\n@ヘレナ\nあの硬すぎチョコレートで、\nイタズラするのはやめだ\n\n# textboxarrow 0 3\n# voice 9952 \"nir_0013\"\n# chara 162\n@ニール\nプランBまで中止にするの？\nたしかに最高の出来じゃないけど\nあれでいいじゃない\n\n# textboxarrow 0 2\n# face 3302821 \"sad\"\n# chara 3302821\n@ヘレナ\nヘレナは先輩に、ちゃんとした\nチョコレートをあげたいんだ\nこんな気持ちは初めてだ…\n\n# textboxarrow 0 3\n# voice 9952 \"nir_0046\"\n# chara 162\n@ニール\nヘレナ…\n\n# chara 162\n@ニール\n…もう、しかたないわね！\nアタチがここで作れるチョコレートを\n考えてあげるから、ちょっと待って！\n\n# alpha 162 0 0.5\n# textboxarrow 0 0\n# waitandnext 1\n\n# textflame 0 0\n@\nそして、ニールは実験室を飛び回って\n使えそうな材料をかき集めた\n\n# alpha 162 1 0.5\n# textflame 1 1\n# textboxarrow 0 3\n# voice 9952 \"nir_0007\"\n# chara 162\n@ニール\nここにある試作品のチョコと、\nドライフルーツ、それにシリアルで\nクランチチョコを作るわよ！\n\n# chara 162\n@ニール\nほら、はやくはやく！\n\n# textflame 0 0\n@\n言う通りに調理したチョコレートは\n元のものとは異なり、\n彩り豊かなものとなった\n\n# textflame 1 1\n# textboxarrow 0 3\n# chara 162\n@ニール\nふう、これでいいわ…\n\n# se \"SE_6504\"\n# emotionbody 1000 3 3302821 0 230\n# effectpattern 1000 3 3\n# effectstart 1000\n# textboxarrow 0 2\n# face 3302821 \"normal\"\n# voice 330282 \"herena_a_0030\"\n# chara 3302821\n@ヘレナ\nああ、ヘレナは満足だ\nニール…ありがとう\n\n# effectskip 1000\n# textflame 0 0\n@\nヘレナはニールに\nお礼を言ったあと、\n小さな声で…\n\n# textsize 18\n# textflame 1 1\n# voice 330282 \"herena_a_0004\"\n# chara 3302821\n@ヘレナ\n…ふふっ\n先輩、喜ぶかな？\n\n# textsize 24\n# textflame 0 0\n@\nそうつぶやいて、\n無邪気な笑顔を見せる\n\n# textflame 1 1\n# textboxarrow 0 3\n# voice 9952 \"nir_0028\"\n# chara 162\n@ニール\nヘレナがあんな笑顔を見せるなんて…\nあのマスターの影響かしらね？\n\n# textflame 0 0\n@\nヘレナの変化に驚いたニールだが、\n嬉しそうなヘレナを見ているうちに\nニールも思わず笑顔になっていた"
	}
]