[
	{
		"ID": 221051270,
		"script": ";;-----------------------------------------\n;;賀正ED\n;;-----------------------------------------\n# script \"lisp\"\n# background \"forest\"\n# bgmfile \"bgm358\" \"BgmNewYear002\" 0\n;;-----------------------------------------\n# body 3503221\n# pos 3503221 3\n# scale 3503221 0.8 0\n# layer 3503221 3\n# mask 3503221 off\n# alpha 3503221 0 0\n# body 3100611\n# pos 3100611 4\n# scale 3100611 0.8 0\n# layer 3100611 3\n# alpha 3100611 0 0\n# body 3200511\n# pos 3200511 2\n# scale 3200511 0.8 0\n# layer 3200511 3\n# alpha 3200511 0 0\n;;-----------------------------------------\n;;背景：森（昼）\n# textflame 0 0\n@\nマスターとティファレトが\nハルモニアで初日の出を拝んでから\nしばらく経った頃…\n\n# textflame 0 0\n@\n隊の姫達の間では\n妙な噂が流れていた\n\n# alpha 3503221 1 0.5\n# textflame 1 1\n# textboxarrow 0 2\n# face 3503221 \"surprise\"\n@ティファレト\n今年の初日の出はふたつ昇った…\n\n# alpha 3503221 0 0.5\n# alpha 3100611 1 0.5\n# alpha 3200511 1 0.5\n# textflame 1 1\n# textboxarrow 0 1\n# face 3200511 \"happy\"\n# voice 320051 \"mitwumu_t_0004\"\n@ミトゥム\nそうそう、そうなんですよ！\nトレイセーマ、ケイオスリオンでも\n話題になっているんです！\n\n# textflame 1 1\n# textboxarrow 0 3\n# face 3100611 \"happy\"\n# voice 310061 \"nageruring_t_0005\"\n@ナーゲルリング\n…そして、その日の出は\nハルモニアで一番綺麗に見えました\n\n# alpha 3100611 0 0.5\n# alpha 3200511 0 0.5\n# textflame 0 0\n@\nわいわいと話す姫達\nその輪をすっと抜けてティファレトが\nマスターのもとへと寄ってくる\n\n;;演出：ミトゥム、ナーゲルリングout\n# alpha 3503221 1 0.5\n# se \"SE_0719\"\n# waitandnext 0.5\n\n# textflame 1 1\n# textboxarrow 0 2\n# face 3503221 \"surprise\"\n# voice 350322 \"tiphereth_t_0022\"\n@ティファレト\nもしかして\nふたつ目の日というのは\n私の銃撃でしょうか…\n\n# textflame 0 0\n@\nたぶんそうだね\nと返すマスター\n\n;;※セリフのみ\n# textflame 1 1\n# textboxarrow 0 0\n@ミトゥム\nおめでたい初日の出が\nふたつも昇るなんて…\n絶対にいいことがありますよ\n\n# textflame 0 0\n@\n噂に尾ひれがついて\nさらなる盛り上がりを見せている\n\n# textflame 1 1\n# textboxarrow 0 2\n# face 3503221 \"happy\"\n# voice 350322 \"tiphereth_t_0004\"\n@ティファレト\nふふ、これでは真実を\n話すのも野暮…ですね\n\n# textflame 0 0\n@\n頷くマスター\nふたりだけの秘密だね\nとティファレトにこっそり話す\n\n# textflame 1 1\n# textboxarrow 0 2\n# face 3503221 \"surprise\"\n# voice 350322 \"tiphereth_t_0022\"\n@ティファレト\nふたりだけの…\n\n# textflame 0 0\n@\nキョトンとするティファレト\nどうしたのか、と問うマスター\n\n# textflame 1 1\n# textboxarrow 0 2\n# face 3503221 \"shy\"\n@ティファレト\nい、いえ、なんでもありません！\n\n# textflame 1 1\n# textboxarrow 0 2\n@ティファレト\nふたりだけの秘密…\n\n# textflame 1 1\n# textboxarrow 0 2\n# face 3503221 \"happy\"\n# voice 350322 \"tiphereth_t_0005\"\n@ティファレト\nはい、主様と私\n『ふたりだけの秘密』です！\n\n# textflame 0 0\n@\n日の出のように明るい\nティファレトの笑顔\n\n# textflame 0 0\n@\nきっと今年はいい１年になる\nそう予感させる笑顔だった\n\n# fadeout \"black\" 2\n# waitandnext 2.5"
	}
]