[
	{
		"ID": 221051151,
		"script": ";;-----------------------------------------\n;;【ファントムオブキル】クリスマス2019_イベントシナリオ\n;;【EP4】\n;;EP4_1\n;;スクリプト最後の背景：森（昼）\n;;-----------------------------------------\n# script \"lisp\"\n# background \"forest\"\n# bgm \"bgm032\" 0\n;;-----------------------------------------\n;;グリモワール（クリスマス）\n# body 3501721\n# pos 3501721 3\n# scale 3501721 0.8 0\n# layer 3501721 2\n# alpha 3501721 0 0\n# mask 3501721 off\n;;リサナウト（クリスマス）\n# body 3203021\n# pos 3203021 3\n# scale 3203021 0.8 0\n# layer 3203021 2\n# alpha 3203021 0 0\n# mask 3203021 off\n;;ハルモニア兵\n# body 3810001\n# pos 3810001 3\n# scale 3810001 0.8 0\n# layer 3810001 2\n# alpha 3810001 0 0\n# mask 3810001 off\n;;-----------------------------------------\n;;【EP4】時の導き\n;;背景：森（昼）\n# emotionbody 1001 6 3501721 50 200\n# effectpattern 1001 1 1\n# effectstart 1001\n# voice 350172 \"grimoire_ge_0010\"\n# move 3501721 2 0\n# face 3501721 \"angry\"\n# alpha 3501721 1 0\n# mask 3501721 on\n# textflame 1 1\n# textboxarrow 0 1\n# move 3203021 4 0\n# face 3203021 \"usual\"\n# alpha 3203021 1 0\n# mask 3203021 on\n@グリモワール\nどうして上手くいかないのよ！\n転ぶし転ぶし鳥のフンまで当たるし！\n\n# textboxarrow 0 1\n@グリモワール\nキミもワタシのことを\nおちょくってばかりいるし…\nもう！なんなのよ！\n\n# voice 320302 \"risanautr_l_0004\"\n# textboxarrow 0 3\n@リサナウト\nおちょくってるわけじゃないわ\nすべての事象がそうなっているだけ\n\n# textboxarrow 0 1\n@グリモワール\nそういうところだっていうの！\n\n# face 3203021 \"angry\"\n# textboxarrow 0 3\n@リサナウト\nそもそも必要なものが\nなにか告げずに先へ行くから\n私には探しようがなかったのよ\n\n# textboxarrow 0 1\n@グリモワール\nキミに正論で\n諭されるとは思わなかったわ\n\n# textboxarrow 0 3\n@リサナウト\nほら、言ってごらんなさい？\n\n# textboxarrow 0 1\n@グリモワール\nなんで上から目線なのよ！\nはぁ、本当になんで一緒に\n来ちゃったのかしら…\n\n# face 3501721 \"usual\"\n# textboxarrow 0 1\n@グリモワール\n…あの木を再生するのに必要なのは\nまず\n大地の力をふんだんに宿した肥沃な土\n\n# textboxarrow 0 1\n@グリモワール\nそれに\nたくましく育った植物の成分は\n木をより強靭にしてくれるわ\n\n# textboxarrow 0 1\n@グリモワール\n最後に、一番大事なのが\nもっとも生命の力を宿したもの\n…まだ芽吹く前の種よ\n\n# voice 350172 \"grimoire_ge_0015\"\n# face 3501721 \"sad\"\n# textboxarrow 0 1\n@グリモワール\nこの場所に\nそのすべてが揃っているはずなのに…\n\n# face 3203021 \"usual\"\n# textboxarrow 0 3\n@リサナウト\nそれなら\n全部揃っているじゃない\n\n# face 3501721 \"angry\"\n# textboxarrow 0 1\n@グリモワール\nまたいつもの外れ予言？\n今までのはたまたま当たっただけ\n調子に乗らないでほしいわ\n\n# textboxarrow 0 3\n@リサナウト\nこれは予言ではない\n確定事象の報告に過ぎないの\n\n# face 3501721 \"usual\"\n# textboxarrow 0 1\n@グリモワール\n…気休めでも言うつもり？\n\n# textboxarrow 0 3\n@リサナウト\nグリモワール\nあなたがさっき転んだ時\n泥だらけになったでしょう？\n\n# textboxarrow 0 1\n@グリモワール\nそれがなんだっていうの？\n\n# textboxarrow 0 3\n@リサナウト\nそして私を逆さ吊りにするほど\nたくましい植物のツタは\n私の足に絡みついたまま\n\n# textboxarrow 0 3\n@リサナウト\nそして、あなたの頭にフンを\n降らせた鳥は木の実を食べていた…\nこの意味、わかるわね？\n\n# emotionbody 1002 1 3501721 10 280\n# effectpattern 1002 2 0\n# effectstart 1002\n# voice 350172 \"grimoire_ge_0022\"\n# face 3501721 \"surprise\"\n# textboxarrow 0 1\n@グリモワール\n足にツタを巻き付かせたまま\n歩いてきたの！？ \n\n# face 3203021 \"angry\"\n# textboxarrow 0 3\n@リサナウト\n気にするのは\nそこじゃないわ\n\n# face 3501721 \"usual\"\n# textboxarrow 0 1\n@グリモワール\nこれまでのお返しよ\n\n# textboxarrow 0 1\n@グリモワール\n…はぁ、わかってるわよ\n確定事象だって言うんでしょ？\nキミにしては上出来だわ\n\n# se \"SE_6504\"\n# emotionbody 1003 3 3203021 10 290\n# effectpattern 1003 1 3\n# effectstart 1003\n# voice 320302 \"risanautr_l_0005\"\n# face 3203021 \"happy\"\n# textboxarrow 0 3\n@リサナウト\nふふふっ\nそれじゃあ早く戻って\nあの木に魔術を施しましょう！\n\n;;演出：移動の暗転\n;;背景：ハルモニア市街地（昼）\n# se \"SE_0719\"\n# textwindow \"close\"\n# fadeout \"black\" 1\n# waitandnext 1.2\n\n# background \"400_angel_town_daytime\"\n# move 3501721 2 0\n# face 3501721 \"happy\"\n# alpha 3501721 1 0\n# mask 3501721 on\n# move 3203021 4 0\n# face 3203021 \"usual\"\n# alpha 3203021 1 0\n# mask 3203021 on\n# waitandnext 0.2\n\n# fadein \"black\" 1\n# waitandnext 1\n\n# voice 350172 \"grimoire_ge_0004\"\n# textboxarrow 0 1\n# textwindow \"normal\"\n@グリモワール\n備えて行った甲斐があったわ…\n木は無事みたいね\n\n# voice 320302 \"risanautr_l_0037\"\n# face 3203021 \"angry\"\n# textboxarrow 0 3\n@リサナウト\nけどまた余計なのが\nうろうろしているわね\n\n;;演出：ハルモニア兵in\n# bgmfile \"bgm073_074\" \"BgmChristmas001\" 0\n# se \"SE_5575\"\n# alpha 3501721 0 0.5\n# alpha 3203021 0 0.5\n# move 3810001 3 0\n# alpha 3810001 1 0.5\n# mask 3810001 off\n# textboxarrow 0 2\n@ハルモニア兵\n貴様ら！\n報告にあった斬ル姫だな！\n\n# voice 320302 \"risanautr_l_0007\"\n# alpha 3810001 0 0.5\n# move 3501721 2 0\n# face 3501721 \"usual\"\n# alpha 3501721 1 0.5\n# mask 3501721 on\n# move 3203021 4 0\n# face 3203021 \"angry\"\n# alpha 3203021 1 0.5\n# mask 3203021 on\n# textboxarrow 0 3\n@リサナウト\n自分で蒔いた種だものね\n私とグリモワールで\n対処しないと！\n\n# textboxarrow 0 1\n@グリモワール\n当然のように\nワタシが巻き込まれているけど\nまぁ、特別に付き合ってあげるわ\n\n# face 3501721 \"angry\"\n# textboxarrow 0 1\n@グリモワール\n一応言っておくと\n今、ワタシたちが持っている種は\n蒔くためのものじゃないわよ？\n\n# emotionbody 1004 10 3203021 -60 220\n# effectpattern 1004 4 3\n# effectstart 1004\n# voice 320302 \"risanautr_l_0004\"\n# face 3203021 \"happy\"\n# textboxarrow 0 3\n@リサナウト\nふふ、上手いこと言うじゃない\nさぁ、行くわよ！"
	}
]