[
	{
		"ID": 221041400,
		"script": ";;-----------------------------------------\n;;ファンキル　バレンタインイベント　シナリオ\n;;【タイトル案】\n;;悪戯姫の甘い嘘\n;;【プロローグ】\n;;背景：荒野\n;;-----------------------------------------\n# background \"wild\"\n# bgmfile \"bgm272\" \"BgmLostRagnarokEvent\" 0\n;;-----------------------------------------\n;;ヘレナ（通常衣装）\n# body 3302811\n# pos 3302811 3\n# scale 3302811 0.8 0\n# alpha 3302811 0 0\n;;ニール\n# body 162\n# pos 162 4\n# scale 162 0.6 0\n# alpha 162 0 0\n# layer 162 4\n;;オティヌス（通常衣装）\n# body 3400811\n# pos 3400811 3\n# scale 3400811 0.8 0\n# alpha 3400811 0 0\n# mask 3400811 off\n;;-----------------------------------------\n# textflame 0 0\n@\n2月のある日、隊の斬ル姫達は\nもうすぐやってくるバレンタインに\n向けて、そわそわと浮き足立っていた\n\n# textflame 0 0\n@\nマスターにどんなチョコレートを\n渡すのか相談しあい、はしゃいでいる\n\n# textflame 0 0\n@\nヘレナとニールはそんな姫達を、\n少し離れた場所から見ていた\n\n# textboxarrow 0 2\n# textflame 1 1\n# mask 3302811 off\n# alpha 3302811 1 1\n# alpha 162 1 1\n# face 3302811 \"usual\"\n;;# voice 3028 \"\"\n# chara 3302811\n@ヘレナ\nふぅん…\n先輩はたくさんチョコレートを\nもらえそうだな…\n\n# textboxarrow 0 3\n# voice 9952 \"nir_0002\"\n# chara 162\n@ニール\nヘレナはどうするの？\n\n# emotionbody 1000 10 3302811 -60 200\n# effectpattern 1000 4 0\n# effectstart 1000\n# textboxarrow 0 2\n# face 3302811 \"normal\"\n# voice 3028 \"herena_a_0004\"\n# chara 3302811\n@ヘレナ\nそうだな…普通じゃ退屈だろう？\nみんなとは違うことをしないとね\n…くふっ\n\n# effectskip 1000\n# textflame 0 0\n@\nニールはヘレナの意見に賛同し、\n二人はマスターを驚かす計画について\n相談を始める\n\n# textflame 0 0\n@\nそんなヘレナとニールの様子を\nじっと見ていたオティヌスが、\n二人に歩み寄ってきた\n\n# se \"SE_0719\"\n# textboxarrow 0 2\n# alpha 3400811 1 1\n# alpha 3302811 0 0.5\n# alpha 162 0 0.5\n# textflame 1 1\n# face 3400811 \"normal\"\n# voice 340081 \"otyinusu_a_0002\"\n# chara 3400811\n@オティヌス\n楽しそうな話をしているじゃないか\nあたしも混ぜてよ\n似たようなことを考えていたんだ\n\n# voice 340081 \"otyinusu_a_0004\"\n# chara 3400811\n@オティヌス\nあたし一人でやるより、\nヘレナと組めば、\nもっと面白くなると思ってさ\n\n# emotionbody 1001 1 3302811 0 250\n# effectpattern 1001 1 0\n# effectstart 1001\n# textboxarrow 0 3\n# move 3400811 2 0.5\n# move 3302811 4 0\n# alpha 3302811 1 0.5\n# mask 3400811 on\n# mask 3302811 on\n# face 3302811 \"surprise\"\n# voice 3028 \"herena_a_0022\"\n# chara 3302811\n@ヘレナ\nへぇ…それは気になるな\n話を聞かせてよ\n\n# textboxarrow 0 1\n;;# voice 340081 \"\"\n# chara 3400811\n@オティヌス\nまずは、マスターを…\nそれでチョコレートに…\n\n;;演出：時間経過\n# se \"SE_5686\"\n# imageset 0 \"black\"\n# imagealpha 0 0 0\n# imagelayer 0 1\n# waitandnext 0.1\n\n;;暗転挟む\n# imagealpha 0 1 0\n# imagepos 0 0 30\n# imageleftin 0 0.5\n# serif 0\n# textwindow \"close\"\n# serif 1\n# textwindow \"close\"\n# waitandnext 1\n\n# imagealpha 0 0 0.5\n# imagerightout 0 0.5\n# serif 0\n# textwindow \"nomal\"\n# face 3302811 \"normal\"\n;;# voice 340081 \"\"\n# chara 3400811\n@オティヌス\n…と、いうわけで、\nあたし達のバレンタインショウは、\n素晴らしいエンディングを迎えるのさ\n\n# textboxarrow 0 3\n# voice 3028 \"herena_a_0040\"\n# chara 3302811\n@ヘレナ\nなるほど…\n悪くないな\nいいよ、一緒にやろうか\n\n# emotionbody 1002 3 3400811 50 200\n# effectpattern 1002 1 0\n# effectstart 1002\n# textboxarrow 0 1\n# face 3400811 \"happy\"\n# voice 340081 \"otyinusu_a_0005\"\n# chara 3400811\n@オティヌス\nそうこなくちゃ！\nでは、当日までは各自準備を進めよう\nふふっ、楽しみだね…"
	}
]