[
	{
		"ID": 230091101,
		"script": "# script \"lisp\"\n# background \"sea_jungle_day\"\n# bgmfile \"bgm230\" \"BgmSeaEvent\" 0\n# body 2300911\n# pos 2300911 3\n# mask 2300911 off\n# face 2300911 \"usual\"\n# textflame 0 0\n@\nみんなと一緒に\nジャングルへと来た\n青龍偃月刀とマスター\n\n# textflame 1 1\n# textboxarrow 0 2\n# chara 2300911\n# voice 3009 \"seiryu_0021\"\n@青龍偃月刀\nいいですね～\n緑の木々に囲まれて\n心が癒されます！\n\n# eye 2300911 \"close\"\n# textflame 1 1\n# textboxarrow 0 2\n@青龍偃月刀\nす～は～！\n空気もおいしいです！\n\n# eye 2300911 \"normal\"\n# face 2300911 \"usual\"\n# textflame 1 1\n# textboxarrow 0 2\n# voice 3009 \"seiryu_0005\"\n@青龍偃月刀\nここに来るだけで\n日頃の疲れが吹き飛んで\nしまいそうですね、主君！\n\n# textflame 0 0\n@\nその言葉に続けて\nそれでは勉学に励みましょう\nとか言い出すのではと思っていたが…\n\n# face 2300911 \"sad\"\n# textflame 1 1\n# textboxarrow 0 2\n# voice 3009 \"seiryu_0028\"\n@青龍偃月刀\nどうかされたのですか？\nそんな暗い顔をされて…\nもしかして、お腹でも痛いのですか？\n\n# face 2300911 \"usual\"\n# textflame 1 1\n# textboxarrow 0 2\n# voice 3009 \"seiryu_0004\"\n@青龍偃月刀\nふふふ！それとも…\n私が今日も勉学に励みましょうとか\n言い出すと思ってましたか？\n\n# textflame 0 0\n@\nマスターの心は完全に読まれ\n激しく首を上下に振って応える\n\n# eye 2300911 \"close\"\n# textflame 1 1\n# textboxarrow 0 2\n# voice 3009 \"seiryu_0028\"\n@青龍偃月刀\nそう言いたいところですが…\n仕方ありませんね！\n\n# textflame 1 1\n# textboxarrow 0 2\n@青龍偃月刀\nさすがに野暮だと\n私も十分に理解しております…\n\n# eye 2300911 \"normal\"\n# face 2300911 \"normal\"\n# textflame 1 1\n# textboxarrow 0 2\n@青龍偃月刀\n今日はせっかく来たので\n勉学の方はお休みにします！\n\n# textflame 0 0\n@\nそれを聞いたマスターは\n心の中でガッツポーズをして\n思いっきり遊びつくそうと考える\n\n# face 2300911 \"usual\"\n# textflame 1 1\n# textboxarrow 0 2\n# voice 3009 \"seiryu_0009\"\n@青龍偃月刀\nですが…\n羽を伸ばし過ぎてはなりません！\n\n# textflame 1 1\n# textboxarrow 0 2\n@青龍偃月刀\n遊びの中にも\nきっと学べるものが\nあるはずです！\n\n# textflame 1 1\n# textboxarrow 0 2\n@青龍偃月刀\nそれを理解したうえで\n節度ある遊びをしてくださいね！\n\n# textflame 0 0\n@\nしっかりと釘を刺してくるあたり\nさすがだと感心しつつも…\nやっぱり彼女は真面目すぎる\n\n# textflame 0 0\n@\n思いっきり遊んだことなど\nおそらくはないのだろう\nそう考えたマスターは…\n\n# textflame 0 0\n@\nせっかく水着を着ているのだから\n一緒に遊ぼうと彼女を誘う\n\n# face 2300911 \"sad\"\n# textflame 1 1\n# textboxarrow 0 2\n# voice 3009 \"seiryu_0023\"\n@青龍偃月刀\nこれは別に…\n雰囲気を楽しむためであって\n遊ぶためでは…\n\n# textflame 1 1\n# textboxarrow 0 2\n@青龍偃月刀\n私はここでゆっくりしていますから\n主君はおひとりで\n遊んできてください…\n\n# textflame 1 1\n# textboxarrow 0 2\n@青龍偃月刀\n私なんかと行っても\n楽しくはないでしょうから…\n\n# textflame 0 0\n@\nなかなか乗り気ではない彼女に\n遊びの中にも学べるものが\nあるって言っていたよねとマスター\n\n# textflame 0 0\n@\nその感覚を一緒に体験しに行こうと\n彼女を説得する\n\n# eye 2300911 \"close\"\n# textflame 1 1\n# textboxarrow 0 2\n# voice 3009 \"seiryu_0028\"\n@青龍偃月刀\nそ、それなら…まあ\n仕方ありませんね！\n\n# eye 2300911 \"normal\"\n# face 2300911 \"usual\"\n# textflame 1 1\n# textboxarrow 0 2\n# voice 3009 \"seiryu_0032\"\n@青龍偃月刀\n主君の遊びに\n付き合ってあげます…\n\n# textflame 0 0\n@\nこうして彼女を\nなんとか遊びに誘うことに\n成功したマスターだった…\n"
	}
]