[
	{
		"ID": 230171104,
		"script": ";;【EP4】\n# script \"lisp\"\n# background \"sea_jungle_night\"\n# bgmfile \"bgm230\" \"BgmSeaEvent\" 0\n# body 2301711\n# pos 2301711 3\n# mask 2301711 off\n# face 2301711 \"smile\"\n# alpha 2301711 0 0\n# textflame 0 0\n@\nあれから数日後─\n\n# alpha 2301711 1 0.5\n# textflame 1 1\n# textboxarrow 0 2\n# chara 2301711\n# voice 3017 \"wotan_0005\"\n@ヴォータン\n新たな宝の場所を見つけてきたぞ！\n\n# textflame 0 0\n@\nと、彼女に連れられ…\nマスターはまた、\n夜のジャングルへと赴いていた\n\n# face 2301711 \"angry\"\n# textflame 1 1\n# textboxarrow 0 2\n# chara 2301711\n@ヴォータン\n今度は本当だ！\n\n# textflame 1 1\n# textboxarrow 0 2\n# chara 2301711\n@ヴォータン\n今度こそ、\nお宝のある場所を\n聞きつけたのだ！\n\n# textflame 0 0\n@\n…って言う割には、\n日も暮れて\n夜になっちゃってるけど…\n\n# textflame 0 0\n@\nマスターが彼女にツッコむ\n\n# face 2301711 \"sad\"\n# textflame 1 1\n# textboxarrow 0 2\n# chara 2301711\n# voice 3017 \"wotan_0015\"\n@ヴォータン\nそ、それはだな…\n\n# textflame 0 0\n@\n自信なさげに俯く彼女\n\n# select \"本当に宝があるの…？\" \"select_label_01\" \"また罠じゃないの…？\" \"select_label_02\" \"徒労に終わるんじゃないの…？\" \"select_label_03\"\n自信なさげに俯く彼女\n\n# label \"select_label_01\"\n# labeljump \"select_label_end\"\n# textflame 1 1\n# textboxarrow 0 2\n# chara 2301711\n# voice 3017 \"wotan_0028\"\n@ヴォータン\nいや、わからない…\n\n# label \"select_label_02\"\n# labeljump \"select_label_end\"\n# textflame 1 1\n# textboxarrow 0 2\n# chara 2301711\n# voice 3017 \"wotan_0028\"\n@ヴォータン\nそうかも知れない…\n\n# label \"select_label_03\"\n# labeljump \"select_label_end\"\n# textflame 1 1\n# textboxarrow 0 2\n# chara 2301711\n# voice 3017 \"wotan_0028\"\n@ヴォータン\n心配なのは分かる…\n\n# label \"select_label_end\"\n# eye 2301711 \"close\"\n# textflame 1 1\n# textboxarrow 0 2\n# chara 2301711\n@ヴォータン\nでも、失敗を恐れて\n冒険をしないんじゃ…\n\n# eye 2301711 \"normal\"\n# face 2301711 \"normal\"\n# textflame 1 1\n# textboxarrow 0 2\n# chara 2301711\n@ヴォータン\nいつまで経っても変われないだろ？\n\n# textflame 1 1\n# textboxarrow 0 2\n# chara 2301711\n@ヴォータン\n私は…変わりたかったんだな\n強くなりたかったんだな\n\n# textflame 1 1\n# textboxarrow 0 2\n# chara 2301711\n@ヴォータン\nいつも強気な態度でいるのは…\n本当は怖かったからだ\n自分より強い相手が\n\n# eye 2301711 \"close\"\n# textflame 1 1\n# textboxarrow 0 2\n# chara 2301711\n@ヴォータン\n自分の…心の弱さが\n\n# eye 2301711 \"normal\"\n# textflame 1 1\n# textboxarrow 0 2\n# chara 2301711\n@ヴォータン\nだから、お前を誘い、\n宝探しの冒険の旅に出た\n\n# textflame 1 1\n# textboxarrow 0 2\n# chara 2301711\n@ヴォータン\n冒険は…\n私を強くしてくれると\n思ったから\n\n# textflame 1 1\n# textboxarrow 0 2\n# chara 2301711\n@ヴォータン\nでも違った\n本当に私を強くしてくれるのは\n自らを見限らず諦めない心、そして…\n\n# textflame 1 1\n# textboxarrow 0 2\n# chara 2301711\n@ヴォータン\nお前との絆だ\n\n# face 2301711 \"smile\"\n# textflame 1 1\n# textboxarrow 0 2\n# chara 2301711\n# voice 3017 \"wotan_0004\"\n@ヴォータン\n心の繋がりが…\n私を恐怖から\n奮い立たせてくれるのだ\n\n# textflame 0 0\n@\nと、彼女が微笑む\n\n# textflame 0 0\n@\nその珍しく素直な笑顔に、\nマスターも不思議と力をもらう\nこれが彼女の言う絆の力なのか\n\n# se \"SE_0602\"\n# imageset 0 \"black\"\n# imagealpha 0 0 0\n# imagelayer 0 1\n# textflame 1 1\n# textboxarrow 0 2\n# chara 2301711\n# voice 3017 \"wotan_0005\"\n@ヴォータン\nわっはっは！ともかく、\n新奥義『ジャングル連合の絆』、\n開眼だな！！\n\n\n;;――場面転換――\n# imagealpha 0 1 0\n# imagepos 0 0 30\n# imageleftin 0 0.5\n# serif 0\n# textwindow \"close\"\n# serif 1\n# textwindow \"close\"\n# waitandnext 1\n\n# face 2301711 \"normal\"\n# waitandnext 0.1\n\n# imagealpha 0 0 0.5\n# imagerightout 0 0.5\n# serif 0\n# textwindow \"normal\" \n# textflame 0 0\n@\nそれから、しばらく行って…\n\n# textflame 1 1\n# textboxarrow 0 2\n# chara 2301711\n@ヴォータン\n見ろ…\n\n# textflame 1 1\n# textboxarrow 0 2\n# chara 2301711\n@ヴォータン\n信じて良かったじゃないか\n今度こそ…\n\n# face 2301711 \"smile\"\n# textflame 1 1\n# textboxarrow 0 2\n# chara 2301711\n# voice 3017 \"wotan_0020\"\n@ヴォータン\nお宝だ！！\n\n# textflame 0 0\n@\n！！\n\n# textflame 0 0\n@\n怪しく光を放つ物体…\n\n# textflame 0 0\n@\nそれは大自然に育まれた\n無数の蛍の群れだった\n\n# textflame 1 1\n# textboxarrow 0 2\n# chara 2301711\n# voice 3017 \"wotan_0039\"\n@ヴォータン\nふふ、キレイだな\nこの光景…\nまさに金銀財宝にも勝る宝！！\n\n# textflame 1 1\n# textboxarrow 0 2\n# chara 2301711\n@ヴォータン\nほら、ボサッとしてないで、\nもっと近くで見…\n\n# textflame 0 0\n@\nと、駆け出そうとした彼女だが、\nつまずき転びそうになる\n\n# face 2301711 \"sad\"\n# textflame 1 1\n# textboxarrow 0 2\n# chara 2301711\n# voice 3017 \"wotan_0022\"\n@ヴォータン\nわっ！\n\n# textflame 0 0\n@\n咄嗟に肩を貸すマスター\n\n# face 2301711 \"smile\"\n# textflame 1 1\n# textboxarrow 0 2\n# chara 2301711\n@ヴォータン\n…む、\n…す…すまん…\n\n# textflame 0 0\n@\n夏のせいだろうか…？\nそれとも\n太陽と水着のせいだろうか…？\n\n# imageset 0 \"c2301711\"\n# imagealpha 0 0 0\n# textflame 0 0\n@\nとにもかくにも、\n俯き、はにかんだ彼女の可愛らしさは\n本物の金銀財宝よりも輝いて見えた\n\n;;「私を誰だと思っている！　…そこらの娘と一緒にするな！　離れろ～！」\n# voice 3017 \"wotan_kyara_0013\"\n# frameout 0 0.5\n# buttonsout 0 0.5\n# imagealpha 0 1 0\n# imagepos 0 0 0\n# fadein \"white\" 3\n# textwindow \"close\""
	}
]