[
	{
		"ID": 230141104,
		"script": ";;【EP4】(オチ２)\n;;背景　砂浜（リゾート）\n# script \"lisp\"\n# background \"sea_beach_day\"\n# bgmfile \"bgm227\" \"BgmSeaEvent\" 0\n# body 2301411\n# pos 2301411 3\n# mask 2301411 off\n# alpha 2301411 0 0\n# face 2301411 \"smile\"\n# textboxarrow 0 2\n# chara 2301411\n# textflame 0 0\n@\n―あれから数日後\n\n# textflame 0 0\n@\nイシューリエルとすっかり\n仲直りしたマスターは\n再びふたりで海水浴に来ていた\n\n# voice 3014 \"ithuriel_0001\"\n# face 2301411 \"smile\"\n# alpha 2301411 1 0.5\n# textflame 1 1\n@イシューリエル\nほら、こちらですわよ！\nマスター、早く早く！\n\n# voice 3014 \"ithuriel_0004\"\n# textflame 1 1\n@イシューリエル\nふふ、はしゃぎすぎですか？\nだって前回は色々ありましたもの\n仕方がないですわ\n\n# textflame 1 1\n@イシューリエル\nさあ、今日は楽しみますわよ！\nマスター、何からやりますの？\n\n# textflame 0 0\n@\nそんな彼女のテンションに釣られて\nマスターも楽しそうに\n遊びを提案した\n\n@\n砂浜で、ビーチバレーを始めるふたり\n\n# voice 3014 \"ithuriel_battle_0002\"\n# face 2301411 \"usual\"\n# textflame 1 1\n@イシューリエル\nえいっ！\nふふ、浮き輪でボールを弾くのは\n反則ではありませんわ\n\n# textflame 1 1\n@イシューリエル\nだってこれは、今のわたくしの一部！\nだからセーフですわ！\n\n# voice 3014 \"ithuriel_0006\"\n# textflame 1 1\n@イシューリエル\nさぁ、マスター！\nどんどんいきますわよ！\n\n# select \"おてやわらかに\" \"select_label_01\" \"負けないぞ\" \"select_label_02\" \"楽しもう\" \"select_label_03\"\nさぁ、マスター！\nどんどんいきますわよ！\n\n# label \"select_label_01\"\n# labeljump \"select_label_end\"\n# textflame 1 1\n# textboxarrow 0 2\n@イシューリエル\nあら、全力でいきますわよ\n\n# label \"select_label_02\"\n# labeljump \"select_label_end\"\n# textflame 1 1\n# textboxarrow 0 2\n@イシューリエル\nわたくしだって！\n\n# label \"select_label_03\"\n# labeljump \"select_label_end\"\n# textflame 1 1\n# textboxarrow 0 2\n@イシューリエル\nもちろんですわ！\n\n# label \"select_label_end\"\n\n;;暗転（時間経過）\n# fadeout \"black\" 1.5\n# waitandnext 2\n\n# face 2301411 \"sad\"\n# fadein \"black\" 1\n# textflame 1 1\n@イシューリエル\nあら、もうこんな時間ですの？\n\n# face 2301411 \"smile\"\n# textflame 1 1\n@イシューリエル\n楽しい時間は\nあっという間に過ぎるとは\nよく言ったものですわね\n\n# face 2301411 \"usual\"\n# textflame 1 1\n@イシューリエル\nそうですわ\nわたくし、マスターに\nお見せしたいものが…\n\n# textflame 1 1\n@イシューリエル\nこの前マスターが渡してくれた\n貝殻のお礼なのですが…\n\n# textflame 0 0\n@\nイシューリエルに手渡されたそれは\n小さな貝殻を紐で結んだ\nペンダントだった\n\n# face 2301411 \"sad\"\n# textflame 1 1\n@イシューリエル\n…どう、ですか？\n\n# textflame 0 0\n@\nおずおずと聞いてくる彼女に\n可愛いペンダントだ、\nありがとうと嬉しそうに言うマスター\n\n# face 2301411 \"sad\"\n# textflame 1 1\n@イシューリエル\n可愛いと褒めるのは…\nペンダントだけですの？\n\n# textflame 0 0\n@\nわざとらしくイシューリエルが\nすねてみせる\n\n# textflame 0 0\n@\nマスターは、また機嫌を\n損ねられてはだと、\nほめようとして…\n\n# textflame 0 0\n@\nその唇に\nイシューリエルの人差し指を\nあてられた\n\n# voice 3014 \"ithuriel_0004\"\n# face 2301411 \"smile\"\n# textflame 1 1\n@イシューリエル\nふふふ\n冗談ですわよ、マスター\n\n# textflame 1 1\n@イシューリエル\nマスターの気持ち…\n言葉にせずともわかります\n\n# textflame 1 1\n@イシューリエル\n先日の反省から\nわたくしは成長したのです\n\n# textflame 1 1\n@イシューリエル\nもはや言葉をかわさずとも\n心を通わせることができる…\n\n# textflame 1 1\n@イシューリエル\nこうして過ごす時間ではもちろん\nきっと戦いでも助けにもなりますわ\nマスターを助ける、新たな力…\n\n# se \"SE_0602\"\n# textflame 0 0\n@\nそれはまさしく彼女が\n新スキル『海浜ビーチ帝国の誇り』を\n習得した瞬間だった\n\n# textflame 0 0\n@\nすごい、と感嘆の声を上げる\nマスター\n\n# voice 3014 \"ithuriel_0005\"\n# textflame 1 1\n@イシューリエル\nふふふ、当然のことですわ…\nですが、やはり嬉しいですわね\n\n# textflame 1 1\n@イシューリエル\n言葉はいらなくても理解できる…\nそうは言っても\n言葉にしてほしい想いもありますから\n\n# voice 3014 \"ithuriel_0036\"\n# textflame 1 1\n@イシューリエル\nマスター\nそれを忘れないでくださいね？\n\n# voice 3014 \"ithuriel_0004\"\n# textflame 1 1\n@イシューリエル\nふふ。乙女の心というのは\n簡単に理解できないのですわ\n\n# imageset 0 \"c2301411\"\n# imagealpha 0 0 0\n# textflame 0 0\n@\n忠告するイシューリエルの表情は\nとても幸せそうなものだった\n\n;;【ボイス】\n;;真実はもう、わかっていますの…。でも！　…言ってほしい…\n# voice 3014 \"ithuriel_kyara_0028\"\n# frameout 0 0.5\n# buttonsout 0 0.5\n# imagealpha 0 1 0\n# imagepos 0 0 0\n# fadein \"white\" 3\n# textwindow \"close\"\n"
	}
]