[
	{
		"ID": 230201103,
		"script": ";;■EP3\n# script \"lisp\"\n# background \"sea_beach_day\"\n# bgmfile \"bgm227\" \"BgmSeaEvent\" 0\n# body 2302011\n# pos 2302011 3\n# mask 2302011 off\n# textboxarrow 0 2\n# chara 2302011\n# textflame 1 1\n# face 2302011 \"sad\"\n# voice 3020 \"pisear_0015\"\n@ピサール\nあ～、もうダメかも～！\n\n# textflame 0 0\n@\nマスターはとっさに\n砂から出ているピサールの頭を\nかばうようにして抱きしめる\n\n# textflame 1 1\n# voice 3020 \"pisear_0001\"\n@ピサール\nえっ…！\nま、マスタ～！？\n\n# face 2302011 \"angry\"\n# textflame 1 1\n# voice 3020 \"pisear_0022\"\n@ピサール\nだ、ダメ…！\n熱がっ…！\n\n# textflame 0 0\n@\nマスターがピサールを見ると\n周りの砂から\nもくもくと湯気がたっている\n\n# textflame 1 1\n@ピサール\n…あ、そうだ！\nこの熱をうまく利用すれば…！\n\n# textflame 0 0\n@\nピサールは熱を力に変え\n一気に砂の中から飛び出す\n\n# textflame 0 0\n@\nそしてピサールは\nそのままの勢いで異族に攻撃…！\n\n# se \"SE_0602\"\n# textflame 1 1\n# face 2302011 \"angry\"\n# voice 3020 \"pisear_0029\"\n@ピサール\nいっくよ～！\n『猛威熱砂エナジー』…！\n\n# textflame 0 0\n@\nそれはまさに、ピサールが\n新たな力を手にした瞬間だった！\n\n# face 2302011 \"smile\"\n# textflame 1 1\n# voice 3020 \"pisear_0004\"\n@ピサール\nあはは\nこういうやり方もあるんだね～\n\n# textflame 0 0\n@\n異族を倒した新技の威力に\n満足気に笑ったピサールは…\n\n# textflame 0 0\n@\nそのまま海の中に\nドボーン、と落ちてしまう\n\n# face 2302011 \"sad\"\n# textflame 1 1\n@ピサール\nうわ…、海…はまずいよね…\n早く出なきゃ、また周りの人が…\n\n# textflame 0 0\n@\nピサールは慌てて\n海から出ようとするが…\n\n# textflame 1 1\n# voice 3020 \"pisear_0039\"\n@ピサール\nあれ、誰もいない…？\n\n# textflame 0 0\n@\n海水浴客はすべて避難して\nビーチが無人になっていたことに\nピサールは今、気づいたようだった\n\n# textflame 1 1\n@ピサール\nあれ？もしかして\nもう少し海の中にいていい…の？\n\n# textflame 0 0\n@\n戸惑うピサールに\nマスターは大丈夫だよ、と言う\n\n# face 2302011 \"smile\"\n# textflame 1 1\n# voice 3020 \"pisear_0005\"\n@ピサール\nそっか～。やった～\nふふふ～ん♪\n\n# textflame 0 0\n@\nマスターの言葉に\nピサールは嬉しそうに\n海の中で羽を伸ばし始める\n\n# textflame 1 1\n@ピサール\nあ～、砂の中もいいけど\n海の中もきもちい～\n\n# textflame 0 0\n@\nしばらくして海から出てくると\nピサールは砂浜にぐでーっと倒れ込む\n\n# face 2302011 \"normal\"\n# textflame 1 1\n@ピサール\nはぁ～、なんかいろいろと\n面倒くさかったけど…\n\n# textflame 1 1\n# voice 3020 \"pisear_0020\"\n@ピサール\nま、たまには海も悪くないかもね～\n\n# imageset 0 \"c2302011\"\n# imagealpha 0 0 0\n# textflame 0 0\n@\nそう言って、ピサールはにこーっと\nマスターに笑いかけるのだった\n\n;;【ボイス】\n;;音声：pisear_kyara_0026\n;;マスターがね、どうしてもっていうならね…してもいいよ？\n# voice 3020 \"pisear_kyara_1026\"\n# frameout 0 0.5\n# buttonsout 0 0.5\n# imagealpha 0 1 0\n# imagepos 0 0 0\n# fadein \"white\" 3\n# textwindow \"close\""
	}
]