[
	{
		"ID": 230251201,
		"script": ";;-----------------------------------------\n;;●ミネルヴァ　水着シナリオ\n;;【EP1】\n;;背景：ビーチ\n;;スクリプトID：230251201\n;;スクリプト最後の背景：sea_beach_day\n;;-----------------------------------------\n# script \"lisp\"\n# background \"sea_beach_day\"\n# bgmfile \"bgm224\" \"BgmSeaEvent\" 0\n# body 2302511\n# pos 2302511 3\n# scale 2302511 0.8 0\n# alpha 2302511 1 0\n# mask 2302511 off\n# face 2302511 \"smile\"\n;;◆背景：ビーチ（昼）----------------------\n# voice 3025 \"minerva_0005\"\n# textflame 1 1\n# textboxarrow 0 2\n@ミネルヴァ\nよかった、みなさん\nとても楽しんでいるようですね\n\n# face 2302511 \"normal\"\n@ミネルヴァ\nやはり海でのバカンスは\n疲れに対して有効…\n私の知識のとおりです\n\n# textflame 0 0\n@\n皆がはしゃぎまわる水辺で\n一人、戯れもせず\nミネルヴァは周囲を見回していた\n\n@\nその瞳には、さびしさや\n疎外感などはまったくなく\n誇り高き知性の光が輝いていた\n\n# voice 3025 \"minerva_0003\"\n# textflame 1 1\n@ミネルヴァ\n場所選びから\nシートやパラソルの準備まで\n手がけたかいがありました…\n\n@ミネルヴァ\nあとは…事故に注意しつつ\n急な騒動にも対処できるよう\n観察を怠らずにおきましょう\n\n# textflame 0 0\n@\n彼女が司るのは\n“知恵”と“思慮”\n\n@\nそれは戦いの中だけではなく\nこうしたイベントの準備でも\nいかんなく発揮されるのだった\n\n# face 2302511 \"sad\"\n# textflame 1 1\n# voice 3025 \"minerva_0015\"\n@ミネルヴァ\n…それにしても、暑い\n気温が予想よりも高いですね\nもっと水分を用意しなければ\n\n# textflame 0 0\n@\nそうつぶやいた彼女の目の前を\n飲み物を沢山抱えたマスターが\n忙しげに走ってゆく\n\n@\n暑がるキル姫達の\n飲み物の好みまで考慮して\nてきぱきと…\n\n# face 2302511 \"smile\"\n# voice 3025 \"minerva_0020\"\n# textflame 1 1\n@ミネルヴァ\n私が気づくより先に動いているなんて\nさすがはマスター、頼もしいです  \n\n# face 2302511 \"sad\"\n@ミネルヴァ\nでもせっかくのバカンスなのに\nあれじゃマスターが休めない…\n\n# voice 3025 \"minerva_0027\"\n@ミネルヴァ\nせめてマスターのために\n私がなにか…\n\n# textflame 0 0\n@\n彼女がマスターに\n声をかけようとしたとき\n異変は起こった！\n\n# face 2302511 \"angry\"\n# textflame 1 1\n# voice 3025 \"minerva_0010\"\n@ミネルヴァ\nこの騒ぎ…何かが暴れている？\n話に聞いていたとおりですね\n\n@ミネルヴァ\nみなさんの休養に\n支障が出てはいけません\nここは私が…"
	}
]