[
	{
		"ID": 240031103,
		"script": ";;アポロン_海上編_ＥＰ３\n# script \"lisp\"\n# background \"sea_jungle_day\"\n# bgmfile \"bgm230\" \"BgmSeaEvent\" 0\n# body 2400311\n# pos 2400311 3\n# mask 2400311 off\n# face 2400311 \"sad\"\n# textflame 1 1\n# textboxarrow 0 2\n# chara 2400311\n@アポロン\nはあ～…結局ここに\n戻ってきちゃったか…\n\n# eye 2400311 \"close\"\n# textflame 1 1\n# textboxarrow 0 2\n# chara 2400311\n@アポロン\n戻ってきても湖に足を入れて\n休むしかないし…\nまあ、けっこう気持ちいいけど…\n\n# eye 2400311 \"normal\"\n# textflame 1 1\n# textboxarrow 0 2\n# chara 2400311\n@アポロン\n探索しても他になーんにもないし\nマスターはどっか行っちゃうし\nアルテミスお姉ちゃんはいないし…\n\n# face 2400311 \"angry\"\n# textflame 1 1\n# textboxarrow 0 2\n# chara 2400311\n# voice 4003 \"aporon_0014\"\n@アポロン\nていうか…\nマスターはいったい\nどこ行っちゃったのかなーっ！\n\n# textflame 1 1\n# textboxarrow 0 2\n# chara 2400311\n@アポロン\nボクとお姉ちゃんを\n離れ離れにしておいて…\n\n# textflame 1 1\n# textboxarrow 0 2\n# chara 2400311\n@アポロン\nボクのこと追っかけまわして、\n今度は黙ってどっかいくって…\n\n# face 2400311 \"sad\"\n# textflame 1 1\n# textboxarrow 0 2\n# chara 2400311\n# voice 4003 \"aporon_0022\"\n@アポロン\nもう…ほんと\nいったいどこに…\nって、うわっ！？\n\n# textflame 0 0\n@\nきょろきょろするアポロンの前に\n茂みから姿を現してあげると\n驚いたように飛び跳ねた\n\n# textflame 1 1\n# textboxarrow 0 2\n# chara 2400311\n# voice 4003 \"aporon_0025\"\n@アポロン\nママママスター！？\nい、いつからそこに！？\nていうかどこ行ってたの！？\n\n# face 2400311 \"normal\"\n# textflame 1 1\n# textboxarrow 0 2\n# chara 2400311\n@アポロン\nって、なに？\n手を出してって…はい…\n\n# textflame 0 0\n@\n動揺する彼女を落ち着かせながら\n差し出された手のひらに\nある物を置いてあげるマスター\n\n# textflame 1 1\n# textboxarrow 0 2\n# chara 2400311\n# voice 4003 \"aporon_0028\"\n@アポロン\nなにこの手作り感いっぱいの笛…\nちょっと形が整ってないけど、\nどうしたのこれ？\n\n# textflame 1 1\n# textboxarrow 0 2\n# chara 2400311\n# voice 4003 \"aporon_0023\"\n@アポロン\n作ってきた？って、ええ！？\nまさかとは思うけど…\nこれ作りに行ってたの？\n\n# textflame 0 0\n@\nそうだよと頷くと\nアポロンは照れくさそうに、\n頬を染めて戸惑う\n\n# face 2400311 \"sad\"\n# textflame 1 1\n# textboxarrow 0 2\n# chara 2400311\n@アポロン\nたしかにここで\n演奏したいとは言ったけどさ\n\n# face 2400311 \"normal\"\n# textflame 1 1\n# textboxarrow 0 2\n# chara 2400311\n@アポロン\n楽器がないなら作ればいいじゃん！\nみたいな発想…\nマスターは大胆だよ～\n\n# face 2400311 \"smile\"\n# textflame 1 1\n# textboxarrow 0 2\n# chara 2400311\n# voice 4003 \"aporon_0042\"\n@アポロン\nでもまぁ…お礼は言っておこうかな…\nあ、ありがとね\n\n# textflame 1 1\n# textboxarrow 0 2\n# chara 2400311\n# voice 4003 \"aporon_0006\"\n@アポロン\nせっかくだから、\nここで演奏してみるよ\n\n# eye 2400311 \"close\"\n# textflame 0 0\n@\nそう言って、\n彼女は笛で音楽を奏ではじめる\n\n# textflame 0 0\n@\nそよ風のように\nその音楽は優しく身を包んでいき\n心が癒されていった\n\n# textflame 1 1\n# textboxarrow 0 2\n# chara 2400311\n@アポロン\n～～♪\n\n# textflame 0 0\n@\nそして彼女の笛を吹く姿は美しく\n湖の女神のように見えた\n\n# textflame 0 0\n@\nそんなアポロンが奏でる旋律に\nジャングルに住む動物たちが\n集まってきたことに気づくマスター\n\n# eye 2400311 \"normal\"\n# face 2400311 \"normal\"\n# textflame 1 1\n# textboxarrow 0 2\n# chara 2400311\n# voice 4003 \"aporon_0022\"\n@アポロン\n…ふぅ…って、いつの間に\nこんなに動物が！？\n\n# textflame 1 1\n# textboxarrow 0 2\n# chara 2400311\n@アポロン\nこれじゃまるで\n湖のコンサートじゃん！\n\n# face 2400311 \"smile\"\n# textflame 1 1\n# textboxarrow 0 2\n# chara 2400311\n# voice 4003 \"aporon_0005\"\n@アポロン\nやっぱりここで音楽を奏でて\n正解だったね！\n\n# eye 2400311 \"close\"\n# textflame 1 1\n# textboxarrow 0 2\n# chara 2400311\n@アポロン\nお姉ちゃんがいないからって\nふてくされてばっかりじゃ\nなにも楽しくない…\n\n# eye 2400311 \"normal\"\n# face 2400311 \"sad\"\n# textflame 1 1\n# textboxarrow 0 2\n# chara 2400311\n# voice 4003 \"aporon_0031\"\n@アポロン\nその、今まで当たり強くして\nごめんね…マスター\n\n# face 2400311 \"smile\"\n# textflame 1 1\n# textboxarrow 0 2\n# chara 2400311\n@アポロン\nマスターの楽器のお陰で\n自分でも楽しいことを\n見つけられるってわかったよ！\n\n# textflame 1 1\n# textboxarrow 0 2\n# chara 2400311\n# voice 4003 \"aporon_0030\"\n@アポロン\nありがとうマスター！\nお礼ってわけじゃないけれど…\nマスターのためになにかしたいよ\n\n# textflame 0 0\n@\nお礼のために\nやったわけじゃないからいいよ\nとマスター\n\n# face 2400311 \"normal\"\n# textflame 1 1\n# textboxarrow 0 2\n# chara 2400311\n@アポロン\nううん、マスターの力になりたい！\nこの気持ちは止められ…\n\n# face 2400311 \"smile\"\n# textflame 1 1\n# textboxarrow 0 2\n# chara 2400311\n@アポロン\nあっ…この感じ、この気持ち！\nマスターの力になりたいっていう\nボクの想いが力になったよ！\n\n# se \"SE_0602\"\n# textflame 1 1\n# textboxarrow 0 2\n# chara 2400311\n@アポロン\n新スキル、その名も―\n『メロディオンレイク』だよ！\nこの技でマスターを守るんだから！\n\n# textflame 1 1\n# textboxarrow 0 2\n# chara 2400311\n# voice 4003 \"aporon_0006\"\n@アポロン\nそれじゃ、もっといっぱい\n音楽を奏でていくよー！\n\n# textflame 0 0\n@\nそうしてアポロンの演奏が再開し\nその場に集まった動物たちも\n彼女の音色に耳を傾ける\n\n# imageset 0 \"c2400311\"\n# imagealpha 0 0 0 \n# textflame 0 0\n@\n優しい風にのって\n聞こえてくるその笛の音が\nジャングルの中に響き渡っていった\n\n;;aporon_kyara_0015「みんなの力でもっとキラキラするね、ありがと、てんくす！」\n# voice 4003 \"aporon_kyara_0015\"\n# frameout 0 0.5\n# buttonsout 0 0.5\n# imagealpha 0 1 0\n# imagepos 0 0 0\n# fadein \"white\" 3\n# textwindow \"close\""
	}
]