[
	{
		"ID": 240071103,
		"script": ";;【EP3】\n# script \"lisp\"\n# background \"sea_beach_night\"\n# bgmfile \"bgm256\" \"BgmSeaDate\" 0\n# body 2400711\n# pos 2400711 3\n# mask 2400711 off\n# textflame 1 1\n# textboxarrow 0 2\n# chara 2400711\n# face 2400711 \"sad\"\n@シェキナー\nマスター？\n夜遅くになんの用でしょうか？\n\n# textflame 0 0\n@\n昼の分まで、これから遊ぼう\n\n# textflame 1 1\n# textboxarrow 0 2\n# chara 2400711\n# face 2400711 \"angry\"\n# voice 4007 \"shekina_0011\"\n@シェキナー\n…マスター\n夜の遊泳は禁止ですよ\n\n# face 2400711 \"sad\"\n# voice 4007 \"shekina_0022\"\n@シェキナー\n…え？泳ぐんじゃないんですか\nそれじゃあ…\n\n# textflame 0 0\n@\nシェキナーの目の前で、\nあるものをとりだし、火をつける\n\n# textflame 0 0\n@\nぱあっと色とりどりの\n火花が吹きあがる\n\n# textflame 1 1\n# textboxarrow 0 2\n# chara 2400711\n# face 2400711 \"normal\"\n# voice 4007 \"shekina_0039\"\n@シェキナー\nわぁ…花火ですね\nキラキラしてる…！\n\n# voice 4007 \"shekina_0001\"\n@シェキナー\nマスター\nこれどうしたんですか？\n\n# select \"シェキナーに似合うと思って\" \"select_label_01\" \"シェキナーとふたりで見たいと思って\" \"select_label_02\" \"夏と言ったら花火だよ\" \"select_label_03\"\nマスター\nこれどうしたんですか？\n\n# label \"select_label_01\"\n# labeljump \"select_label_end\"\n# textflame 1 1\n# textboxarrow 0 2\n# chara 2400711\n# face 2400711 \"sad\"\n@シェキナー\nこのキラキラが私に…？\n本当ですか？\n\n# label \"select_label_02\"\n# labeljump \"select_label_end\"\n# textflame 1 1\n# textboxarrow 0 2\n# chara 2400711\n# face 2400711 \"smile\"\n@シェキナー\nふたりでですか…？\nな、なんだか照れちゃいますね…\n\n# label \"select_label_03\"\n# labeljump \"select_label_end\"\n# textflame 1 1\n# textboxarrow 0 2\n# chara 2400711\n@シェキナー\n確かに、夏の夜に花火は\nぴったりですね\n\n# label \"select_label_end\"\n# face 2400711 \"smile\"\n# voice 4007 \"shekina_0004\"\n@シェキナー\n…ふふ、とっても嬉しいです\n\n# voice 4007 \"shekina_0030\"\n@シェキナー\n私は昼間、規律を優先して\nマスターとの約束を破ったというのに\n…ありがとうございます\n\n# face 2400711 \"normal\"\n@シェキナー\n…あ、そうだ\n\n# textflame 0 0\n@\n急にシェキナーが、\n自分の矢になにかをくくりつける\n\n# textflame 1 1\n# textboxarrow 0 2\n# chara 2400711\n@シェキナー\nマスター、見ていてください\n\n# fadein \"white\" 0.5\n# textflame 0 0\n@\nシェキナーは矢を空に向かって放った\n\n# fadein \"white\" 1\n# se \"SE_0605\"\n# textflame 0 0\n@\nその矢はぐんぐんと夜空を上ると\n空高くで、火花を上げて破裂した\n\n# textflame 1 1\n# textboxarrow 0 2\n# chara 2400711\n# face 2400711 \"smile\"\n# voice 4007 \"shekina_0005\"\n@シェキナー\nどうです？\n打ち上げ花火みたいでしょう\n\n# se \"SE_0605\"\n# sedelay \"SE_0605\" 1\n# textflame 0 0\n@\nシェキナーは次々に、\n夜空に花火を打ち上げる\n\n# envbody 1701 8 0\n# effectpattern 1701 1 0\n# effectstart 1701\n# textflame 0 0\n@\n次第にシェキナーの身体が\n花火のような光に包まれた\n\n# textflame 1 1\n# textboxarrow 0 2\n# chara 2400711\n# face 2400711 \"normal\"\n@シェキナー\n…真上に打つという\nいつもと違う状況ですが…\n\n# voice 4007 \"shekina_0020\"\n@シェキナー\nマスターがいると\n落ち着いて狙えますね\n\n@シェキナー\nどんな状況下でも適応して\n狙いを定める…この技術を応用すれば\n\n# se \"SE_0602\"\n# face 2400711 \"smile\"\n# voice 4007 \"shekina_0006\"\n@シェキナー\n新しい技術…\n『フロートストライク』の完成です！\n\n# textflame 0 0\n@\nそれはまさしく、\n彼女が新たなるスキルに\n目覚めた瞬間だった\n\n# textflame 1 1\n# textboxarrow 0 2\n# chara 2400711\n# face 2400711 \"normal\"\n# voice 4007 \"shekina_0001\"\n@シェキナー\n見てくださいマスター\n夜空に火の花が咲いています\n\n@シェキナー\n…これが私の、感謝の気持ちです\n喜んでもらえましたか？\n\n# textflame 0 0\n@\nもちろん。\nそれに、驚かされた\n\n# textflame 1 1\n# textboxarrow 0 2\n# chara 2400711\n# face 2400711 \"smile\"\n# voice 4007 \"shekina_0004\"\n@シェキナー\nふふっ…勝手に花火を上げるなんて\n私らしくもなく、\n大胆なことをしてしまいました\n\n@シェキナー\nでも、マスターと一緒なら…\nたまには、悪くないと思います\n\n# textflame 0 0\n@\nシェキナーの頭が、\nそっとこちらの肩に寄せられる\n\n# imageset 0 \"c2400711\"\n# imagealpha 0 0 0\nシェキナーと一緒に見上げる花火は\n夜空に輝く宝石のようだった\n\n;;「もっと輝ける自分を目指します」\n# effectskip 1701\n# voice 4007 \"shekina_kyara_1014\"\n# frameout 0 0.5\n# buttonsout 0 0.5\n# imagealpha 0 1 0\n# imagepos 0 0 0 \n# fadein \"white\" 3\n# textwindow \"close\""
	}
]