[
	{
		"ID": 240021103,
		"script": ";;【EP3】(オチ)背景　プール\n# script \"lisp\"\n# background \"sea_resort_day\"\n# bgmfile \"bgm234\" \"BgmSeaEventBattle\" 0\n# body 2400211\n# pos 2400211 3\n# mask 2400211 off\n# textflame 1 1\n# textboxarrow 0 2\n# chara 2400211\n# face 2400211 \"angry\"\n@ピナーカ\nマスター！頭下げろ！\n\n# textflame 0 0\n@\nピナーカの声を聞き\n反射的に頭を下げるマスター\n\n# textflame 1 1\n# textboxarrow 0 2\n# chara 2400211\n# voice 4002 \"pinaka_0029\"\n@ピナーカ\nオイラのマスターに手ぇ出すなんて\n百万年早ぇんだよ！！\nおらああぁぁっ！！\n\n# textflame 0 0\n@\n燃え盛る矢はマスター達の\n頭上をかすめ、異族を射抜いた\n\n# textflame 0 0\n@\n異族は大きな悲鳴をあげて\nしばらくもがいていたが\nやがて水中に沈んでいった\n\n# textflame 1 1\n# textboxarrow 0 2\n# chara 2400211\n# voice 4002 \"pinaka_0007\"\n# face 2400211 \"smile\"\n@ピナーカ\nふん、手応えのねえ奴だったな！\n…よっと！\n\n;;SE：水飛沫の音\n# se \"SE_0655\"\n# textflame 0 0\n@\nピナーカは迷わずプールに飛び込み\nマスターのほうへ泳いでくる\n\n# textflame 1 1\n# textboxarrow 0 2\n# chara 2400211\n@ピナーカ\nアンタに死なれちゃ困るからな\n仕方ねぇから助けてやるよ！\n\n# textflame 0 0\n@\nピナーカはマスターに腕を貸して\n泳ぎ出すが…\n\n# bgmfile \"bgm256\" \"BgmSeaDate\" 0\n# textflame 0 0\n@\n身体が密着して、ピナーカの\n胸などの感触がしっかり伝わってくる\n\n# textflame 1 1\n# textboxarrow 0 2\n# chara 2400211\n# voice 4002 \"pinaka_0003\"\n# face 2400211 \"angry\"\n@ピナーカ\nあ…こら、動くなよ！\n危ねぇから大人しくしてろ！\n\n# select \"いや、でも…む、胸が\" \"select_label_01\" \"ひ、一人で大丈夫だから…\" \"select_label_02\" \"せめて…ちょっと離れて泳ごうよ\" \"select_label_03\"\nあ…こら、動くなよ！\n危ねぇから大人しくしてろ！\n\n# label \"select_label_01\"\n# labeljump \"select_label_end\"\n# textflame 1 1\n# textboxarrow 0 2\n# chara 2400211\n@ピナーカ\nなっ…！\nつ、つまんねぇこと\n気にしてんじゃねぇよ！\n\n# label \"select_label_02\"\n# labeljump \"select_label_end\"\n# textflame 1 1\n# textboxarrow 0 2\n# chara 2400211\n@ピナーカ\n遠慮すんじゃねぇよ\nお前はガキをちゃんと抱えてろ\n\n# label \"select_label_03\"\n# labeljump \"select_label_end\"\n# textflame 1 1\n# textboxarrow 0 2\n# chara 2400211\n@ピナーカ\nなに言ってんだ\n離れたらアンタとガキを\nプールサイドまで運べねぇだろ！\n\n# label \"select_label_end\"\n# textflame 0 0\n@\nそんなふうに騒ぎながらも\n無事にプールサイドへ\nたどりついたマスター達\n\n# textflame 0 0\n@\nマスターはピナーカの活躍に\nすごかった、と絶賛する。\n\n# textflame 1 1\n# textboxarrow 0 2\n# chara 2400211\n# face 2400211 \"usual\"\n@ピナーカ\nま、まあ…異族程度に\nなめられるのは癪だからな！\n\n@ピナーカ\nそれに、その…\nアンタを守りたかったってのも、\nあるし…な\n\n@ピナーカ\nそう思ったら、体の底から\n力が沸き上がってきやがった\n\n# se \"SE_0602\"\n# face 2400211 \"smile\"\n@ピナーカ\n奥義『灼熱エモーション』\n誕生、だな！\n\n# textflame 0 0\n@\nそれはまさしく\n彼女が新たなスキルに\n目覚めた瞬間だった\n\n# textflame 1 1\n# textboxarrow 0 2\n# chara 2400211\n# face 2400211 \"sad\"\n@ピナーカ\n…え？さっきのオイラが\n本物のライフセーバー\nみたいだったって…？\n\n# face 2400211 \"smile\"\n@ピナーカ\nえ、えっと…\nアンタにそう言われるとは\n悪くねぇ気分だな…\n\n# voice 4002 \"pinaka_0004\"\n# face 2400211 \"angry\"\n@ピナーカ\nその、し、仕方ねぇから\nまたなにかあったら助けてやるよ！\n\n# face 2400211 \"smile\"\n@ピナーカ\n…オイラは、\nマスターのライフセーバーだからな！\n\n# textflame 0 0\n@\nそう言うと、ピナーカは照れたように\nそっぽを向いてしまったが\n\n# imageset 0 \"c2400211\"\n# imagealpha 0 0 0\n# textflame 0 0\n@\nそんな彼女の声には、確かに\n暖かな優しさが宿っていた\n\n# frameout 0 0.5\n# buttonsout 0 0.5\n# imagealpha 0 1 0\n# imagepos 0 0 0 \n# fadein \"white\" 3\n# textwindow \"close\"\n# voice 4002 \"pinaka_kyara_0028\"\n;;え？もう一回…？だから、その…だぁー！！もう言わねぇよ！！"
	}
]