[
	{
		"ID": 240171202,
		"script": ";;-----------------------------------------\n;;●スイハ　水着シナリオ\n;;・キャラクエ\n;;【EP2:バトル前】\n;;スクリプト最後の背景：sea_beach_day\n;;背景：ビーチ\n;;-----------------------------------------\n# script \"lisp\"\n# background \"sea_beach_day\"\n# bgmfile \"bgm227\" \"BgmSeaEvent\" 0\n;;水着スイハ\n# body 2401711\n# pos 2401711 3\n# scale 2401711 0.8 0\n# layer 2401711 4\n# mask 2401711 off\n# alpha 2401711 1 0\n;;【EP2:バトル前】\n;;背景：ビーチ\n;;モヤモヤ\n# textflame 1 1\n# move 2401711 3 0\n# textwindow \"moya\"\n# textboxarrow 0 0\n# face 2401711 \"usual\"\n# voice 4017 \"suiha_0009\"\n@スイハ\n…やっぱり、\nうまく話しかけられない\n\n;;モヤモヤ\n@スイハ\nこれじゃ戦場でも連携が取れない\n私はダメだ…\n\n;;モノローグ\n# textflame 0 0\n@\n彼女の視線の先には\n華麗な連携で大きな戦果をあげる\n他のキル姫達の姿があった\n\n;;モノローグ\n@\nその中心には、マスターの姿がある\n常に言葉を絶やさず\nときに笑いながら皆を励ます姿が\n\n;;モヤモヤ\n# textflame 1 1\n@スイハ\n私と違ってマスターは話し上手です\n戦場でも皆の持ち味を引き出している\n\n;;モヤモヤ\n@スイハ\nどうして私は\nああ出来ないんだろう\n\n;;モヤモヤ\n@スイハ\nもっと軽く話せばいいのかな\n\n;;モヤモヤ\n# voice 4017 \"suiha_0006\"\n@スイハ\n…よし、まずは他の子を探して\nどんどん話しかけてみよう\n\n;;時間経過\n# textwindow \"close\"\n# fadeout \"black\" 1.5\n# waitandnext 2\n\n# fadein \"black\" 2\n# waitandnext 2\n\n# textwindow \"normal\"\n# textflame 0 0\n;;モノローグ\n@\n倒した敵の数と、救った仲間の数を\n増やしながらも…\n彼女の心は、どんどん落ち込んでいた\n\n;;モヤモヤ\n# textflame 1 1\n# move 2401711 3 0\n# textwindow \"moya\"\n# textboxarrow 0 0\n# voice 4017 \"suiha_0027\"\n@スイハ\n…試してみたけど、全然ダメ\nマスターみたいに話せない\nむしろ私が邪魔になってしまっている\n\n;;モノローグ\n# textflame 0 0\n@\nマスターのように\n声をかけようとしても\nうまくいかず\n\n;;モノローグ\n@\nそのせいで、連携をとろうとしていた\n彼女達から無意識に\n距離を取ってしまっていた\n\n;;モヤモヤ\n# textflame 1 1\n@スイハ\n他に誰か…\n\n;;モノローグ\n# textflame 0 0\n@\n他のキル姫を探そうとあたりを\n見回したスイハだったが、\nふと気が付いた\n\n;;モヤモヤ\n# textflame 1 1\n# face 2401711 \"sad\"\n# voice 4017 \"suiha_0022\"\n@スイハ\n…あれ、ま、マスターは？\n\n;;モノローグ\n# textflame 0 0\n@\n見回しても見回しても\n求める人の姿はなく…\nスイハの頭に冷たいものがよぎった"
	}
]