[
	{
		"ID": 241402643,
		"script": ";;-----------------------------------------\n;;モラベガサイド『オーディトリアを抜け』 \n;;【EP1『コロスは歌う』】\n;;-----------------------------------------\n# script \"lisp\"\n# background \"101_hole\"\n# bgmfile \"bgm271\" \"BgmLostRagnarokEvent\" 0\n;;-----------------------------------------\n;;シストルム\n# body 3601311\n# pos 3601311 3\n# scale 3601311 0.8 0\n# layer 3601311 3\n# mask 3601311 off\n# alpha 3601311 1 0\n# brightness 3601311 0 0\n;;リサナウト\n# body 3203011\n# pos 3203011 3\n# scale 3203011 0.8 0\n# layer 3203011 3\n# mask 3203011 off\n# alpha 3203011 0 0\n;;モラベガ\n# body 3104211\n# pos 3104211 3\n# scale 3104211 0.8 0\n# layer 3104211 3\n# mask 3104211 off\n# alpha 3104211 0 0\n;;兵\n# body 3810001\n# pos 3810001 3\n# scale 3810001 0.8 0\n# layer 3810001 3\n# mask 3810001 off\n# alpha 3810001 0 0\n# body 3820001\n# pos 3820001 3\n# scale 3820001 0.8 0\n# layer 3820001 3\n# mask 3820001 off\n# alpha 3820001 0 0\n# body 3830001\n# pos 3830001 3\n# scale 3830001 0.8 0\n# layer 3830001 3\n# mask 3830001 off\n# alpha 3830001 0 0\n;;-----------------------------------------\n;;※シストルム（シルエット表示）\n# textflame 1 1\n# textboxarrow 0 2\n@？？？\nじーっと………\n\n@？？？\n視させてもらったにゃ…\n\n# imageset 0 \"black\"\n# imagealpha 0 0 0\n# imagelayer 0 1\n# voice 360131 \"sistrum_ge_0006\"\n@？？？\nこれで終わりにゃ♪\nモラベガ\n\n;;シャッと姿を消すシストルム\n# se \"SE_9021\"\n;;暗転挟む\n# imagealpha 0 1 0\n# imagepos 0 0 30\n# imageleftin 0 0.5\n# textwindow \"close\"\n# waitandnext 0.5\n\n# alpha 3601311 0 0\n# imagealpha 0 0 0.5\n# imagerightout 0 0.5\n# waitandnext 0.5\n\n;;猛スピードの斬撃、連合軍兵士達を蹴散らすモラベガ\n# alpha 3810001 1 0.5\n# waitandnext 0.5\n\n# se \"SE_10588\"\n# fadein \"red\" 0.3\n# waitandnext 0.3\n\n# se \"SE_3001\"\n# alpha 3810001 0 0.5\n# waitandnext 0.5\n\n# alpha 3820001 1 0.5\n# waitandnext 0.5\n\n# se \"SE_10588\"\n# fadein \"red\" 0.3\n# waitandnext 0.3\n\n# se \"SE_3001\"\n# alpha 3820001 0 0.5\n# waitandnext 0.5\n\n# alpha 3830001 1 0.5\n# waitandnext 0.5\n\n# se \"SE_10588\"\n# fadein \"red\" 0.3\n# waitandnext 0.3\n\n# se \"SE_3001\"\n# alpha 3830001 0 0.5\n# waitandnext 0.5\n\n# alpha 3104211 1 0.5\n# face 3104211 \"angry\"\n# voice 310421 \"morabeaga_l_battle_0006\"\n# textwindow \"nomal\"\n# textflame 1 1\n# textboxarrow 0 2\n@モラベガ\nハーッ…ハーッ…ハーッ…！！\n\n# alpha 3104211 0 0.5\n# alpha 3203011 1 0.5\n# face 3203011 \"normal\"\n# voice 2030 \"risanautr_l_0039\"\n# textboxarrow 0 2\n@リサナウト\n病み上がりで\nよくもそこまで\n\n# alpha 3203011 0 0.5\n# alpha 3104211 1 0.5\n# textboxarrow 0 2\n@モラベガ\n………っ！\n\n# move 3104211 2 0.5\n# mask 3104211 on\n# move 3203011 4 0\n# mask 3203011 on\n# alpha 3203011 1 0.5\n# voice 2030 \"risanautr_l_0003\"\n# textboxarrow 0 3\n@リサナウト\nこの時間軸ね\n\n# voice 310421 \"morabeaga_l_battle_0005\"\n# textboxarrow 0 1\n@モラベガ\n…\nお姉さん、も、敵…？\n\n# textboxarrow 0 3\n@リサナウト\n味方かと言われると\n難しいかもね\n\n# face 3104211 \"surprise\"\n# voice 310421 \"morabeaga_l_0022\"\n# textboxarrow 0 1\n@モラベガ\n？？\n…私達、会ったコト、ある？\nなにか…懐かしいキモチが…\n\n# face 3203011 \"smile\"\n# voice 2030 \"risanautr_l_0004\"\n# textboxarrow 0 3\n@リサナウト\nどうかしら\n地底の因子に共鳴しているのかも\nしれないけれど\n\n# textboxarrow 0 1\n@モラベガ\nだれ、なの…？\n\n# face 3203011 \"normal\"\n# textboxarrow 0 3\n@リサナウト\nデウス・エクス・マキナ\nという言葉があるわ\n\n# face 3104211 \"surprise\"\n# textboxarrow 0 1\n@モラベガ\nでう…？\n\n# voice 2030 \"risanautr_l_0032\"\n# textboxarrow 0 3\n@リサナウト\n『機械仕掛けの神』という意味ね\n舞台演劇において物語がもつれ\n解決困難な状態になった際に…\n\n# textboxarrow 0 3\n@リサナウト\n絶対者として舞台上に降り立ち\n全てを収束させる手法のことよ\n\n# textboxarrow 0 3\n@リサナウト\n彼女がそうだとすれば…\n\n# textboxarrow 0 1\n@モラベガ\n“彼女”…？\n\n# face 3203011 \"smile\"\n# voice 2030 \"risanautr_l_0004\"\n# textboxarrow 0 3\n@リサナウト\n私は\nその舞台を支える“コロス” \n…といったところかしら\n\n# voice 310421 \"morabeaga_l_0028\"\n# textboxarrow 0 1\n@モラベガ\n舞台上の…\n助けになってくれるエキストラ…\nみたいな人っていうこと…？\n\n# textboxarrow 0 3\n@リサナウト\n私がこの舞台に上がった時点で\nどんな演目も成功が確定したわ\n\n# textboxarrow 0 3\n@リサナウト\n主役は貴方達\n\n# face 3203011 \"happy\"\n# textboxarrow 0 3\n@リサナウト\n演じ切って魅せて？"
	}
]