[
	{
		"ID": 241402651,
		"script": ";;-----------------------------------------\n;;モラベガサイド『オーディトリアを抜け』 \n;;【EP2『嘘偽りのない演技』】\n;;背景：深奥\n;;-----------------------------------------\n# script \"lisp\"\n# background \"profound_nolight\"\n# bgmfile \"bgm271\" \"BgmLostRagnarokEvent\" 0\n;;-----------------------------------------\n;;シストルム\n# body 3601311\n# pos 3601311 3\n# scale 3601311 0.8 0\n# layer 3601311 3\n# alpha 3601311 0 0\n;;アイムール\n# body 3200211\n# pos 3200211 3\n# scale 3200211 0.8 0\n# layer 3200211 3\n# mask 3200211 off\n# alpha 3200211 1 0\n;;リサナウト\n# body 3203011\n# pos 3203011 3\n# scale 3203011 0.8 0\n# layer 3203011 3\n# mask 3203011 off\n# alpha 3203011 0 0\n;;モラベガ\n# body 3104211\n# pos 3104211 3\n# scale 3104211 0.8 0\n# layer 3104211 3\n# mask 3104211 off\n# alpha 3104211 0 0\n;;アルマス（13章）\n# body 172\n# pos 172 2\n# scale 172 0.8 0\n# layer 172 2\n# alpha 172 0 0\n;;ティターニア\n# body 139\n# pos 139 4\n# scale 139 0.8 0\n# layer 139 3\n# alpha 139 0 0\n;;オベロン\n# body 135\n# pos 135 4\n# scale 135 0.8 0\n# layer 135 3\n# alpha 135 0 0\n;;ギル\n# body 137\n# pos 137 4\n# scale 137 0.8 0\n# layer 137 3\n# alpha 137 0 0\n;;-----------------------------------------\n# imageset 0 \"bg_white_circle\"\n# imagealpha 0 0 0\n# imagelayer 0 1\n# imagescale 0 1.5 0\n;;-----------------------------------------\n;;※アイムール（立ち絵あり）\n# face 3200211 \"normal\"\n# textboxarrow 0 2\n@？？？\n…\n\n# textboxarrow 0 2\n@？？？\nリミッター制限、再確認…\n低燃費状態で待機中…\n\n# face 3200211 \"sad\"\n# voice 320021 \"aimuru_a_0019\"\n# textboxarrow 0 2\n@？？？\n…はぁ\n\n# textboxarrow 0 2\n@？？？\n空腹…です\n\n;;背景：地底\n# fadeout \"black\" 1\n# waitandnext 1\n\n# textwindow \"close\"\n# alpha 3200211 0 0\n# background \"underground_world_1\"\n# waitandnext 0.2\n\n# fadein \"black\" 1\n# waitandnext 1\n\n# move 3104211 2 0\n# mask 3104211 on\n# alpha 3104211 1 0.5\n# move 3203011 4 0\n# mask 3203011 on\n# alpha 3203011 1 0.5\n# face 3203011 \"usual\"\n# textboxarrow 0 3\n# textwindow \"normal\"\n@リサナウト\n舞台裏を通るようなものよ\n\n;;モノローグ\n# textflame 0 0\n@\n大穴中層\n\n# face 3104211 \"surprise\"\n# textflame 1 1\n# textboxarrow 0 1\n@モラベガ\nぜんぜん敵に会わない…\nあれだけたくさんいたのに…\n\n# face 3203011 \"smile\"\n# voice 2030 \"risanautr_l_0003\"\n# textboxarrow 0 3\n@リサナウト\n当然よ\n余計な敵と遭遇しない時間軸を\n確定させる事柄を起こし続けたもの\n\n# face 3104211 \"sad\"\n# voice 310421 \"morabeaga_l_0028\"\n# textboxarrow 0 1\n@モラベガ\nちょ、ちょっと難しいコトバは…\n\n# face 3203011 \"normal\"\n# voice 2030 \"risanautr_l_0013\"\n# textboxarrow 0 3\n@リサナウト\nアルマス達の元まで\n送り届けてあげるって言ってるの\n\n# face 3104211 \"surprise\"\n# textboxarrow 0 1\n@モラベガ\nあ、ありがとう\nお姉さん…\nでもどうして…？\n\n# face 3203011 \"usual\"\n# textboxarrow 0 3\n@リサナウト\nタダで助力してあげるほど\nお人好しではないのよ？\n\n# face 3104211 \"angry\"\n# voice 310421 \"morabeaga_l_0022\"\n# textboxarrow 0 1\n@モラベガ\nお、お金なら無いよっ\n\n# textboxarrow 0 3\n@リサナウト\n今の貴方は役立たず\n\n# textboxarrow 0 1\n@モラベガ\n………っ！？\n\n# voice 2030 \"risanautr_l_0032\"\n# textboxarrow 0 3\n@リサナウト\n役立たず\n\n# face 3104211 \"angry\"\n# voice 310421 \"morabeaga_l_0009\"\n# textboxarrow 0 1\n@モラベガ\nき、き、聞こえてるよっ！\n\n# face 3203011 \"smile\"\n# voice 2030 \"risanautr_l_0004\"\n# textboxarrow 0 3\n@リサナウト\n図星ね？\n\n;;回想（※EP1）\n# se \"SE_0742\"\n# fadeout \"white\" 1\n# waitandnext 1\n\n# background \"101_hole\"\n# alpha 3104211 0 0\n# alpha 3203011 0 0\n# textwindow \"close\"\n# imagealpha 0 1 0\n# imagepos 0 0 30\n# waitandnext 0.2\n\n# fadein \"white\" 1\n# waitandnext 1\n\n# textboxarrow 0 0\n# textwindow \"normal\"\n@モラベガ\n剣がうまく\n言うことをきいてくれない…？\n\n;;回想終わり\n# fadeout \"white\" 1\n# waitandnext 1\n\n# background \"underground_world_1\"\n# textwindow \"close\"\n# imagealpha 0 0 0\n# imagepos 0 0 30\n# waitandnext 0.2\n\n# fadein \"white\" 1\n# waitandnext 1\n\n# alpha 3203011 1 0.5\n# alpha 3104211 1 0.5\n# face 3104211 \"sad\"\n# voice 310421 \"morabeaga_l_0015\"\n# textboxarrow 0 1\n# textwindow \"normal\"\n@モラベガ\n………がんばるもん\n\n# face 3203011 \"usual\"\n# voice 2030 \"risanautr_l_0007\"\n# textboxarrow 0 3\n@リサナウト\n精神論は結構\n\n# face 3203011 \"normal\"\n# textboxarrow 0 3\n@リサナウト\nアルマス・レーヴァテイン\nティルフィング・ゴッドキラーズ…\n肩を並べる自信があって？\n\n# textboxarrow 0 1\n@モラベガ\n…\n\n# textboxarrow 0 3\n@リサナウト\n舞台上での役者は\n神にも愚者にも稚児にもなりうる…\n貴方はまだ脚本を手にしただけ\n\n# textboxarrow 0 3\n@リサナウト\nかの人は言ったわ\n“真実を演じるのだ”と\n\n# textboxarrow 0 3\n@リサナウト\n台詞を覚えただけではデクの棒\n行動を表しただけでは不十分\n深い分析と鍛え上げた行動力で…\n\n# textboxarrow 0 3\n@リサナウト\n貴方という真実を武器にするの\n\n# textboxarrow 0 1\n@モラベガ\n………\n\n;;※シストルム（立ち絵なし）\n# textboxarrow 0 0\n@？？？\nその武器が役立たず\nボクは視ていたにゃ\n\n# face 3104211 \"angry\"\n# textboxarrow 0 1\n@モラベガ\n！\n\n# face 3203011 \"smile\"\n# voice 2030 \"risanautr_l_0004\"\n# textboxarrow 0 3\n@リサナウト\n門番の\nカタキ役が登場\n\n;;シストルム、現れる\n# bgmfile \"bgm276\" \"BgmLostRagnarokEvent\" 0\n# se \"SE_9021\"\n# mask 3601311 off\n# alpha 3203011 0 0.5\n# alpha 3104211 0 0.5\n# alpha 3601311 1 0.5\n# textwindow \"close\"\n# waitandnext 0.5\n\n# face 3601311 \"normal\"\n# voice 360131 \"sistrum_ge_0004\"\n# textwindow \"nomal\"\n# textboxarrow 0 2\n@？？？\nこんにちは、モラベガ\n\n# alpha 3601311 0 0.5\n# alpha 3203011 1 0.5\n# alpha 3104211 1 0.5\n# face 3104211 \"surprise\"\n# voice 310421 \"morabeaga_l_0022\"\n# textboxarrow 0 1\n@モラベガ\nど、どうして名前を\n\n# alpha 3203011 0 0.5\n# alpha 3104211 0 0.5\n# alpha 3601311 1 0.5\n# face 3601311 \"happy\"\n# voice 360131 \"sistrum_ge_0032\"\n# textboxarrow 0 2\n@？？？\n視ていたからね\n妖精結合してからココに至るまで\nぜんぶ、じーっと\n\n# alpha 3601311 0 0.5\n# alpha 3203011 1 0.5\n# alpha 3104211 1 0.5\n# face 3203011 \"usual\"\n# voice 2030 \"risanautr_l_0039\"\n# textboxarrow 0 3\n@リサナウト\nモラベガの進行ルートを\n潰していたのも？\n\n# alpha 3203011 0 0.5\n# alpha 3104211 0 0.5\n# alpha 3601311 1 0.5\n# voice 360131 \"sistrum_ge_0003\"\n# textboxarrow 0 2\n@？？？\n諜報部として\n前線への情報提供は\n当然の仕事にゃ\n\n# alpha 3601311 0 0.5\n# alpha 3203011 1 0.5\n# alpha 3104211 1 0.5\n# face 3104211 \"angry\"\n# textboxarrow 0 1\n@モラべガ\n通して…！\n\n# alpha 3203011 0 0.5\n# alpha 3104211 0 0.5\n# alpha 3601311 1 0.5\n# face 3601311 \"normal\"\n# textboxarrow 0 2\n@シストルム\nボクは識別系統C・一〇\nシストルム・獣刻・バステト\nキミの敵だ\n\n# voice 360131 \"sistrum_ge_0028\"\n# textboxarrow 0 2\n@シストルム\n門番だからね\n通せんぼにゃ\n\n# alpha 3601311 0 0.5\n# alpha 3203011 1 0.5\n# alpha 3104211 1 0.5\n# voice 310421 \"morabeaga_l_0017\"\n# textboxarrow 0 1\n@モラベガ\nよ、余計な敵と遭わないように\nしてくれてたんじゃないの…！？\n\n# face 3203011 \"smile\"\n# voice 2030 \"risanautr_l_0004\"\n# textboxarrow 0 3\n@リサナウト\nこの甘えん坊さん\n\n# voice 310421 \"morabeaga_l_0009\"\n# textboxarrow 0 1\n@モラベガ\nご、ごまかさないでよっ\n\n# alpha 3203011 0 0.5\n# alpha 3104211 0 0.5\n# alpha 3601311 1 0.5\n# textboxarrow 0 2\n@シストルム\nモラベガ\nキミの弱みは視てわかる\n二つの体と心は結ばれても…\n\n# textboxarrow 0 2\n@シストルム\nいまだに力だけが\n不安定に繋がり切れていない\n\n# alpha 3601311 0 0.5\n# alpha 3203011 1 0.5\n# alpha 3104211 1 0.5\n# textboxarrow 0 1\n@モラベガ\n…！\n\n# alpha 3203011 0 0.5\n# alpha 3104211 0 0.5\n# alpha 3601311 1 0.5\n# face 3601311 \"angry\"\n# textboxarrow 0 2\n@シストルム\n叩くなら今にゃ\n\n# alpha 3601311 0 0.5\n# alpha 3203011 1 0.5\n# alpha 3104211 1 0.5\n# face 3203011 \"usual\"\n# textboxarrow 0 3\n@リサナウト\n必死ね\n\n# alpha 3203011 0 0.5\n# alpha 3104211 0 0.5\n# alpha 3601311 1 0.5\n# face 3601311 \"normal\"\n# voice 360131 \"sistrum_ge_0007\"\n# textboxarrow 0 2\n@シストルム\nナワバリ争いだからね\n\n# alpha 3601311 0 0.5\n# alpha 3203011 1 0.5\n# alpha 3104211 1 0.5\n# face 3203011 \"normal\"\n# voice 2030 \"risanautr_l_0002\"\n# textboxarrow 0 3\n@リサナウト\nシストルム、貴方はこのあと\n『どうしてそれを…！？』と\n私に尋ねてくることになるわ\n\n# alpha 3203011 0 0.5\n# alpha 3104211 0 0.5\n# alpha 3601311 1 0.5\n# face 3601311 \"surprise\"\n# voice 360131 \"sistrum_ge_0022\"\n# textboxarrow 0 2\n@シストルム\n何の話にゃ…？\n\n# alpha 3601311 0 0.5\n# alpha 3203011 1 0.5\n# alpha 3104211 1 0.5\n# face 3203011 \"smile\"\n# textboxarrow 0 3\n@リサナウト\n貴方の、その頑張りの全ては\n愛しい子供達の為…\nなんでしょう？\n\n# alpha 3203011 0 0.5\n# alpha 3104211 0 0.5\n# alpha 3601311 1 0.5\n# face 3601311 \"angry\"\n# voice 360131 \"sistrum_ge_battle_0005\"\n# textboxarrow 0 2\n@シストルム\nどうしてそれを…！？\n\n# alpha 3601311 0 0.5\n# alpha 3203011 1 0.5\n# alpha 3104211 1 0.5\n# face 3104211 \"surprise\"\n# voice 310421 \"morabeaga_l_0022\"\n# textboxarrow 0 1\n@モラベガ\nこ、子持ちなの…！！\n\n# voice 2030 \"risanautr_l_0003\"\n# textboxarrow 0 3\n@リサナウト\n彼女が得た報酬は母国トレイセーマで\n恵まれない子供達の為に\n分け与えているのよ\n\n# textboxarrow 0 3\n@リサナウト\n放っておけないんでしょう？\n宿す女神バステトの「母性」の影響ね\n泣けるハナシ\n\n# alpha 3203011 0 0.5\n# alpha 3104211 0 0.5\n# alpha 3601311 1 0.5\n# face 3601311 \"normal\"\n# textboxarrow 0 2\n@シストルム\n同情を引くつもりはないけど\n\n# alpha 3601311 0 0.5\n# alpha 3203011 1 0.5\n# alpha 3104211 1 0.5\n# textboxarrow 0 1\n@モラベガ\n…た、戦わなきゃいけないの？\n私達………っ\n\n# alpha 3203011 0 0.5\n# alpha 3104211 0 0.5\n# alpha 3601311 1 0.5\n# face 3601311 \"angry\"\n# textboxarrow 0 2\n@シストルム\n子供達を守る為なら\nボクはなんだってやる\n\n# alpha 3601311 0 0.5\n# alpha 3203011 1 0.5\n# alpha 3104211 1 0.5\n# face 3203011 \"usual\"\n# textboxarrow 0 3\n@リサナウト\nモラベガ、及び腰ね？\n\n# voice 310421 \"morabeaga_l_battle_0005\"\n# textboxarrow 0 1\n@モラベガ\nだ、だって…！\n\n# textboxarrow 0 3\n@リサナウト\n予言めいたこと言うとね\n\n# textboxarrow 0 3\n@リサナウト\n貴方は選ばなければならない\n\n# textboxarrow 0 3\n@リサナウト\n本当の舞台を\n観客席から見守るだけか…\n本役として立つのか…\n\n# textboxarrow 0 3\n@リサナウト\n同じ意志を持つ者を\n蹴落としてでも\n\n# textboxarrow 0 1\n@モラベガ\n同じ、意志…？\n\n# face 3203011 \"normal\"\n# voice 2030 \"risanautr_l_0003\"\n# textboxarrow 0 3\n@リサナウト\n放っておけないんでしょう？\n守る為だったらなんでもしたいって\nだからここまで来たんでしょう？\n\n# face 3104211 \"surprise\"\n# textboxarrow 0 1\n@モラベガ\n………！！\n\n;;演出：回想（※14章第1話）\n# se \"SE_0742\"\n# textwindow \"close\"\n# fadeout \"white\" 1\n# waitandnext 1\n\n# background \"fairy_world\"\n# bgmfile \"bgm263\" \"BgmLostRagnarok001\" 0\n# alpha 3203011 0 0\n# alpha 3104211 0 0\n# imagepos 0 0 0\n# imagealpha 0 1 0\n# waitandnext 0.2\n\n# fadein \"white\" 1\n# waitandnext 1\n\n# textboxarrow 0 0\n# textwindow \"normal\"\n@モラルタ＆ベガルタ\n私達がやりたい！\n妖精結合して、アルマスの役に\n立ちたいんだっ\n\n# alpha 172 1 0.5\n# alpha 139 1 0.5\n# face 139 \"worry\"\n# face 172 \"surprise\"\n# textboxarrow 0 1\n@アルマス\nモラルタ、ベガルタ、\nどこに隠れてたのよっ？\n\n# textboxarrow 0 3\n@ティターニア\n確かにあなた達は霊装支配されて\nいない斬ル姫ですけれど…\n\n# textboxarrow 0 0\n@モラルタ＆ベガルタ\n私達、みんなとお別れして、\n自分の足で歩くって決めたから\nお願い、やらせて！\n\n# alpha 139 0 0.5\n# alpha 172 1 0.5\n# alpha 135 1 0.5\n# face 135 \"normal\"\n# face 172 \"normal\"\n# textboxarrow 0 3\n@オベロン\nふむ…\nその意思、尊重すべきであろうな\n\n# textboxarrow 0 1\n@アルマス\nあなた達…\n\n# textboxarrow 0 0\n@モラルタ\n待っててね、アルマス！\n頼りになる私達を見せてあげるよっ\n\n# textboxarrow 0 0\n@ベガルタ\n待っててね、アルマス！\n格好良い私達を見せてあげるからっ\n\n# textboxarrow 0 3\n@オベロン\nでは、儂についてまいれ\nそなた達と相性の良い妖精を\n選定するとしよう\n\n;;オベロンとモラルタ、ベガルタが立ち去る\n# se \"SE_0719\"\n# textwindow \"close\"\n# alpha 135 0 0.5\n# waitandnext 1\n\n# alpha 137 1 0.5\n# textwindow \"normal\"\n# textboxarrow 0 3\n@ギル\n大丈夫かよ、あの二人…\n\n# textboxarrow 0 1\n@アルマス\n信じてみましょう\nあの二人も一歩を踏み出したのよ\n\n;;演出：回想終わり\n# fadeout \"white\" 1\n# waitandnext 1\n\n# background \"profound\"\n# bgmfile \"bgm264_265\" \"BgmLostRagnarokBattle001\" 0\n# alpha 172 0 0\n# alpha 137 0 0\n# textwindow \"close\"\n# imagealpha 0 0 0\n# imagepos 0 0 30\n# waitandnext 0.2\n\n# fadein \"white\" 1\n# waitandnext 1\n\n# alpha 3203011 1 0.5\n# alpha 3104211 1 0.5\n# face 3104211 \"angry\"\n# textboxarrow 0 1\n# textwindow \"normal\"\n@モラベガ\n………そうだ\n\n# textboxarrow 0 1\n@モラベガ\n信じてくれた、救ってくれた\n私達に進む一歩を\nくれたヒトがいるんだ\n\n# alpha 3203011 0 0.5\n# alpha 3104211 0 0.5\n# alpha 3601311 1 0.5\n# face 3601311 \"normal\"\n# voice 360131 \"sistrum_ge_0028\"\n# textboxarrow 0 2\n@シストルム\n…舞台を降りてはくれないのかにゃ？\n\n# alpha 3601311 0 0.5\n# alpha 3203011 1 0.5\n# alpha 3104211 1 0.5\n# face 3203011 \"happy\"\n# voice 2030 \"risanautr_l_0005\"\n# textboxarrow 0 3\n@リサナウト\nさあ、どちらを選ぶ？\n\n# textboxarrow 0 1\n@モラベガ\nそんなの\n\n# textboxarrow 0 3\n@リサナウト\n確定事象よね？\n\n# textboxarrow 0 1\n@モラベガ\n役立つよ、私達"
	}
]