[
	{
		"ID": 250041102,
		"script": ";;EP2\n# script \"lisp\"\n# background \"sea_jungle_day\"\n# bgmfile \"bgm230\" \"BgmSeaEvent\" 0\n# body 2500411\n# pos 2500411 3\n# mask 2500411 off\n# scale 2500411 0.8 0\n# face 2500411 \"sad\"\n# alpha 2500411 0 0\n# textflame 0 0\n# textboxarrow 0 2\n@\n瞑想に入り込んだブラフマーストラ\nその気を引こうとナンパ男たちは、\nあの手この手でブラフマーストラに…\n\n;;//モヤモヤ吹き出し\n# move 2500411 3 0\n# alpha 2500411 1 0.5\n# serif 0\n# textwindow \"close\"\n# serif 1\n# textwindow \"moya\"\n# textboxarrow 1 0\n# voice 5004 \"burafumasutora_0018\"\n@ブラフマーストラ\n…おっと、冗談じゃないねぇ…\nいつのまに、こんなにたくさん\n集まってきてくれちゃってんの？\n\n;;//モヤモヤ吹き出し\n# move 2500411 3 0\n# serif 0\n# textwindow \"close\"\n# serif 1\n# textwindow \"moya\"\n# textboxarrow 1 0\n@ブラフマーストラ\nこのままじゃ、こいつらの煩悩に\n圧倒されかねない…\nさすがにマズイかもねえ…\n\n;;//モヤモヤ吹き出し\n# move 2500411 3 0\n# serif 0\n# textwindow \"close\"\n# serif 1\n# textwindow \"moya\"\n# textboxarrow 1 0\n# voice 5004 \"burafumasutora_0025\"\n@ブラフマーストラ\nんんん？\nこいつらもしかして\n直接触っ…\n\n# serif 1\n# textwindow \"close\"\n# serif 0\n# textwindow \"normal\"\n# textflame 1 1\n@ブラフマーストラ\nあっ、ああ…！\n\n# textflame 0 0\n@\nだが、とっさにマスターが\nブラフマーストラとナンパ男達の間に\n割ってはいる\n\n# face 2500411 \"usual\"\n# textflame 1 1\n# voice 5004 \"burafumasutora_0004\"\n@ブラフマーストラ\nふぅ…マスター、やるじゃないのさ\nアンタが遮ってくれたおかげで\n圧が弱まったよ\n\n# textflame 0 0\n@\nマスターだけに聞こえるように\n話しかけるブラフマーストラ\n\n# textflame 0 0\n@\nマスターはそのままナンパ男たちを\n追い払おうとするが…\n彼らは応じない\n\n# face 2500411 \"angry\"\n# textflame 1 1\n# voice 5004 \"burafumasutora_0028\"\n@ブラフマーストラ\nしつこいやつらだなあ！\nマスター、もっと近づいて！\nアタシ達をカップルだと思わせるんだ\n\n# textflame 0 0\n@\nえっ…いいの？と躊躇しながらも\nマスターは彼女の身体に密着する\n\n# textflame 1 1\n@ブラフマーストラ\nほらっ\nちゃんと手もいろんなところに！\n\n# textflame 0 0\n@\nマスターは指示されるがまま、\nまるで恋人のように肩や腰に手を回す\n\n# textflame 0 0\n@\n戸惑うマスターだが、\n戸惑っているのは\nマスターだけではなかった\n\n;;//モヤモヤ吹き出し\n# face 2500411 \"sad\"\n# move 2500411 3 0\n# serif 0\n# textwindow \"close\"\n# serif 1\n# textwindow \"moya\"\n# textboxarrow 1 0\n# voice 5004 \"burafumasutora_0042\"\n@ブラフマーストラ\n…マズイなぁ\nアタシから言い出したこととはいえ\nマスターにこうまで密着されると…\n\n;;//モヤモヤ吹き出し\n# move 2500411 3 0\n# serif 0\n# textwindow \"close\"\n# serif 1\n# textwindow \"moya\"\n# textboxarrow 1 0\n@ブラフマーストラ\nナンパ男どもは\n鬱陶しいだけだったのに…\n\n;;//モヤモヤ吹き出し\n# move 2500411 3 0\n# serif 0\n# textwindow \"close\"\n# serif 1\n# textwindow \"moya\"\n# textboxarrow 1 0\n# voice 5004 \"burafumasutora_0008\"\n@ブラフマーストラ\nまったく、アタシもまだまだ\n修行が足りない系ってこと～？\n\n# serif 1\n# textwindow \"close\"\n# serif 0\n# textwindow \"normal\"\n# textflame 0 0\n@\nそんなブラフマーストラの動揺を\nマスターもそれとなく感じ取る\n\n# select \"気にしないで、瞑想を続けて\" \"select_label_01\" \"気になるなら、離れようか？\" \"select_label_02\" \"こうしてると本物の恋人みたいだね\" \"select_label_03\"\nそんなブラフマーストラの動揺を\nマスターもそれとなく感じ取る\n\n# label \"select_label_01\"\n# labeljump \"select_label_end\"\n# face 2500411 \"usual\"\n# textflame 1 1\n# textboxarrow 0 2\n@ブラフマーストラ\nうん、当然！\nマスターこそ気にしないで、\nしっかりアタシのこと守るってよ～？\n\n# label \"select_label_02\"\n# labeljump \"select_label_end\"\n# face 2500411 \"usual\"\n# textflame 1 1\n# textboxarrow 0 2\n@ブラフマーストラ\nえぇっ？\nこんなことで、アタシが\nダメになると思ってる系～？\n\n# label \"select_label_03\"\n# labeljump \"select_label_end\"\n# face 2500411 \"usual\"\n# textflame 1 1\n# textboxarrow 0 2\n@ブラフマーストラ\nそ、そう？\nでもあくまでフリしてるだけだからね！\n\n# label \"select_label_end\"\n# textflame 0 0\n@\n気丈に振る舞うが\nブラフマーストラの内心は\n動揺を抑えきれていなかった\n"
	}
]