[
	{
		"ID": 250041101,
		"script": ";;EP1\n# script \"lisp\"\n# background \"sea_jungle_day\"\n# bgmfile \"bgm230\" \"BgmSeaEvent\" 0\n# body 2500411\n# pos 2500411 3\n# mask 2500411 off\n# scale 2500411 0.8 0\n# face 2500411 \"sad\"\n# alpha 2500411 0 0\n# textflame 0 0\n@\nここは\nジャングルの秘境にある\n聖なる川のほとり\n\n# textflame 0 0\n@\n広大な宇宙との一体感を高めるため\nこの場所へ瞑想にやってきた\nブラフマーストラだったが…\n\n# alpha 2500411 1 1\n# textflame 1 1\n# voice 5004 \"burafumasutora_0022\"\n@ブラフマーストラ\nえっ？\nなに、この人だかり…\n\n# textflame 0 0\n@\n以前はひっそり静かだったのだが…\n今は若い男女がはしゃぎ回り、\nナンパ男もウヨウヨ…\n\n# textflame 0 0\n@\nそういえば、この間観光ガイドに\n「伝説の秘境」と紹介されていたと\nマスターが伝える\n\n# textflame 1 1\n# voice 5004 \"burafumasutora_0040\"\n@ブラフマーストラ\nなるほど！それでかあ…\nでもこれじゃあ全然\n秘境じゃない系じゃない？\n\n# textflame 0 0\n@\n瞑想するには難しいかもね\nどこか他のところに移る？\nと、提案するマスター\n\n# face 2500411 \"usual\"\n# textflame 1 1\n# voice 5004 \"burafumasutora_0004\"\n@ブラフマーストラ\nいや、これはこれで面白いじゃん\nこういう状況下で瞑想できてこそ\nなんぼって感じじゃない？\n\n# face 2500411 \"smile\"\n# textflame 1 1\n# voice 5004 \"burafumasutora_0001\"\n@ブラフマーストラ\nマスター！\nよーく見といてよー？\n集中！集中！瞑想！瞑想！\n\n# eye 2500411 \"close\"\n# textflame 0 0\n@\nこうしてブラフマーストラは、\nマスターの見守る中、\n瞑想へと入り込んでいくが…\n\n# textflame 0 0\n@\nそこへナンパな男達が\nブラフマーストラを\n口説きに次々とやって来る\n\n;;//モヤモヤ吹き出し\n# move 2500411 3 0\n# serif 0\n# textwindow \"close\"\n# serif 1\n# textwindow \"moya\"\n# textboxarrow 1 0\n# voice 5004 \"burafumasutora_0007\"\n@ブラフマーストラ\n煩悩の固まり君達、\nそんなんでアタシを落とせるとか\n思っちゃってるわけ？\n\n;;//モヤモヤ吹き出し\n# move 2500411 3 0\n# serif 0\n# textwindow \"close\"\n# serif 1\n# textwindow \"moya\"\n# textboxarrow 1 0\n@ブラフマーストラ\nまだまだ甘いねえ…\nあんたらの誘い文句なんて、\nアタシにはまったく響かないよ\n\n# serif 1\n# textwindow \"close\"\n# serif 0\n# textwindow \"normal\"\n# textflame 0 0\n@\nブラフマーストラは\n彼らにまったく動じることなく、\n深い深い瞑想状態に入り込んでいく\n\n# textflame 0 0\n@\nナンパ男たちも\n彼女にどうアプローチすれば良いのか\n思いあぐねている様子\n\n;;//モヤモヤ吹き出し\n# move 2500411 3 0\n# serif 0\n# textwindow \"close\"\n# serif 1\n# textwindow \"moya\"\n# textboxarrow 1 0\n# voice 5004 \"burafumasutora_0004\"\n@ブラフマーストラ\nフン！\n夏の煩悩は強敵だと思ってたけど、\n大したことないね！\n\n# serif 1\n# textwindow \"close\"\n# serif 0\n# textwindow \"normal\"\n# textflame 0 0\n@\n自信満々の\nブラフマーストラだったが\nナンパ男達はまだ諦めていなかった\n"
	}
]