[
	{
		"ID": 250011103,
		"script": ";;【EP3】\n# script \"lisp\"\n# background \"sea_resort_day\"\n# bgmfile \"bgm255\" \"BgmSeaDate\" 0\n# body 2500111\n# pos 2500111 3\n# mask 2500111 off\n# textflame 0 0\n@\nナンパが趣味のケラウノスが\nナンパするのを我慢し\n逆にナンパされるのを待っている\n\n# textflame 1 1\n# textboxarrow 0 2\n# chara 2500111\n@ケラウノス\nあ、あの子可愛い…\n\n# face 2500111 \"angry\"\n# voice 5001 \"keraunosu_0008\"\n@ケラウノス\nわ、わかってるよ\n今はナンパ待ちだもんね！\n我慢…我慢…\n\n# textflame 0 0\n@\nたしかにケラウノスを見る人は\n何人かいるが\nなかなか話しかけてはこない\n\n# textflame 0 0\n@\n怖い顔になっているよ\nそれじゃ話しかけにくいのでは…と\nマスターは指摘する\n\n# textflame 1 1\n# textboxarrow 0 2\n# chara 2500111\n# face 2500111 \"sad\"\n@ケラウノス\nそう言われても\nどうしたらいいかわかんないよ…\n\n# textflame 0 0\n@\n少しリラックスした方がいい\nと言いながら、マスターは\nジュースを一杯差し出した\n\n# textflame 1 1\n# textboxarrow 0 2\n# chara 2500111\n# face 2500111 \"normal\"\n@ケラウノス\n…ん、ありがとうマスター\nリラックス、リラックスね…\n\n# face 2500111 \"smile\"\n# voice 5001 \"keraunosu_0005\"\n@ケラウノス\n…あ、このジュースおいしい！\n\n# textflame 0 0\n@\n先ほどとは違い自然と\n笑みを浮かべるケラウノス\nマスターはこれだと確信する\n\n# textflame 1 1\n# textboxarrow 0 2\n# chara 2500111\n# face 2500111 \"normal\"\n@ケラウノス\nマスター、どうしたの？\n\n# textflame 0 0\n@\nマスターはニッコリしていた方が\n話しかけやすいんじゃないかと\nアドバイスをした\n\n# textflame 1 1\n# textboxarrow 0 2\n# chara 2500111\n# voice 5001 \"keraunosu_0003\"\n@ケラウノス\nなるほど…確かに笑顔は大事よね\n私も笑顔の子だと\nナンパが何倍も楽しいって思うし…\n\n# face 2500111 \"smile\"\n# voice 5001 \"keraunosu_0041\"\n@ケラウノス\nさすがマスター、ナイスアドバイス！\n私、頑張れそうな気がしてきたよ！\n\n# textflame 0 0\n@\nマスターはその調子と励ました後\n離れたところから見守ることにした\n\n# textflame 0 0\n@\nしばらくすると\n誰かやってきたようだ\nなにか話をしている\n\n# textflame 1 1\n# textboxarrow 0 2\n# chara 2500111\n# face 2500111 \"normal\"\n# voice 5001 \"keraunosu_0004\"\n@ケラウノス\nえ、私？\nうん。今はひとりだよ\nここのジュースおいしいよね\n\n# face 2500111 \"smile\"\n# voice 5001 \"keraunosu_0039\"\n@ケラウノス\nへえ～友達と来てるんだ\nプールっていいよね\n\n# textflame 0 0\n@\nこの様子なら大丈夫そうだと\nマスターは安心した\n\n# fadeout \"black\" 2\n# waitandnext 2.5\n\n;;//暗転（時間経過）\n# bgmfile \"bgm224\" \"BgmSeaEvent\" 0\n# fadein \"black\" 1\n# textflame 1 1\n# textboxarrow 0 2\n# chara 2500111\n# voice 5001 \"keraunosu_0001\"\n@ケラウノス\nただいま！\nマスターの言う通りにしたら\nうまくいったよ！\n\n# textflame 0 0\n@\n嬉しそうな\nケラウノスにマスターは\n相槌を打つ\n\n# textflame 1 1\n# textboxarrow 0 2\n# chara 2500111\n@ケラウノス\nねえ、マスター\n待つのって\n力を溜めることと似てるね！\n\n# voice 5001 \"keraunosu_0005\"\n@ケラウノス\nここぞってときに、自分の力を\n爆発させると効果絶大！\n\n# voice 5001 \"keraunosu_0020\"\n@ケラウノス\n抑制させるのはイヤだけど\n自分で力をコントロールして\n大事な時に力を使うって気持ちいい！\n\n# face 2500111 \"normal\"\n@ケラウノス\nいつもと違うことに挑戦してみて\nなんだか力がついた気がするの\nマスター、見ててね\n\n# envbody 1801 8 0\n# effectpattern 1801 1 0\n# effectstart 1801\n# textflame 0 0\n@\nケラウノスが力を込めると\n周囲から光が集まりはじめた\n\n# effectskip 1801\n# fadein \"white\" 1\n# textflame 0 0\n@\n一点に集めた光を\n一気に解き放つ\n\n;;//演出（フラッシュ）\n# textflame 0 0\n@\nそれはまさしく、\n彼女が新たなるスキルに\n目覚めた瞬間だった\n\n# se \"SE_0602\"\n# textflame 1 1\n# textboxarrow 0 2\n# chara 2500111\n# face 2500111 \"smile\"\n@ケラウノス\nこれが私の新しい力\n『ロマンスハント』だよ\n\n# textflame 0 0\n@\nまさか、ナンパを我慢することで\n新しい力に目覚めるなんて…と\nマスターは驚きつつも感心する\n\n# textflame 1 1\n# textboxarrow 0 2\n# chara 2500111\n# voice 5001 \"keraunosu_0001\"\n# face 2500111 \"normal\"\n@ケラウノス\nマスター、ちょっとこっちに来て\n\n# textflame 0 0\n@\nパラソルの下へと引っ張られる\nトロピカルドリンクを持って\nケラウノスは向かい側へと座った\n\n# textflame 0 0\n@\nどうしたのかとマスターは尋ねる\n\n# textflame 1 1\n# textboxarrow 0 2\n# chara 2500111\n@ケラウノス\nん？\nナンパ待ちだよ\n\n# textflame 0 0\n@\n周りを見渡してみるが\nこのあたりには人があまりいない\nマスターは不思議に思う\n\n# textflame 1 1\n# textboxarrow 0 2\n# chara 2500111\n# voice 5001 \"keraunosu_0004\"\n@ケラウノス\nねえ、マスター\n私が一番ナンパされたいのって…\n誰だかわからない？\n\n# imageset 0 \"c2500111\"\n# imagealpha 0 0 0\n# textflame 0 0\n@\nマスターを見つめながら\nケラウノスは口を少しとんがらせた\n\n;;「マスターのこと、私、好きだよ。今まで出逢った人の中で、一番！」\n# frameout 0 0.5\n# buttonsout 0 0.5\n# voice 5001 \"keraunosu_kyara_0017\"\n# imagealpha 0 1 0\n# imagepos 0 0 0\n# fadein \"white\" 3\n# textwindow \"close\"\n\n"
	}
]