[
	{
		"ID": 250011104,
		"script": ";;【EP4】\n# script \"lisp\"\n# background \"sea_resort_day\"\n# bgmfile \"bgm255\" \"BgmSeaDate\" 0\n# body 2500111\n# pos 2500111 3\n# mask 2500111 off\n# textflame 0 0\n@\n後日―\nマスターはケラウノスに引っ張られ\nプールへとやってきた\n\n# textflame 1 1\n# textboxarrow 0 2\n# chara 2500111\n# face 2500111 \"smile\"\n# voice 5001 \"keraunosu_0001\"\n@ケラウノス\nさあマスター、こっちこっち\nこのパラソルの下に座って\n\n# face 2500111 \"normal\"\n# voice 5001 \"keraunosu_0023\"\n@ケラウノス\nなにをするのって…ナンパ待ちだよ\nこの前の続きのね\n\n# textflame 0 0\n@\nこの前の続き…とマスターが呟くと\nケラウノスがぐいっと近づいてくる\n\n# textflame 1 1\n# textboxarrow 0 2\n# chara 2500111\n@ケラウノス\nねえ、マスター\nこの前は、誤魔化されちゃったけどさ\n\n# voice 5001 \"keraunosu_0004\"\n@ケラウノス\n私が一番ナンパされたいのって…\n誰だかわからない？\n\n# textflame 0 0\n@\nケラウノスの手にはグラスが\nそこには、２本のストローが差してある\n\n# textflame 1 1\n# textboxarrow 0 2\n# chara 2500111\n# face 2500111 \"angry\"\n@ケラウノス\nほら、目をそらさないで\nねぇねぇ、わかるよね？\n\n# textflame 0 0\n@\n…わかった、と覚悟を決めるマスター\n今日はふたりでプールを楽しもう\nとケラウノスを誘う\n\n# textflame 1 1\n# textboxarrow 0 2\n# chara 2500111\n# face 2500111 \"smile\"\n@ケラウノス\n…ふふ。もう、仕方ないなぁ\n\n# textflame 0 0\n@\nケラウノスは少しもじもじしながらも\n嬉しそうに答える\n\n# textflame 1 1\n# textboxarrow 0 2\n# chara 2500111\n# voice 5001 \"keraunosu_0036\"\n@ケラウノス\nマスター、\n私のことナンパしたんだから\nちゃーんと私にかまってよね\n\n# face 2500111 \"normal\"\n# voice 5001 \"keraunosu_0001\"\n@ケラウノス\n私もちゃんと…マスターのことかまうから\n\n# envbody 1801 8 0\n# effectpattern 1801 1 0\n# effectstart 1801\n# textflame 0 0\n@\nその時\n無数の光がケラウノスの周りで輝きはじめた\n\n# textflame 1 1\n# textboxarrow 0 2\n# chara 2500111\n# face 2500111 \"smile\"\n@ケラウノス\n言ったよね。力を抑制して\n大事な時に開放するんだって\n\n# face 2500111 \"normal\"\n@ケラウノス\n今がその時…\nマスターが私をナンパしてくれた今が\n\n# textflame 0 0\n@\n光はやがて、\nケラウノスを包みはじめる\n\n;;//演出（フラッシュ）\n# effectskip 1801\n# fadein \"white\" 1\n# se \"SE_0602\"\n# textflame 1 1\n# textboxarrow 0 2\n# chara 2500111\n# face 2500111 \"smile\"\n@ケラウノス\n新しい技、会得したよ…\n『神聖プール王国の誓い』！\n\n# textflame 0 0\n@\nそれはまさしく、\n彼女が新たなスキルに\n目覚めた瞬間だった\n\n# voice 5001 \"keraunosu_0005\"\n# textflame 1 1\n# textboxarrow 0 2\n# chara 2500111\n@ケラウノス\nね、私、いつも以上に…\nすっごくきれいでしょ？\n\n@ケラウノス\nだからー、ほら！\n\n# textflame 0 0\n@\nケラウノスはストローをくわえて\nマスターを促す\n\n# textflame 0 0\n@\n少し恥ずかしさもあったが\nケラウノスに押されるように\nマスターもストローを口にする\n\n# textflame 0 0\n@\n…が、その時だった\n\n# bgm \"stop\"\n# textflame 1 1\n# textboxarrow 0 2\n# chara 2500111\n# face 2500111 \"sad\"\n# voice 5001 \"keraunosu_0022\"\n@ケラウノス\nあ、いっけなーい！\n\n@ケラウノス\n私、さっきナンパされた女の子と\n遊ぶ約束してたんだった！\n\n# se \"SE_5575\"\n# alpha 2500111 0 0.5\n# textflame 0 0\n@\nケラウノスは急にストローを離すと\n走り出していく\n\n# textflame 0 0\n@\nマスターが少しあきれながら\nその様子を眺めていると\nケラウノスが急に振り返った\n\n# bgmfile \"bgm256\" \"BgmSeaDate\" 0\n# alpha 2500111 1 0.5\n# textflame 1 1\n# textboxarrow 0 2\n# chara 2500111\n# face 2500111 \"smile\"\n@ケラウノス\nけど、ちょっとだけ遊んだら\nすぐ帰ってくるから！\n\n# voice 5001 \"keraunosu_0005\"\n@ケラウノス\nそしたら、後はずーっと\nふたりで遊ぼうね♪\n\n# se \"SE_5575\"\n# alpha 2500111 0 0.5\n# textflame 0 0\n@\nそれだけを言うと\nまた走り出していった\n\n# imageset 0 \"c2500111\"\n# imagealpha 0 0 0\n# textflame 0 0\n@\nマスターは苦笑いしながらも\n仕方ないなとケラウノスを見送った\n\n;;「ねぇねぇ、わかるよね？私は今、何を欲しがってるかわっかるよねっ？」\n# frameout 0 0.5\n# buttonsout 0 0.5\n# voice 5001 \"keraunosu_event_2002\"\n# imagealpha 0 1 0\n# imagepos 0 0 0\n# fadein \"white\" 3\n# textwindow \"close\""
	}
]