[
	{
		"ID": 250021104,
		"script": "# script \"lisp\"\n# background \"sea_jungle_day\"\n# bgmfile \"bgm230\" \"BgmSeaEvent\" 0\n# body 2500211\n# pos 2500211 3\n# mask 2500211 off\n# textflame 0 0\n# face 2500211 \"usual\"\n@\n数日後─\n\n# textflame 0 0\n@\n先日の下見を終え、\nいよいよ本格的に\n肝試しの準備に入る２人\n\n# textflame 0 0\n@\nわっ！\n\n# textflame 1 1\n# textboxarrow 0 2\n# chara 2500211\n@フライクーゲル\n！！\n\n# textflame 0 0\n@\nあれ、驚かないの？\n\n# textflame 0 0\n@\nお化けの面を持ったマスターが、\n彼女に尋ねる\n\n# textflame 1 1\n# textboxarrow 0 2\n# chara 2500211\n# eye 2500211 \"close\"\n@フライクーゲル\nふっふっふ…\n\n# textflame 1 1\n# textboxarrow 0 2\n# chara 2500211\n# eye 2500211 \"normal\"\n# face 2500211 \"smile\"\n# voice 5002 \"furaikugeru_0004\"\n@フライクーゲル\n恐怖心に勝てた\nフライクーゲルちゃんに\nもう怖いものはなし！\n\n# textflame 1 1\n# textboxarrow 0 2\n# chara 2500211\n# face 2500211 \"normal\"\n@フライクーゲル\nそれぐらいじゃ、\nもう驚かないんだから！\nアンダースダン！？\n\n# textflame 0 0\n@\nすっかり自信を持った\n彼女の笑顔を見ていると、\nマスターも気持ちが盛り上がってくる\n\n# textflame 0 0\n@\n肝試しに向けて、\nもっと派手な仕掛けが\n欲しくなってきた\n\n# select \"もっと怖がらせるには何がいいかな？\" \"select_label_01\" \"もっと新しい怖がらせ方ないかな\" \"select_label_02\" \"隊の姫をめちゃめちゃ怖がらせようよ\" \"select_label_03\"\n肝試しに向けて、\nもっと派手な仕掛けが\n欲しくなってきた\n\n# label \"select_label_01\"\n# labeljump \"select_label_end\"\n# textflame 1 1\n# textboxarrow 0 2\n# chara 2500211\n# eye 2500211 \"close\"\n@フライクーゲル\n…そうだな～\n\n# label \"select_label_02\"\n# labeljump \"select_label_end\"\n# textflame 1 1\n# textboxarrow 0 2\n# chara 2500211\n# eye 2500211 \"close\"\n@フライクーゲル\n新しい…？う～ん…\n\n# label \"select_label_03\"\n# labeljump \"select_label_end\"\n# textflame 1 1\n# textboxarrow 0 2\n# chara 2500211\n# eye 2500211 \"close\"\n@フライクーゲル\nＯＫ！じゃあ～…\n\n# label \"select_label_end\"\n# textflame 1 1\n# textboxarrow 0 2\n# chara 2500211\n# eye 2500211 \"normal\"\n# face 2500211 \"smile\"\n# voice 5002 \"furaikugeru_0007\"\n@フライクーゲル\nあっ！\nグッドなアイデア、\n思いついたよ！\n\n# textflame 0 0\n@\nと、準備を始めた彼女\n\n# textflame 0 0\n@\nそのさなか、\nマスターに向かって\n語り始める\n\n# textflame 1 1\n# textboxarrow 0 2\n# chara 2500211\n# face 2500211 \"smile\"\n# voice 5002 \"furaikugeru_0030\"\n@フライクーゲル\nサンキューね、マスター\n\n# textflame 0 0\n@\n？\n\n# textflame 1 1\n# textboxarrow 0 2\n# chara 2500211\n# face 2500211 \"usual\"\n@フライクーゲル\nこんな言葉を思い出したの\n\n# textflame 1 1\n# textboxarrow 0 2\n# chara 2500211\n@フライクーゲル\n恐怖の魅力に酔いうる者は…\n強者のみ\n\n# textflame 1 1\n# textboxarrow 0 2\n# chara 2500211\n# eye 2500211 \"close\"\n@フライクーゲル\nわたし…\n\n# textflame 1 1\n# textboxarrow 0 2\n# chara 2500211\n# eye 2500211 \"normal\"\n@フライクーゲル\n恐怖を乗り越え、それに\n酔いしれることができるくらいの\n真の強者になってく\n\n# textflame 1 1\n# textboxarrow 0 2\n# chara 2500211\n# face 2500211 \"normal\"\n# voice 5002 \"furaikugeru_0032\"\n@フライクーゲル\nマスターの元でね\n\n# textflame 1 1\n# textboxarrow 0 2\n# chara 2500211\n@フライクーゲル\nマスターとなら…\nできる気がするんだ\n\n# textflame 1 1\n# textboxarrow 0 2\n# chara 2500211\n# face 2500211 \"normal\"\n# voice 5002 \"furaikugeru_0005\"\n@フライクーゲル\nだって、あれだけ苦手だった\nお化けの恐怖も\n乗り越えられたんだもん♪\n\n# textflame 1 1\n# textboxarrow 0 2\n# chara 2500211\n# eye 2500211 \"close\"\n@フライクーゲル\nだから…\n\n# textflame 1 1\n# textboxarrow 0 2\n# chara 2500211\n# eye 2500211 \"normal\"\n# face 2500211 \"smile\"\n# voice 5002 \"furaikugeru_0036\"\n@フライクーゲル\nこれからもヨロシク☆\n\n# textflame 1 1\n# textboxarrow 0 2\n# chara 2500211\n@フライクーゲル\nよし！準備完了！\n見ててね！\n\n# textflame 0 0\n@\n両手を天に突き上げ、\n彼女が魔弾を放った\n\n# textflame 0 0\n@\n！！\n\n# textflame 0 0\n@\nそれはまるで花火のように美しく…\n\n# textflame 0 0\n@\n不思議とマスターの心を\n癒してもくれるのだった\n\n# textflame 1 1\n# textboxarrow 0 2\n# chara 2500211\n# face 2500211 \"normal\"\n# voice 5002 \"furaikugeru_0004\"\n@フライクーゲル\n新スキル\n『ジャングル連合の絆』\nってね！！\n\n# textflame 0 0\n@\nきれいだね\n\n# textflame 0 0\n@\nポツリとつぶやくマスター\n\n# textflame 1 1\n# textboxarrow 0 2\n# face 2500211 \"usual\"\n# chara 2500211\n@フライクーゲル\nえ、な、なに、急に！？\nそんなキレイだなん…！\n\n# textflame 1 1\n# textboxarrow 0 2\n# chara 2500211\n# face 2500211 \"smile\"\n# voice 5002 \"furaikugeru_0008\"\n@フライクーゲル\nあ、な、なんだ…！\n魔弾のことね、\nアハ…アハハハ…！\n\n# textflame 1 1\n# textboxarrow 0 2\n# chara 2500211\n@フライクーゲル\nフフ…なんて言うか…\n肝試しの準備も悪くないかも\n\n# textflame 1 1\n# textboxarrow 0 2\n# chara 2500211\n# face 2500211 \"usual\"\n@フライクーゲル\n最初は\nソーバッドなんて\n言ったけど…\n\n# textflame 1 1\n# textboxarrow 0 2\n# chara 2500211\n# face 2500211 \"smile\"\n# voice 5002 \"furaikugeru_0001\"\n@フライクーゲル\n今夜は最高の\n夏の思い出になる気がするよ、\nマスター♪\n\n# imageset 0 \"c2500211\"\n# imagealpha 0 0 0\n# textflame 0 0\n@\n笑う彼女の瞳は、\nとてもキラキラと輝いていた\n\n# voice 5002 \"furaikugeru_kyara_0017\"\n# frameout 0 0.5\n# buttonsout 0 0.5\n# imagealpha 0 1 0\n# imagepos 0 0 0\n# fadein \"white\" 3\n# textwindow \"close\"\n"
	}
]