[
	{
		"ID": 250171103,
		"script": ";;■EP3\n;;背景　砂浜（リゾート）\n# script \"lisp\"\n# background \"sea_beach_day\"\n# bgmfile \"bgm234\" \"BgmSeaEventBattle\" 0\n# body 2501711\n# pos 2501711 3\n# mask 2501711 off\n# face 2501711 \"angry\"\n# alpha 2501711 0 0\n# textflame 0 0\n@\nマスターはなんとか\n逃げるグリモワールに追いつき\nその手をつかむ\n\n# alpha 2501711 1 0.5\n# textflame 1 1\n# textboxarrow 0 2\n# chara 2501711\n# voice 5017 \"grimoire_0011\"\n@グリモワール\n離して！\nワタシ…ワタシは…！\n\n# textflame 0 0\n@\nどうして逃げたの？\n落ち着かせるように\n優しく尋ねるマスター\n\n# textflame 1 1\n# textboxarrow 0 2\n# chara 2501711\n# face 2501711 \"sad\"\n# voice 5017 \"grimoire_0015\"\n@グリモワール\nだって…あんな簡単な魔法\n失敗しちゃうなんて…\n\n@グリモワール\n…ダメなの…\nさっきの失敗だけはダメなの…\n\n@グリモワール\nなんでって…？\nそ、それは…\n\n# voice 5017 \"grimoire_0017\"\n@グリモワール\n…せっかくマスターが買ってくれた\nクロピヨアイスが…波に…\n\n# select \"そんなこと？\" \"select_label_01\" \"よしよし、泣かないで\" \"select_label_02\" \"そんなに食べたかったの？\" \"select_label_03\"\n…せっかくマスターが買ってくれた\nクロピヨアイスが…波に…\n\n# label \"select_label_01\"\n# labeljump \"select_label_end\"\n# textflame 1 1\n# textboxarrow 0 2\n# chara 2501711\n# face 2501711 \"angry\"\n@グリモワール\nだ、大事なことなのよ！\nワタシにとっては！\n\n# label \"select_label_02\"\n# labeljump \"select_label_end\"\n# textflame 1 1\n# textboxarrow 0 2\n# chara 2501711\n# face 2501711 \"angry\"\n@グリモワール\n泣いてないわよ！\nこども扱いしないで！\n\n# label \"select_label_03\"\n# labeljump \"select_label_end\"\n# textflame 1 1\n# textboxarrow 0 2\n# chara 2501711\n# face 2501711 \"angry\"\n@グリモワール\nそ、そういうことじゃない！\n\n# label \"select_label_end\"\n# textflame 0 0\n@\nアイスならまた買うよ、と\nマスターがなぐさめる\n\n# textflame 1 1\n# textboxarrow 0 2\n# chara 2501711\n# face 2501711 \"sad\"\n@グリモワール\nそれって…\nワタシの機嫌を取るため…？\n\n# textflame 0 0\n@\n違う。グリモワールに\n喜んでほしいからだ\nマスターは力強く伝えた\n\n# textflame 0 0\n@\nアイスはまた買えばいい\n失敗しても、また次があるんだよ\nマスターはそう言葉をかける\n\n# textflame 1 1\n# textboxarrow 0 2\n# chara 2501711\n@グリモワール\nそっか…まぁ…確かに…\n研究だって、失敗に失敗を重ねて\n成功を勝ち取るものだし…\n\n# bgmfile \"bgm255\" \"BgmSeaDate\" 0\n# face 2501711 \"normal\"\n# voice 5017 \"grimoire_0029\"\n@グリモワール\n…うん、そうよね\nむしろ、この失敗を活かして\n新しい力にしてやるわ！\n\n# se \"SE_0602\"\n# face 2501711 \"smile\"\n@グリモワール\n…早速思いついちゃった！\nアイスの失敗を糧に、\n新奥義『冷菓神クロピヨ』習得！\n\n# textflame 0 0\n@\nそれはまさしく\n彼女が新たなるスキルに\n目覚めた瞬間だった\n\n# textflame 1 1\n# textboxarrow 0 2\n# chara 2501711\n@グリモワール\nさあモヤモヤした気持ちも消えたし\nアイスを買いなおすわよ！\n\n# face 2501711 \"sad\"\n# voice 5017 \"grimoire_0022\"\n@グリモワール\nえっ？\nべ、別にワタシが食べたいわけじゃ…\n\n# face 2501711 \"angry\"\n@グリモワール\nさっきマスターの分\n買ってなかったから\n付き合ってあげようと思って！\n\n# textflame 0 0\n@\n強がるグリモワールを見て\nマスターは思わず笑みをこぼす\n\n# textflame 1 1\n# textboxarrow 0 2\n# chara 2501711\n# voice 5017 \"grimoire_0010\"\n@グリモワール\nな、なに！？\nワタシのこと、バカにしてる！？\n\n# voice 5017 \"grimoire_0012\"\n@グリモワール\nかわいいと思ったって…\nやっぱりこども扱いじゃない！\n\n# face 2501711 \"normal\"\n# voice 5017 \"grimoire_0007\"\n@グリモワール\n…まぁ、でも\nクロピヨアイス買ってくれたし…\n探しに来てくれたし…\n\n# imageset 0 \"c2501711\"\n# imagealpha 0 0 0\n# face 2501711 \"smile\"\n# voice 5017 \"grimoire_0005\"\n@グリモワール\n今回は特別に許してあげる！\n\n;;ちょ、ちょっと…スキンシップなんてもってのほかよっ！\n;;や、だから…そ、そんなに近づかないでよぉ、んもぉっ！！\n# voice 5017 \"grimoire_kyara_0013\"\n# frameout 0 0.5\n# buttonsout 0 0.5\n# imagealpha 0 1 0\n# imagepos 0 0 0 \n# fadein \"white\" 3\n# textwindow \"close\""
	}
]