[
	{
		"ID": 250261213,
		"script": ";;-----------------------------------------\n;;海上編ゆんゆん2-3　　　　　　　　　　　　　　　　　　　　\n;;【キャラクエタイトル】勇気の先に\n;;-----------------------------------------\n# script \"lisp\"\n# background \"sea_beach_day\"\n# bgm \"bgm005\" 0\n;;-----------------------------------------\n;;新ゆんゆん\n# body 2502611\n# pos 2502611 3\n# scale 2502611 0.8 0\n# layer 2502611 3\n# mask 2502611 off\n# alpha 2502611 1 0\n;;-----------------------------------------\n;;一枚絵\n# imageset 0 \"c2502611\"\n# imagelayer 0 3\n# imagealpha 0 0 0\n;;-----------------------------------------\n# face 2502611 \"normal\"\n# voice 250261 \"yunyun_0026\"\n# textflame 1 1\n# textboxarrow 0 2\n@ゆんゆん\nう…うぅぅ…\n\n# textflame 0 0\n@\n恥ずかしそうにしていたゆんゆんが、\n意を決し叫んだ\n\n# face 2502611 \"angry\"\n# textflame 1 1\n# textboxarrow 0 2\n@ゆんゆん\n我が名はゆんゆん！\nアークウィザードにして、\nやがては紅魔族の長となる者！\n\n# textflame 0 0\n@\n武器を手に、敵の前に躍り出す彼女\n\n;;もやもやフレームで\n# move 2502611 3 0\n# textflame 1 1\n# textwindow \"moya\"\n# textboxarrow 0 0\n@ゆんゆん\n今まで恥ずかしい経験も多かった…\n\n;;もやもやフレームで\n# move 2502611 3 0\n# textflame 1 1\n# textwindow \"moya\"\n# textboxarrow 0 0\n@ゆんゆん\nだから、もう恥ずかしい思いは\nしたくないと思ってた\nでも…！\n\n;;もやもやフレームで\n# move 2502611 3 0\n# textflame 1 1\n# textwindow \"moya\"\n# textboxarrow 0 0\n@ゆんゆん\nそれを受け止め、\n前に進めと言ってくれる人がいる！\n\n;;もやもやフレームで\n# move 2502611 3 0\n# textflame 1 1\n# textwindow \"moya\"\n# textboxarrow 0 0\n@ゆんゆん\nその人がそばにいてくれたら…\n\n;;もやもやフレームで\n# move 2502611 3 0\n# textflame 1 1\n# textwindow \"moya\"\n# textboxarrow 0 0\n@ゆんゆん\nもう恥ずかしいことなんて\nありません！\n\n# se \"SE_0602\"\n# textflame 1 1\n# textboxarrow 0 2\n# textwindow \"normal\"\n@ゆんゆん\n見えました！！新技！！\n『ビーチ・オブ・セイバー』――ッ！\n\n# textflame 0 0\n@\nマスターの言葉を受け、\n新たなる力に目覚めるゆんゆん！\n\n# voice 250261 \"yunyun_battle_0001\"\n# textflame 1 1\n# textboxarrow 0 2\n@ゆんゆん\nはぁぁぁーーーっ！！\n\n# textflame 0 0\n@\nその巨大な力で、\n見事、異族を撃破するのだった\n\n# textwindow \"close\"\n# fadeout \"black\" 1\n# waitandnext 1.2\n\n# alpha 2502611 0 0\n# waitandnext 0.2\n\n# fadein \"black\" 1\n# waitandnext 1\n\n# bgmfile \"bgm224\" \"BgmSeaEvent\" 0\n# textflame 0 0\n# textwindow \"normal\"\n@\n戦闘後、\nマスターの隣にちょこんと座り、\n話をするゆんゆん\n\n# alpha 2502611 1 0.5\n# face 2502611 \"normal\"\n# textflame 1 1\n# textboxarrow 0 2\n@ゆんゆん\nあ、ありがとうございました…\n\n# textflame 1 1\n# textboxarrow 0 2\n@ゆんゆん\nマスターさんのおかげで…\n一歩前に進むことができました\n\n# textflame 1 1\n# textboxarrow 0 2\n@ゆんゆん\n恥ずかしがって、\n前に進もうとしない方が…\n恥ずかしいって\n\n# textflame 1 1\n# textboxarrow 0 2\n@ゆんゆん\nマスターさんが\n言ったとおりですよね\n\n# face 2502611 \"happy\"\n# textflame 1 1\n# textboxarrow 0 2\n@ゆんゆん\nこれからは…\nは、恥ずかしがらずに\n前を向いて歩いていきます！\n\n# textflame 0 0\n@\nそう宣言する彼女に\nマスターは言う\n\n# textflame 0 0\n@\n恥ずかしがらなくても大丈夫\nその水着、似合ってるよ\n…と\n\n# face 2502611 \"normal\"\n# textflame 1 1\n# textboxarrow 0 2\n@ゆんゆん\n…そ\n\n# textflame 1 1\n# textboxarrow 0 2\n@ゆんゆん\nそ、そんなにジロジロ\n見ないで下さい…！\n\n# textflame 0 0\n@\n宣言したのも束の間、\nすぐまた、\n恥ずかしくなるゆんゆん\n\n# face 2502611 \"happy\"\n# textflame 1 1\n# textboxarrow 0 2\n@ゆんゆん\nでも、マスターさんが\nいてくれたら…\n私はもう一人じゃありません\n\n# textflame 1 1\n# textboxarrow 0 2\n@ゆんゆん\nこんなことを言うのは\n恥ずかしいですけど…\n\n# textflame 1 1\n# textboxarrow 0 2\n@ゆんゆん\nあなたと共に戦ってゆきますっ！！\n\n# textflame 0 0\n@\n真夏の太陽と同じくらい\n顔を真っ赤にして誓う\nゆんゆんだった\n\n;;■一枚絵指定\n;;背景：ビーチ（昼）　　　\n;;表情：少し照れつつも、嬉しそうに頬を染めて笑っています。\n;;構図：マスターと友達になれたことが嬉しくて、前のめりの姿勢でぐっと掌を握り、\n;;マスターに笑いかけています。\n;;一枚絵ボイス：「私にできることなら、なんでも言って下さい！\n;;マスターさんのためなら、精一杯頑張りますから…！」\n;;ボイス：yunyun_kyara_ex_0002\n# textflame 0 0\n# imagealpha 0 1 0\n# imagepos 0 0 0\n# fadein \"white\" 3\n# buttonsout 0 0\n# textwindow \"close\"\n# voice 250261 \"yunyun_kyara_ex_0002\"\n\n# frameout 0 1\n\n# waitandnext 0.8\n\n# fadeout \"black\" 1.5\n# waitandnext 1.5"
	}
]