[
	{
		"ID": 250201101,
		"script": ";;背景：ジャングル\n# script \"lisp\"\n# background \"sea_jungle_day\"\n# bgmfile \"bgm230\" \"BgmSeaEvent\" 0\n# body 2502011\n# pos 2502011 3\n# mask 2502011 off\n# face 2502011 \"usual\"\n# textflame 0 0\n@\nみんなと一緒に\n緑豊かな大自然に囲まれた\nジャングルの川辺にやってきた\n\n# textflame 1 1\n# textboxarrow 0 2\n# voice 5020 \"tasuramu_0020\"\n@タスラム\n思ったよりいい場所だな！\nこんなにいいところだと\n思う存分楽しめそうだ！\n\n# textflame 1 1\n# textboxarrow 0 2\n@タスラム\n楽しみな食事もあるし…\n\n# textflame 0 0\n@\n目を輝かせながら\nタスラムはそんなことを言ってくる\n\n# face 2502011 \"angry\"\n# textflame 1 1\n# textboxarrow 0 2\n# voice 5020 \"tasuramu_0017\"\n@タスラム\nって、\nなにジロジロ見てるんだ？\n\n# textflame 1 1\n# textboxarrow 0 2\n@タスラム\nべ、べつにあたしがお腹空いたって\nそういうわけじゃないからな！\n\n# face 2502011 \"usual\"\n# textflame 1 1\n# textboxarrow 0 2\n@タスラム\nみんな移動で疲れただろうし\n時間もちょうどいいだろ？\nなら食事にした方がいいと思うぞ？\n\n# textflame 0 0\n@\nタスラムの言葉も一理ある\nそれならさっそく食事にしようかと\n他のみんなにも伝えるマスター\n\n# face 2502011 \"smile\"\n# textflame 1 1\n# textboxarrow 0 2\n# voice 5020 \"tasuramu_0006\"\n@タスラム\nよし！バーベキューだ！\n肉だーっ！！\nさっさと準備するぞ！\n\n# textflame 0 0\n@\nそんなにバーベキューが\n楽しみだったの？\n\n# textflame 1 1\n# textboxarrow 0 2\n# voice 5020 \"tasuramu_0020\"\n@タスラム\nバーベキューってことは\nお肉食べ放題ってことだろ？\nんん～～！今から楽しみだな！\n\n# textflame 0 0\n@\nはしゃぐタスラムを尻目に\nみんなあることに気付き\n言葉を失ってしまった…\n\n# face 2502011 \"sad\"\n# textflame 1 1\n# textboxarrow 0 2\n# voice 5020 \"tasuramu_0002\"\n@タスラム\nん？どうかしたのか？\nなんでみんな、急に黙って…\nおいマスター？\n\n# textflame 1 1\n# textboxarrow 0 2\n@タスラム\nえ？荷物を見ろ？\n荷物がどうかしたのかよ…\n\n# face 2502011 \"angry\"\n# serif 0\n# textwindow \"close\"\n# serif 1\n# textwindow \"toge\"\n# voice 5020 \"tasuramu_0023\"\n@タスラム\nななななんでだああああああ！？\n\n# serif 1\n# textwindow \"close\"\n# serif 0\n# textwindow \"nomal\"\n# textflame 0 0\n@\n大声で叫ぶタスラム\n持ってきた材料などが、\nなくなってるのを見れば当然だ\n\n# textflame 1 1\n# textboxarrow 0 2\n# voice 5020 \"tasuramu_0018\"\n@タスラム\nな、なんで材料が…\nそれに道具まで滅茶苦茶に…\n誰の仕業だこれ！！\n\n# textflame 1 1\n# textboxarrow 0 2\n# voice 5020 \"tasuramu_0013\"\n@タスラム\nくぅっ、この足跡…\nサルかなにかの仕業だな！？\n\n# face 2502011 \"sad\"\n# textflame 1 1\n# textboxarrow 0 2\n# voice 5020 \"tasuramu_0022\"\n@タスラム\nえ？バーベキューは諦めるしかない？\nそ、そんなあああっ！？\n\n# textflame 1 1\n# textboxarrow 0 2\n# voice 5020 \"tasuramu_0016\"\n@タスラム\nとりあえず食べられるものを探す？\nあ、あたしは認めないからなっ！\n絶対バーベキューをするんだ！\n\n# textflame 1 1\n# textboxarrow 0 2\n@タスラム\nみんなで…肉をいっぱい…\n\n# textflame 0 0\n@\nそう訴えるタスラムだが\n他のみんなは仕方ないと\n諦めているようだった\n\n# textflame 1 1\n# textboxarrow 0 2\n# voice 5020 \"tasuramu_0015\"\n@タスラム\nうぅっ…そんなっ…\nあたしは絶対に…\n\n# face 2502011 \"angry\"\n# textflame 1 1\n# textboxarrow 0 2\n@タスラム\nもういいっ！！\n\n# alpha 2502011 0 0.5\n# waitandnext 1\n# se \"SE_5575\"\n# textflame 0 0\n@\n言いながら林の中へと\n駆けていくタスラム\n\n# textflame 0 0\n@\n涙目でいた彼女を\n一人にさせるわけにはいかないと、\n追いかけるマスターであった\n"
	}
]