[
	{
		"ID": 250321211,
		"script": ";;-----------------------------------------\n;;水着ティファレト1-1\n;;背景：ビーチ\n;;-----------------------------------------\n# script \"lisp\"\n# background \"sea_beach_day\"\n# bgmfile \"bgm224\" \"BgmSeaEvent\" 0\n;;-----------------------------------------\n# body 2503211\n# pos 2503211 3\n# scale 2503211 0.8 0\n# layer 2503211 3\n# alpha 2503211 0 0\n# mask 2503211 off\n;;-----------------------------------------\n# textflame 0 0\n@\n太陽が降り注ぐ、夏の砂浜\n\n# textflame 0 0\n@\n余暇を楽しむ人々で、とても賑やかだ\n\n# textflame 0 0\n@\nそこに、また\n賑やかな集団がやってきた\nマスターと斬ル姫たちだ\n\n# textflame 0 0\n@\n皆を統率するのに大変そうな\nマスターの隣には、\n\n# alpha 2503211 1 0.5\n# textflame 1 1\n# textboxarrow 0 2\n# face 2503211 \"usual\"\n# voice 250321 \"tiphereth_t_0002\"\n@ティファレト\nみなさん、\nちょっと聞いてください\n\n# textflame 0 0\n@\nティファレトの姿があった\n\n# textflame 1 1\n# textboxarrow 0 2\n@ティファレト\n場所を取ったら\n自由時間にしますから、\n\n# textflame 1 1\n# textboxarrow 0 2\n@ティファレト\nそれまで勝手な行動は\n慎んでくださいね\n\n# textflame 0 0\n@\n彼女は、\nみんなをまとめ上げようと必死だ\n\n# textflame 1 1\n# textboxarrow 0 2\n# face 2503211 \"angry\"\n@ティファレト\nも～、みんな、\n言うこと聞いてくださいね～\n\n# textflame 0 0\n@\nだが個性豊かな面々を制すのは、\n並大抵のことではない\n\n# textflame 1 1\n# textboxarrow 0 2\n# face 2503211 \"usual\"\n# voice 250321 \"tiphereth_t_0004\"\n@ティファレト\nじゃあ、この辺りに\n荷物を置きましょうか\n\n# alpha 2503211 0 0.5\n# textflame 0 0\n@\n…と、\n場所を取ったのも束の間、\nすぐ姫に声を掛けられ…\n\n# alpha 2503211 1 0.5\n# textflame 1 1\n# textboxarrow 0 2\n# face 2503211 \"surprise\"\n# voice 250321 \"tiphereth_t_0022\"\n@ティファレト\nえ？かき氷が食べたい？\nお店は…ほら、あそこに\n\n# textflame 1 1\n# textboxarrow 0 2\n@ティファレト\n分からない？\nしょうがないですね、\n一緒に行ってあげましょう\n\n# textflame 0 0\n@\nかき氷を買うとすぐに、\n他に姫から…\n\n# textflame 1 1\n# textboxarrow 0 2\n@ティファレト\nえ？泳ぎに行こうって…？\n\n# textflame 1 1\n# textboxarrow 0 2\n# face 2503211 \"usual\"\n# voice 250321 \"tiphereth_t_0003\"\n@ティファレト\nわかりました\n\n# alpha 2503211 0 0.5\n# textflame 0 0\n@\nすぐさま海に向かう彼女\n\n# textflame 0 0\n@\n仲間の姫としばらく泳ぎ、\nビーチに上がってくると…\n\n# alpha 2503211 1 0.5\n# textflame 1 1\n# textboxarrow 0 2\n# face 2503211 \"sad\"\n# voice 250321 \"tiphereth_t_0015\"\n@ティファレト\nはぁ…はぁ…\nみなさん、ほんと元気ですね…\n\n# textflame 0 0\n@\nまた別の姫たちに声を掛けられた\n\n# textflame 1 1\n# textboxarrow 0 2\n# face 2503211 \"surprise\"\n@ティファレト\n…え？ビーチバレーボール…？\n\n# textflame 1 1\n# textboxarrow 0 2\n# face 2503211 \"angry\"\n@ティファレト\nやりましょう\n\n# alpha 2503211 0 0.5\n# textflame 0 0\n@\nみんなのお世話係で、\n明らかに大変そうな彼女\n\n# alpha 2503211 1 0.5\n# textflame 1 1\n# textboxarrow 0 2\n# voice 250321 \"tiphereth_t_battle_0005\"\n@ティファレト\nはぁ…はぁ…\n\n# textflame 1 1\n# textboxarrow 0 2\n# face 2503211 \"sad\"\n# voice 250321 \"tiphereth_t_0027\"\n@ティファレト\nあぁ、くたびれた…\n\n# textflame 0 0\n@\n…と、ビーチに座っていた\nマスターの隣に腰掛ける\n\n# textflame 0 0\n@\nそんな彼女にマスターは尋ねる\nどうして、そこまで頑張るの？\n\n# textflame 1 1\n# textboxarrow 0 2\n# face 2503211 \"surprise\"\n# voice 250321 \"tiphereth_t_0022\"\n@ティファレト\n…え？そんな…\n頑張ってるつもりは…\n\n# textflame 1 1\n# textboxarrow 0 2\n# face 2503211 \"usual\"\n@ティファレト\nでも、なんと言うか…\n\n# textflame 1 1\n# textboxarrow 0 2\n@ティファレト\n私がこうすることで、\nみなさんが喜んでくださるのなら\n\n# textflame 1 1\n# textboxarrow 0 2\n# voice 250321 \"tiphereth_t_0004\"\n@ティファレト\nそれが嬉しいんです\n\n# textflame 0 0\n@\nそう答えた彼女に\nマスターは告げる\n\n# textflame 0 0\n@\nみんなのために、\n自分を押し殺す必要は\nないんだよ…と\n\n# textflame 1 1\n# textboxarrow 0 2\n# face 2503211 \"sad\"\n# voice 250321 \"tiphereth_t_0042\"\n@ティファレト\nい、いえ…\n押し殺してなんかいません\n\n# textflame 1 1\n# textboxarrow 0 2\n@ティファレト\n私は主様と出会い、\n共に歩むことを決意しました\nだから…\n\n;;モヤモヤ吹き出し\n# move 2503211 3 0\n# textflame 1 1\n# textboxarrow 0 0\n# textwindow \"moya\"\n# mask 2503211 off\n@ティファレト\n主様のためなら…\n頑張れるんです\n\n# textwindow \"nomal\"\n# textflame 0 0\n@\nマスターは彼女に応える\nその気持ちはすごく嬉しいよ\nでも、全部に付き合わなくても、\n\n# textflame 0 0\n@\nきみも好きなこと、\nやりたいことを\nやっていいんだよ？と\n\n# textwindow \"nomal\"\n# textflame 1 1\n# textboxarrow 0 2\n# face 2503211 \"surprise\"\n# voice 250321 \"tiphereth_t_0024\"\n@ティファレト\n…！\n\n# textflame 1 1\n# textboxarrow 0 2\n# face 2503211 \"sad\"\n# voice 250321 \"tiphereth_t_0028\"\n@ティファレト\n私の…\n好きなこと…\nやりたいこと…\n\n# textflame 1 1\n# textboxarrow 0 2\n# face 2503211 \"shy\"\n@ティファレト\nほんとですか…？\n\n# textflame 0 0\n@\nほんの少しだけ頬を染め、\n彼女が口を開いた\n\n# textflame 1 1\n# textboxarrow 0 2\n@ティファレト\n私がやりたいこと\nそ、それは…\n\n# textflame 0 0\n@\nどうやら、なにかあるみたいだ"
	}
]