[
	{
		"ID": 251217073,
		"script": ";;-----------------------------------------\n;;ファントムオブキル　この素晴らしい世界に祝福を！コラボ2019水着　シナリオ後半\n;;【EP.7】\n;;7_3\n;;スクリプト最後の背景：ビーチ\n;;-----------------------------------------\n# script \"lisp\"\n# background \"sea_beach_day\"\n# bgmfile \"bgm351_1\" \"BgmKScollabo002\" 0\n;;-----------------------------------------\n;;めぐみん\n# body 2502511\n# pos 2502511 3\n# scale 2502511 0.8 0\n# layer 2502511 2\n# alpha 2502511 0 0\n# mask 2502511 off\n;;ゆんゆん\n# body 2502611\n# pos 2502611 3\n# scale 2502611 0.8 0\n# layer 2502611 2\n# alpha 2502611 0 0\n# mask 2502611 off\n;;-----------------------------------------\n;;背景：ビーチ\n# move 2502611 3 0\n# face 2502611 \"angry\"\n# alpha 2502611 1 0\n# mask 2502611 off\n# textflame 1 1\n# textboxarrow 0 2\n# voice 250261 \"yunyun_0005\"\n@ゆんゆん\nふ、ふふ、どう！\nいくら爆裂魔法でも\nこの数は倒せないでしょ！\n\n# alpha 2502611 0 0.5\n# move 2502511 3 0\n# face 2502511 \"normal\"\n# alpha 2502511 1 0.5\n# mask 2502511 off\n# textboxarrow 0 2\n@めぐみん\nそろそろですね…\n\n;;モノローグ\n# textflame 0 0\n@\nめぐみんはそうつぶやくと杖を構える\n\n# se \"SE_9173\"\n# face 2502511 \"angry\"\n# textflame 1 1\n# textboxarrow 0 2\n@めぐみん\n紅魔族最強究極の攻撃魔法\nその真髄を味わうがいい…\n\n;;できればトゲトゲフレームで\n# se \"SE_10666\"\n# sedelay \"SE_10667\" 0.4\n# textboxarrow 0 2\n# textwindow \"toge\"\n# voice 250251 \"megumin_dgcollabo_0001\"\n@めぐみん\nエクスプロージョン！！！\n\n;;演出：画面揺れなど、爆裂魔法の激しさを表現\n# se \"SE_8015\"\n# bgm \"stop\"\n# shake 0 1\n# fadein \"white\" 1\n# waitandnext 2\n\n# emotionbody 1000 2 2502611 10 250\n# effectpattern 1000 1 1\n# effectstart 1000\n# alpha 2502511 0 0.5\n# move 2502611 3 0\n# face 2502611 \"sad\"\n# alpha 2502611 1 0.5\n# mask 2502611 off\n# textboxarrow 0 2\n# textwindow \"normal\"\n# voice 250261 \"yunyun_0009\"\n@ゆんゆん\nな、何これ…\n\n;;モノローグ\n# alpha 2502611 0 0.5\n# textflame 0 0\n@\nめぐみんの放った爆裂魔法により\n辺りにいたキャベツは全滅していた\n\n# se \"SE_3001\"\n# bgmfile \"bgm207\" \"BgmKScollabo001\" 0\n# move 2502511 3 0\n# face 2502511 \"normal\"\n# alpha 2502511 1 0.5\n# mask 2502511 off\n# textflame 1 1\n# textboxarrow 0 2\n@めぐみん\n標的のいる爆裂魔法は久しぶり\nだったので気合いが入りすぎました…\n\n# face 2502511 \"worry\"\n# textboxarrow 0 2\n# voice 250251 \"megumin_0026\"\n@めぐみん\nこれでは晩ごはんになりませんね\nすみません、マスター\n\n# face 2502511 \"happy\"\n# textboxarrow 0 2\n# voice 250251 \"megumin_0004\"\n@めぐみん\nですが…やはり廃墟に向かって\n放つより気持ちいいですね…\n\n;;モノローグ\n# textflame 0 0\n@\n魔力を使い果たし\n倒れたまま語るめぐみんは\nとても清々しい顔をしていた…"
	}
]