[
	{
		"ID": 251217081,
		"script": ";;-----------------------------------------\n;;ファントムオブキル　この素晴らしい世界に祝福を！コラボ2019水着　シナリオ後半\n;;【EP.8】\n;;8_1\n;;スクリプト最後の背景：海の家\n;;-----------------------------------------\n# script \"lisp\"\n# background \"sea_beach_day\"\n# bgm \"bgm005\" 0\n;;-----------------------------------------\n;;デュリン\n# body 0\n# pos 0 3\n# scale 0 0.8 0\n# layer 0 2\n# alpha 0 0 0\n# mask 0 off\n;;アクア\n# body 2601711\n# pos 2601711 3\n# scale 2601711 0.8 0\n# layer 2601711 2\n# alpha 2601711 0 0\n# mask 2601711 off\n;;ダクネス\n# body 2103411\n# pos 2103411 3\n# scale 2103411 0.8 0\n# layer 2103411 2\n# alpha 2103411 0 0\n# mask 2103411 off\n;;水着ティルフィング\n# body 2101411\n# pos 2101411 3\n# scale 2101411 0.8 0\n# layer 2101411 2\n# alpha 2101411 0 0\n# mask 2101411 off\n;;めぐみん\n# body 2502511\n# pos 2502511 3\n# scale 2502511 0.8 0\n# layer 2502511 2\n# alpha 2502511 0 0\n# mask 2502511 off\n;;ゆんゆん\n# body 2502611\n# pos 2502611 3\n# scale 2502611 0.8 0\n# layer 2502611 2\n# alpha 2502611 0 0\n# mask 2502611 off\n;;ウィズ\n# body 2601811\n# pos 2601811 3\n# scale 2601811 0.8 0\n# layer 2601811 2\n# alpha 2601811 0 0\n# mask 2601811 off\n;;-----------------------------------------\n;;【EP.8】\n;;背景：海の家\n# move 2101411 3 0\n# face 2101411 \"sad\"\n# alpha 2101411 1 0\n# mask 2101411 off\n# textflame 1 1\n# textboxarrow 0 2\n# voice 1014 \"tyrufing_0002\"\n@ティルフィング\nやっぱり、私達は何か大事なことを\n忘れていると思うんです！\n\n;;モノローグ\n# textflame 0 0\n@\n海の家でクエストを探していた\nマスターにティルフィングは\n意見を述べる\n\n# move 0 2 0\n# face 0 \"normal\"\n# alpha 0 1 0.5\n# mask 0 on\n# textflame 1 1\n# textboxarrow 0 1\n# move 2101411 4 0.5\n# alpha 2101411 1 0.5\n# mask 2101411 on\n# voice 9999 \"durin_0044\"\n@デュリン\nずっと言ってるわねぇ？\nそこまで言われると\nさすがに気になるけど…\n\n;;モノローグ\n# textflame 0 0\n@\nたしかにマスターも気になるが\n考えてみても答えは出ない\n\n# alpha 0 0 0.5\n# move 2601711 2 0\n# face 2601711 \"normal\"\n# alpha 2601711 1 0.5\n# mask 2601711 on\n# textflame 1 1\n# textboxarrow 0 1\n# voice 260171 \"akua_0069\"\n@アクア\n忘れるくらいなんだから\n大したことじゃないでしょ？\nどうでもいいじゃない、そんなこと\n\n;;モノローグ\n# textflame 0 0\n@\nアクアは気にも留めていない様子\nけれど、何か心当たりはないかと\nマスターは問いかける\n\n# emotionbody 1000 8 2601711 -60 220\n# effectpattern 1000 1 0\n# effectstart 1000\n# face 2601711 \"sad\"\n# textflame 1 1\n# textboxarrow 0 1\n# voice 260171 \"akua_0051\"\n@アクア\nうっ、マスターに\nそう真面目に聞かれると考えないと\nいけない気になってくるわね…\n\n# effectskip 1000\n# face 2101411 \"normal\"\n# textboxarrow 0 3\n# voice 1014 \"tyrufing_0003\"\n@ティルフィング\nここ最近の出来事を整理しましょう\nはじめは異族とカエルをクエストで\nよく見かけるようになって…\n\n# alpha 2601711 0 0.5\n# alpha 2101411 0 0.5\n# move 2103411 3 0\n# face 2103411 \"usual\"\n# alpha 2103411 1 0.5\n# mask 2103411 off\n# textboxarrow 0 2\n# voice 210341 \"dakunesu_0003\"\n@ダクネス\nキャベツ狩りをしていたときにも\n異族がいて、ティルフィングは\n何かおかしいと言っていたな\n\n# bgm \"bgm031\" 0\n# emotionbody 1001 1 2601711 10 240\n# effectpattern 1001 1 0\n# effectstart 1001\n# alpha 2103411 0 0.5\n# move 2601711 3 0\n# face 2601711 \"angry\"\n# alpha 2601711 1 0.5\n# mask 2601711 off\n# textboxarrow 0 2\n# voice 260171 \"akua_0064\"\n@アクア\nキャベツ狩り、ねぇ…\nたしかに何かを忘れているような\n…………あっ！\n\n# move 2601711 2 0.5\n# mask 2601711 on\n# move 2101411 4 0\n# face 2101411 \"sad\"\n# alpha 2101411 1 0.5\n# mask 2101411 on\n# textboxarrow 0 3\n# voice 1014 \"tyrufing_0022\"\n@ティルフィング\n何か思い出しましたか？\n\n# textboxarrow 0 1\n@アクア\n思い出したも何も\nなんで忘れていたのかしら！\n\n# face 2101411 \"normal\"\n# textboxarrow 0 3\n@ティルフィング\nさすがアクアさんです！\nそれで、そのこととは一体…\n\n# bgm \"stop\"\n# textboxarrow 0 1\n@アクア\n私達、ウィズから\nキャベツ狩りの報酬貰ってないわ！\n\n# emotionbody 1002 2 2101411 -10 190\n# effectpattern 1002 1 1\n# effectstart 1002\n# face 2101411 \"sad\"\n# textboxarrow 0 3\n# voice 1014 \"tyrufing_0024\"\n@ティルフィング\n…え？\n\n# bgmfile \"bgm207\" \"BgmKScollabo001\" 0\n# alpha 2101411 0 0.5\n# move 2502511 4 0\n# face 2502511 \"normal\"\n# alpha 2502511 1 0.5\n# mask 2502511 on\n# textboxarrow 0 3\n# voice 250251 \"megumin_0027\"\n@めぐみん\nそれは事情あってのことですし\nもう終わった話では？\n\n# emotionbody 1003 6 2601711 50 150\n# effectpattern 1003 1 0\n# effectstart 1003\n# textboxarrow 0 1\n@アクア\n終わってないわよ！\n貰うものは貰う、大事なことよ！\n\n;;モノローグ\n# textflame 0 0\n@\nたしかに大事ではあるが\nティルフィングの気がかりとは\n違う話ではないかと思うマスター\n\n;;演出：ゆんゆんin\n# se \"SE_0719\"\n# alpha 2601711 0 0.5\n# alpha 2502511 0 0.5\n# move 2502611 3 0\n# face 2502611 \"usual\"\n# alpha 2502611 1 0.5\n# mask 2502611 off\n# textflame 1 1\n# textboxarrow 0 2\n@ゆんゆん\n話は聞かせてもらいました\n\n# move 2502611 2 0.5\n# mask 2502611 on\n# move 2502511 4 0\n# face 2502511 \"normal\"\n# alpha 2502511 1 0.5\n# mask 2502511 on\n# textboxarrow 0 3\n@めぐみん\nいつもその登場の仕方ですね\n盗み聞ぎが癖になっているとは\n嘆かわしいことです…\n\n# face 2502611 \"sad\"\n# textboxarrow 0 1\n# voice 250261 \"yunyun_0011\"\n@ゆんゆん\nべ、別にそういう訳じゃ…\n私はたまたま近くにいて\n話が聞こえてきただけで…\n\n;;モノローグ\n# textflame 0 0\n@\nゆんゆんに\n話しかけてきたのには何か\n理由があるの？と優しく聞くマスター\n\n# face 2502611 \"normal\"\n# textflame 1 1\n# textboxarrow 0 1\n@ゆんゆん\nあ、いえ、とくにこれといって\n何があった訳じゃないんですが\n私も報酬を貰っていなくて…\n\n# textboxarrow 0 1\n# voice 250261 \"yunyun_0008\"\n@ゆんゆん\nけど、誰かと一緒に\nクエストに行けたので\nそれが報酬でいいかなぁというか…\n\n# alpha 2502511 0 0.5\n# move 2601711 4 0\n# face 2601711 \"angry\"\n# alpha 2601711 1 0.5\n# mask 2601711 on\n# textboxarrow 0 3\n@アクア\nそうよね！\n報酬貰ってないなんて\n許せないわよね！\n\n# alpha 2502611 0 0.5\n# move 2103411 2 0\n# face 2103411 \"normal\"\n# alpha 2103411 1 0.5\n# mask 2103411 on\n# textboxarrow 0 1\n# voice 210341 \"dakunesu_0026\"\n@ダクネス\nそうは言ってないと思うのだが…\n\n;;演出：ウィズin\n# se \"SE_5575\"\n# bgm \"bgm031\" 0\n# alpha 2103411 0 0.5\n# alpha 2601711 0 0.5\n# move 2601811 3 0\n# face 2601811 \"angry\"\n# alpha 2601811 1 0.5\n# mask 2601811 off\n# textboxarrow 0 2\n@ウィズ\nみなさん大変です！\nまた異族が！\n\n# move 2601711 2 0\n# face 2601711 \"angry\"\n# alpha 2601711 1 0.5\n# mask 2601711 on\n# textboxarrow 0 1\n# move 2601811 4 0.5\n# mask 2601811 on\n# voice 260171 \"akua_0052\"\n@アクア\nよくのこのこと顔出せたわね！\n\n# emotionbody 1004 9 2601811 -30 200\n# effectpattern 1004 6 0\n# effectstart 1004\n# face 2601811 \"sad\"\n# textboxarrow 0 3\n# voice 260181 \"wizu_0022\"\n@ウィズ\nえ、ええっ！？\nアクア様が怒ってる～！\n\n# effectskip 1004\n# emotionbody 1005 9 2101411 -50 190\n# effectpattern 1005 6 0\n# effectstart 1005\n# alpha 2601811 0 0.5\n# move 2101411 4 0\n# face 2101411 \"sad\"\n# alpha 2101411 1 0.5\n# mask 2101411 on\n# textboxarrow 0 3\n@ティルフィング\nアクアさん、おさえて、おさえて…\n\n;;モノローグ\n# textflame 0 0\n@\nウィズに詰め寄ろうとする\nアクアをティルフィングと\n二人がかりでなだめる\n\n# effectskip 1005\n# textflame 1 1\n# textboxarrow 0 3\n@ティルフィング\nウィズさん、そんなに慌てて\nどうしたんですか？\n異族がどうこうって…\n\n# emotionbody 1006 1 2601811 10 310\n# effectpattern 1006 1 0\n# effectstart 1006\n# alpha 2601711 0 0.5\n# move 2601811 2 0\n# face 2601811 \"sad\"\n# alpha 2601811 1 0.5\n# mask 2601811 on\n# textflame 1 1\n# textboxarrow 0 1\n@ウィズ\nあ、そう、そうなんです！\nビーチに異族がいっぱいやってきて\nたぶん原因はあのことだと…\n\n# alpha 2601811 0 0.5\n# move 0 2 0\n# face 0 \"normal\"\n# alpha 0 1 0.5\n# mask 0 on\n# textboxarrow 0 1\n# voice 9999 \"durin_0049\"\n@デュリン\nウィズは何か知ってるみたいだけど\nそれよりもまずは現れた\n異族をなんとかしないと！\n\n# face 2101411 \"angry\"\n# textboxarrow 0 3\n# voice 1014 \"tyrufing_0032\"\n@ティルフィング\nそうですね…\n行きましょう！マスター！"
	}
]