[
	{
		"ID": 260051103,
		"script": ";;EP3\n;;背景　砂浜（リゾート）\n# script \"lisp\"\n# background \"sea_beach_day\"\n# bgmfile \"bgm227\" \"BgmSeaEvent\" 0\n# body 2600511\n# pos 2600511 3\n# mask 2600511 off\n# textboxarrow 0 2\n# chara 2600511\n# textflame 1 1\n# face 2600511 \"sad\"\n# voice 6005 \"keryukeion_0028\"\n@ケーリュケイオン\nあれ…？ここは…？\n\n# textflame 1 1\n@ケーリュケイオン\n私、マスターと一緒に洞窟に行こうと\n思って…それで波に巻き込まれて…\n\n# voice 6005 \"keryukeion_0022\"\n# textflame 1 1\n@ケーリュケイオン\n…もしかして、マスターが\n助けてくれたの？\n\n# voice 6005 \"keryukeion_0030\"\n# face 2600511 \"normal\"\n# textflame 1 1\n@ケーリュケイオン\n…そっか\n助けてくれてありがとう、マスター\n\n# textflame 0 0\n@\nこのビーチにたどり着けたのは\n偶然だけどね、と言いながら\nマスターが笑う\n\n# voice 6005 \"keryukeion_0027\"\n# face 2600511 \"sad\"\n# textflame 1 1\n@ケーリュケイオン\n…私、マスターに迷惑かけちゃったね\n\n# textflame 0 0\n@\n気にしなくていい、と言って\nマスターは慰める\n\n# textflame 0 0\n@\nそして、どうして無茶をしてまで\n洞窟に行きたかったのかと尋ねた\n\n# textflame 1 1\n@ケーリュケイオン\n…私、どうしてもマスターと一緒に\n秘宝を見つけたかったの\n\n# textflame 1 1\n@ケーリュケイオン\nその秘宝には…\n『見つけた者たちを永遠の絆で結ぶ』\nという伝説があるんだ\n\n# textflame 1 1\n@ケーリュケイオン\nそれをマスターと一緒に\n見つけられたら、って思ったんだけど…\n\n# textflame 1 1\n@ケーリュケイオン\n見つけるどころか\nマスターに迷惑をかけただけ\n\n# textflame 1 1\n@ケーリュケイオン\nこれじゃあ絆なんて結べない…\nむしろ私のこと\n嫌いになったわよね…\n\n# textflame 0 0\n@\nそんなことはない\n一生ものの思い出になった…\nとマスターは慰める\n\n# voice 6005 \"keryukeion_0004\"\n# face 2600511 \"smile\"\n# textflame 1 1\n@ケーリュケイオン\nマスターは優しいわね\nそんなマスターだから\n一緒にいて楽しいのよね\n\n# textflame 0 0\n@\n自分もケーリュケイオンと\n一緒にいるのは楽しいとマスター\n\n# textflame 0 0\n@\n秘宝なんてなくても絆は充分ある\n助けたのがその証拠だよ\nと言葉を続けた\n\n# face 2600511 \"sad\"\n# textflame 1 1\n@ケーリュケイオン\n…そっか\n不安になることなかったのね\n\n# voice 6005 \"keryukeion_0040\"\n# textflame 1 1\n@ケーリュケイオン\n私たちには\nもう強い絆があったんだ\n\n# textflame 1 1\n@ケーリュケイオン\nなんだろ、この感覚…\n落ち込んでたはずなのに\n元気が湧いてくる\n\n# face 2600511 \"smile\"\n# textflame 1 1\n@ケーリュケイオン\nマスターのために\n私、もっと強くなれるがする\n\n# textflame 0 0\n@\nそういって\nどんな荒波でも跳ね返しそうな\n気概を見せている彼女\n\n# se \"SE_0602\"\n# textflame 0 0\n@\nそれは新たなスキル\n『水泡ノ悪夢』\nを習得した瞬間だった\n\n# voice 6005 \"keryukeion_0029\"\n# textflame 1 1\n@ケーリュケイオン\nマスター…ありがとう\nなにか、たっぷりお礼しないと\n\n# textflame 0 0\n@\nとそこで、しおらしかった彼女に\nいたずらな笑みが宿る\n\n# textflame 1 1\n@ケーリュケイオン\nせっかく素敵なビーチに流れ着いたし\nここは思いっきり遊ぶべきよね\n\n# select \"そうだね、遊ぼうか\" \"select_label_01\" \"え、遊ぶ…？\" \"select_label_02\" \"何か嫌な予感が…\" \"select_label_03\"\nせっかく素敵なビーチに流れ着いたし\nここは思いっきり遊ぶべきよね\n\n# face 2600511 \"smile\"\n# label \"select_label_01\"\n# labeljump \"select_label_end\"\n# textflame 1 1\n# textboxarrow 0 2\n@ケーリュケイオン\nふふっ、そうこなくっちゃね！\n\n# face 2600511 \"smile\"\n# label \"select_label_02\"\n# labeljump \"select_label_end\"\n# textflame 1 1\n# textboxarrow 0 2\n@ケーリュケイオン\nあら、私と遊びたくないの？\n遊びたいに決まってるよね、マスター\n\n# face 2600511 \"smile\"\n# label \"select_label_03\"\n# labeljump \"select_label_end\"\n# textflame 1 1\n# textboxarrow 0 2\n@ケーリュケイオン\nふふっ、私と遊ぶのに\n嫌なことなんてあるわけないでしょ♪\n\n# label \"select_label_end\"\n# textflame 1 1\n@ケーリュケイオン\n幸いここには私とマスターしか\nいないし…\n\n# voice 6005 \"keryukeion_0004\"\n# textflame 1 1\n@ケーリュケイオン\nふふっ、何して遊びましょうか\n\n# imageset 0 \"c2600511\"\n# imagealpha 0 0 0\n# textflame 1 1\n@ケーリュケイオン\n助けてくれたお礼に\nマスターと一緒に\nいっぱい遊んであげる♪\n\n;;【ボイス】\n;;「どんな遊びかは…ふふっ、マスター次第、かな？」\n# voice 6005 \"keryukeion_kyara_1027\"\n# frameout 0 0.5\n# buttonsout 0 0.5\n# imagealpha 0 1 0\n# imagepos 0 0 0\n# fadein \"white\" 3\n# textwindow \"close\"\n"
	}
]