[
	{
		"ID": 2760020,
		"script": ";;//10話戦闘後\n;;//背景　荒野_黄昏（wild_evening）\n;;指定　bgm037\n# script \"lisp\"\n# background \"wild_evening\"\n# bgmfile \"bgm037\" \"BgmStory004\" 0\n# body 0\n# pos 0 4\n# scale 0 0.8 0\n# alpha 0 0 0\n# body 24\n# pos 24 4\n# scale 24 0.8 0\n# alpha 24 0 0\n# body 103421\n# pos 103421 2\n# scale 103421 0.8 0\n# alpha 103421 0 0\n# body 502521\n# pos 502521 4\n# scale 502521 0.8 0\n# alpha 502521 0 0\n# body 106\n# pos 106 5\n# scale 106 0.8 0\n# alpha 106 0 0\n# body 601811\n# pos 601811 3\n# alpha 601811 0 0\n# body 502611\n# pos 502611 3\n# alpha 502611 0 0\n# body 107\n# pos 107 2\n# scale 107 0.8 0\n# alpha 107 0 0\n# body 101411\n# pos 101411 1\n# alpha 101411 0 0\n# body 601711\n# pos 601711 3\n# mask 601711 off\n# scale 601711 0.8 0\n# alpha 601711 0 0\n# textflame 0 0\n@\n…異族の大半を殲滅したところで\nマスターがアクアに\n結界破壊の合図を送る\n\n# envbody 2101 12 0\n# effectpattern 2101 1 0\n# effectstart 2101\n# leftin 601711 0.5\n# alpha 601711 1 0\n# voice 6017 \"akua_battle_0001\"\n# textflame 1 1\n# textboxarrow 0 2\n# chara 601711\n# face 601711 \"angry\"\n@アクア\nいくわよーっ！\nセイクリッド・ブレイクスペルッ！\n\n;;//画面：フラッシュ\n;;//SE：魔法が炸裂し結界が消滅する音　ばしゅうっ、等\n;;指定　SE_9049\n# se \"SE_9049\"\n# fadein \"blue\" 1\n# shake 0 1.5\n# waitandnext 2\n\n# effectskip 2101\n# move 601711 2 0.5\n# rightin 0 0.5\n# alpha 0 1 0\n# layer 0 2\n# layer 601711 1\n# voicedelay 9999 \"durin_0036\" 0.5\n# textboxarrow 0 3\n# chara 0\n# face 0 \"serious\"\n@デュリン\n次！\nめぐみん、ウィズ、\n思いっきりかましてやって！！\n\n# alpha 0 0 0.3\n# alpha 601711 0 0.3\n# leftin 107 0.5\n# rightin 502521 0.5\n# alpha 502521 1 0\n# alpha 107 1 0\n# face 107 \"usual\"\n# textboxarrow 0 3\n# chara 502521\n@めぐみん\n今回は負けませんよ、ウィズ！\n\n# textboxarrow 0 1\n# chara 601811\n# voice 6018 \"wizu_0005\"\n@ウィズ\nふふふっ、めぐみんさんが\nどのぐらい成長したか楽しみです\n\n;;//下記２人は「めぐみん」「ウィズ」です\n;;指定　SE_9633\n# se \"SE_9633\"\n# shakeloop 1\n# fadein \"red\" 1\n# envbody 1501 6 0\n# effectpattern 1501 1 0\n# effectstart 1501\n# envbody 2102 12 0\n# effectpattern 2102 2 1\n# effectstart 2102\n# face 107 \"angry\"\n# face 502521 \"angry\"\n# textwindow \"toge\"\n# textboxarrow 0 0\n# textsize 32\n# textalign \"center\"\n# waitandnext 1.2\n@２人\nエクスプロージョンッッ！！！\n\n;;//画面：フラッシュ２回\n;;//画面：ホワイトアウト\n;;SE：強烈な爆裂魔法が２つ同時に炸裂する爆音\n# fadeout \"white\" 2.5\n# waitandnext 3.5\n# textsize 32\n# textalign \"center\"\n@２人\nエクスプロージョンッッ！！！\n\n# fadein \"white\" 0.5\n# effectskip 1501\n# effectskip 2102\n# shakestop\n# alpha 502521 0 0\n# alpha 107 0 0\n# alpha 103421 1 0\n# alpha 24 1 0\n# face 103421 \"usual\"\n# textsize 24\n# textwindow \"nomal\"\n# textboxarrow 0 3\n# chara 101411\n# voice 1014 \"tyrufing_0021\"\n# face 24 \"happy2\"\n@ティルフィング\n…見事です！\n脚を全部破壊できました！\n\n# emotionbody 5010 1 103411 0 310\n# effectpattern 5010 2 0\n# effectstart 5010\n# textboxarrow 0 1\n# chara 103421\n# face 103421 \"angry\"\n@ダクネス\n胴体が地面に落ちるぞ！\nみんな、離れろ…っ！！\n\n;;指定　SE_5790\n# se \"SE_5790\"\n# effectskip 5010\n# fadein \"white\" 1\n# rightin 106 0.5\n# alpha 106 1 0\n# move 24 3 0.5\n# move 103421 1 0.5\n# face 24 \"angry\"\n# layer 106 3\n# layer 24 2\n# layer 103421 1\n# textboxarrow 0 3\n# chara 502611\n# face 106 \"angry\"\n# voice 5026 \"yunyun_battle_0001\"\n@ゆんゆん\n危ない！ライトオブセイバー！\n破片に気を付けて！\nダクネスさんも、早くこっちへ！\n\n;;//画面：大揺れ\n;;//SE：地響き　ずしーん\n;;指定　SE_5739\n# se \"SE_5739\"\n# fadein \"black\" 1\n# shakeloop 1.5\n# waitandnext 2\n\n# shakestop\n# textboxarrow 0 2\n# chara 101411\n# voice 1014 \"tyrufing_unit_1014\"\n# face 24 \"mad2\"\n@ティルフィング\n…では、乗り込みましょう！\n先陣は私が切ります！\n\n# se \"SE_5575\"\n# leftout 24 0.5\n# alpha 103421 0 0.3\n# alpha 106 0 0.3\n# textflame 0 0\n@\n落下した“デストロイヤー”の胴体を\n素早く駆け上がり、ティルフィングは\n胴体上の遺跡へと取り付く\n\n# textflame 0 0\n@\nそして、入り口を守るように陣取る\n異族をたちまちに切り伏せると\nマスター達の到着を待った\n\n# pos 0 5\n# pos 24 1\n# pos 601711 3\n# alpha 24 1 0.5\n# alpha 0 1 0.5\n# alpha 601711 1 0.5\n# mask 601711 on\n# face 24 \"angry\"\n# textflame 1 1\n# textboxarrow 0 3\n# chara 0\n@デュリン\n…じゃあ、突入するわよ！\n\n# se \"SE_0700\"\n# bgm \"stop\"\n# effectbody 600 21 0 0\n# effectstart 600\n# textwindow \"close\"\n# waitandnext 2\n\n;;//場面転換\n;;//背景　小綺麗な部屋夜_通常（アルケ背景流用）\n;;指定　bgm006\n# bgm \"bgm006\" 0\n# effectskip 600\n# background \"alc_ch3_basement\"\n# body 108\n# pos 108 3\n# scale 108 0.8 0\n# alpha 108 0 0\n# alpha 24 0 0\n# alpha 0 0 0\n# alpha 601711 0 0\n# waitandnext 1\n\n# emotionbody 5100 2 108 10 290\n# effectpattern 5100 1 1\n# effectstart 5100\n# alpha 108 1 0.5\n# textflame 1 1\n# textwindow \"nomal\"\n# textboxarrow 0 2\n# chara 108\n@カズマ\n…………あれ？\nみんな、早かったな？\n\n# effectskip 5100\n# emotionbody 6101 11 601711 110 230\n# effectpattern 6101 1 0\n# effectstart 6101\n# pos 601711 1\n# leftin 601711 0.5\n# alpha 601711 1 0\n# layer 108 2\n# layer 601711 1\n# voice 6017 \"akua_0022\"\n# textboxarrow 0 1\n# chara 601711\n# face 601711 \"surprise\"\n@アクア\n…えっ、なにこの食べ物とか水とか、\nなんなのこの生活空間！\n\n# effectskip 6101\n# textboxarrow 0 1\n# chara 601711\n@アクア\nソファーもふかふかだし！\nお酒もあるし！\n\n# pos 502521 5\n# alpha 502521 1 0.5\n# textboxarrow 0 3\n# chara 502521\n# voice 5025 \"megumin_0009\"\n# face 502521 \"usual2\"\n@めぐみん\nなるほど、カズマは乗り物の\n“デストロイヤー”が迷惑をかける中\n食っちゃ寝食っちゃ寝していた、と…\n\n# alpha 601711 0 0.3\n# alpha 103421 1 0.5\n# textboxarrow 0 1\n# chara 103421\n# face 103421 \"usual\"\n@ダクネス\nうむ、私達が苦労する姿を尻目に\nここでひとりだらだらと\n好き放題していたのだな\n\n# emotionbody 6114 12 103421 -25 105\n# effectpattern 6114 4 0\n# effectstart 6114\n# textboxarrow 0 1\n# chara 103421\n# voice 1034 \"dakunesu_0005\"\n# face 103421 \"shy2\"\n@ダクネス\n…さすがカズマ、私の見込んだ男だ！\n\n# alpha 502521 0 0.3\n# alpha 106 1 0.5\n# textboxarrow 0 3\n# chara 502611\n# voice 5026 \"yunyun_0027\"\n# face 106 \"sad\"\n@ゆんゆん\nカズマさん…\n\n;;指定　SE_0708\n# se \"SE_0708\"\n# effectskip 6114\n# effectbody 700 23 0 0\n# effectstart 700\n# serif 1\n# textboxarrow 1 1\n# chara 108\n@カズマ\nお、おいそんな目で見るなよ！\n俺は悪くない！\n勝手に動くんだよ、こいつ！\n\n# serif 1\n# textboxarrow 1 1\n@カズマ\n…多少はマニュアル操作もできるが…\n\n# effectskip 700\n# serif 1\n# textwindow \"close\"\n# pos 107 1\n# alpha 107 1 0.5\n# alpha 103421 0 0.3\n# serif 0\n# textwindow \"nomal\"\n# textflame 1 1\n# textboxarrow 0 1\n# chara 601811\n# face 107 \"usual\"\n@ウィズ\nよく、操作方法がわかりましたね？\n\n# textboxarrow 0 2\n# chara 108\n@カズマ\nフッ、昔いた国で磨いたスキルが\n役に立ったのさ\n\n# textboxarrow 0 2\n# chara 108\n@カズマ\n説明書読まずにゲーム始めるのと\nそんなに変わらなかったなー\n\n# emotionbody 5855 9 108 70 210\n# effectpattern 5855 5 0\n# effectstart 5855\n# textboxarrow 0 2\n# chara 108\n@カズマ\nただ、なぜか\n四六時中操作するのは無理で…\n\n# effectskip 5855\n# emotionbody 5944 10 108 -80 250\n# effectpattern 5944 4 0\n# effectstart 5944\n# textboxarrow 0 2\n# chara 108\n@カズマ\nほんと、来てくれて助かったよ、\nありがとな！\n\n# effectskip 5944\n# pos 24 5\n# alpha 106 0 0.3\n# alpha 24 1 0.5\n# textboxarrow 0 3\n# chara 101411\n# face 24 \"normal\"\n@ティルフィング\nいえ、困っている者がいるなら\n助けるのが当たり前です\n\n# textboxarrow 0 3\n# chara 101411\n# voice 1014 \"tyrufing_0005\"\n# face 24 \"happy\"\n@ティルフィング\n…私達のマスターは、\nそういう人ですから！\n\n# se \"SE_5200\"\n# alpha 24 0 0.5\n# alpha 107 0 0.5\n# scale 108 0.9 0.8\n# textflame 0 0\n@\nすると、カズマはマスターの前へと\n歩み寄り右手を差し出した\n\n# se \"SE_5594\"\n# envbody 2001 11 0\n# effectpattern 2001 2 0\n# effectstart 2001\n# textflame 0 0\n@\nマスターががっちりと握り返せば、\nそれ以上の言葉はいらない\n自然と２人の顔に笑みがこぼれた！\n\n# se \"SE_0700\"\n# bgm \"stop\"\n# effectbody 611 21 0 0\n# effectstart 611\n# textwindow \"close\"\n# waitandnext 2\n\n;;//画面：ホワイトアウト\n;;//背景　荒野_黄昏（wild_evening）\n;;指定　BgmKScollabo001 bgm208\n# effectskip 2001\n# effectskip 611\n# bgmfile \"bgm208\" \"BgmKScollabo001\" 0\n# background \"wild_evening\"\n# alpha 0 1 0\n# alpha 601711 1 0\n# scale 108 0.8 0\n# face 601711 \"usual\"\n# voice 9999 \"durin_0002\"\n# serif 0\n# textwindow \"nomal\"\n# textflame 1 1\n# textboxarrow 0 3\n# chara 0\n# face 0 \"serious\"\n@デュリン\n…それでアンタ達、\nこれからどうすんの？\n\n# emotionbody 5881 9 108 50 250\n# effectpattern 5881 1 0\n# effectstart 5881\n# textboxarrow 0 2\n# chara 108\n@カズマ\n“デストロイヤー”をぶっ壊したら、\n超パワーかなにかで元の世界に\n戻れるかと思ってたんだが…\n\n# effectskip 5881\n# voice 6017 \"akua_0021\"\n# textboxarrow 0 1\n# chara 601711\n# face 601711 \"normal\"\n@アクア\nま、なるようになるわよ\nなんといっても、この女神アクア様が\nついてるんだもの！\n\n# textflame 0 0\n@\nそんな風に“デストロイヤー”の\n残骸の横で話をしていると、\n見知った女性が街からかけつける\n\n;;指定　SE_0708\n# se \"SE_0708\"\n# effectbody 100 26 0 0\n# effectstart 100\n# serif 1\n# textwindow \"nomal\"\n# textboxarrow 1 3\n@ルナ\n…皆さん！\nまた見事に“デストロイヤー”を\n倒したようですね\n\n# serif 1\n# textboxarrow 1 3\n@ルナ\nおめでとうございます！\nこれで、皆さんにはクエストクリアの\n報奨金が支払われますよ！\n\n# effectskip 100\n# emotionbody 5900 1 108 10 310\n# effectpattern 5900 1 0\n# effectstart 5900\n# serif 1\n# textwindow \"close\"\n# serif 0\n# textwindow \"nomal\"\n# textflame 1 1\n# textboxarrow 0 2\n# chara 108\n@カズマ\nおお！\n\n# effectskip 5900\n# emotionbody 5994 10 502521 -85 180\n# effectpattern 5994 4 0\n# effectstart 5994\n# alpha 0 0 0.3\n# rightin 502521 0.5\n# alpha 502521 1 0\n# textboxarrow 0 3\n# chara 502521\n# face 502521 \"happy\"\n@めぐみん\nやりましたね、カズマ！\n\n# emotionbody 5933 10 601711 100 230\n# effectpattern 5933 3 0\n# effectstart 5933\n# textboxarrow 0 1\n# chara 601711\n# voice 6017 \"akua_0005\"\n# face 601711 \"happy2\"\n@アクア\n久しぶりにみんなで\nパーッと飲みましょう！\n\n# effectskip 5994\n# effectskip 5933\n# alpha 601711 0 0.3\n# alpha 103421 1 0.5\n# textboxarrow 0 1\n# chara 103421\n# voice 1034 \"dakunesu_0003\"\n# face 103421 \"happy2\"\n@ダクネス\nそうだな、\n助けてくれた皆に御礼もしたい\n\n;;指定　SE_0709\n# se \"SE_0709\"\n# effectbody 100 26 0 0\n# effectstart 100\n# face 502521 \"usual2\"\n# face 103421 \"usual\"\n# serif 1\n# textwindow \"nomal\"\n# textboxarrow 1 3\n@ルナ\nあの、ただ…“デストロイヤー”を\nカズマさんが操作していたとなると\nその被害の弁償が必要になりまして…\n\n;;指定　SE_4702\n# se \"SE_4702\"\n# effectskip 100\n# effectbody 900 25 0 0\n# effectstart 900\n# serif 1\n# textboxarrow 1 1\n@カズマ\nマジかよ！？\nでも、街とかはなるべく\n壊さないようにしてたはずだぞ？\n\n# serif 1\n# textboxarrow 1 1\n@カズマ\n…はっ！！\nもしかして、“デストロイヤー”の\nコアか！？どうしたっけ！？\n\n# effectskip 900\n# pos 107 5\n# alpha 107 1 0.5\n# alpha 502521 0 0.3\n# serif 1\n# textwindow \"close\"\n# serif 0\n# textwindow \"nomal\"\n# textflame 1 1\n# textboxarrow 0 3\n# chara 601811\n# face 107 \"happy\"\n@ウィズ\nそれについてはご心配なく\nさっき、私がテレポートで\n人気のない荒野に飛ばしましたから\n\n# emotionbody 5220 3 108 10 290\n# effectpattern 5220 1 3\n# effectstart 5220\n# textboxarrow 0 2\n# chara 108\n@カズマ\nさすがはウィズ！\nあーよかった\nだとすると、他になにかあったか？\n\n;;指定　SE_0708\n# se \"SE_0708\"\n# effectskip 5220\n# effectbody 100 26 0 0\n# effectstart 100\n# serif 1\n# textwindow \"nomal\"\n# textboxarrow 1 3\n@ルナ\n実は、カズマさんが壊したものが\n１つだけありまして…\n\n# serif 1\n# textboxarrow 1 3\n@ルナ\nそれが、“外壁”と呼ばれている\n異族の侵入を防ぐための\n巨大な建造物なんです…\n\n;;指定　SE_4702\n# se \"SE_4702\"\n# effectskip 100\n# effectbody 900 25 0 0\n# effectstart 900\n# serif 1\n# textboxarrow 1 1\n# textboxarrow 0 0\n# chara 108\n@カズマ\nなー！！？？\n\n# effectskip 900\n# emotionbody 5411 6 601711 90 170\n# effectpattern 5411 2 1\n# effectstart 5411\n# serif 1\n# textwindow \"close\"\n# leftin 601711 0.5\n# alpha 601711 1 0\n# alpha 103421 0 0.3\n# serif 0\n# textflame 1 1\n# textwindow \"nomal\"\n# textboxarrow 0 1\n# chara 601711\n# voice 6017 \"akua_0009\"\n# face 601711 \"angry\"\n@アクア\nちょっとカズマ！\nなんてことしてくれたのよ！！\n\n# textboxarrow 0 1\n# chara 601711\n@アクア\n弁償のために\n報奨金が使われるなんて！\n\n# effectskip 5411\n# textboxarrow 0 1\n# chara 601711\n# face 601711 \"sad\"\n@アクア\n私、“デストロイヤー”の\n報奨金を当て込んで、結構\n借金しちゃってるんですけどぉぉ！！\n\n;;指定　SE_0709\n# se \"SE_0709\"\n# effectbody 800 24 0 0\n# effectstart 800\n# serif 1\n# textwindow \"nomal\"\n# textboxarrow 1 1\n# chara 108\n@カズマ\n知らねぇよ！\nお前の借金なんだから\n自分でなんとかしろよ！\n\n# effectskip 800\n# emotionbody 5440 6 601711 80 170\n# effectpattern 5440 1 1\n# effectstart 5440\n# serif 1\n# textwindow \"close\"\n# serif 0\n# textwindow \"nomal\"\n# textflame 1 1\n# textboxarrow 0 1\n# chara 601711\n# face 601711 \"angry\"\n@アクア\nだってなんともならないんだもの！\nギルド作ったのにお金は全然\n増えないし！うそつき！！\n\n# effectskip 5440\n# alpha 0 1 0.5\n# alpha 107 0 0.3\n# textboxarrow 0 3\n# chara 0\n# face 0 \"angry\"\n@デュリン\nあれはギルドメンバーからの贈り物が\n必要なの！アンタのギルド、\n他のメンバー誰もいないじゃない！\n\n# alpha 24 1 0.5\n# alpha 0 0 0.3\n# textboxarrow 0 3\n# chara 101411\n# voice 1014 \"tyrufing_0002\"\n# face 24 \"surprise\"\n@ティルフィング\nでも、どうしてそんなにお金が\nないんですか？クエストをして、\n生活費ぐらいは稼いでいるはずです\n\n# textboxarrow 0 1\n# chara 601711\n# face 601711 \"sad\"\n@アクア\nだってあれっぽっちじゃ\n足りないんだもの…酒代とか…\n宴会芸の小道具代とかで…\n\n# emotionbody 5831 9 24 50 250\n# effectpattern 5831 1 0\n# effectstart 5831\n# textboxarrow 0 3\n# chara 101411\n# voice 1014 \"tyrufing_0022\"\n@ティルフィング\n…宴会芸の小道具代、ですか…？\n\n# effectskip 5831\n# textboxarrow 0 2\n# chara 108\n@カズマ\n気にしなくていい\nアクアが酒代とかしょーもないことで\n借金背負うのはいつものことだからな\n\n# alpha 24 0 0.3\n# alpha 502521 1 0.5\n# textboxarrow 0 3\n# chara 502521\n# face 502521 \"usual1\"\n@めぐみん\nとはいえ、困りましたね\nまだしばらくはこの世界に\n滞在することになるのでしょう？\n\n# alpha 601711 0 0.3\n# alpha 103421 1 0.5\n# textboxarrow 0 1\n# chara 103421\n# face 103421 \"usual\"\n@ダクネス\nああ\n\n# textboxarrow 0 1\n# chara 103421\n# face 103421 \"sad\"\n@ダクネス\nそれに、迷惑をかけたのだから\n償いのための弁償は\nしなければならない\n\n# emotionbody 5875 9 107 70 210\n# effectpattern 5875 5 0\n# effectstart 5875\n# alpha 107 1 0.5\n# alpha 502521 0 0.3\n# textboxarrow 0 3\n# chara 601811\n# voice 6018 \"wizu_0026\"\n# face 107 \"sad\"\n@ウィズ\nど、どうしましょうか…\n\n;;指定　SE_5594\n# se \"SE_5594\"\n# effectskip 5875\n# effectbody 200 27 0 0\n# effectstart 200\n# serif 1\n# textboxarrow 1 3\n@ルナ\nおほん\nそんなこともあろうかと…\n\n# serif 1\n# textboxarrow 1 3\n@ルナ\nここで皆さんに\nとっておきのお知らせがあります！\n\n# serif 1\n# textboxarrow 1 3\n@ルナ\n実は…“デストロイヤー”が他にも\nたくさん出現しているそうで、\n討伐クエストが山ほど出ています！\n\n;;指定　SE_4702\n# se \"SE_4702\"\n# effectskip 200\n# effectbody 900 25 0 0\n# effectstart 900\n# serif 1\n# textboxarrow 1 1\n# chara 108\n@カズマ\nおおお！討伐クエスト！\n…って相手は\n“デストロイヤー”じゃねーか！\n\n# effectskip 900\n# serif 1\n# textwindow \"close\"\n# alpha 601711 1 0.5\n# alpha 103421 0 0.3\n# serif 0\n# textwindow \"nomal\"\n# textflame 1 1\n# textboxarrow 0 1\n# chara 601711\n# face 601711 \"happy1\"\n@アクア\n大丈夫よカズマ、\n私達がいるじゃない！\n\n# emotionbody 5222 3 601711 50 260\n# effectpattern 5222 1 3\n# effectstart 5222\n# textboxarrow 0 1\n# chara 601711\n# face 601711 \"irregular\"\n@アクア\nそれに、\nこれは荒稼ぎするチャンスよ！\n逃す手はないわ！\n\n# effectskip 5222\n# alpha 107 0 0.3\n# alpha 502521 1 0.5\n# textboxarrow 0 3\n# chara 502521\n# voice 5025 \"megumin_0005\"\n# face 502521 \"angry\"\n@めぐみん\nそうですよカズマ、\n我が爆裂魔法があれば、\n“デストロイヤー”など一撃です！\n\n# pos 106 3\n# alpha 106 1 0.5\n# alpha 108 0 0.3\n# layer 106 3\n# layer 502521 2\n# layer 601711 1\n# textboxarrow 0 2\n# chara 502611\n@ゆんゆん\nでもめぐみん、あなた一日一回しか\n撃てないじゃない？\n撃ったら動けなくなるし\n\n# emotionbody 6191 11 502521 100 200\n# effectpattern 6191 1 0\n# effectstart 6191\n# textboxarrow 0 3\n# chara 502521\n# face 502521 \"surprise\"\n@めぐみん\nうっ…\n今回はウィズがいるから大丈夫です！\n\n# effectskip 6191\n# textboxarrow 0 3\n# chara 502521\n# face 502521 \"shy\"\n@めぐみん\nそれに動けなくなっても\nゆんゆんがいますから\n\n# emotionbody 5555 1 106 0 290\n# effectpattern 5555 2 0\n# effectstart 5555\n# textboxarrow 0 2\n# chara 502611\n# face 106 \"irregular\"\n@ゆんゆん\nそんなこと言って、また私に\nおんぶさせる気でしょう！？\n\n# effectskip 5555\n# envbody 2001 11 0\n# effectpattern 2001 2 0\n# effectstart 2001\n# textboxarrow 0 3\n# chara 502521\n# face 502521 \"happy\"\n@めぐみん\nそうですよ、\n私とゆんゆんは友達ですから\n\n# textboxarrow 0 2\n# chara 502611\n# voice 5026 \"yunyun_0021\"\n# face 106 \"shy\"\n@ゆんゆん\n友達！！\n\n# pos 107 1\n# alpha 107 1 0.5\n# alpha 601711 0 0.3\n# textboxarrow 0 1\n# chara 601811\n# voice 6018 \"wizu_0004\"\n# face 107 \"happy\"\n@ウィズ\nふふふ、\nめぐみんさんとゆんゆんさんは\n本当に仲がいいですねぇ\n\n# effectskip 2001\n# emotionbody 6144 12 103421 -25 105\n# effectpattern 6144 4 0\n# effectstart 6144\n# alpha 103421 1 0.5\n# alpha 108 1 0.5\n# alpha 0 1 0.5\n# alpha 107 0 0.3\n# alpha 106 0 0.3\n# alpha 502521 0 0.3\n# layer 108 2\n# layer 103421 1\n# textboxarrow 0 1\n# chara 103421\n# face 103421 \"shy1\"\n@ダクネス\n…カズマの借金のために、\n強大な敵に何度も挑んでは\nボロボロになり…\n\n# textboxarrow 0 1\n# chara 103421\n# face 103421 \"shy2\"\n# voice 1034 \"dakunesu_kyara_ex_2001\"\n@ダクネス\nやがて服も破れて\nあられもない姿にっ…\n望むところだ！ \n\n# textboxarrow 0 2\n# chara 108\n@カズマ\n…本当に嫌な予感しかしないんだが\nまあ、やるしかないか！\n\n# textboxarrow 0 3\n# chara 0\n# voice 9999 \"durin_0027\"\n# face 0 \"serious\"\n@デュリン\n…ま、アタシ達がこれ以上\nつきあうことはないわね\nアクア達も仲間がそろったみたいだし\n\n# effectskip 6144\n# pos 24 1\n# alpha 103421 0 0.3\n# alpha 24 1 0.5\n# textboxarrow 0 1\n# chara 101411\n# face 24 \"sad\"\n@ティルフィング\nでも、“デストロイヤー”を\n放置すれば、それだけ\n人々に危害を受ける可能性が…\n\n# textboxarrow 0 3\n# chara 0\n# face 0 \"usual2\"\n@デュリン\n…そういえばそうね…\nアンタはどうしたい？\nマスターとして決めなさい\n\n# select \"もちろん決まってるよ\" \"select_label_01\" \"乗りかかった船だもんね\" \"select_label_02\" \"危ない物を放ってはおけないよ\" \"select_label_03\"\n…そういえばそうね…\nアンタはどうしたい？\nマスターとして決めなさい\n\n;;回答（どれを選んでも）\n;;指定　BgmKScollabo001 bgm207\n# label \"select_label_01\"\n# labeljump \"select_label_end\"\n# bgmfile \"bgm207\" \"BgmKScollabo001\" 0\n# textflame 1 1\n# textboxarrow 0 3\n# chara 0\n# voice 9999 \"durin_0027\"\n# face 0 \"usual\"\n@デュリン\n…はぁ\nま、アンタがそういうなら\nこれ以上は反対しないわ\n\n# label \"select_label_02\"\n# labeljump \"select_label_end\"\n# bgmfile \"bgm207\" \"BgmKScollabo001\" 0\n# textflame 1 1\n# textboxarrow 0 3\n# chara 0\n# voice 9999 \"durin_0027\"\n# face 0 \"usual\"\n@デュリン\n…はぁ\nま、アンタがそういうなら\nこれ以上は反対しないわ\n\n# label \"select_label_03\"\n# labeljump \"select_label_end\"\n# bgmfile \"bgm207\" \"BgmKScollabo001\" 0\n# textflame 1 1\n# textboxarrow 0 3\n# chara 0\n# voice 9999 \"durin_0027\"\n# face 0 \"usual\"\n@デュリン\n…はぁ\nま、アンタがそういうなら\nこれ以上は反対しないわ\n\n# label \"select_label_end\"\n# emotionbody 5255 3 24 20 280\n# effectpattern 5255 1 3\n# effectstart 5255\n# textboxarrow 0 1\n# chara 101411\n# voice 1014 \"tyrufing_0033\"\n# face 24 \"happy\"\n@ティルフィング\n私も、マスターの剣として\n“デストロイヤー”討伐の\nお手伝いをさせていただきます！\n\n# effectskip 5255\n# alpha 0 0 0.3\n# leftin 601711 0.5\n# alpha 601711 1 0\n# move 24 3 0.5\n# move 108 5 0.5\n# layer 24 3\n# layer 108 2\n# layer 601711 1\n# textboxarrow 0 1\n# chara 601711\n# face 601711 \"happy2\"\n@アクア\nあなた達ならきっと\nそう言ってくれると信じてたわ！\n\n# sedelay \"SE_0673\" 1.2\n# face 24 \"normal\"\n# textboxarrow 0 1\n# chara 601711\n# face 601711 \"normal\"\n@アクア\n…カズマ、マスター、行くわよ！\nもちろん、みんなも手を貸してね！\n私の借金返済のために！！\n\n;;//ホワイトアウト\n;;//第１０話終了\n# fadeout \"white\" 3\n# waitandnext 3.5\n"
	}
]