[
	{
		"ID": 27700150,
		"script": ";;第5幕　タイトル：対立のプール\n;;/背景：プール【指定】BgmSeaEvent bgm224_story\n# script \"lisp\"\n# background \"sea_resort_day\"\n# bgmfile \"bgm224\" \"BgmSeaEvent\" 0\n# body 2102311\n# pos 2102311 5\n# scale 2102311 0.8 0\n# body 2100911\n# pos 2100911 1\n# scale 2100911 0.8 0\n# body 2100811\n# pos 2100811 3\n# scale 2100811 0.8 0\n# face 2102311 \"smile\"\n# textflame 1 1\n# textboxarrow 0 2\n# chara 2100811\n# face 2100811 \"smile\"\n# voice 1008 \"guramu_0005\"\n@グラム\nぷは～っ！\n生き返るわね～\n\n# emotionbody 5831 9 2100911 55 235\n# effectpattern 5831 1 0\n# effectstart 5831\n# textboxarrow 0 1\n# chara 2100911\n# face 2100911 \"sad\"\n# voice 1009 \"barumunku_0008\"\n@バルムンク\nグラム、オッサンみたいだよ\n\n# textboxarrow 0 3\n# chara 2102311\n# voice 1023 \"ascalon_0004\"\n@アスカロン\nグラムが元気になって良かった\nゆっくりプールに入れたお陰だね\n\n# textboxarrow 0 2\n# chara 2100811\n# face 2100811 \"normal\"\n@グラム\n面倒かけたわね、二人とも…\nありがと\n\n# textboxarrow 0 2\n# chara 2100811\n# face 2100811 \"sad\"\n@グラム\nあのままマナが減り続けてたら…\n人形みたく動けなくなって、\nそのまま最悪…\n\n# textboxarrow 0 1\n# chara 2100911\n# voice 1009 \"barumunku_0015\"\n@バルムンク\n怖いこと言わないでよ…\n\n# textboxarrow 0 3\n# chara 2102311\n# face 2102311 \"sad\"\n# voice 1023 \"ascalon_0015\"\n@アスカロン\nマナを失うっていうのは、\n命に関わることなんだよね…\n\n# body 2500811\n# pos 2500811 1\n# scale 2500811 0.8 0\n# alpha 2500811 0 0\n# body 2200811\n# pos 2200811 5\n# scale 2200811 0.8 0\n# alpha 2200811 0 0\n# body 2300411\n# pos 2300411 5\n# scale 2300411 0.8 0\n# alpha 2300411 0 0\n# body 2500311\n# pos 2500311 1\n# scale 2500311 0.8 0\n# alpha 2500311 0 0\n# textboxarrow 0 2\n# chara 2100811\n# face 2100811 \"smile\"\n# voice 1008 \"guramu_0042\"\n@グラム\nうん！\nだから二人は…\n命の恩人だね \n\n# alpha 2100911 0 0.3\n# alpha 2500811 1 0.5\n# textboxarrow 0 1\n# chara 2500811\n# voice 5008 \"bashosen_0004\"\n@芭蕉扇\nお礼なら、この高貴なる私に\n言って欲しいわ\n私が共用を許してあげたのよっ\n\n# emotionbody 5100 2 2100811 10 275\n# effectpattern 5100 1 1\n# effectstart 5100\n# textboxarrow 0 2\n# chara 2100811\n# face 2100811 \"sad\"\n# voice 1008 \"guramu_0028\"\n@グラム\n誰、君？\n\n# emotionbody 5511 6 2500811 -70 190\n# effectpattern 5511 2 1\n# effectstart 5511\n# textboxarrow 0 1\n# chara 2500811\n# face 2500811 \"angry\"\n# voice 5008 \"bashosen_0010\"\n@芭蕉扇\n吹き飛ばすわよ！\n\n# effectskip 5511\n# alpha 2102311 0 0.3\n# alpha 2200811 1 0.5\n# textboxarrow 0 3\n# chara 2200811\n# face 2200811 \"smile\"\n# voice 2008 \"perun_0004\"\n@ペルーン\n本当に丸く収まったね！\nペルーン、ビックリだよー\n\n# pos 2102311 3\n# alpha 2200811 0 0.3\n# alpha 2500811 0 0.3\n# alpha 2100811 0 0.3\n# alpha 2300411 1 0.5\n# alpha 2500311 1 0.5\n# alpha 2102311 1 0.5\n# layer 2300411 1\n# layer 2500311 2\n# layer 2102311 3\n# face 2102311 \"usual\"\n# face 2500311 \"usual\"\n# textboxarrow 0 3\n# chara 2300411\n# voice 3004 \"amenonuboko_0004\"\n@天沼矛\n…あら？考え事をしていたら、\n皆さん仲良くなってます\n不思議なこともあるものですねぇ\n\n# emotionbody 6801 11 2500311 110 200\n# effectpattern 6801 1 0\n# effectstart 6801\n# textboxarrow 0 1\n# chara 2500311\n# face 2500311 \"sad\"\n# voice 5003 \"yatanokagami_0022\"\n@八咫鏡\n今頃かい！\n…ほんに天沼矛は\nぼんやりしとるのう\n\n# textboxarrow 0 2\n# chara 2102311\n@アスカロン\n上手くローテーションを組めば、\n三つのプールでみんなのマナを\n補給できると思います\n\n# textboxarrow 0 2\n# chara 2102311\n# face 2102311 \"smile\"\n# voice 1023 \"ascalon_0004\"\n@アスカロン\nやっぱりみんな仲良くが一番ですねっ\n\n# pos 2100811 5\n# alpha 2100811 1 0.5\n# alpha 2300411 0 0.3\n# textboxarrow 0 3\n# chara 2100811\n# face 2100811 \"angry\"\n# voice 1008 \"guramu_0028\"\n@グラム\nでも、上級民がプールを幾つか\n閉鎖したりしなければ\nなんの問題もなかったわけでしょ\n\n# emotionbody 5500 6 2100811 -50 230\n# effectpattern 5500 1 1\n# effectstart 5500\n# textboxarrow 0 3\n# chara 2100811\n@グラム\nあいつら、ホント腹立つわよね！\nいっつも偉そうにしてるし\n\n# body 2302411\n# pos 2302411 5\n# scale 2302411 0.8 0\n# alpha 2302411 0 0\n# alpha 2100911 1 0.5\n# alpha 2500311 0 0.3\n# textboxarrow 0 1\n# chara 2100911\n@バルムンク\nプールの閉鎖は、\n海浜ビーチ帝国が戦を始めたからって\n言ってましたけど…\n\n# alpha 2100811 0 0.3\n# alpha 2302411 1 0.5\n# layer 2302411 1\n# layer 2100911 2\n# layer 2102311 3\n# textboxarrow 0 3\n# chara 2302411\n# face 2302411 \"angry\"\n@蜻蛉切\nそれは事実よ\n前から頻繁に国境を脅かしてたらしい\nけど、いよいよ本格的に動いたみたい\n\n# body 2202011\n# pos 2202011 2\n# scale 2202011 0.8 0\n# alpha 2202011 0 0\n# textboxarrow 0 2\n# chara 2102311\n# face 2102311 \"sad\"\n# voice 1023 \"ascalon_0015\"\n@アスカロン\n戦なんて…私、イヤです…\n\n;;//背景：プール（夜）\n# fadeout \"black\" 2\n# waitandnext 2.5\n\n;;【指定】BgmSeaEventbgm226_story\n# bgmfile \"bgm226\" \"BgmSeaEvent\" 0\n# fadein \"black\" 1\n# background \"sea_resort_night\"\n# move 2102311 4 0\n# alpha 2100911 0 0\n# alpha 2302411 0 0\n# alpha 2202011 1 0\n# textboxarrow 0 3\n# chara 2102311\n# face 2102311 \"usual\"\n@アスカロン\nあれ？ハルパーさん、まだお休みに\nならないんですか？\n\n# textboxarrow 0 1\n# chara 2202011\n# voice 2020 \"harpe_0004\"\n@ハルパー\n…星を見ていたんです\n夜空を見上げていると、つまらない\nことを忘れられますから\n\n# emotionbody 5230 3 2102311 10 250\n# effectpattern 5230 1 3\n# effectstart 5230\n# textboxarrow 0 3\n# chara 2102311\n# face 2102311 \"smile\"\n# voice 1023 \"ascalon_0021\"\n@アスカロン\nわあ！\n本当にきれいな星空ですっ\n\n# textboxarrow 0 1\n# chara 2202011\n# face 2202011 \"sad\"\n@ハルパー\n…あなたはお人好しですね\nこんな生活、長くは続きませんよ\n\n# textboxarrow 0 3\n# chara 2102311\n# face 2102311 \"angry\"\n# voice 1023 \"ascalon_0013\"\n@アスカロン\nそんなこと…ありません！\n大変なことは多いですけど、きっと\nみんなで乗り越えられますっ\n\n# textboxarrow 0 1\n# chara 2202011\n# face 2202011 \"normal\"\n@ハルパー\n…そうですか\nそれなら私はあなたが苦悩する様を\n眺めて楽しむことにしますね\n\n# textboxarrow 0 3\n# chara 2102311\n# face 2102311 \"sad\"\n# voice 1023 \"ascalon_0022\"\n@アスカロン\nえっ…？\n\n# textboxarrow 0 1\n# chara 2202011\n# face 2202011 \"smile\"\n# voice 2020 \"harpe_0004\"\n@ハルパー\nふふふ…お休みなさい\n\n;;//ハルパーが立ち去る\n;;//暗転\n;;【指定】SE_0719\n# se \"SE_0719\"\n# fadeout \"black\" 2.5\n# textboxarrow 0 0\n# leftout 2202011 1.5\n# alpha 2202011 0 1.5\n# waitandnext 3\n\n;;//背景：プール\n;;【指定】bgm005\n# bgm \"bgm005\" 0\n# fadein \"black\" 1\n# background \"sea_resort_day\"\n# pos 2102311 2\n# pos 2102311 4\n# alpha 2102311 0 0\n# alpha 2100911 1 0\n# textboxarrow 0 1\n# chara 2100911\n# face 2100911 \"angry\"\n# voice 1009 \"barumunku_0024\"\n@バルムンク\n起きて、アスカロン！\n大変だよっ\n\n# body 2400211\n# pos 2400211 3\n# mask 2400211 off\n# scale 2400211 0.8 0\n# alpha 2400211 0 0\n# body 2300811\n# pos 2300811 4\n# scale 2300811 0.8 0\n# alpha 2300811 0 0\n# alpha 2102311 1 0.8\n# textboxarrow 0 3\n# chara 2102311\n# face 2102311 \"usual\"\n@アスカロン\nおはよう、バルムンク\nどうしたの、そんなに慌てて？\n\n# alpha 2400211 1 0.5\n# alpha 2102311 0 0.3\n# alpha 2100911 0 0.3\n# textboxarrow 0 2\n# chara 2400211\n# voice 4002 \"pinaka_0029\"\n@ピナーカ\nオラオラオラァ！\nピナーカ様のお出ましだぞぉ！！\nとっとと出てきやがれ！\n\n# alpha 2300811 1 0.5\n# move 2400211 2 0.5\n# layer 2400211 2\n# layer 2300811 1\n# textboxarrow 0 3\n# chara 2300811\n# face 2300811 \"usual\"\n# voice 3008 \"gunguniru_0011\"\n@グングニル\nピナーカ、粗雑な振る舞いは\n上級民の品位に関わる\n下がっていろ\n\n# textboxarrow 0 1\n# chara 2400211\n@ピナーカ\nなんだよ、オイラに任せりゃ全部\nぶち抜いてやるってのに！\n\n# textboxarrow 0 3\n# chara 2300811\n# face 2300811 \"angry\"\n@グングニル\nピナーカ！\n\n# emotionbody 5700 8 2400211 -60 235\n# effectpattern 5700 1 0\n# effectstart 5700\n# textboxarrow 0 1\n# chara 2400211\n# face 2400211 \"sad\"\n# voice 4002 \"pinaka_0013\"\n@ピナーカ\nチッ、わかったよ\n隊長様\n\n# effectskip 5700\n# pos 2500811 2\n# alpha 2400211 0 0.3\n# alpha 2300811 0 0.3\n# alpha 2500811 1 0.5\n# textboxarrow 0 1\n# chara 2500811\n@芭蕉扇\n朝っぱらからなんの騒ぎ？\n高貴なる私のプールで狼藉を働くのは\n許さないわよ\n\n# rightin 2300811 0.5\n# alpha 2300811 1 0\n# textboxarrow 0 3\n# chara 2300811\n# face 2300811 \"usual\"\n# voice 3008 \"gunguniru_0007\"\n@グングニル\n王国憲兵隊 隊長グングニルだ\nここに罪人が三人いるだろう？\n大人しく引き渡せ\n\n# move 2500811 3 0.5\n# alpha 2500311 1 0.5\n# layer 2300811 1\n# layer 2500811 3\n# layer 2500311 2\n# textboxarrow 0 1\n# chara 2500311\n# face 2500311 \"angry\"\n# voice 5003 \"yatanokagami_0008\"\n@八咫鏡\n罪人？\nなんのことじゃ？\n\n# body 2302411\n# pos 2302411 1\n# scale 2302411 0.8 0\n# alpha 2302411 0 0\n# textboxarrow 0 3\n# chara 2300811\n# face 2300811 \"angry\"\n@グングニル\nアスカロン、グラム、\nバルムンクの三人だ\n隠し立てするつもりか？\n\n# alpha 2302411 1 0.5\n# alpha 2500311 0 0.3\n# textboxarrow 0 1\n# chara 2302411\n# voice 3024 \"tonbokiri_0009\"\n@蜻蛉切\n念のために聞くけど、その三人は\nどんな罪を犯したの？\n\n# textboxarrow 0 3\n# chara 2300811\n# face 2300811 \"usual\"\n@グングニル\n国家反逆罪…\n国王陛下のご命令に逆らい、\n閉鎖されたプールに侵入したのだ\n\n# textboxarrow 0 2\n# chara 2500811\n# face 2500811 \"sad\"\n@芭蕉扇\nなにそれ？\nそんなので国家反逆罪とか\nバカバカしいわね\n\n# textboxarrow 0 1\n# chara 2302411\n# voice 3024 \"tonbokiri_0026\"\n@蜻蛉切\nここにそんな重罪人はいないわ\n早々にお引き取り願おうかしら\n\n# textboxarrow 0 3\n# chara 2300811\n# face 2300811 \"angry\"\n# voice 3008 \"gunguniru_0027\"\n@グングニル\nそうか…残念だ\nできれば穏便に\n済ませたかったが…\n\n# alpha 2302411 0 0.3\n# alpha 2500311 1 0.5\n# textboxarrow 0 1\n# chara 2500311\n# face 2500311 \"angry\"\n@八咫鏡\nなんじゃ！やるのかっ？\nわらわ達の方が数は――\n\n# textboxarrow 0 3\n# chara 2300811\n# voice 3008 \"gunguniru_0007\"\n@グングニル\nハルパー\n\n;;【指定】SE_5648\n# se \"SE_5648\"\n# pos 2102311 3\n# pos 2202011 4\n# alpha 2102311 1 0.5\n# alpha 2202011 1 0.5\n# alpha 2500811 0 0.3\n# alpha 2500311 0 0.3\n# alpha 2300811 0 0.3\n# face 2102311 \"sad\"\n# layer 2102311 2\n# layer 2202011 1\n# textboxarrow 0 3\n# chara 2202011\n# face 2202011 \"smile\"\n# voicedelay 2020 \"harpe_0005\" 0.5\n@ハルパー\nはぁい…言われた通り、\nまだ首は落としてませんよ\n\n;;//ハルパーがアスカロンの首に刃を突きつけている\n# textboxarrow 0 2\n# chara 2102311\n# voice 1023 \"ascalon_0018\"\n@アスカロン\nハルパーさん…どうして…？\n\n# emotionbody 5001 1 2302411 10 290\n# effectpattern 5001 2 0\n# effectstart 5001\n# pos 2100911 2\n# pos 2302411 4\n# alpha 2100911 1 0.5\n# alpha 2302411 1 0.5\n# alpha 2102311 0 0.3\n# alpha 2202011 0 0.3\n# textboxarrow 0 3\n# chara 2302411\n# face 2302411 \"sad\"\n# voice 3024 \"tonbokiri_0022\"\n@蜻蛉切\nなんでハルパーがアスカロンを\n捕らえているのよ！？\n\n# textboxarrow 0 1\n# chara 2100911\n@バルムンク\nあなた、裏切ったんですねっ…！"
	}
]