[
	{
		"ID": 27700170,
		"script": ";;第7幕　タイトル：反撃のプール\n;;//背景：プール【指定】bgm011\n# script \"lisp\"\n# background \"sea_resort_day\"\n# bgm \"bgm011\" 0\n# body 2102311\n# pos 2102311 1\n# scale 2102311 0.8 0\n# body 2202011\n# pos 2202011 3\n# scale 2202011 0.8 0\n# body 2300811\n# pos 2300811 5\n# scale 2300811 0.8 0\n# body 2400211\n# pos 2400211 5\n# scale 2400211 0.8 0\n# alpha 2400211 0 0\n# face 2102311 \"sad\"\n# textflame 1 1\n# textboxarrow 0 3\n# chara 2300811\n# face 2300811 \"angry\"\n# voice 3008 \"gunguniru_0009\"\n@グングニル\n…これはなんの真似だ、ハルパー？\nなぜ、我に斬りかかった？\n\n# textboxarrow 0 1\n# chara 2102311\n# voice 1023 \"ascalon_0022\"\n@アスカロン\nハルパーさん…？\n\n# textboxarrow 0 2\n# chara 2202011\n# face 2202011 \"sad\"\n@ハルパー\nあら？\n良い感じに隙を突けたと\n思ったのですが…\n\n# textboxarrow 0 2\n# chara 2202011\n# face 2202011 \"smile\"\n@ハルパー\nさすがは王国憲兵隊隊長、\nグングニルと言うべきですか\n\n# textboxarrow 0 3\n# chara 2300811\n@グングニル\n質問に答えろ\n\n# textboxarrow 0 2\n# chara 2202011\n# voice 2020 \"harpe_kyara_1017\"\n@ハルパー\nふふ、怖い顔…\nたいしたことではないんです\n理不尽な命令に悩むあなたの顔より…\n\n# textboxarrow 0 2\n# chara 2202011\n# face 2202011 \"normal\"\n@ハルパー\nそこのお人好しさんが非情な現実に\nもがき苦しむ様を眺める方が\n楽しそうだと思ったからですよ\n\n# textboxarrow 0 3\n# chara 2300811\n# voice 3008 \"gunguniru_0027\"\n@グングニル\n呆れた嗜虐趣味だ\n…ならば、そなたの首も\n我が直々に落としてやろう！\n\n# textboxarrow 0 2\n# chara 2202011\n# face 2202011 \"angry\"\n# voice 2020 \"harpe_0004\"\n@ハルパー\n良い表情ですね！\n私はそっちの方が好きですよっ\n\n# textboxarrow 0 1\n# chara 2102311\n@アスカロン\nあ、あのっ…\n二人とも…\n\n# se \"SE_5575\"\n# rightin 2400211 0.5\n# alpha 2400211 1 0\n# alpha 2102311 0 0.3\n# move 2300811 3 0.5\n# move 2202011 1 0.5\n# layer 2202011 3\n# layer 2300811 2\n# layer 2400211 1\n# textboxarrow 0 3\n# chara 2400211\n# face 2400211 \"angry\"\n@ピナーカ\nおい、グングニルやべえぞ！\nさっきの連中が反旗を翻し…\n\n# emotionbody 5805 9 2400211 80 170\n# effectpattern 5805 5 0\n# effectstart 5805\n# textboxarrow 0 3\n# chara 2400211\n# face 2400211 \"normal\"\n# voice 4002 \"pinaka_0023\"\n@ピナーカ\nな、なんじゃこりゃぁっ！？\n\n# effectskip 5805\n# textboxarrow 0 2\n# chara 2300811\n@グングニル\nピナーカ、ここは良い！\n\n# textboxarrow 0 2\n# chara 2300811\n@グングニル\n逆らう者は全て倒せ！\nこれ以上、好き勝手をさせはしない\n\n# textboxarrow 0 3\n# chara 2400211\n# face 2400211 \"smile\"\n# voice 4002 \"pinaka_0005\"\n@ピナーカ\nそういうの大好きだぜぇ！\nピナーカ様が全員、\nぶち抜くわぁ！！\n\n;;//ピナーカが走り去る\n;;//グングニルとハルパーも一緒に去る\n# se \"SE_5575\"\n# textwindow \"close\"\n# rightout 2400211 0.5\n# alpha 2400211 0 0.5\n# waitandnext 0.8\n\n# se \"SE_0660\"\n# imageset 0 \"black\"\n# imagescale 0 3 0\n# imagealpha 0 0 0\n# imagelayer 0 1\n# rightout 2300811 1\n# rightout 2202011 1.3\n# alpha 2300811 0 1.2\n# alpha 2202011 0 1.2\n# waitandnext 1.1\n\n# imagealpha 0 1 0\n# imagepos 0 0 30\n# imageleftin 0 0.5\n# waitandnext 0.6\n\n# imagealpha 0 0 0.5\n# imagerightout 0 0.5\n# pos 2102311 4\n# body 2100911\n# pos 2100911 1\n# scale 2100911 0.8 0\n# alpha 2100911 0 0\n# body 2100811\n# pos 2100811 1\n# scale 2100811 0.8 0\n# alpha 2100811 0 0\n# alpha 2102311 1 0\n# face 2102311 \"usual\"\n# waitandnext 0.5\n\n# se \"SE_5575\"\n# leftin 2100911 0.5\n# alpha 2100911 1 0\n# textwindow \"nomal\"\n# textboxarrow 0 1\n# chara 2100911\n# face 2100911 \"sad\"\n@バルムンク\nアスカロン、助けに来たよ！\n良かった…無事だった\n\n# textboxarrow 0 3\n# chara 2102311\n# face 2102311 \"sad\"\n# voice 1023 \"ascalon_0015\"\n@アスカロン\n…バルムンク、ごめんなさい\n私のせいで…\n\n# textboxarrow 0 1\n# chara 2100911\n# face 2100911 \"angry\"\n# voice 1009 \"barumunku_0015\"\n@バルムンク\nアスカロンは悪くないんだってば！\n私もグラムも、みんなだって\n怒ってるんだよ\n\n# textboxarrow 0 1\n# chara 2100911\n@バルムンク\n絶対、上級民達にやり返して\nやるんだって立ち上がったの！\n\n# se \"SE_5575\"\n# leftin 2100811 0.5\n# alpha 2100811 1 0\n# move 2102311 5 0.5\n# move 2100911 3 0.5\n# layer 2102311 3\n# layer 2100911 2\n# layer 2100811 1\n# textboxarrow 0 1\n# chara 2100811\n# face 2100811 \"angry\"\n@グラム\n二人とも無事っ？\n良かった…\nあとはグングニルの奴ね\n\n# textboxarrow 0 2\n# chara 2100911\n@バルムンク\nうん\nあいつは絶対に許さない\n\n;;//バトル\n# textboxarrow 0 3\n# chara 2102311\n# face 2102311 \"angry\"\n@アスカロン\n…待って、二人とも\n私、グングニルさんとちゃんと\n話がしたいのっ\n"
	}
]