[
	{
		"ID": 277001253,
		"script": ";;背景：ビーチ\n# bgm \"bgm005\" 0\n# script \"lisp\"\n# background \"sea_beach_day\"\n;;------------------------------------------\n;;スロウス\n# body 2100221\n# pos 2100221 3\n# scale 2100221 0.8 0\n# layer 2100221 3\n# alpha 2100221 0 0\n# mask 2100221 on\n;;ラグナロク\n# body 2103611\n# pos 2103611 4\n# scale 2103611 0.8 0\n# layer 2103611 2\n# alpha 2103611 0 0\n# mask 2103611 on\n;;エルキュール\n# body 2202511\n# pos 2202511 2\n# scale 2202511 0.8 0\n# layer 2202511 2\n# alpha 2202511 0 0\n# mask 2202511 on\n;;グリード\n# body 2101421\n# pos 2101421 4\n# scale 2101421 0.8 0\n# layer 2101421 2\n# alpha 2101421 0 0\n# mask 2101421 on\n;;グラトニー\n# body 2200421\n# pos 2200421 1\n# scale 2200421 0.8 0\n# layer 2200421 2\n# alpha 2200421 0 0\n# mask 2200421 on\n;;ミネルバ\n# body 2302511\n# pos 2302511 3\n# scale 2302511 0.8 0\n# layer 2302511 2\n# alpha 2302511 0 0\n# mask 2302511 off\n;;ラース\n# body 2100121\n# pos 2100121 2\n# scale 2100121 0.8 0\n# layer 2100121 2\n# alpha 2100121 0 0\n# mask 2100121 on\n;;フライシュッツ\n# body 2502711\n# pos 2502711 1\n# scale 2502711 0.8 0\n# layer 2502711 2\n# alpha 2502711 0 0\n# mask 2502711 on\n;;ダモクレス\n# body 2103511\n# pos 2103511 3\n# scale 2103511 0.8 0\n# layer 2103511 3\n# alpha 2103511 0 0\n# mask 2103511 on\n;;ラスト\n# body 2400121\n# pos 2400121 3\n# scale 2400121 0.8 0\n# layer 2400121 2\n# alpha 2400121 0 0\n# mask 2400121 off\n;;nesu\n# body 2602011\n# pos 2602011 3\n# scale 2602011 0.8 0\n# layer 2602011 2\n# alpha 2602011 0 0\n# mask 2602011 off\n;;エンビー\n# body 2300121\n# pos 2300121 3\n# scale 2300121 0.8 0\n# layer 2300121 2\n# alpha 2300121 0 0\n# mask 2300121 off\n;;スイハ\n# body 2401711\n# pos 2401711 4\n# scale 2401711 0.8 0\n# layer 2401711 2\n# alpha 2401711 0 0\n# mask 2401711 on\n;;-----------------------------------------\n# textflame 0 0\n@\n二人は圧倒的な強さで\n異族の群れを討伐し、\nマスターの元に駆け寄る\n\n# alpha 2202511 1 0.5\n# alpha 2103611 1 0.5\n# textflame 1 1\n# voice 2025 \"hercule_0001\"\n# face 2202511 \"usual\"\n# face 2103611 \"usual\"\n@エルキュール\nマスター！\nラグナロクが\nわかってくれました！\n\n# voice 1036 \"ragnarok_0003\"\n@ラグナロク\nエルキュールに教えられたの、\nどんな時も希望を持つべきだって…\n私もマスターを守れる方法を探すわ\n\n# textflame 0 0\n@\n晴れ晴れとした顔で話す二人を前に、\nマスターの表情は曇っていた\n\n# face 2202511 \"sad\"\n# face 2103611 \"sad\"\n# textflame 1 1\n# voice 2025 \"hercule_0028\"\n@エルキュール\nマスター…\nどうしたんですか？\n喜んでもらえると思ったのに…\n\n@ラグナロク\n顔色も悪いようだし、\nどこか具合が悪いんじゃない？\n\n# textflame 0 0\n@\nマスターは首を横に振って、\nなんでもない、大丈夫だと答える\n\n# face 2103611 \"angry\"\n# textflame 1 1\n# voice 1036 \"ragnarok_0010\"\n@ラグナロク\nなんでもないわけないでしょ？\nほら、言ってみなさいって\n\n# textflame 0 0\n@\nちょっと寝不足かも、と\nマスターは誤魔化し、\nその場をやり過ごした\n\n# textflame 0 0\n@\nそこに彼女たち以外の\nエンシェントキラーズがやってきた\n\n# move 2103511 2 0\n# move 2302511 4 0\n# alpha 2202511 0 0.5\n# alpha 2103611 0 0.5\n# alpha 2103511 1 0.5\n# alpha 2302511 1 0.5\n# textflame 1 1\n# voice 1035 \"damocles_0001\"\n# face 2302511 \"sad\"\n@ダモクレス\nマスター、生きてる？\nあれ…なんか元気ないね？\n\n@ミネルヴァ\nマスター…\n今日はもう休まれては？\n\n# move 2103611 3 0\n# mask 2103611 off\n# alpha 2103611 1 0.5\n# alpha 2302511 0 0.5\n# alpha 2103511 0 0.5\n# voice 1036 \"ragnarok_0002\"\n# face 2103611 \"usual\"\n@ラグナロク\nその前に、\n私からみんなに話があるの…\n\n@ラグナロク\nマスターを結晶体にしない方法を、\nみんなと一緒に探したいなって…\n\n# move 2401711 4 0\n# move 2502711 2 0\n# alpha 2103611 0 0.5\n# alpha 2502711 1 0.5\n# alpha 2401711 1 0.5\n# voice 5027 \"freischotz_0041\"\n# face 2502711 \"happy\"\n# face 2401711 \"smile\"\n@フライシュッツ\nわーい！\nおねーちゃん、嬉しい〜！\n\n# voice 4017 \"suiha_0004\"\n@スイハ\n本当によかったです…\n\n# textflame 0 0\n@\nエンシェント達が久々の再会を\n喜びあって盛り上がるなか、\nマスターはそっとその場を抜け出した\n\n;;場面転換\n;;背景：ビーチ（夜）\n# fadeout \"black\" 2\n# waitandnext 2\n\n# background \"sea_beach_night\"\n# alpha 2502711 0 0\n# alpha 2401711 0 0\n# textwindow \"close\"\n# waitandnext 0.1\n\n# fadein \"black\" 0.5\n# waitandnext 0.5\n\n# textwindow \"nomal\"\n# bgmfile \"bgm229_story\" \"BgmSeaEvent\" 0\n# textflame 0 0\n@\nブラックキラーズは\nラグナロク達の合流に\n驚いたようだが…\n\n# textflame 0 0\n@\nミネルヴァが\nうまく間を\n取り持ってくれたらしい\n\n# textflame 0 0\n@\nそして、森に潜んでいたスロウスも\n隠れるのがめんどうになったと\nブラックキラーズに合流していた\n\n# move 2100221 3 0\n# mask 2100221 off\n# alpha 2100221 1 0.5\n# textflame 1 1\n# voice 210022 \"revatein_k_0007\"\n@スロウス\n一人だとご飯とかめんどくさいし…\nま、そういうわけだから\n\n# textflame 0 0\n@\nその夜、マスターは寝床に潜って\nミネルヴァから聞いた話について\n考えていた\n\n# textflame 0 0\n@\n一晩やそこらでは出せない答えを\n探して、あらゆる考えを巡らせるが、\n最後には現実的な問題に突きあたる\n\n# textflame 0 0\n@\n堂々巡りを繰り返しているうちに、\n気がつけば朝になっていた\n"
	}
]