[
	{
		"ID": 27900210,
		"script": ";;【指定】bgm000\n;;第8幕　タイトル：暴走のジャングル\n;;//背景：地下\n# script \"lisp\"\n# background \"006_jail\"\n# bgm \"bgm000\" 0\n# body 2101411\n# pos 2101411 4\n# scale 2101411 0.8 0\n# body 2102511\n# pos 2102511 2\n# scale 2102511 0.8 0\n# voice 1014 \"tyrufing_0031\"\n@ティルフィング\n驚かせてごめんなさい\n私はティルフィング\n\n@ティルフィング\nマサムネとは古い知り合いなの\n彼女は、元気にしていますか…？\n\n# face 2102511 \"sad\"\n# voice 1025 \"muramasa_0002\"\n@ムラマサ\n姉は…失踪しました…\nあの、姉の行方について、\nご存知ではありませんか？\n\n# face 2101411 \"sad\"\n# voice 1014 \"tyrufing_0017\"\n@ティルフィング\nマサムネが失踪…\nやっぱり、それが私達に\n与えられた罰だったのですね…\n\n# face 2102511 \"angry\"\n@ムラマサ\nティルフィングさん？\nなにか知っているなら\n教えて下さい！\n\n# eye 2101411 \"close\"\n# voice 1014 \"tyrufing_0032\"\n@ティルフィング\n…そうですね\nマサムネが失踪したのなら\n今の連合盟主はアナタ\n\n# eye 2101411 \"normal\"\n# face 2101411 \"normal\"\n@ティルフィング\nこの島が直面している\n危機について\nお話ししておくべきですね\n\n# face 2101411 \"angry\"\n@ティルフィング\nムラマサ、心して聞いて下さい\n\n;;//暗転挟む\n# fadeout \"black\" 1.5\n# waitandnext 2\n\n# face 2101411 \"normal\"\n# face 2102511 \"sad\"\n# waitandnext 0.1\n\n# fadein \"black\" 1\n@ティルフィング\n…それで、私は三国を統一し、\nバイブスを発動させられる\n「正しき者」を探しているんです\n\n# voice 1025 \"muramasa_0028\"\n@ムラマサ\n結界の崩壊…\nマナの枯渇…\n\n@ムラマサ\nそんなの、\nにわかには信じられません\n\n@ティルフィング\n確かに急な話で動揺するのも\n分かります。けれど…\n\n@ティルフィング\nこの遺跡の更に奥深く…\nそこに眠るバイブスを私は以前、\nこの目で見て…\n\n# face 2101411 \"sad\"\n# voice 1014 \"tyrufing_0015\"\n@ティルフィング\n…そして過ちを犯しました\n\n@ティルフィング\n私は、「正しき者」では…\nなかったのです\n\n# voice 1025 \"muramasa_0017\"\n@ムラマサ\nこの奥に島を救う\n秘宝「バイブス」が…\nああ、拙者には荷が重すぎますっ\n\n# face 2101411 \"angry\"\n@ティルフィング\nしっかりして下さい\nマサムネがいない今、\n連合の盟主はアナタなんです\n\n# face 2100211 \"angry\"\n# body 2100211\n# pos 2100211 3\n# scale 2100211 0.8 0\n# alpha 2100211 0 0\n# voice 1025 \"muramasa_0015\"\n@ムラマサ\n拙者は…\n姉のようにはできません…\n\n;;【指定】BGM停止\n# emotionbody 1000 1 2102511 20 280\n# effectpattern 1000 2 0\n# effectstart 1000\n# move 2101411 5 0.5\n# move 2102511 1 0.5\n# bgm \"stop\"\n# alpha 2100211 1 0.5\n# layer 2100211 4\n# voice 1002 \"revatein_0037\"\n# face 2102511 \"angry\"\n@レーヴァテイン\nああっ…！\n見つけたっ…見つけたぁ！！\n\n# voice 1025 \"muramasa_0023\"\n@ムラマサ\nな…何事ですか！？\n\n;;【指定】bgm005\n# bgm \"bgm005\" 0\n# voice 1014 \"tyrufing_0049\"\n@ティルフィング\nレーヴァ！\nそう…アナタも過去に囚われた\nままなんですね…\n\n@レーヴァテイン\n続きを…あのときの続きを…！\n最後の一人になって…\n島を…救わないとっ…！\n\n# face 2101411 \"sad\"\n# voice 1014 \"tyrufing_0058\"\n@ティルフィング\nごめんなさい…\nもうアナタと戦う理由はないんです\n私が失敗してしまったから…\n\n;;【指定】SE_5575\n;;//ティルフィングが走り去る\n# alpha 2101411 0 0.5\n# se \"SE_5575\"\n# waitandnext 1\n\n# face 2100211 \"sad\"\n# voice 1002 \"revatein_0019\"\n# move 2100211 5 0.3\n@レーヴァテイン\n待ってよ…！\nまだ…終わってなんか…\n\n# move 2102511 3 0.5\n@ムラマサ\nレーヴァテインさん！\n落ち着いて下さいっ\n\n@ムラマサ\nシユウもヴァナルガンドも\nそなたのことを心配して――\n\n# face 2100211 \"angry\"\n@レーヴァテイン\n近づかないで！！\nあなた…これ以上はダメっ…\n\n;;【指定】SE_9086\n;;//レーヴァテインの攻撃をムラマサは防ぐ\n# move 2100211 4 0.5\n# move 2102511 1 0.3\n# fadein \"red\" 0.5\n# se \"SE_9086\"\n# waitandnext 1\n\n# face 2102511 \"sad\"\n# body 2500211\n# pos 2500211 3\n# scale 2500211 0.8 0\n# alpha 2500211 0 0\n# voice 1025 \"muramasa_0038\"\n@ムラマサ\nくうっ…！\n拙者はそなたを\n助けたいだけなのですっ\n\n;;【指定】SE_5208\n;;【指定】BGM停止\n# alpha 2500211 1 0.5\n# move 2100211 5 0.5\n# move 2102511 1 0.5\n# layer 2500211 4\n# se \"SE_5208\"\n# bgm \"stop\"\n# voice 5002 \"furaikugeru_0002\"\n@フライクーゲル\nへ～い！\nこんなところに隠れてたのぉ？\n\n;;【指定】SE_4400\n;;//銃声\n# se \"SE_4400\"\n# fadein \"white\" 0.5\n# waitandnext 1\n\n# face 2102511 \"angry\"\n# voice 1025 \"muramasa_0026\"\n@ムラマサ\n今度はなんですかっ…？\n\n;;【指定】bgm012\n# bgm \"bgm012\" 0\n# voice 5002 \"furaikugeru_0007\"\n@フライクーゲル\nやっと見つけたよ♪\nみぃんな、わたしが蜂の巣にして\nあげるから注目注目ぅ！\n\n# face 2100211 \"sad\"\n# voice 1002 \"revatein_0016\"\n@レーヴァテイン\nううう…なんであなたが…！\nアアアアアアアアアアアアア！！\n\n# face 2102511 \"sad\"\n# voice 1025 \"muramasa_0025\"\n@ムラマサ\nきゃああ！\n\n;;【指定】SE_5575\n;;//レーヴァテインが走り去る\n# se \"SE_5575\"\n# alpha 2100211 0 0.5\n# waitandnext 1\n\n# face 2500211 \"angry\"\n@フライクーゲル\nもう…逃がさないよぉ！\nわたし…わたしが\n島を守ってみせるんだからぁ～♪\n\n;;【指定】SE_4400\n;;//銃声\n# se \"SE_4400\"\n# fadein \"white\" 0.5\n# waitandnext 1\n\n@ムラマサ\nなにがどうなってるの！？\n私…どうしたらっ…\n\n# face 2500211 \"usual\"\n@フライクーゲル\nそこの子…マサムネに似てる…\n蜂の巣にしてあげるね☆\n\n# body 2300711\n# pos 2300711 3\n# scale 2300711 0.8 0\n# alpha 2300711 0 0\n# face 2300711 \"angry\"\n@ムラマサ\nお待ち下さい！\n拙者は――\n\n# serif 1\n@ゲイボルグ\n今こそ私の出る幕だ…！\n"
	}
]