[
	{
		"ID": 30019201,
		"script": ";;【ccさくらコラボ　ロンギヌス】\n;;スキル効果　EP3：デュエル EP4：バフ\n;;【EP1】(フリ)\n# script \"lisp\"\n# background \"classroom03_morning\"\n# bgm \"bgm002\" 0\n# body 300191\n# pos 300191 3\n# scale 300191 1 0\n# textwindow \"nomal\"\n# imageset 3 \"black\"\n# imagealpha 3 0 0\n# imagelayer 3 1\n# mask 300191 off\n# textflame 1 1\n# textboxarrow 0 2\n# voice 30019 \"ronginusu_0022\"\n@ロンギヌス\nえ？また困ってる生徒が！？\n\n# face 300191 \"angry\"\n# voice 30019 \"ronginusu_0003\"\n# imagepos 3 0 30\n@ロンギヌス\nわかりました！\nすぐに向かいます！\n\n# imagealpha 3 1 0\n# imagepos 3 0 30\n# imageleftin 3 1\n# serif 0\n# textwindow \"close\"\n# serif 1\n# textwindow \"close\"\n# waitandnext 1\n\n# background \"corridor_daytime\"\n# waitandnext 0.5\n\n# imagealpha 3 0 1\n# imagerightout 3 1\n# waitandnext 1\n\n# serif 0\n# textwindow \"nomal\"\n# textflame 0 0\n@\nさくらとの出会いにより、\n不思議な力に目覚めたロンギヌス\n\n# face 300191 \"normal\"\n# voice 30019 \"ronginusu_0022\"\n# textflame 1 1\n# textboxarrow 0 2\n@ロンギヌス\n校舎の壁が壊れている！？\n\n# face 300191 \"angry\"\n# voice 30019 \"ronginusu_0003\"\n@ロンギヌス\nわかりました！\nすぐに向かいます！\n\n# imagealpha 3 1 0\n# imagepos 3 0 30\n# imageleftin 3 1\n# serif 0\n# textwindow \"close\"\n# serif 1\n# textwindow \"close\"\n# waitandnext 1\n\n# background \"courtyard\"\n# waitandnext 0.5\n\n# imagealpha 3 0 1\n# imagerightout 3 1\n# waitandnext 0.1\n\n# serif 0\n# textwindow \"nomal\"\n# textflame 0 0\n@\nさくらが自分の世界へ帰った後も、\nロンギヌスはその力で\n学園の秩序を守っていた\n\n# face 300191 \"usual\"\n# voice 30019 \"ronginusu_0027\"\n# textflame 1 1\n# textboxarrow 0 2\n@ロンギヌス\n…ふぅ、なんとか任務完了しました\n\n# textflame 0 0\n@\n「ありがとう」と声を掛けるマスター\n\n# face 300191 \"surprise\"\n# voice 30019 \"ronginusu_0023\"\n# textflame 1 1\n# textboxarrow 0 2\n@ロンギヌス\nいえ、そんな…！\n\n# face 300191 \"usual\"\n@ロンギヌス\nさくらちゃんがいたら、\nきっと同じことをしたと\n思います\n\n# textflame 0 0\n@\n謙遜する彼女に\n「でも、すごいね」と\n褒めるマスター\n\n# face 300191 \"surprise\"\n# voice 30019 \"ronginusu_0022\"\n# textflame 1 1\n# textboxarrow 0 2\n@ロンギヌス\nととと…とんでもないです！\n私なんて全然ですよ！\n\n# face 300191 \"normal\"\n# voice 30019 \"ronginusu_0007\"\n@ロンギヌス\nほんと…未熟も未熟！\n大未熟です！\n\n# textflame 0 0\n@\n新たな力を得た後も、\n彼女の自信のなさは\n相変わらずだった\n\n@\nそんな彼女に\n「どうして？」と\n尋ねるマスター\n\n# face 300191 \"surprise\"\n# voice 30019 \"ronginusu_0028\"\n# textflame 1 1\n# textboxarrow 0 2\n@ロンギヌス\nどうしてって…\n\n@ロンギヌス\nそ、それは……\n\n# face 300191 \"sad\"\n# voice 30019 \"ronginusu_0002\"\n@ロンギヌス\n私の力なんて…\nさくらちゃんに比べたら、\nまだまだ全然だからです…\n\n@ロンギヌス\nさくらちゃんは…\n本当にすごかったから…\n\n@ロンギヌス\nそれに……\n\n# voice 30019 \"ronginusu_0007\"\n@ロンギヌス\n私は…\nさくらちゃんみたいに\n明るく元気にできないから……\n\n# textflame 0 0\n@\nどうやら、\nさくらと自分を比べ、\n引け目を感じているらしい\n\n# textflame 1 1\n# textboxarrow 0 2\n@ロンギヌス\n………\n\n# textflame 0 0\n@\nなんとか彼女に\n自信を付けさせてあげたい\nマスター\n\n@\nなにかいい方法はないかと\n周りを見渡していると…\n\n@\nあっ！！\n\n# face 300191 \"normal\"\n# voice 30019 \"ronginusu_0023\"\n# textflame 1 1\n# textboxarrow 0 2\n@ロンギヌス\n！！\n\n# voice 30019 \"ronginusu_0002\"\n@ロンギヌス\nビ、ビックリした…\nどうしたんですか、\n\n# face 300191 \"surprise\"\n@ロンギヌス\n…え？マスターのお弁当…？\n\n# textflame 0 0\n@\nマスターが指さした\nベンチの上を見る彼女\n\n# textflame 1 1\n# textboxarrow 0 2\n@ロンギヌス\nえぇっ！置いてたら…\nなくなっちゃったんですか！？\n\n# voice 30019 \"ronginusu_0033\"\n@ロンギヌス\nそ、それは大変です！\n今すぐ見つけ出してみせます！\n\n# textboxarrow 0 0\n# move 300191 4 0.5\n# alpha 300191 0 0.5\n# waitandnext 0.5\n\n# textflame 0 0\n@\n駆けて行くロンギヌス\nマスターもその後を追った"
	}
]