[
	{
		"ID": 30035203,
		"script": ";;【EP3】\n# script \"lisp\"\n# background \"rooftop_evening\"\n# bgm \"bgm002\" 0\n# body 300331\n# body 300351\n# pos 300351 3\n# mask 300351 off\n# textflame 1 1\n# textboxarrow 0 2\n# alpha 300331 0 0\n# face 300351 \"sad\"\n# voice 30035 \"hotengageki_0028\"\n# chara 300351\n@方天画戟\n…やっぱ朝飯のおかわり\n一杯減らしたのがまずいのかなー…\n\n# textboxarrow 0 2\n# chara 300351\n@方天画戟\nそれとも早弁して\n昼に購買で飯食ったのが原因か…？\n\n# textflame 0 0\n@\n方天画戟はさっきからずっと\nまったく関係のなさそうなことで\n悩んでいるようだ…\n\n# chara 300351\n# textflame 1 1\n# textboxarrow 0 2\n# voice 30035 \"hotengageki_0024\"\n@方天画戟\nそれともやっぱりあれか…？\n\n# face 300351 \"surprise\"\n# textboxarrow 0 2\n# chara 300351\n@方天画戟\n最近たまに…\nぶ、ブラジャーを…\nつけ始めたから…か？\n\n# face 300351 \"shy\"\n# textboxarrow 0 2\n# chara 300351\n@方天画戟\nいやよ、違うんだよ！\nつけたくてつけてるんじゃなくてな…\nだ、ダーインスレイヴがよ！\n\n# face 300351 \"angry\"\n# textboxarrow 0 2\n# chara 300351\n@方天画戟\nあ、あれだぞ！？\n飯を減らしたのも…\n別に腰回りが気になるからじゃ！\n\n# textflame 0 0\n@\nなにも言っていないのだが…\n\n# textflame 0 0\n@\nともかく、\nマスターは素直に\n今の気持ちを述べることにした\n\n# select \"考えるだけ無駄じゃない…？\" \"select_label_01\" \"そもそも本当になにか変わった？\" \"select_label_02\" \"実は気分の問題じゃない？\" \"select_label_03\"\nともかく、\nマスターは素直に\n今の気持ちを述べることにした\n\n# label \"select_label_01\"\n# labeljump \"select_label_end\"\n# textflame 1 1\n# textboxarrow 0 2\n# chara 300351\n# face 300351 \"surprise\"\n@方天画戟\nどういう意味だよそれ！\n\n# label \"select_label_02\"\n# labeljump \"select_label_end\"\n# textflame 1 1\n# textboxarrow 0 2\n# chara 300351\n# face 300351 \"angry\"\n@方天画戟\nむ…まだ疑ってるのか！？\n\n# label \"select_label_03\"\n# labeljump \"select_label_end\"\n# textflame 1 1\n# textboxarrow 0 2\n# chara 300351\n# face 300351 \"angry\"\n@方天画戟\n人をお天気みたいに！\n\n# label \"select_label_end\"\n# chara 300351\n# textflame 1 1\n# textboxarrow 0 2\n# face 300351 \"angry\"\n# voice 30035 \"hotengageki_0010\"\n@方天画戟\n理由がないのに…\nオレの拳のキレが\nなくなるわけないだろが！\n\n# textflame 0 0\n@\n問題はそこではない気がした\nきっかけはあったのかもしれないが…\n\n# textflame 0 0\n@\n「調子が悪いかもしれない」\n「一体なにが原因なんだろう」\n\n# textflame 0 0\n@\nそんなことをくよくよ考えるのは\n方天画戟らしくない気がしたのだ\n\n# chara 300351\n# textflame 1 1\n# textboxarrow 0 2\n# face 300351 \"sad\"\n# voice 30035 \"hotengageki_0004\"\n@方天画戟\nなるほど…\nたしかに、オレらしく…\nなかったかもな…\n\n# face 300351 \"usual\"\n# textboxarrow 0 2\n# chara 300351\n@方天画戟\n…おしっ！\n\n# textflame 0 0\n@\n方天画戟はマスターの方を向き\nファイティングポーズを取ると…\n\n# chara 300351\n# textflame 1 1\n# textboxarrow 0 2\n# face 300351 \"angry\"\n@方天画戟\nるぁぁあああああああ！！\n\n# textflame 0 0\n@\n目にも止まらないストレートを放つ！\n\n# textflame 0 0\n@\n肌が切れそうなほどの風圧を伴った\n方天画戟の拳は…\n\n# textflame 0 0\n@\nマスターの鼻先で止まる\n\n# chara 300351\n# textflame 1 1\n# textboxarrow 0 2\n# face 300351 \"normal\"\n@方天画戟\n己の本能と直感に従ってこそ方天画戟\n\n# voice 30035 \"hotengageki_0005\"\n# se \"SE_0602\"\n# textboxarrow 0 2\n# chara 300351\n@方天画戟\n『我心猛進』\n“悩む”なんて行為自体が\nオレには不要だったってことだな！\n\n# textflame 0 0\n@\nそれはまさしく\n彼女が新たなスキルに\n目覚めた瞬間あった\n\n# imageset 0 \"black\"\n# imagealpha 0 0 0\n# imagelayer 0 1\n# chara 300351\n# textflame 1 1\n# textboxarrow 0 2\n# face 300351 \"usual\"\n# voice 30035 \"hotengageki_0006\"\n@方天画戟\nおし！\n拳のキレを確かめに…\nいっちょ喧嘩売りに行くか！！\n\n;;／／場面転換　街並み\n# imagealpha 0 1 0\n# imagepos 0 0 30\n# imageleftin 0 0.5\n# serif 0\n# textwindow \"close\"\n# waitandnext 1\n\n# background \"schoolroad_evening\"\n# imagealpha 0 0 0.5\n# imagerightout 0 0.5\n# serif 0\n# textwindow \"nomal\"\n# textflame 0 0\n@\nそう言って街に飛び出したはずが…\n\n# chara 300351\n# textflame 1 1\n# textboxarrow 0 2\n# face 300351 \"happy\"\n@方天画戟\nおう！\nオレがやっとこさ復調したんだ！\nお祝いになんかおごれ！！\n\n# textflame 0 0\n@\n喧嘩はどこへやら…\nマスターにたかりはじめる\n方天画戟である\n\n# textflame 0 0\n@\n適当にファーストフードでも\nおごってやろうと思った\nマスターの目に…映ったものがあった\n\n# chara 300351\n# textflame 1 1\n# textboxarrow 0 2\n# face 300351 \"normal\"\n@方天画戟\nなんだお前、\n突然いなくなったと思ったら…\n\n# face 300351 \"surprise\"\n# textboxarrow 0 2\n# chara 300351\n@方天画戟\n…って、な、なんだそれ！？\n\n# textflame 0 0\n@\nマスターは\n通りの花屋で買った\n青いバラを差し出していた\n\n# chara 300351\n# textflame 1 1\n# textboxarrow 0 2\n# face 300351 \"angry\"\n# voice 30035 \"hotengageki_0023\"\n@方天画戟\nど、どういう風の吹き回しだよ！\n花なんかじゃ…\n腹は膨れねーぞ！！\n\n# face 300351 \"shy\"\n# voice 30035 \"hotengageki_0009\"\n# textboxarrow 0 2\n# chara 300351\n@方天画戟\n…花言葉だぁーー！？\nそんな女みたいなもんに\n興味ねーーよ！！\n\n# textflame 0 0\n@\nしきりに照れている方天画戟に\nマスターは青いバラの\n花言葉を伝える\n\n# chara 300351\n# textflame 1 1\n# textboxarrow 0 2\n# face 300351 \"surprise\"\n@方天画戟\n“夢が叶う”\n…だと？\n\n# textflame 0 0\n@\nそう、青い薔薇の花言葉は\n“夢叶う“だ\n\n# textflame 0 0\n@\n天下無双を目指す方天画戟への\nマスターのささやかな贈り物だった\n\n# textflame 0 0\n@\nそれに、青いバラの凛とした雰囲気は\n方天画戟にぴったりだった\n\n# chara 300351\n# textflame 1 1\n# textboxarrow 0 2\n# face 300351 \"shy\"\n@方天画戟\nあ、あのなぁ、お前なぁ…\n\n# textboxarrow 0 2\n# chara 300351\n@方天画戟\nオレに花、渡すなんて…\nど、どうかしてるぞ！！\n\n# imageset 0 \"c300351\"\n# imagealpha 0 0 0\n# textflame 1 1\n# textboxarrow 0 2\n@方天画戟\n反応に困るだろ…こんな…\nもらったこと…ないのに…\n\n# imagealpha 0 1 0\n# imagepos 0 0 0 \n# fadein \"white\" 3\n# voice 3003 \"hotengageki_kyara_0025\"\n# textwindow \"close\"\n;;一枚絵ボイス@方天画戟「なっ…。くぅっ…。オレの不意をつくなんてやるな…」"
	}
]