[
	{
		"ID": 30044203,
		"script": "# script \"lisp\"\n# background \"town\"\n# bgm \"bgm003\" 0\n# textboxarrow 0 2\n# body 300441\n# mask 300441 off\n# pos 300441 3\n# face 300441 \"normal\"\n# textflame 0 0\n@\n次の日─\n部屋に太陽の日差しが入り込む\n爽やかな朝\n\n# voice 3004 \"amenonuboko_0001\"\n# face 300441 \"smile\"\n# textflame 1 1\n@天沼矛\nおはようございます、マスター！！\n\n# voice 3004 \"amenonuboko_0004\"\n@天沼矛\nはい、もう大丈夫です！\nあれからたっぷり２２時間は\n寝たから、元気いっぱいです！！\n\n# face 300441 \"normal\"\n@天沼矛\nそして、夢の中で見つけたんです！\nわたしのお茶の答えの一端…\n\n# textflame 0 0\n@\n茶器の前に座る彼女\nその表情を見てみると…\n\n# face 300441 \"irregular1\"\n# textflame 1 1\n@天沼矛\n…………\n\n# textflame 0 0\n@\nまた寝てるじゃないか！\n\n@\nシャカシャカシャカ…！\n\n# textflame 0 0\n@\nいや、違う！あれは…目を閉じて、\nお茶を立てているんだ！\n確かにあれなら目を回さなくて済む\n\n@\nでも、そんな事が…\n\n# textflame 1 1\n@天沼矛\nもう何千回、何万回と繰り返してきた\n動作です…見えてなくても…\n体が覚えています！！\n\n@天沼矛\n見つけたんです！\nわたしが作りたいお茶！\n\n# face 300441 \"smile\"\n@天沼矛\nそれは、飲むとみんなの心がホッと\n落ち着き、この世から戦さえも\nなくしてしまう最強のお茶！！\n\n@天沼矛\nそれが…\nわたしの目指すお茶なんです！！\n\n# voice 3004 \"amenonuboko_0029\"\n@天沼矛\nとぉ～りゃ！\n\n# textflame 0 0\n@\n輝き出す天沼矛の腕\n\n@\nどうやら彼女は、お茶を立てる中で、\n新しい境地に辿り着いたようだ\n\n#se \"SE_0602\"\n# textflame 1 1\n@天沼矛\n新奥義\n『平穏安息の一服』！\n出来上がりました！！\n\n# textflame 0 0\n@\nそれはまさしく、\n彼女が新たなるスキルに\n目覚めた瞬間だった\n\n# face 300441 \"normal\"\n# textflame 1 1\n@天沼矛\n…ふぅ\n\n# textflame 0 0\n@\n静かに目を開ける彼女\n\n# face 300441 \"normal\"\n# textflame 1 1\n@天沼矛\n何かを創造しようとする心から\n戦はなくせる…\n\n# face 300441 \"smile\"\n# voice 3004 \"amenonuboko_kyara_1017\"\n@天沼矛\nマスター！\nわたしはそう信じています！！\n\n# textflame 0 0\n@\nと、力強く言い放った\n彼女の笑顔は\nとても光り輝いていた\n\n# select \"そのお茶、頂いていいかな？\" \"select_label_01\" \"君の心が込められお茶…賞味したいな\" \"select_label_02\" \"結構なお手前で\" \"select_label_03\"\nと、力強く言い放った\n彼女の笑顔は\nとても光り輝いていた\n\n# face  300441  \"smile\"\n# label \"select_label_01\"\n# labeljump \"select_label_end\"\n# textflame 1 1\n# chara  300441 \n@天沼矛\nはい、喜んで！\n\n# face  300441  \"smile\"\n# label \"select_label_02\"\n# labeljump \"select_label_end\"\n# textflame 1 1\n# chara  300441 \n@天沼矛\n是非！ご賞味あれ！\n\n# face  300441  \"smile\"\n# label \"select_label_03\"\n# labeljump \"select_label_end\"\n# textflame 1 1\n# chara  300441 \n@天沼矛\n粗茶ですが\n\n# label \"select_label_end\"\n# face 300441 \"normal\"\n# textflame 1 1\n@\n@天沼矛\n自信を持って、お薦め致します\nこのお茶は…\n\n# face 300441 \"smile\"\n# voice 3004 \"amenonuboko_0005\"\n@天沼矛\nマスターの事を想い、\nマスターの為に\n淹れたお茶ですから\n\n# textflame 0 0\n@\n茶碗を盆に乗せ、立ち上がる彼女\n\n@\nその瞬間…\n\n# face 300441 \"surprise\"\n# voice 3004 \"amenonuboko_kyara_4001\"\n# textflame 1 1\n@天沼矛\n…あっ！足が痺れ…！\n\n# textsize 36\n# imageset 0 \"c300441\"\n# imagealpha 0 0 0\n# face 300441 \"irregular2\"\n# textflame 1 1\n@天沼矛\nきゃ～～～っ！！\n\n# imagealpha 0 1 0\n# imagepos 0 0 0 \n# fadein \"white\" 3\n# voice 3004 \"amenonuboko_kyara_0017\"\n# textwindow \"close\"\n\n# textwindow \"nomal\"\n# textsize 24\n# textflame 0 0\n@\nまだまだドジな一面は残るが、\n彼女の持つ純心が戦を終わらせる…\nそう思えるマスターだった"
	}
]