[
	{
		"ID": 30053201,
		"script": "# script \"lisp\"\n# background \"highland\"\n# bgm \"bgm004\" 0\n# body 300532\n# mask 300532 off\n# pos 300532 3\n# textboxarrow 0 2\n# face 300532 \"sad\"\n# chara 300532\n# voice 3005 \"roon_0028\"\n@ルーン\nはぁ、もう…死にたい…\n\n# chara 300532\n@ルーン\nあ…マスター\nもうね…なにもかもが\n嫌になってたとこ…\n\n# face 300532 \"normal\"\n# chara 300532\n@ルーン\nアン？さっきまでは、\nあんなに元気だったけど…って？\n\n# chara 300532\n@ルーン\nあれは戦闘中だったから…\n戦いから離れて、独りになったら\nふと思っちゃって…\n\n# face 300532 \"sad\"\n# chara 300532\n@ルーン\nあたいって、戦闘以外には\nなにも無い女なんだな…って\n\n# chara 300532\n@ルーン\n興味があるのは、\n強敵をどう倒すかって事だけ…\n\n# chara 300532\n@ルーン\n何も生み出さず、相手を傷つけ、\nその中でしか喜びを見つけられない…\n\n# chara 300532\n@ルーン\n誰にも、なんにも与えられない、\n最低のダメダメ女なんだよ！\nはぁぁぁぁぁ…\n\n# chara 300532\n@ルーン\nなぁ…マスター、\n一つお願いがあるんだけど…\n\n# chara 300532\n@ルーン\nこの槍で…あたいの喉を\n一突きにしてくれないか…？\n\n# chara 300532\n@ルーン\nそしたら、\nもう…戦闘という闇の連なりから\n抜け出せる…\n\n# textflame 0 0\n@\nいつもは世界のすべてを\nこき下ろす勢いの毒舌少女だが、\n今日はしおらしいどころか…\n\n# textflame 0 0\n@\nこの発作が出ると、\nルーンの心はどこまでも沈んでゆく\n\n# textflame 0 0\n@\n戦闘狂の彼女も困ったものだが、\nこう元気がないのも…と\nマスターは頭を抱えた"
	}
]