[
	{
		"ID": 30061303,
		"script": "# script \"lisp\"\n# background \"town\"\n# bgm \"bgm002\" 0\n# body 300613\n# mask 300613 off\n# pos 300613 3\n# textboxarrow 0 2\n# textflame 1 0\n# chara 300613\n# face 300613 \"angry\"\n# voice 3006 \"torisyula_0001\"\n@トリシューラ\nおい、マスター！\n焦げるぞ、それ！！\n\n# textflame 1 0\n# face 300613 \"angry\"\n# voice 3006 \"torisyula_0023\"\n@トリシューラ\nほら、なんだこれ！\n煮立ってるじゃねぇか！！\n\n# textflame 0 0\n@\nトリシューラに怒声を浴びせられ、\n緊張が隠せず料理がはかどらない\nマスター\n\n# textflame 1 0\n# face 300613 \"amazed\"\n@トリシューラ\nあぁ、もぅ…\nイライラするぜ…\n\n# textflame 1 0\n# face 300613 \"angry\"\n# voice 3006 \"torisyula_battle_0001\"\n@トリシューラ\nどいてろ！\nここはあたいがやるから！！\n\n# select \"…え？手伝ってくれるの…？\" \"select_label_01\" \"トリシューラが…初めて料理を\" \"select_label_02\" \"あ…ありがとう…\" \"select_label_03\"\nどいてろ！\nここはあたいがやるから！！\n\n# label \"select_label_01\"\n# labeljump \"select_label_end\"\n# textflame 1 0\n# chara 300613\n# face 300613 \"angry\"\n口動かしてねぇで、手を動かせよ！\n\n# label \"select_label_02\"\n# labeljump \"select_label_end\"\n# textflame 1 0\n# chara 300613\n# face 300613 \"angry\"\n文句あんのかい！？\nあんたが誘ったんだろ！\n\n# label \"select_label_03\"\n# labeljump \"select_label_end\"\n# textflame 1 0\n# chara 300613\n# face 300613 \"angry\"\nなんだい、その顔は！\nそれが礼をいう顔かい！？\n\n# label \"select_label_end\"\n# textflame 0 0\n@\n突如、参加し\nテキパキと動くトリシューラ\n意外と…料理上手？\n\n# textflame 1 0\n# face 300613 \"angry\"\n# voice 3006 \"torisyula_0014\"\n@トリシューラ\n知るか！必死なんだよ！\n話しかけんな！！\n\n# textflame 1 0\n# face 300613 \"amazed\"\n# voice 3006 \"torisyula_0013\"\n@トリシューラ\nはぁ？\n楽しいかって…？\nだ、だから…必死だって…！\n\n# textflame 1 0\n# face 300613 \"sad\"\n@トリシューラ\n…………\n# voice 3006 \"torisyula_0028\"\n\n# textflame 1 0\n# face 300613 \"sad\"\n@トリシューラ\nでも…\n\n# textflame 1 0\n# face 300613 \"sad\"\n@トリシューラ\n料理って…創造には違いないけど…\nそれだけじゃない…\n\n# textflame 1 0\n# face 300613 \"sad\"\n@トリシューラ\n肉や魚に包丁を入れる行為は\n破壊と言えなくもない…\nってことは…\n\n# textflame 1 0\n# face 300613 \"amazed\"\n@トリシューラ\n創造と破壊は…表裏一体？\nそう思えば…\n\n# textflame 1 0\n# face 300613 \"happy\"\n@トリシューラ\n創造もまた楽し！！\n# voice 3006 \"torisyula_0005\"\n\n# textflame 1 0\n# face 300613 \"shy\"\n@トリシューラ\n…マスター、あたい\n……あっ！！\n# voice 3006 \"torisyula_0022\"\n\n# textflame 0 0\n@\n端の鍋が吹きこぼれそうになった\n\n# textflame 1 0\n# face 300613 \"shy\"\n@トリシューラ\nあぶねぇッ！！\n# voice 3006 \"torisyula_battle_0004\"\n\n# textflame 0 0\n@\nそう叫ぶと、\nトリシューラは\n目にも止まらぬ速さで火を消した\n\n# textflame 1 0\n# face 300613 \"amazed\"\n@トリシューラ\n…！\n今の動き…本当にあたいが？\n\n# textflame 1 0\n# face 300613 \"normal\"\n# voice 3006 \"torisyula_0039\"\n@トリシューラ\n今のは上手く使えば…\n奥義にできるかも！！\n\n# textflame 1 0\n# face 300613 \"noemal\"\n@トリシューラ\n新奥義！\n『神速のウロボロス』！！\n…ってか！？\n#se \"SE_0602\"\n\n# textflame 0 0\n@\nそれはまさしく、\n彼女が新たなるスキルに\n目覚めた瞬間だった\n\n# textflame 1 0\n# face 300613 \"amazed\"\n# voice 3006 \"torisyula_0004\"\n@トリシューラ\nふっ、マスター\nさっき言いかけたことだけど…\nあたい…\n\n# textflame 1 0\n# face 300613 \"happy\"\n@トリシューラ\nあんたがマスターで良かったよ\n# voice 3006 \"torisyula_0030\"\n\n# fadeout \"black\" 2.0\n# face 300613 \"normal\"\n\n# fadein \"black\" 2.0\n# textflame 0 0\n@\nそれから１時間後…\n\n# chara 300613\n# textflame 1 0\n# face 300613 \"normal\"\n@トリシューラ\nできたぁっ！！\n\n# textflame 1 0\n# face 300613 \"happy\"\n@トリシューラ\nさあ、食おうぜ！\nマスター！！\n# voice 3006 \"torisyula_0001\"\n\n# textflame 1 0\n# face 300613 \"happy\"\n@トリシューラ\n初めてだな…\n今まで一緒に敵を倒したり、\nぶっ壊したりすることはあったけど…\n\n# textflame 1 0\n# face 300613 \"happy\"\n@トリシューラ\n一緒になにかを作ったのは！！\n\n# textflame 1 0\n# face 300613 \"normal\"\n@トリシューラ\nさっ！食べろ、マスター！！\nあたいの初料理…初めてなんだから\n味はあんま期待すんなよな！\n# voice 3006 \"torisyula_0008\"\n\n# textflame 0 0\n@\n嬉しそうに、そして少し照れ臭そうに\n豪快な肉料理を口に持ってくる彼女\n\n# imageset 0 \"c300611\"\n# imagealpha 0 0 0\n# textflame 1 0\n# face 300613 \"happy\"\n# voice 3006 \"torisyula_0020\"\n@トリシューラ\nどうだ？\nうまいか！？\n\n# imagealpha 0 1 0\n# imagepos 0 0 0\n# voice 3006 \"torisyula_kyara_0018\"\n# fadein \"white\" 3\n# textwindow \"close\"\n\n# textwindow \"nomal\"\n# textflame 0 0\n@\nそれは彼女の一生懸命さが詰まった\n世界一おいしい料理に感じられた"
	}
]