[
	{
		"ID": 30103303,
		"script": "# script \"lisp\"\n# background \"town\"\n# bgm \"bgm003\" 0\n# body 301031\n# mask 301031 off\n# chara 301031\n# textflame 0 0\n@\nあれから一週間…\nいつも側にいた\nロンゴミアントの姿はない\n\n# textflame 0 0\n@\n彼女が最後に見せた悲しそうな顔…\nまさか…もう、このまま\n戻ってこないつもりなんじゃ…\n\n# alpha 301031 0 0\n# pos 301031 3\n# textflame 0 0\n@\n嫌な予感が胸をよぎった時、\n部屋の扉が開いた\n\n# alpha 301031 1 0.5\n\n# textboxarrow 0 2\n# textflame 1 0\n# chara 301031\n@ロンゴミアント\nただいま…戻りました\n\n# textflame 0 0\n@\n帰ってきた彼女は、\n傷だらけの姿をしていた\n\n# select \"大丈夫！？どうしたの、その傷…！？\" \"select_label_01\" \"今まで、どこに行ってたの…？\" \"select_label_02\" \"一週間、なにしてたの…？\" \"select_label_03\"\n帰ってきた彼女は、\n傷だらけの姿をしていた\n\n# label \"select_label_01\"\n# labeljump \"select_label_end\"\n# face 301031 \"worry\"\n# textflame 1 0\n# chara 301031\n@ロンゴミアント\nはい…こんなの…\nどおって事ありません\n\n# label \"select_label_02\"\n# labeljump \"select_label_end\"\n# face 301031 \"worry\"\n# textflame 1 0\n# chara 301031\n@ロンゴミアント\n…遠くへ\n…近くが見えなくなるほど、遠くへ\n\n# label \"select_label_03\"\n# labeljump \"select_label_end\"\n# face 301031 \"worry\"\n# textflame 1 0\n# chara 301031\n@ロンゴミアント\n考えていました…ずっと\n\n# label \"select_label_end\"\n# voice 3010 \"rhongomiant_0031\"　\n# textflame 1 0\n# chara 301031\n@ロンゴミアント\nご心配をおかけしてすみません\n少し自分自身を…\n見つめ直したくて…\n\n# voice 3010 \"rhongomiant_0001\"\n# chara 301031\n@ロンゴミアント\nマスター、私…\n一人でも戦えました\n戦って…勝ちましたよ\n\n# textflame 0 0\n@\n手から滴る血がそれを物語っている\nそうか、彼女は一人で異族たちと…\n\n# textflame 1 0\n# chara 301031\n@ロンゴミアント\nマスターとの距離が近過ぎて\n見えてなかったものが…\n一人になったら見えたんです\n\n# voice 3010 \"rhongomiant_0015\"\n# face 301031 \"sad\"\n# chara 301031\n@ロンゴミアント\n弱かった自分…自信のなかった自分…\nそして…いつの間にか\nマスターに依存していた自分…\n\n# chara 301031\n@ロンゴミアント\nでも、離れてみたことで…\n一人で戦ったことで…\n見えたんです！\n\n# face 301031 \"mad\"\n# chara 301031\n@ロンゴミアント\nこれからは、ずっと側にいなくても…\nいつもは離れていても…マスターの\nピンチには必ず駆け付けます！\n\n# voice 3010 \"rhongomiant_kyara_1018\"\n# chara 301031\n@ロンゴミアント\nそして…必ず守ります！\nそう思える自信を…強さを…\n手に入れられたんです！！\n\n# textflame 0 0\n@\n彼女の目には、\n今までには無い力が\nみなぎっていた\n\n# textflame 0 0\n@\nそれは、弱かった自分の心に\n勝利した証なんだと思った\n\n# se \"SE_0602\"\n# textflame 1 0\n# chara 301031\n@ロンゴミアント\nマスター！私の新奥義…\n名付けて『ハリーランサー』！\n完成です！！\n\n# textflame 0 0\n@\n己の弱さに向き合ったことで、\n彼女は新たなるスキルに\n目覚めたのだった\n\n# face 301031 \"shy\"\n# textflame 1 0\n# chara 301031\n@ロンゴミアント\nそれに一人になってみて、\n改めて気づきました！やっぱり…\n一人より二人の方が楽しいですね！\n\n# chara 301031\n@ロンゴミアント\n待ってて下さいね、マスター！\n今、修業の成果をお見せしますから！\n\n# textflame 0 0\n@\nいそいそと調理場に入る彼女\n\n# textflame 1 0\n# chara 301031\n@ロンゴミアント\n…え？この血…？\n異族に…？\n違いますよ\n\n# chara 301031\n@ロンゴミアント\nこれは料理修行中、\n玉ねぎを切るのに失敗して、\n指を切っちゃっただけです\n\n# face 301031 \"mad\"\n# voice 3010 \"rhongomiant_1022\"\n# chara 301031\n@ロンゴミアント\nもう、なんですか！？\n心配して損したって！\n\n# chara 301031\n@ロンゴミアント\nちゃんと異族とも一人で戦って\n勝ちました！戦闘もしっかり\nレベルアップしたんですから！！\n\n# chara 301031\n@ロンゴミアント\nもうなんでも一人でちゃんと\nできるようになったんですよ、私！\n\n# voice 3010 \"rhongomiant_0033\"\n\n# face 301031 \"shy\"\n# chara 301031\n@ロンゴミアント\nだから楽しみにしてて下さい、\nマスター！\n今、最高のカレーを作りますからね！\n\n# voice 3010 \"rhongomiant_0005\"\n\n# imageset 0 \"c301031\"\n# imagealpha 0 0 0\n# textflame 0 0\n@\n勢いよく玉ねぎを切っていく彼女\nその音には、この前よりも軽やかで、\nしっかりとした力強さが宿っていた\n\n# imagealpha 0 1 0\n# imagepos 0 0 0 \n# voice 3010 \"rhongomiant_kyara_0027\"\n# fadein \"white\" 3\n# textwindow \"close\""
	}
]