[
	{
		"ID": 30142304,
		"script": "# script \"lisp\"\n# background \"town\"\n# bgm \"bgm003\" 0\n# body 301422\n# pos 301422 3\n# mask 301422 off\n# textboxarrow 0 2\n# chara 301422\n# textflame 0 0\n@\n厨房─\nなにやら一人でコソコソとしている\nイシューリエル\n\n# textflame 1 1\n# chara 301422\n# face 301422 \"surprise\"\n# voice 3014 \"ithuriel_0022\"\n@イシューリエル\n…！マッ…！\nマママママ…\nマスターッ！？\n\n# voice 3014 \"ithuriel_0024\"\n@イシューリエル\nべ…別になにも…！？\n\n# chara 301422\n# face 301422 \"shy\"\n# voice 3014 \"ithuriel_0042\"\n@イシューリエル\nちょっと、\nつまみ食いでもしようかなんて\n思ってただけですわ！\n\n# select \"冷蔵庫、空っぽなのに…？\" \"select_label_01\" \"さっき晩ご飯食べたばかりなのに…？\" \"select_label_02\" \"そんなに汗だくで…？\" \"select_label_03\"\nちょっと、\nつまみ食いでもしようかなんて\n思ってただけですわ！\n\n# label \"select_label_01\"\n# labeljump \"select_label_end\"\n# face 301422 \"happy\"\n# textflame 1 1\n# chara 301422\n@イシューリエル\nいや…これは…全部、\n食べ終わった後ですわ！\n\n# label \"select_label_02\"\n# labeljump \"select_label_end\"\n# face 301422 \"happy\"\n# textflame 1 1\n# chara 301422\n@イシューリエル\nそ…育ち盛りなんですよ！\nオホホホホ！\n\n# label \"select_label_03\"\n# labeljump \"select_label_end\"\n# face 301422 \"happy\"\n# textflame 1 1\n# chara 301422\n@イシューリエル\nス…スポーツの後の\nつまみ食いですわ！！\n\n# label \"select_label_end\"\n# textflame 0 0\n@\n右上を見てる…\n嘘ついてるでしょ？\nと、マスターが尋ねる\n\n# textflame 1 1\n# chara 301422\n# face 301422 \"surprise\"\n# voice 3014 \"ithuriel_battle_0006\"\n@イシューリエル\n…うっ！！\n\n# chara 301422\n# face 301422 \"shy\"\n# voice 3014 \"ithuriel_0015\"\n@イシューリエル\n…うぅ……\nバレてしまいましたか\n\n# chara 301422\n# face 301422 \"normal\"\n# voice 3014 \"ithuriel_0028\"\n@イシューリエル\nしょうがない…話します\n\n# chara 301422\n# face 301422 \"shy\"\n@イシューリエル\n実はコレ…作ってたんです\n\n# textflame 0 0\n@\n厨房には、\n彼女が作った\nたくさんのクッキーが\n\n# textflame 1 1\n# chara 301422\n@イシューリエル\n先日…疑って騒いだわたくしを、\nみなさんは許してくれました\nそれが…嬉しくて\n\n# chara 301422\n# face 301422 \"happy\"\n# voice 3014 \"ithuriel_0005\"\n@イシューリエル\nそのお詫びとお礼を兼ねて、\nみんなには内緒で作ってたんです\n\n# chara 301422\n# face 301422 \"angry\"\n# voice 3014 \"ithuriel_kyara_1013\"\n@イシューリエル\nなのに…\nどうして入ってきちゃうんですか、\nマスター！？\n\n# chara 301422\n# face 301422 \"shy\"\n# voice 3014 \"ithuriel_0004\"\n@イシューリエル\nでも…いいです！\nみなさんのことを想って、\nお菓子を作ってたら…\n\n# chara 301422\n# face 301422 \"smile\"\n@イシューリエル\nまた、新しい力が湧いてきたから！\n\n#se \"SE_0602\"\n# chara 301422\n# face 301422 \"happy\"\n# voice 3014 \"ithuriel_0006\"\n@イシューリエル\nまたまた新奥義！\n『スウィートアイズ』\nできちゃいました！！\n\n# textflame 0 0\n@\n仲間への感謝の想いが、\n彼女に新たなスキルを与えていた\n\n# textflame 1 1\n# chara 301422\n# face 301422 \"angry\"\n@イシューリエル\n…え？マスターの分？\nそんなのあるわけないじゃ\nないですか\n\n# chara 301422\n# face 301422 \"smile\"\n# voice 3014 \"ithuriel_0004\"\n@イシューリエル\n…って言うのはウソです♪\n\n# chara 301422\n# face 301422 \"shy\"\n@イシューリエル\nこのカエルさんのアクセサリーの\nお礼もありますし…\nマスターには…特別に作りました\n\n# textflame 0 0\n@\n顔を赤くして、\nクッキーの入った紙包みを\n手渡してくる彼女\n\n# imageset 0 \"c301421\"\n# imagealpha 0 0 0\n# textflame 1 1\n# chara 301422\n# voice 3014 \"ithuriel_kyara_1026\"\n@イシューリエル\nマスターへの想いは…\n特別製ですからねッ！！\nこ、これぞトゥルース…です！\n\n# imagealpha 0 1 0\n# imagepos 0 0 0 \n# voice 3014 \"ithuriel_kyara_0027\"\n# fadein \"white\" 3\n# textwindow \"close\"\n\n# textwindow \"nomal\"\n# textflame 0 0\n@\n彼女が作ってくれたクッキーは、\nとても甘く優しい味がした"
	}
]