[
	{
		"ID": 30202203,
		"script": ";;【EP3】\n# script \"lisp\"\n# background \"courtyard\"\n# bgm \"bgm002\" 0\n# body 99\n# pos 99 3\n# mask 99 off\n# body 302021\n# pos 302021 3\n# alpha 302021 0 0\n# alpha 99 0 0\n# textflame 0 0\n# chara 99\n# textflame 0 0\n@\n中庭に面した窓から\n調理室の入り口が開いたのが見えた\n\n# textflame 0 0\n@\n特別実習が終わったのか\n中から生徒がぞろぞろ出てくる…\n\n# alpha 99 1 1\n# textflame 1 1\n# textboxarrow 0 2\n# chara 99\n# face 99 \"happy\"\n@ピサール\n終わったぁ！\nアイス～！\n\n# textflame 0 0\n@\nピサールは箒を放り出して\n調理室に向かおうとする…\n\n# textflame 0 0\n@\nその手をマスターは掴んでいた\n\n# textflame 1 1\n# textboxarrow 0 2\n# chara 99\n# face 99 \"usual\"\n@ピサール\n掃除は終わらせた方がいい…？\nえ～、いいよやらなくて～\n\n# textflame 1 1\n# textboxarrow 0 2\n# chara 99\n@ピサール\nやっぱりピサールはいい加減\nそういう風に思われたら…\n\n# textflame 1 1\n# textboxarrow 0 2\n# chara 99\n@ピサール\n次に頼まれることもなくなるでしょ？\n\n# textflame 1 1\n# textboxarrow 0 2\n# chara 99\n@ピサール\n…別に掃除するのは\nイヤじゃないけど\n次もまた頼られるのは面倒だから～…\n\n# textflame 0 0\n@\nマスターは\nピサールが面倒くさがりになった\n理由が知りたかった\n\n# textflame 0 0\n@\nでも、その話題は避けたがっている\nマスターはそう感じるからこそ\n無理に聞こうとはしなかった\n\n# textflame 0 0\n@\nしかし、その代わり…\n掃除はしてもらったほうが\nいい気がしたのだった\n\n# select \"できるピサールを見てみたいな\" \"select_label_01\" \"ピサールはいい加減な子じゃないよ\" \"select_label_02\" \"動いたらアイスもきっと美味しいよ\" \"select_label_03\"\nしかし、その代わり…\n掃除はしてもらったほうが\nいい気がしたのだった\n\n# label \"select_label_01\"\n# labeljump \"select_label_end\"\n# textflame 1 1\n# chara 99\n# face 99 \"angry\"\n@ピサール\nむぅ…そんな目で見ないでよ～…\n\n# label \"select_label_02\"\n# labeljump \"select_label_end\"\n# textflame 1 1\n# chara 99\n# face 99 \"angry\"\n@ピサール\nそんな言い方された逃げられない～…\n\n# label \"select_label_03\"\n# labeljump \"select_label_end\"\n# textflame 1 1\n# chara 99\n# face 99 \"angry\"\n@ピサール\nその一言はズルい…\n\n# label \"select_label_end\"\n# textflame 1 1\n# textboxarrow 0 2\n# chara 99\n# voice 30202 \"pisear_0027\"\n# face 99 \"sad\"\n@ピサール\nはぁ～…\n\n# textflame 1 1\n# textboxarrow 0 2\n# chara 99\n# face 99 \"usual\"\n@ピサール\nマスターはなんでそうやって…\nわたしに構うかなぁ…\n\n# textflame 0 0\n@\nピサールは\n面倒くさそうに\n重い腰を上げて箒を構えた\n\n# textflame 1 1\n# textboxarrow 0 2\n# chara 99\n@ピサール\nやるからには…\n効率よく一瞬で終わらせる\n\n# textflame 0 0\n@\n…普段のゆっくりおっとりした\nピサールはそこにはいなかった\n\n# textflame 0 0\n@\n圧巻のスピードで中庭の落ち葉を\n集めていく…\n\n# textflame 0 0\n@\nまるで4人のピサールが同時に\n中庭の中心を四方から\n囲んでいるようにすら見える…！\n\n# textflame 0 0\n@\n落ち葉は中庭の中心に\nあっという間にキレイな山を作った…\n\n# se \"SE_0602\"\n# textflame 1 1\n# textboxarrow 0 2\n# chara 99\n@ピサール\n『ジャッジデショコラ』…\n\n# textflame 1 1\n# textboxarrow 0 2\n# chara 99\n# face 99 \"happy\"\n@ピサール\nこういうのはチョコを\n作るようにようにささっと\n片付けちゃうのが１番だねぇ～\n\n# textflame 0 0\n@\nそれはまさしく\n彼女が新たなスキルに\n目覚めた瞬間だった\n\n# textflame 0 0\n@\nマスターは\n彼女の真の実力を\n心から素直に褒め称えた\n\n# textflame 1 1\n# textboxarrow 0 2\n# chara 99\n# voice 30202 \"pisear_kyara_1013\"\n# face 99 \"shy\"\n@ピサール\nだから…\nそういう反応は…\nいらないんだってぇ～…\n\n# textflame 0 0\n@\n言うほど、嫌そうではなかった\n恥ずかしそうではあったが…\n\n# textflame 1 1\n# textboxarrow 0 2\n# chara 99\n# face 99 \"happy\"\n@ピサール\nちょっと休憩～！\n非常食のチョコを\nたべま～す！\n\n# textflame 0 0\n@\nピサールの言葉に従い\nマスターは手頃な樹の根元に\n腰掛けたのだが…\n\n# textflame 0 0\n@\nなぜかピサールは\nぴったりその隣りに座る…\n\n# textflame 0 0\n@\nただでさえ体温が高いピサールは\n動いたせいで更にほてっており\nその熱が腕に伝わってくる…\n\n# imageset 0 \"c302021\"\n# imagealpha 0 0 0\n# textflame 0 0\n@\nマスターは思わず飛び上がり\nそそくさと見回りに\n戻ろうとする…\n\n# imagealpha 0 1 0\n# imagepos 0 0 0 \n# fadein \"white\" 3\n# voice 30202 \"pisear_g_kyara_0025\"\n# textwindow \"close\"\n;;一枚絵ボイス「え～、どこいくの～？　もうちょっと居てよ～。ほら、そんなに離れなくたって…。暑くてもいいからさぁ～…」\n\n# textwindow \"nomal\"\n# textflame 0 0\n@\nマスターが振り返ると…\n\n# textflame 0 0\n@\n溶けたチョコまみれになった手を\nどこか色っぽく舐めるピサールが\nこちらを見つめていた…\n\n# textflame 0 0\n@\nその姿に目を、\n心を奪われそうになるマスター\n\n# textflame 0 0\n@\nだったが…\n\n@\n最後まで自分でやってね！\nと、言い放つ！\n\n# textflame 1 1\n# textboxarrow 0 2\n# chara 99\n# voice 30202 \"pisear_kyara_1005\"\n@ピサール\nえぇ～！\n\n# textflame 1 1\n# textboxarrow 0 2\n# chara 99\n@ピサール\n…ちぇ～、両手がチョコまみれだから\n片付け手伝ってくれると思ったのに～\n\n# textflame 0 0\n@\nそう言って、チョコまみれの手を\nぺろぺろするピサール…\n\n# textflame 0 0\n@\n彼女の無意識な行動に\n思わず目を逸らしてしまう\nマスターだった"
	}
]