[
	{
		"ID": 302111213,
		"script": "# script \"lisp\"\n;;■ガ・ボー　キャラクエ　シナリオ　　　　　　　　　　　　　　　　　　　　　　　　　　　　\n;;【一枚絵のイメージ】\n;;マスターとのふれあいによって、自己評価の低さや自分が本物ではないという意識を払拭する。\n;;そのことを喜びながら、やって来た気持ちのいい風を、両手を広げ感じながらマント（羽）をたなびかせる。\n# bgm \"bgm022\" 0\n# background \"forest\"\n# body 3302111\n# pos 3302111 3\n# scale 3302111 0.8 0\n# alpha 3302111 0 0\n# mask 3302111 off\n# textflame 0 0\n@\n敵を次々に斬り倒し、\nマスターの元に駆けてくる彼女\n\n# alpha 3302111 1 0.5\n# textflame 1 1\n# textboxarrow 0 2\n# voice 330211 \"gaebuide_ge_0001\"\n# face 3302111 \"angry\"\n@ガ・ボー\n大丈夫でしたか、マスター？\n\n# textflame 1 1\n# textboxarrow 0 2\n@ガ・ボー\nしかし…なぜ、このような事を…！\n\n# textflame 0 0\n@\nマスターが彼女に答えた\n「僕にとってガ・ボーは\n偽者じゃない…本物の槍だ」\n\n# textflame 1 1\n# textboxarrow 0 2\n# voice 330211 \"gaebuide_ge_0022\"\n# face 3302111 \"surprise\"\n@ガ・ボー\n！！\n\n# textflame 0 0\n@\n「お姉さんと比べる必要なんかない！\n君は…僕と共に戦ってくれる\n“最高”の槍なんだ！！」…と\n\n# textflame 1 1\n# textboxarrow 0 2\n# voice 330211 \"gaebuide_ge_0024\"\n@ガ・ボー\nボーを…“本物”と…\n\n# textflame 1 1\n# textboxarrow 0 2\n# face 3302111 \"happy\"\n@ガ・ボー\n“本物の槍”と…！\n\n# textflame 0 0\n@\nマスターのその言葉で、\n彼女の中で何かが変わった\n\n# se \"SE_0602\"\n# fadein \"white\" 1\n# textflame 1 1\n# textboxarrow 0 2\n# voice 330211 \"gaebuide_ge_0029\"\n# face 3302111 \"angry\"\n@ガ・ボー\nはぁぁぁぁぁっ！！\n\n# textflame 0 0\n@\nマスターのバイブスと共鳴した彼女\n\n# textflame 1 1\n# textboxarrow 0 2\n@ガ・ボー\n穢れた翼でも…\n\n# textflame 1 1\n# textboxarrow 0 2\n@ガ・ボー\n空は翔けられる！！\n\n# textflame 1 1\n# textboxarrow 0 2\n@ガ・ボー\n新技！『迅雷の奇襲』！！\n\n# textflame 0 0\n@\n大いなる力に目覚めた彼女は、\n数多の敵を全滅させるのだった\n\n# imageset 0 \"black\"\n# imagealpha 0 0 0\n# imagelayer 0 1\n# waitandnext 0.1\n\n;;暗転挟む\n# imagealpha 0 1 0\n# imagepos 0 0 30\n# imageleftin 0 0.5\n# textwindow \"close\"\n# waitandnext 1\n\n# alpha 3302111 0 0\n# background \"highland\"\n# imagealpha 0 0 0.5\n# imagerightout 0 0.5\n# waitandnext 0.5\n\n# bgm \"bgm003\" 0\n# textwindow \"nomal\"\n# textflame 0 0\n@\nその後、丘にてマスターと語る彼女\n\n# textflame 0 0\n@\n「もう姉さんの幻影は消えた？」\nそう尋ねるマスターに対し、\n\n# alpha 3302111 1 0.5\n# textflame 1 1\n# textboxarrow 0 2\n# voice 330211 \"gaebuide_ge_0028\"\n# face 3302111 \"sad\"\n@ガ・ボー\n………\n\n# textflame 1 1\n# textboxarrow 0 2\n@ガ・ボー\n…いいえ\n\n# textflame 1 1\n# textboxarrow 0 2\n@ガ・ボー\n姉様を忘れることなどあり得ません\nボーは姉様を探し続けます\n\n# textflame 1 1\n# textboxarrow 0 2\n@ガ・ボー\nでも……\n\n# textflame 1 1\n# textboxarrow 0 2\n# voice 330211 \"gaebuide_ge_0013\"\n# face 3302111 \"normal\"\n@ガ・ボー\nもう姉様を…\n殺そうとは思わない\n\n# textflame 1 1\n# textboxarrow 0 2\n@ガ・ボー\nだってマスターに…\n本物の槍と言って頂けたから…\n\n# textflame 0 0\n@\n両手を広げ、\n風を全身で受け止める彼女\n\n# textflame 1 1\n# textboxarrow 0 2\n# voice 330211 \"gaebuide_ge_0004\"\n# face 3302111 \"happy\"\n@ガ・ボー\nボーは“本物”と…\n\n# textflame 0 0\n@\nその姿は半人半鳥の怪物ではなく、\nまるで無垢な天使のようで…\n\n# textflame 1 1\n# textboxarrow 0 2\n# voice 330211 \"gaebuide_ge_0001\"\n@ガ・ボー\nこのガ・ボー…\nこれからはマスターの槍となり…\nそして翼となりましょう\n\n# textflame 0 0\n@\nそう言って優しく微笑む\n\n# imageset 1 \"c3302111\"\n# imagealpha 1 0 0\n# imagelayer 1 1\n# textwindow \"nomal\"\n# textflame 0 0\n@\nそれは出会って以来、\n初めて見た彼女の笑顔だった\n\n# textwindow \"close\"\n# fadein \"white\" 3\n# imagealpha 1 1 0\n# imagepos 1 0 0\n# alpha 3302111 0 0\n# voice 330211 \"gaebuide_ge_kyara_0025\"\n\n# buttonsout 0 0\n# textwindow \"close\"\n# frameout 0 1\n;;■一枚絵指定\n;;★５\n;;背景：昼の丘の上\n;;表情：無表情な子が見せるかすかな笑顔。　綾波レイ的な笑顔のイメージです。\n;;構図：両手を広げ風を感じていています。　視点は正面か正面上から見下ろすイメージ。\n;;　　　羽のマントが風でたなびいている感じで、羽を広げている感じでお願いいたします。\n;;　　　※広がっている羽のイメージを添付しております。\n;;ボイス：「あなたは姉様ではないです…。それなのに、こんなにもボーを満たす役立たずのボーにマスターがいれば、本物になれます」\n;;gaebuide_ge_kyara_0025\""
	}
]