[
	{
		"ID": 30231204,
		"script": ";;【EP4】\n# script \"lisp\"\n# background \"town\"\n# bgm \"bgm002\" 0\n# textboxarrow 0 2\n# body 302311\n# alpha 302311 0 0\n# body 96\n# mask 96 off\n# pos 96 3\n# textflame 0 0\n@\n数日後─\n\n# textflame 0 0\n@\n同じカフェで、\n遠くを眺めているキキョウ\n\n# textflame 0 0\n@\nそんな彼女に、\nマスターが声を掛ける\n\n# textflame 1 1\n# textboxarrow 0 2\n# chara 96\n# voice 3023 \"kikyo_0022\"\n# face 96 \"surprise\"\n@キキョウ\n…！\n\n# textflame 1 1\n# textboxarrow 0 2\n# chara 96\n# face 96 \"smile\"\n@キキョウ\nあなたか…\n\n# textflame 1 1\n# textboxarrow 0 2\n# chara 96\n@キキョウ\n少し…分かった事があるの\n\n# textflame 1 1\n# textboxarrow 0 2\n# chara 96\n# face 96 \"usual\"\n@キキョウ\n今までは…人のことなんて\n理解できるはずがないと思ってた\n\n# textflame 1 1\n# textboxarrow 0 2\n# chara 96\n@キキョウ\nだから、わたしの事も…\n誰も理解なんて出来ないと思ってた\n\n# textflame 1 1\n# textboxarrow 0 2\n# chara 96\n@キキョウ\nでも…\n\n# textflame 1 1\n# textboxarrow 0 2\n# chara 96\n@キキョウ\n理解できるか、\nできないかなんて…\nやってみなきゃ分からない\n\n# textflame 1 1\n# textboxarrow 0 2\n# chara 96\n@キキョウ\n例え、できなかったとしても…\nそれはそれで仕方がない\nそんな事より…\n\n# textflame 1 1\n# textboxarrow 0 2\n# chara 96\n# face 96 \"irregular\"\n@キキョウ\n最初から諦めて…恐れて…\n歩み寄ろうとさえしない方が…\n罪よね\n\n# textflame 0 0\n@\nそう話す彼女に、\nマスターが告げる\n\n# select \"隊のみんなと馴染んできたようだね\" \"select_label_01\" \"前より、話しやすくなったって\" \"select_label_02\" \"みんなが君の事、意外と可愛いって\" \"select_label_03\"\nそう話す彼女に、\nマスターが告げる\n\n# label \"select_label_01\"\n# labeljump \"select_label_end\"\n# textflame 1 1\n# textboxarrow 0 2\n# chara 96\n# face 96 \"surprise\"\n@キキョウ\nみんなが…そう言ってくれてるの？\n\n# label \"select_label_02\"\n# labeljump \"select_label_end\"\n# textflame 1 1\n# textboxarrow 0 2\n# chara 96\n# face 96 \"usual\"\n@キキョウ\nそれは…わたしもよ…\n\n# label \"select_label_03\"\n# labeljump \"select_label_end\"\n# textflame 1 1\n# textboxarrow 0 2\n# chara 96\n# face 96 \"usual\"\n@キキョウ\n…“意外と”は余計だけど\n\n# label \"select_label_end\"\n# textflame 1 1\n# textboxarrow 0 2\n# chara 96\n@キキョウ\nでも、そういうのって…\n\n# textflame 1 1\n# textboxarrow 0 2\n# chara 96\n# voice 3023 \"kikyo_0004\"\n# face 96 \"smile\"\n@キキョウ\n素直に嬉しいね\n\n# textflame 1 1\n# textboxarrow 0 2\n# chara 96\n@キキョウ\nそう言ってくれる\nみんなのためなら…\n仲間のためなら…\n\n# textflame 1 1\n# textboxarrow 0 2\n# chara 96\n@キキョウ\n頑張ろうって素直に思える\n\n# se \"SE_0602\"\n# textflame 0 0\n@\nその変化が、\n彼女にまた新たなるスキル\n『五芒・活精の陣』を与えていた\n\n# textflame 1 1\n# textboxarrow 0 2\n# chara 96\n# voice 3023 \"kikyo_0022\"\n# face 96 \"surprise\"\n@キキョウ\n…え？なに、これ？\nわたしに…？\n\n# textflame 0 0\n@\n遅くなったけど、\n入隊祝いってことで\n…と、包みを渡すマスター\n\n# textflame 1 1\n# textboxarrow 0 2\n# chara 96\n@キキョウ\n…！これは…\n\n# textflame 0 0\n@\n開けると、\n中から出てきたのは\n一着の可愛い洋服\n\n# textflame 0 0\n@\nそういうの好きなんでしょ？\nマスターが微笑む\n\n# textflame 1 1\n# textboxarrow 0 2\n# chara 96\n# face 96 \"shy\"\n@キキョウ\n…べ\n\n# textflame 1 1\n# textboxarrow 0 2\n# chara 96\n# voice 3023 \"kikyo_0034\"\n# face 96 \"angry\"\n@キキョウ\n別に好きじゃないからッ！！\n\n# textflame 0 0\n@\n顔を真っ赤にして怒鳴るキキョウ\n\n# textflame 0 0\n@\nな…なんで怒るの！？\n意外な反応に、\nマスターが慌てふためく\n\n# textflame 1 1\n# textboxarrow 0 2\n# chara 96\n# voice 3023 \"kikyo_0010\"\n@キキョウ\nもう…！\nわたしのこと…\n全然、理解できてないッ！！\n\n# textflame 0 0\n@\n実は隠れて可愛い洋服を\n着るのが好きな彼女\n\n# textflame 0 0\n@\nそれがバレていたのが、\nよっぽど恥ずかしかったようだ\n\n# textflame 1 1\n# textboxarrow 0 2\n# chara 96\n# voice 3023 \"kikyo_kyara_0027\"\n# face 96 \"shy\"\n@キキョウ\nあなたって…\nほんと、馬鹿ね\n\n# textflame 0 0\n@\n照れて、\nそっぽを向いてしまう\nキキョウ\n\n# textflame 0 0\n@\n彼女の悩みの全てを\n解決できたわけではない\n\n# imageset 0 \"c302311\"\n# imagealpha 0 0 0\n# textflame 0 0\n@\nそれでも少しは\n孤独から救えた気がしたのだった\n\n;;キキョウ　「少しときめいている自分が憎い…」に変更可能でしょうか？\n# imagealpha 0 1 0\n# imagepos 0 0 0 \n# fadein \"white\" 3\n# voice 3023 \"kikyo_event_0007\"\n# textwindow \"close\""
	}
]