[
	{
		"ID": 310061211,
		"script": ";;-----------------------------------------\n;;■天使ナーゲルリング・キャラクエ　シナリオ\n;;【ＥＰ１】\n;;スクリプト最後の背景：angel_world\n;;背景：angel_world\n;;-----------------------------------------\n# script \"lisp\"\n# background \"angel_world\"\n# bgmfile \"bgm270\" \"BgmLostRagnarokEvent\" 0\n;;-----------------------------------------\n;;ナーゲルリング\n# body 3100611\n# pos 3100611 3\n# scale 3100611 0.8 0\n# layer 3100611 2\n# alpha 3100611 0 0\n# mask 3100611 off\n;;-----------------------------------------\n;;カーテンフェード\n# imageset 1 \"black\"\n# imagealpha 1 0 0\n# imagelayer 1 5\n;;-----------------------------------------\n;;【ＥＰ１】\n;;モノローグ\n# textflame 0 0\n@\nマスターの元に、\nまた新しい姫が入隊した\n\n# move 3100611 3 0\n# face 3100611 \"normal\"\n# alpha 3100611 1 0.5\n# mask 3100611 off\n# textflame 1 1\n# textboxarrow 0 2\n@ナーゲルリング\nナーゲルリング・\n聖鎖(ジェイル)・\nラグエルです\n\n;;モノローグ\n# textflame 0 0\n@\nその目は涼し気で、\nとても冷静な印象だった\n\n;;モノローグ\n@\nそんな彼女は、いつも無表情だが、\n隊の中では分け隔てなく\n誰にでも平等に接している\n\n;;モノローグ\n@\nその態度は姫たちにも評判良く、\nマスターが一度、\n褒めたことがあったのだが…\n\n# voice 310061 \"nageruring_t_0034\"\n# textflame 1 1\n# textboxarrow 0 2\n@ナーゲルリング\n誰に対しても平等に審判を下す…\nそれだけのことです\n\n;;モノローグ\n# textflame 0 0\n@\n彼女は至って冷静だった\n\n# textwindow \"close\"\n# imagepos 1 0 30\n# imagealpha 1 1 0\n# imageleftin 1 0.6\n# waitandnext 0.6\n\n# background \"plain\"\n# alpha 3100611 0 0\n# imagealpha 1 0 0.5\n# imagerightout 1 0.6\n# waitandnext 0.6\n\n;;モノローグ\n# textwindow \"normal\"\n@\nそして、ある日の戦闘では…\n\n# move 3100611 3 0\n# face 3100611 \"normal\"\n# alpha 3100611 1 0.5\n# mask 3100611 off\n# textflame 1 1\n# textboxarrow 0 2\n@ナーゲルリング\n無駄\n\n;;モノローグ\n# textflame 0 0\n@\n敵に対し無慈悲に裁きを下す\n\n# textflame 1 1\n# textboxarrow 0 2\n@ナーゲルリング\n………\n\n;;モノローグ\n# textflame 0 0\n@\n無表情で無慈悲ゆえ、\nマスターの命令にも特に感情なく\n聞くのかと思いきや…\n\n# textflame 1 1\n# textboxarrow 0 2\n@ナーゲルリング\n命令…？\n\n;;モノローグ\n# textflame 0 0\n@\n攻撃の手は休めて、\n仲間を援護してくれ！\nというマスターの声に…\n\n# voice 310061 \"nageruring_t_0031\"\n# textflame 1 1\n# textboxarrow 0 2\n@ナーゲルリング\nすみません、\nそれは出来ません\n\n;;モノローグ\n# textflame 0 0\n@\nごく稀にだが、\n命令を無視する時があった\n\n# textflame 1 1\n# textboxarrow 0 2\n@ナーゲルリング\n………\n\n;;モノローグ\n# textflame 0 0\n@\n無表情な上、無口\nそれゆえに\n感情が読めない\n\n# textflame 1 1\n# textboxarrow 0 2\n@ナーゲルリング\n………\n\n;;モノローグ\n# textflame 0 0\n@\nマスターは、そんな彼女が\nいつも気に掛かっていた\n\n# textwindow \"close\"\n# fadeout \"black\" 1\n# waitandnext 1.2\n\n# background \"angel_world\"\n# alpha 3100611 0 0\n# waitandnext 0.2\n\n# fadein \"black\" 1\n# waitandnext 1\n\n;;モノローグ\n# textwindow \"normal\"\n@\nそんな彼女の姿は、\n休日になると、\n確認することは出来ない\n\n;;モノローグ\n@\nどこで何をしているのか\n分からなかった\n\n;;モノローグ\n@\nしかし、そんなある日\n\n;;モノローグ\n@\nマスターは路地裏に佇む\n彼女に声を掛けた\n\n# voice 310061 \"nageruring_t_0022\"\n# move 3100611 3 0\n# face 3100611 \"surprise\"\n# alpha 3100611 1 0.5\n# mask 3100611 off\n# textflame 1 1\n# textboxarrow 0 2\n@ナーゲルリング\n…！マスター…\n\n;;モノローグ\n# textflame 0 0\n@\n声を掛けられ驚いたようだったが、\n彼女の表情は特に変化しなかった\n\n# face 3100611 \"normal\"\n# textflame 1 1\n# textboxarrow 0 2\n@ナーゲルリング\nなにをしているのですか…？\n\n;;モノローグ\n# textflame 0 0\n@\n彼女の問いに、\nマスターは答える\n多分、きみと同じかな\n\n# voice 310061 \"nageruring_t_0022\"\n# face 3100611 \"surprise\"\n# textflame 1 1\n# textboxarrow 0 2\n@ナーゲルリング\n…！\n\n# textboxarrow 0 2\n@ナーゲルリング\n私と…同じ…？\n\n;;モノローグ\n# textflame 0 0\n@\nマスターは彼女を監視していた\n\n;;モノローグ\n@\nつまり彼女は、\n隊の他の姫たちを監視していたのだ\n\n# voice 310061 \"nageruring_t_0026\"\n# face 3100611 \"normal\"\n# textflame 1 1\n# textboxarrow 0 2\n@ナーゲルリング\n知っていたのですね…\n\n;;モノローグ\n# textflame 0 0\n@\nなんのために\nそんなことをしているの？\nマスターが問いただす\n\n# textflame 1 1\n# textboxarrow 0 2\n@ナーゲルリング\n………\n\n;;モノローグ\n# textflame 0 0\n@\n無表情な彼女の口が開いた\n\n# textflame 1 1\n# textboxarrow 0 2\n@ナーゲルリング\n隊の規律を守らない姫を\n処罰するためです\n\n;;モノローグ\n# textflame 0 0\n@\n表情を崩さず淡々と答える彼女に、\nマスターは言う\nそんなことは止めてほしい…と\n\n;;モノローグ\n@\nだが彼女の答えは…\n\n# voice 310061 \"nageruring_t_0014\"\n# textflame 1 1\n# textboxarrow 0 2\n@ナーゲルリング\nそれは出来ません…\nなぜなら…\n\n# textboxarrow 0 2\n@ナーゲルリング\nエノ様の声が…\n私をそう導くからです\n\n;;モノローグ\n# textflame 0 0\n@\nエノ様…？\n疑問の表情を浮かべる\nマスターだった"
	}
]