[
	{
		"ID": 310051211,
		"script": ";;-----------------------------------------\n;;ファンキル　キャラクエ【悪魔リットゥ】\n;;【EP1】\n;;スクリプト最後の背景：森（昼）\n;;背景：平原\n;;-----------------------------------------\n# script \"lisp\"\n# background \"101_plain_daytime\"\n# bgmfile \"bgm270\" \"BgmLostRagnarokEvent\" 0\n;;-----------------------------------------\n;;リットゥ\n# body 3100511\n# pos 3100511 3\n# scale 3100511 0.8 0\n# layer 3100511 2\n# alpha 3100511 0 0\n# mask 3100511 off\n;;-----------------------------------------\n;;カーテンフェード\n# imageset 1 \"black\"\n# imagealpha 1 0 0\n# imagelayer 1 5\n;;-----------------------------------------\n;;【EP1】(フリ)\n;;背景：「背景６：平原」\n;;リットゥの立ち絵は最初から表示させておいてください\n# move 3100511 3 0\n# face 3100511 \"angry\"\n# alpha 3100511 1 0\n# mask 3100511 off\n# textflame 1 1\n# textboxarrow 0 2\n@リットゥ\n甘い！まだ甘い！\nお前らの心臓には、\n甘ったるい正義が染みついている！\n\n# textboxarrow 0 2\n@リットゥ\n正義や愛などを信じる者は弱い\n勝者はいついかなるときでも\n卑劣である\n\n;;演出:できればここでファイル名「ritto_a_0005」のボイス再生をお願いします（ボイスは頭からで大丈夫です）\n# voice 310051 \"ritto_a_0006\"\n# face 3100511 \"happy\"\n# textboxarrow 0 2\n@リットゥ\nだから鍛え直してやろうというのだ\n教官である、この私がな！\nカカカッ！\n\n;;演出：リットゥの立ち絵は暗転（少し暗くするイメージ、または退場）させておいてください\n;;モノローグ\n# alpha 3100511 0 0.5\n# textflame 0 0\n@\n高圧的な彼女に反対できる者はおらず\n今日も厳しい訓練が行われていた\n\n;;モノローグ\n@\nトレーニングのさなか\nマスターはふと森を見上げる\n\n;;モノローグ\n@\nたまにはピクニックでもしたいな\nと、ぽつりと呟いた\n\n;;演出：リットゥの立ち絵を表示（または登場）させてください\n;;演出:できればここでファイル名「ritto_a_0010」のボイス再生をお願いします\n# voice 310051 \"ritto_a_0010\"\n# move 3100511 3 0\n# face 3100511 \"normal\"\n# alpha 3100511 1 0.5\n# mask 3100511 off\n# textflame 1 1\n# textboxarrow 0 2\n@リットゥ\nほぉう、ピクニックか\nそんなことを考えていられるほど\n私のトレーニングは生温いか？\n\n;;モノローグ\n# textflame 0 0\n@\nいつの間にか近くにいたリットゥ\n\n;;演出:できればここでファイル名「ritto_a_0001」のボイス再生をお願いします\n# voice 310051 \"ritto_a_0001\"\n# textflame 1 1\n# textboxarrow 0 2\n@リットゥ\nお前は相変わらず甘すぎるようだ\nいいだろう\n\n;;演出:できればここでファイル名「ritto_a_0032」のボイス再生をお願いします\n# voice 310051 \"ritto_a_0032\"\n# face 3100511 \"angry\"\n# textboxarrow 0 2\n@リットゥ\nお前に特別訓練を命じる！\n本番で死なぬよう\n訓練で死んでおけ！\n\n;;モノローグ\n# textflame 0 0\n@\nこうして\n森での地獄のトレーニングが\n幕を開けるのだった\n\n;;暗転（右から左）\n;;背景「背景７：森（昼）」\n# textwindow \"close\"\n# imagepos 1 0 30\n# imagealpha 1 1 0\n# imageleftin 1 0.6\n# waitandnext 0.6\n\n# background \"forest\"\n# move 3100511 3 0\n# face 3100511 \"normal\"\n# alpha 3100511 1 0\n# mask 3100511 off\n# imagealpha 1 0 0.5\n# imagerightout 1 0.6\n# waitandnext 0.6\n\n# textflame 1 1\n# textboxarrow 0 2\n# textwindow \"normal\"\n@リットゥ\n息が上がっているな、マスター\n準備運動で音を上げるつもりか？\n\n# textboxarrow 0 2\n@リットゥ\nほら、足が上がっていないぞ\nそれにちゃんと前を見て走る！\nもし罠など仕掛けられていたら…\n\n;;モノローグ\n# textflame 0 0\n@\n…プツン\nと、そのとき\n張り詰めた何かが切れる音がした\n\n;;演出:できればここでファイル名「ritto_a_0024」のボイス再生をお願いします\n# voice 310051 \"ritto_a_0024\"\n# face 3100511 \"surprise\"\n# textflame 1 1\n# textboxarrow 0 2\n@リットゥ\nっ……！？\nしまった…！\n\n;;モノローグ\n# textflame 0 0\n@\nリットゥの死角から\n丸太が振り子のように\n襲い掛かる！\n\n;;モノローグ\n@\nマスターはリットゥをかばうため\n咄嗟に飛び出していた\n\n;;演出:できればここでファイル名「ritto_a_0037」のボイス再生をお願いします\n# voice 310051 \"ritto_a_0037\"\n# face 3100511 \"angry\"\n# textflame 1 1\n# textboxarrow 0 2\n@リットゥ\nっ！\nマスター！\n\n;;モノローグ\n# alpha 3100511 0 0.5\n# textflame 0 0\n@\nマスターは罠を食らって\nそのまま崖下へ落ちていく\n\n;;演出:できればここでファイル名「ritto_a_0018」のボイス再生をお願いします\n# voice 310051 \"ritto_a_0018\"\n# move 3100511 3 0\n# face 3100511 \"angry\"\n# alpha 3100511 1 0.5\n# mask 3100511 off\n# textflame 1 1\n# textboxarrow 0 2\n@リットゥ\nマスターに注意するあまり\n自分への警戒を怠るとは…\n\n# textboxarrow 0 2\n@リットゥ\nなんて…なんて、ふがいない！\n\n;;モノローグ\n# textflame 0 0\n@\n物音を聞きつけたのか\n敵の兵士がやってきて\nマスターへと向かっていく\n\n# textflame 1 1\n# textboxarrow 0 2\n@リットゥ\nこんなところにまで\n侵攻しているとは\nどこの兵士だ…っ！\n\n# textboxarrow 0 2\n@リットゥ\nマスター！\nそこを動くなよ！\n今、助けてやる！"
	}
]