[
	{
		"ID": 3101352,
		"script": "# script \"lisp\"\n# background \"highland_snow\"\n# bgm \"stop\"\n# envbody 1101 2 0\n# effectpattern 1101 4 0\n# effectstart 1101\n# envbody 2101 12 0\n# effectpattern 2101 1 0\n# effectstart 2101\n# body 823004\n# pos 823004 5\n# scale 823004 0.8 0\n# mask 823004 off\n# body 900012\n# pos 900012 3\n# scale 900012 0.8 0\n# mask 900012 off\n# alpha 823004 0 0\n# serif 0\n# textwindow \"close\"\n# waitandnext 0.4\n\n# alpha 823004 1 0\n# rightin 823004 0.3\n# layer 823004 2\n# layer 900012 1\n# fadein \"red\" 1\n# se \"SE_9136\"\n# serif 0\n# textwindow \"toge\"\n# textboxarrow 0 3\n# textsize 42\n# waitandnext 1.5\n@異族の大将\nキモティー！！\n\n# serif 1\n# textwindow \"toge\"\n# shakeloop 1\n# fillrect \"white\" 5 0 1\n# alpha 900012 0 2.5\n# se \"SE_8015\"\n# waitandnext 2.5\n# textboxarrow 1 2\n# textsize 36\n@ゴーレム\nグゴオオオオオォォォ！！\n\n# se \"SE_5922\"\n# shakestop\n# waitandnext 2.4\n\n# se \"SE_3001\"\n# move 823004 3 0\n# serif 1\n# textwindow \"close\"\n# waitandnext 0.9\n\n# effectskip 2101\n# bgm \"bgm032\" 0\n# fillrect \"white\" 1 1 0\n# serif 0\n# textwindow \"nomal\"\n# textboxarrow 0 2\n# textsize 24\n@異族の大将\n…あーノリで倒してもうた…\nけど、最後にオレなりの\nぬくもり感じてくれたよな\n\n# envbody 2001 11 0\n# effectpattern 2001 2 0\n# effectstart 2001\n# voice 9994 \"izokutaisho_0071\"\n# chara 823004\n@異族の大将\nゴーレムよ、天国であったかくして\n待っとってくれな\nまた一緒にうまい飯でも食おうぜ\n\n# emotionbody 5200 3 823004 0 295\n# effectpattern 5200 1 3\n# effectstart 5200\n# chara 823004\n@異族の大将\n昨日の敵は今日の友…\n感謝の気持ちとして\n姫石3個受け取ってな\n\n# effectskip 5200\n# chara 823004\n@異族の大将\nこれからはまた敵やで！\nけど、今年1年ありがとうなー\n\n# emotionbody 5903 10 823004 70 270\n# effectpattern 5903 3 0\n# effectstart 5903\n# emotionbody 5904 10 823004 -90 270\n# effectpattern 5904 4 0\n# effectstart 5904\n# voice 9994 \"izokutaisho_0072\"\n# se \"SE_0600\"\n# textsize 36\n# textalign \"center\"\n@異族の大将\n2017年もよろしく！\n良いお年をー！！\n"
	}
]