[
	{
		"ID": 3101325,
		"script": "# script \"lisp\"\n# body 810004\n# mask 810004 off\n# pos 810004 3\n# scale 810004 0.8 0\n# textflame 1 1\n# textboxarrow 0 2\n@異族の大将\nよくもメタルを…ええやつやのに…！\n決めた。そろそろオレも怒るわ！\n\n# voice 9994 \"izokutaisho_0046\"\n@異族の大将\n次のターンから！\nHPアップさせまくり祭りと\nスキル発動しまくりバーゲンじゃ！\n\n@異族の大将\n俺に手出したら、即で倒すからな。\n歯向かうやつには、\n一切容赦せーへんぞ！！"
	}
]