[
	{
		"ID": 3101346,
		"script": "# script \"lisp\"\n# body 830001\n# mask 830001 off\n# pos 830001 3\n# scale 830001 0.8 0\n# textflame 1 1\n# textboxarrow 0 2\n@飛行異族\nあたいを嘘つきだと…\n許せねぇ…消えろ！！！！"
	}
]