[
	{
		"ID": 3101362,
		"script": "# script \"lisp\"\n# background \"colosseum_rise\"\n# bgm \"bgm006\" 0\n# body 823004\n# pos 823004 3\n# scale 823004 0.8 0\n# mask 823004 off\n# textflame 1 1\n# textboxarrow 0 2\n# chara 823004\n@異族の大将\nクソー\nしっかり順番に倒してきやがって…\n\n# envbody 2000 10 1\n# effectpattern 2000 10 1\n# effectstart 2000\n# se \"SE_0600\"\n# textboxarrow 0 2\n# chara 823004\n@異族の大将\n今月は姫石4個や\nあーキル姫の成長\n祈りたくねー\n\n# se \"SE_9229\"\n# waitandnext 1"
	}
]