[
	{
		"ID": 310381203,
		"script": ";;アルマスキャラクエ_EP3\n;;//背景：黒\n# script \"lisp\"\n# background \"town\"\n# bgmfile \"bgm263\" \"BgmLostRagnarok001\" 0\n# subfillrect 1 \"black\" 0 0 1\n# body 3103811\n# pos 3103811 3\n# alpha 3103811 0 0\n# scale 3103811 0.8 0\n# body 139\n# pos 139 5\n# alpha 139 0 0\n# scale 139 0.8 0\n# layer 3103811 4\n# layer 139 5\n# body 141\n# pos 141 1\n# scale 141 0.8 0\n# alpha 141 0 0\n# layer 141 2\n# body 140\n# pos 140 3\n# scale 140 0.8 0\n# layer 140 2\n# mask 140 off\n# alpha 140 0 0\n# face 3103811 \"happy1\"\n# face 139 \"worry\"\n# imageset 4 \"bg_black\"\n# imagelayer 4 1\n# textflame 0 0\n# textboxarrow 0 0\n# chara 3103811\n@アルマス\n村を一つ占拠した私達は、\n反抗軍の隊長を中心に\n自治を行った――\n\n# imagepos 4 0 30\n# imagealpha 4 1 0\n# subfillrect 1 \"black\" 0 1 0\n# textflame 0 0\n# textboxarrow 0 0\n# chara 3103811\n@アルマス\nみんなが家族と暮らし、\n楽しく過ごす\n\n# textflame 0 0\n# textboxarrow 0 0\n# chara 3103811\n@アルマス\nそこには一つの理想があった\n…のだと思う――\n\n;;//背景：街中\n# bgm \"bgm002\" 0\n# serif 0\n# textwindow \"close\"\n# imagealpha 4 0 1.5\n# waitandnext 2\n\n# alpha 3103811 1 0.5\n# alpha 141 1 0.5\n# alpha 139 1 0.5\n# serif 0\n# textwindow \"normal\"\n# textflame 1 1\n# textboxarrow 0 2\n# chara 3103811\n# voice 1038 \"almace_0005\"\n@アルマス\n『ミミの耳見て』って…\nぷふふふふっ\n\n# face 141 \"smile\"\n# textflame 1 1\n# textboxarrow 0 1\n# chara 141\n@ミミ\nアハハハハ！\nお姉ちゃん、変なところで笑うから\nおもしろ～い！\n\n# textflame 1 1\n# textboxarrow 0 3\n# chara 139\n# voice 9967 \"titania_0041\"\n@ティターニア\nこの子の笑いのツボは\nどうしても理解できません…\nつき合っていると肩が凝りますね\n\n# textflame 1 1\n# textboxarrow 0 2\n# chara 3103811\n# voice 1038 \"almace_0004\"\n@アルマス\nぷふーっ！\nツボだけにっ？\nティニも笑わせないでよーっ\n\n# face 139 \"surprise\"\n# textflame 1 1\n# textboxarrow 0 1\n# chara 141\n@ミミ\nアハハハハ！\n\n# face 140 \"angry\"\n# face 139 \"worry\"\n# textflame 1 1\n# textboxarrow 0 3\n# chara 139\n@ティターニア\n…今のは私が悪いのでしょうか？\n\n# bgm \"stop\" 0\n# alpha 3103811 0 0.5\n# alpha 141 0 0.5\n# alpha 139 0 0.5\n# alpha 140 1 0.5\n# textflame 1 1\n# textboxarrow 0 2\n# chara 140\n@セド\n敵襲！敵襲だーっ！\n\n# bgm \"bgm005\" 0\n# face 3103811 \"angry\"\n# face 141 \"worry\"\n# face 139 \"sad\"\n# alpha 140 0 0.5\n# alpha 3103811 1 0.5\n# alpha 141 1 0.5\n# alpha 139 1 0.5\n# textflame 1 1\n# textboxarrow 0 2\n# chara 3103811\n# voice 1038 \"almace_0014\"\n@アルマス\n絶腹立つ！\nトレイセーマ兵が\n村を取り返しに来たのねっ\n\n# textflame 1 1\n# textboxarrow 0 2\n# chara 3103811\n@アルマス\nミミは安全なところに隠れてて！\n返り討ちにしてやるから！\n\n# serif 1\n# textwindow \"normal\"\n# textboxarrow 1 0\n@反抗軍隊長\nな…なんだ、あの軍勢は…！？\n百…いや、千は超えているぞっ\n\n# serif 1\n# textwindow \"close\"\n# serif 0\n# textwindow \"normal\"\n# alpha 140 1 0.5\n# alpha 3103811 0 0.5\n# alpha 141 0 0.5\n# alpha 139 0 0.5\n# textflame 1 1\n# textboxarrow 0 2\n# chara 140\n@セド\n五十に満たない俺達相手に、\nなんて数を\n送り込んできやがったんだ…！\n\n# textflame 1 1\n# textboxarrow 0 2\n# chara 140\n@セド\nあいつら、\n俺達を皆殺しにする気かっ\n\n# mask 3103811 off\n# alpha 140 0 0.5\n# alpha 3103811 1 0.5\n# textflame 1 1\n# textboxarrow 0 2\n# chara 3103811\n@アルマス\n大丈夫！\n私が先頭に立つから絶安心よ！\n何千人来ようと蹴散らしてやる！\n\n# serif 1\n# textwindow \"normal\"\n# textboxarrow 1 0\n@反抗軍隊長\nアルマスさん…そうだな\n皆、彼女に続けーっ！\n\n;;//暗転挟む\n# fadeout \"black\" 1.5\n# waitandnext 1.5\n\n# serif 1\n# textwindow \"close\"\n# serif 0\n# textwindow \"normal\"\n# mask 3103811 on\n# move 3103811 1 0\n# body 3830001\n# pos 3830001 3\n# scale 3830001 0.8 0\n# layer 3830001 1\n# waitandnext 0.6\n\n# fadein \"black\" 1\n# textflame 1 1\n# textboxarrow 0 1\n# chara 3103811\n# voice 1038 \"almace_battle_0002\"\n@アルマス\nせいっ！\n\n# move 3103811 5 0.2\n# waitandnext 0.1\n\n# se \"SE_5234\"\n# fadein \"white\" 0.3\n# shake 0 0.5\n# textflame 1 1\n# textboxarrow 0 2\n# chara 3830001\n@トレイセーマ兵\nグアアアアアアッ…！\n\n# face 3103811 \"worry\"\n# move 139 1 0\n# alpha 3830001 0 0.5\n# textflame 1 1\n# textboxarrow 0 3\n# chara 3103811\n@アルマス\nハア…ハア…\nこれで何人倒した？\n次から次へと…きりがない！\n\n# face 139 \"surprise\"\n# move 139 2 0.3\n# alpha 139 1 0.3\n# textflame 1 1\n# textboxarrow 0 1\n# chara 139\n# voice 9967 \"titania_0053\"\n@ティターニア\nアルマス！\n村がっ…村が燃えています！\n\n# face 3103811 \"surprise\"\n# imageset 0 \"black\"\n# imagealpha 0 0 0\n# imagelayer 0 1\n# textflame 1 1\n# textboxarrow 0 3\n# chara 3103811\n# voice 1038 \"almace_0017\"\n@アルマス\nそんなっ…？\n守りを破られたの…！？\nあそこにはミミもいるのにっ\n\n;;//アルマスが村へ戻る\n;;――場面転換――\n# imagealpha 0 1 0\n# imagepos 0 0 30\n# imageleftin 0 0.5\n# serif 0\n# textwindow \"close\"\n# serif 1\n# textwindow \"close\"\n# waitandnext 1\n\n# alpha 139 0 0\n# alpha 3103811 0 0\n# alpha 140 1 0\n# alpha 3830001 1 0\n# move 3830001 2 0\n# move 3103811 1 0\n# move 140 4 0\n# mask 140 on\n# waitandnext 0.1\n\n# serif 0\n# textwindow \"normal\"\n# imagealpha 0 0 0.5\n# imagerightout 0 0.5\n# textflame 1 1\n# textboxarrow 0 3\n# chara 140\n@セド\nうおおおおおお！\n\n# face 3103811 \"angry\"\n# textflame 1 1\n# textboxarrow 0 1\n# chara 3830001\n@トレイセーマ兵\nくたばれ、イミテーションが！\n\n;;//セドが斬られる\n# serif 0\n# textwindow \"close\"\n# move 3830001 3 0.2\n# waitandnext 0.1\n\n# se \"SE_4830\"\n# fadein \"red\" 0.5\n# shake 0 0.5\n# alpha 140 0 0.5\n# face 140 \"sad\"\n# waitandnext 1.5\n\n# alpha 3103811 1 0.3\n# leftin 3103811 0.3\n# serif 0\n# textwindow \"normal\"\n# textflame 1 1\n# textboxarrow 0 1\n# chara 3103811\n@アルマス\nあああああ！\nなんてことするのよぉっ！\n\n;;//アルマスがトレイセーマ兵を斬る\n# move 3103811 2 0.1\n# waitandnext 0.1\n\n# se \"SE_5743\"\n# fadein \"white\" 0.3\n# move 3830001 4 0.2\n# shake 0 0.5\n# textflame 1 1\n# textboxarrow 0 3\n# chara 3830001\n@トレイセーマ兵\nぐはぁっ…！\n\n;;//トレイセーマ兵out\n# bgm \"bgm004\" 0\n# face 3103811 \"worry\"\n# alpha 3830001 0 0.5\n# textflame 1 1\n# textboxarrow 0 1\n# chara 3103811\n@アルマス\nセド！\nしっかりしてっ\n\n# alpha 140 1 0.5\n# textflame 1 1\n# textboxarrow 0 3\n# chara 140\n@セド\nアルマス…さん…\n俺は、ここまでみたいだ…\n\n# face 3103811 \"angry\"\n# textflame 1 1\n# textboxarrow 0 1\n# chara 3103811\n@アルマス\n弱気にならないで！\nこのくらいの傷…\n\n# textflame 1 1\n# textboxarrow 0 3\n# chara 140\n@セド\nいいんだ…\n\n# textflame 1 1\n# textboxarrow 0 3\n# chara 140\n@セド\nそれより、あなたにお礼を…\n本当に、ありがとう…\n\n# face 3103811 \"sad\"\n# textflame 1 1\n# textboxarrow 0 1\n# chara 3103811\n# voice 1038 \"almace_0015\"\n@アルマス\nなにを言っているの！？\nお礼なんて…私なんか力不足でっ…\n\n# face 140 \"smile\"\n# textflame 1 1\n# textboxarrow 0 3\n# chara 140\n@セド\nアルマスさん…\n\n# textflame 1 1\n# textboxarrow 0 3\n# chara 140\n@セド\nあなたのお陰で…\nほんの数ヶ月だったけれど…\n\n# textflame 1 1\n# textboxarrow 0 3\n# chara 140\n@セド\n俺達は自由を勝ち取れた…\n\n# textflame 1 1\n# textboxarrow 0 3\n# chara 140\n@セド\n屈辱的な服従を\n強いられてきた俺達に…\n\n# textflame 1 1\n# textboxarrow 0 3\n# chara 140\n@セド\n人間としての生を…\n与えてくれたんだ…\n\n# face 140 \"sad\"\n# textflame 1 1\n# textboxarrow 0 3\n# chara 140\n@セド\n本当に…ありが…\n\n# face 3103811 \"worry\"\n# textflame 1 1\n# textboxarrow 0 1\n# chara 3103811\n# voice 1038 \"almace_0016\"\n@アルマス\nダメよ！死んではダメ！\nうあああああああああああ…！！\n\n;;//背景：平原\n# fadeout \"black\" 1.5\n# waitandnext 1.5\n\n# face 139 \"worry\"\n# face 3103811 \"sad\"\n# alpha 140 0 0\n# move 3103811 3 0\n# background \"plain\"\n# waitandnext 0.6\n\n# fadein \"black\" 1\n# textflame 1 1\n# textboxarrow 0 2\n# chara 3103811\n@アルマス\n…………\n\n# serif 0\n# textflame 1 1\n# textboxarrow 0 0\n# move 3103811 3 0\n# textwindow \"moya\"\n# chara 3103811\n@アルマス\nみんな殺された…\nセドも隊長さんも…\nミミもっ…\n\n# move 139 5 0\n# serif 0\n# textflame 1 1\n# textboxarrow 0 0\n# move 3103811 3 0\n# textwindow \"moya\"\n# chara 3103811\n@アルマス\n村も焼き払われてしまった…\n\n# serif 0\n# textwindow \"normal\"\n# alpha 139 1 0.5\n# move 139 4 0.5\n# move 3103811 2 0.5\n# textflame 1 1\n# textboxarrow 0 3\n# chara 139\n# voice 9967 \"titania_0066\"\n@ティターニア\nアルマス…大丈夫ですか…？\n\n# face 3103811 \"worry\"\n# textflame 1 1\n# textboxarrow 0 1\n# chara 3103811\n# voice 1038 \"almace_0046\"\n@アルマス\nねえ、ティニ…\nあなたは知っていたんでしょう\nこうなるってことを…\n\n# textflame 1 1\n# textboxarrow 0 1\n# chara 3103811\n@アルマス\n宴のとき、ティニの悲しい気持ちが\n伝わってきたの…\n\n# textflame 1 1\n# textboxarrow 0 1\n# chara 3103811\n@アルマス\nこの結末を、\n予知していたんだよね…？\n\n# face 139 \"sad\"\n# textflame 1 1\n# textboxarrow 0 3\n# chara 139\n@ティターニア\n…はい\n\n# textflame 1 1\n# textboxarrow 0 3\n# chara 139\n@ティターニア\nこの結末は、アナタが彼らに\n加勢すると言い出したとき、\nすでに予知していました…\n\n# face 3103811 \"angry\"\n# textflame 1 1\n# textboxarrow 0 1\n# chara 3103811\n# voice 1038 \"almace_0019\"\n@アルマス\nそんなに前からっ…\nそれなのに、どうして？\n\n# face 139 \"worry\"\n# face 3103811 \"worry\"\n# textflame 1 1\n# textboxarrow 0 3\n# chara 139\n@ティターニア\n…私も同じだったからです\nたとえ結果を予知していたとしても\n彼らを助けたかった\n\n# textflame 1 1\n# textboxarrow 0 3\n# chara 139\n@ティターニア\n奇跡を…\n\n# textflame 1 1\n# textboxarrow 0 3\n# chara 139\n@ティターニア\nひょっとしたら、\nアナタとなら\n奇跡を起こせるのではないかと…\n\n# textflame 1 1\n# textboxarrow 0 3\n# chara 139\n@ティターニア\nそんな期待を抱いたのです…\n\n# face 3103811 \"sad\"\n# textflame 1 1\n# textboxarrow 0 1\n# chara 3103811\n@アルマス\nティニ…ごめんなさいっ…\n私は、なにも分かってなかった…！\n無力なままだった…！\n\n# textflame 1 1\n# textboxarrow 0 3\n# chara 139\n@ティターニア\nそんなに自分を責めないでください\n彼らはアナタに感謝していました\nアナタは彼らの希望になれたのです\n\n# textflame 1 1\n# textboxarrow 0 1\n# chara 3103811\n@アルマス\nでも…\nみんな死なせてしまった…！\n\n# face 3103811 \"worry\"\n# textflame 1 1\n# textboxarrow 0 1\n# chara 3103811\n@アルマス\nこれじゃダメなんだ\n私は、間違ってた…\n\n# textflame 1 1\n# textboxarrow 0 1\n# chara 3103811\n@アルマス\n無闇矢鱈に暴れて\n人々を救った気になったって\n世界はなにも変わらない…\n\n# textflame 1 1\n# textboxarrow 0 1\n# chara 3103811\n@アルマス\nもっと根本的な戦いをしないと\n\n# bgm \"bgm010\" 0\n# face 3103811 \"angry\"\n# textflame 1 1\n# textboxarrow 0 1\n# chara 3103811\n@アルマス\nティニ、私、ここで誓うよ\nこの理不尽な世界を変えてみせる！\n人類復権の切り札になってみせる！\n\n# se \"SE_0602\"\n# textflame 0 0\n@\nその誓いが、私の中に新たなスキル\n想精『安寧の女王』を\n目覚めさせてくれた\n\n# face 139 \"normal\"\n# textflame 1 1\n# textboxarrow 0 3\n# chara 139\n# voice 9967 \"titania_0063\"\n@ティターニア\nアナタなら必ず、\n人類復権の切り札になれますよ、\nアルマス\n\n# face 3103811 \"normal\"\n# imageset 2 \"c3103811\"\n# imagealpha 2 0 0\n# imagelayer 2 2\n# textflame 1 1\n# textboxarrow 0 1\n# chara 3103811\n# voice 1038 \"almace_0032\"\n@アルマス\nええ\nこれからもよろしく、ティニ\n\n;;アルマス　「あなた達の思い、決して無駄にしないわ…」\n;;ID:almace_kyara_0015\n# imagealpha 2 1 0\n# imagepos 2 0 0 \n# fadein \"white\" 3\n# voice 1038 \"almace_kyara_0015\"\n# textwindow \"close\"\n\n"
	}
]