[
	{
		"ID": 310361211,
		"script": ";;-----------------------------------------\n;;神令ラグナロク_キャラクエシナリオ 深浦\n;;【EP1】\n;;スクリプト最後の背景：平原（朝）\n;;背景：平原（朝）\n;;-----------------------------------------\n# script \"lisp\"\n# background \"101_plain_daytime\"\n# bgmfile \"bgm270\" \"BgmLostRagnarokEvent\" 0\n;;-----------------------------------------\n;;神令ラグナロク\n# body 3103611\n# pos 3103611 3\n# scale 3103611 0.8 0\n# layer 3103611 2\n# alpha 3103611 0 0\n# mask 3103611 off\n;;-----------------------------------------\n;;【EP1】\n;;背景：平原（朝）\n# voice 310361 \"ragnarok_c_0002\"\n# move 3103611 3 0\n# face 3103611 \"usual\"\n# alpha 3103611 1 0\n# mask 3103611 off\n# textflame 1 1\n# textboxarrow 0 2\n@ラグナロク\n軍旗が掲げられる意味は\n知ってる？\n\n;;モノローグ\n# textflame 0 0\n@\nかくしてラグナロクを覆っていた\n仮面は取り払われたが\n彼女の瞳は依然として達観していた\n\n;;モノローグ\n@\n隊の斬ル姫たちと関係を深めず\nそれでいて拒絶するわけでもなく\n\n;;モノローグ\n@\n戦闘時においても\nそのスタンスは変わることなく…\n\n# textflame 1 1\n# textboxarrow 0 2\n@ラグナロク\n旗の持ち手…旗手は\n隊長の傍で旗を掲げ続けるものよ\n\n;;モノローグ\n# textflame 0 0\n@\n彼女はマスターの横で\n戦場の全てを観測し続けている\n\n# face 3103611 \"angry\"\n# textflame 1 1\n# textboxarrow 0 2\n@ラグナロク\n混沌とした戦場において\nその所在を明示する為に\n\n# textboxarrow 0 2\n@ラグナロク\nさぁ、それが意味することは？\n\n;;モノローグ\n# textflame 0 0\n@\nラグナロクの真意を\n測りかねるマスター\n\n# face 3103611 \"usual\"\n# textflame 1 1\n# textboxarrow 0 2\n@ラグナロク\n軍旗の存在は\nすなわち…\n\n# textboxarrow 0 2\n@ラグナロク\n敵対者からの格好の的となる\n\n;;モノローグ\n# textflame 0 0\n@\nマスターの血の気が引く\n\n;;モノローグ\n@\nラグナロクが入隊して以来\n戦闘は苛烈を極め続けていた\n\n;;モノローグ\n@\n本陣まで攻め込まれることも増え\nその度に他の斬ル姫が\n苦戦を強いられていた。つまり…\n\n# face 3103611 \"angry\"\n# textflame 1 1\n# textboxarrow 0 2\n@ラグナロク\n敵は全て\nこの旗につられて一直線に\nマスターのいる本陣を目指す\n\n# textboxarrow 0 2\n@ラグナロク\nバイブスによる共鳴と共感が\nこの世の救いとなるのか\n争いの火種となるのか…\n\n# textboxarrow 0 2\n@ラグナロク\nその火元を旗手である私が示すわ\nそうしてマスターの必要性を見極める\n\n;;モノローグ\n# textflame 0 0\n@\n空気がひりつく\nまるで喉元に何本もの剣が\n突きつけられているような\n\n# face 3103611 \"usual\"\n# textflame 1 1\n# textboxarrow 0 2\n@ラグナロク\n私はラグナロク・神令・ユグドラシル\n世界を見据え\n混沌をもたらすバイブスを否定する者\n\n# textboxarrow 0 2\n@ラグナロク\n共鳴したとはいえ見間違うな\nもはや、この手に握るは御旗ではない\n\n# voice 310361 \"ragnarok_c_0001\"\n# face 3103611 \"angry\"\n# textboxarrow 0 2\n@ラグナロク\nマスター\nお前達の墓標と知れ\n\n# textboxarrow 0 2\n@ラグナロク\n私を懐柔出来たと思ったか？\n私がお前の懐に入り込んだだけだ\n\n;;モノローグ\n# textflame 0 0\n@\n冷徹に\n突き放した視線がマスターを貫く\n\n# voice 310361 \"ragnarok_c_0008\"\n# face 3103611 \"happy\"\n# textflame 1 1\n# textboxarrow 0 2\n@ラグナロク\n───墓穴を掘ったな"
	}
]