[
	{
		"ID": 3161001,
		"script": "# script \"lisp\"\n# background \"psychopass\"\n# bgmfile \"bgm049\" \"BgmPPcollabo001\" 0\n# body 501211\n# pos 501211 3\n# mask 501211 off\n# textboxarrow 0 2\n# leftin 501211 1\n# chara 501211\n@霜月美佳\nこちらSHEPHERD2\n公園西口に到着しました\n\n# chara 501211\n@霜月美佳\n…はい\nまだドローンは到着していません\n今のところ異常は…\n\n# flush \"white\" 0.2 1\n# shake 1 0.5\n# face 501211 \"surprise\"\n# voice 5012 \"mika_battle_0008\"\n# chara 501211\n@霜月美佳\nきゃ！！！！！！\n\n# face 501211 \"mad\"\n# chara 501211\n@霜月美佳\nなに？　今の衝撃…\nまさか爆発物！　相手は爆弾魔？\n\n# chara 501211\n@霜月美佳\nやだ…そんなの聞いてないわよ…\nこっちは執行官もいないのに！\n\n# face 501211 \"sad\"\n# voice 5012 \"mika_0027\"\n# chara 501211\n@霜月美佳\n先輩のいる方…\n東口が当たりだったらいいのに…\n\n# voice 5012 \"mika_0008\"\n# chara 501211\n@霜月美佳\nやだ私…なに言ってるの…？\n\n# face 501211 \"surprise\"\n# voice 5012 \"mika_battle_0005\"\n# chara 501211\n@霜月美佳\n…！！\nは、はい！\nこちらSHEPHERD2！\n\n# face 501211 \"normal\"\n# chara 501211\n@霜月美佳\n…了解しました\nドローンが到着次第、突入します"
	}
]