[
	{
		"ID": 3180703,
		"script": "# script \"lisp\"\n# background \"road\"\n# bgm \"bgm004\" 0\n;;制服ティル準備\n# body 101441\n# pos 101441 3\n# body 401111\n# pos 401111 1\n# scale 101441 0.9 0\n# layer 101441 4\n# body 301511\n# pos 301511 5\n;;黒まんなか空き準備\n# imageset 2 \"bg_black_circle\"\n# imagepos 2 0 0\n# imagealpha 2 0 0\n# textboxarrow 0 2\n# chara 101441\n# face 101441 \"sad\"\n# face 401111 \"cry\"\n# face 301511 \"angry\"\n# voice 9941 \"fok_collabo2_0192_tyrufing\"\n@ティルフィング\n…はぁっ…はぁっ\n\n# serif 1\n# textboxarrow 1 1\n# chara 401111\n# voice 9941 \"fok_collabo2_0193_madoka\"\n@鹿目まどか\n大丈夫？\nティルちゃん\n\n;;QB準備\n# body 8\n# mask 8 off\n# pos 8 5\n# layer 8 5\n# alpha 8 0 0\n# serif 0\n# textboxarrow 0 3\n# chara 301511\n# voice 9941 \"fok_collabo2_0194_kyoko\"\n@佐倉杏子\nおい、どういうことだよ\nキュゥべえ！\n\n;;杏子退場\n# alpha 301511 0 0.5\n;;QB登場\n# alpha 8 1 0.5\n# serif 0\n# textboxarrow 0 3\n# chara 8\n# voice 9941 \"fok_collabo2_0195_kyube\"\n@キュゥべえ\nティルフィングに聞いた方が\n早いんじゃないかな？\n\n# serif 1\n# textboxarrow 1 1\n# chara 401111\n# voice 9941 \"fok_collabo2_0196_madoka\"\n@鹿目まどか\nティルちゃん\n\n# serif 0\n# textboxarrow 0 2\n# chara 101441\n# voice 9941 \"fok_collabo2_0197_tyrufing\"\n@ティルフィング\n…私はユグドラシルと呼ばれる\n世界から来ました\n\n# serif 0\n# textboxarrow 0 2\n# chara 101441\n# face 101441 \"angry1\"\n# voice 9941 \"fok_collabo2_0198_tyrufing\"\n@ティルフィング\nそしてその世界に…\n皆さんの仲間が迷い込んでいます\n\n# serif 1\n# textboxarrow 1 1\n# chara 401111\n# face 401111 \"surprise\"\n# voice 9941 \"fok_collabo2_0199_madoka\"\n@鹿目まどか\n仲間？\n\n;;QB退場\n# alpha 8 0 0.5\n;;杏子登場\n# alpha 301511 1 0.5\n# serif 0\n# textboxarrow 0 3\n# chara 301511\n# face 301511 \"angry\"\n# voice 9941 \"fok_collabo2_0200_kyoko\"\n@佐倉杏子\nどういうことだよ？\n\n# body 102011\n# pos 102011 1\n# alpha 102011 0 0\n# serif 1\n# textboxarrow 1 2\n# chara 101441\n# voice 9941 \"fok_collabo2_0201_tyrufing\"\n@ティルフィング\n思い出して下さい\nこの街の魔法少女は…\n皆さんだけですか？\n\n;;まどか退場\n# alpha 401111 0 0.5\n;;さやか準備\n# alpha 102011 1 0.5\n# serif 0\n# textboxarrow 0 1\n# chara 102011\n# voice 9941 \"fok_collabo2_0202_sayaka\"\n@美樹さやか\nは？\n\n# serif 1\n# textboxarrow 1 3\n# chara 301511\n# voice 9941 \"fok_collabo2_0203_kyoko\"\n@佐倉杏子\n当たり前だろ\nほかに誰が…\n\n;;フラッシュ\n# se \"SE_0623\"\n# flush \"white\" 0.2 1\n# leftout 101441 0\n# leftout 102011 0\n# leftout 301511 0\n# imagepos 2 0 0\n# imagealpha 2 1 0\n# background \"black\"\n;;ほむら準備\n# body 501311\n# pos 501311 3\n# mask 501311 off\n# textwindow \"close\"\n# serif 1\n# textboxarrow 1 0\n# chara 501311\n# voice 9941 \"fok_collabo2_0204_homura\"\n@暁美ほむら\nまどか…\n\n# background \"road\"\n;;元に戻す処理\n;;フラッシュ\n# flush \"white\" 0.1 1\n# imagepos 2 0 0\n# imagealpha 2 0 0\n;;さやか、杏子、まどか出す\n# pos 401111 3\n# layer 401111 4\n# alpha 401111 1 0\n# pos 301511 5\n# leftin 301511 0\n# pos 102011 1\n;;ほむら消す\n# leftout 501311 0\n# serif 1\n# textboxarrow 1 3\n# chara 401131\n# serif 1\n# textboxarrow 1 2\n# chara 401111\n# face 401111 \"worry\"\n# voice 9941 \"fok_collabo2_0205_madoka\"\n@鹿目まどか\n…ほむらちゃん？\n\n# textwindow \"nomal\"\n# serif 0\n# textboxarrow 0 0\n# chara 401111\n# face 301511 \"sad\"\n# face 102011 \"sad1\"\n# voice 9941 \"fok_collabo2_0206_sayaka\"\n# voice 9941 \"fok_collabo2_0207_kyoko\"\n@さやか＆杏子\n…っ！！\n\n# serif 1\n# textboxarrow 1 2\n# chara 401111\n# face 401111 \"cry\"\n# voice 9941 \"fok_collabo2_0208_madoka\"\n@鹿目まどか\n…ほむらちゃんと、マミさんだ\n\n# serif 0\n# textboxarrow 0 1\n# chara 102011\n# voice 9941 \"fok_collabo2_0209_sayaka\"\n@美樹さやか\nそうだ…\n\n# serif 1\n# textboxarrow 1 3\n# chara 301511\n# voice 9941 \"fok_collabo2_0210_kyoko\"\n@佐倉杏子\nな、なんでうちら、\nあいつらのこと忘れて…\n\n# serif 0\n# textboxarrow 0 2\n# chara 401111\n# face 401111 \"sad\"\n# voice 9941 \"fok_collabo2_0211_madoka\"\n@鹿目まどか\nほむらちゃんの力なの？\n\n;;さやか、まどか、杏子、消す\n# serif 0\n# textwindow \"close\"\n# serif 1\n# textwindow \"close\"\n# move 8 3 0\n# alpha 401111 0 0.7\n# alpha 301511 0 0.7\n# alpha 102011 0 0.7\n# textboxarrow 0 0\n# textboxarrow 1 0\n# waitandnext 1\n\n# serif 0\n# textwindow \"nomal\"\n# alpha 8 1 0.5\n# serif 0\n# textboxarrow 0 2\n# chara 8\n# voice 9941 \"fok_collabo2_0212_kyube\"\n@キュゥべえ\nいや、もっと強大な力だ"
	}
]