[
	{
		"ID": 3190102,
		"script": ";;▼Stage１デュエル中\n# script \"lisp\"\n;;ティル準備\n# body 101411\n# pos 101411 5\n# layer 101411 4\n# scale 101411 0.9 0\n;;ほむら準備\n# body 501311\n# pos 501311 3\n;;デュリン準備\n# body 0\n# pos 0 1\n# layer 0 1\n# serif 0\n# textboxarrow 0 1\n# chara 0\n# voice 9942 \"fok_collabo1_0014_durin\"\n# face 0 \"angry\"\n@デュリン\nどうなってんのよ！\n\n# serif 1\n# textboxarrow 1 3\n# chara 101411\n# voice 9942 \"fok_collabo1_0015_tyrufing\"\n# face 101411 \"angry\"\n@ティルフィング\nきりがありませんね…\n\n# serif 0\n# textboxarrow 0 1\n# chara 0\n# voice 9942 \"fok_collabo1_0016_durin\"\n@デュリン\nこんなときに、ほむらは！\n\n# serif 1\n# textboxarrow 1 2\n# chara 501311\n# voice 9942 \"fok_collabo1_0017_homura\"\n@暁美ほむら\nあの、私…\n\n;;ティル退場\n# rightout 101411 0.5\n# move 0 3 0.5\n# move 501311 5 0.5\n# textboxarrow 0 0\n# textboxarrow 1 0\n;;いぞく準備\n# body 810004\n# pos 810004 1\n# scale 810004 0.8 0\n# reversal 810004 0\n;;いぞく登場\n# leftin 810004 0.5\n# serif 0 \n# se \"SE_0617\"\n# textboxarrow 0 1\n# chara 810004\n@異族\nグギギギギギッギギ！\n\n# serif 1\n# voice 9942 \"fok_collabo1_0019_durin\"\n# textboxarrow 1 2\n# chara 0\n@デュリン　\nもう、バカ！\n\n;;フラッシュ\n# body 501411\n# pos 501411 1\n# alpha 501411 0 0\n# flush \"white\" 0.1 1\n# se \"SE_0628\"\n# waitandnext 1\n\n;;いぞく消す\n# alpha 810004 0 1\n# serif 1\n# voice 9942 \"fok_collabo1_0020_durin\"\n# textboxarrow 1 2\n# chara 0\n# face 0 \"normal\"\n@デュリン\n！！\n\n;;異族立ち絵OUT　マミ立ち絵IN\n;;マミ準備\n# alpha 501411 1 0.5\n# serif 0\n# voice 9942 \"fok_collabo1_0021_mami\"\n# textboxarrow 0 1\n# chara 501411\n@巴マミ\n随分手こずってるわね\n\n# serif 1\n# voice 9942 \"fok_collabo1_0022_durin\"\n# textboxarrow 1 2\n# chara 0\n# face 0 \"happy\"\n@デュリン\nマミ！\n\n# serif 0\n# voice 9942 \"fok_collabo1_0023_mami\"\n# textboxarrow 0 1\n# chara 501411\n# face 501411 \"happy\"\n@巴マミ　\nさぁ、一気に片付けちゃいましょう！"
	}
]