[
	{
		"ID": 3200603,
		"script": ";;背景　plain night\n# script \"lisp\"\n# background \"plain_evening\"\n# bgm \"bgm005\" 0\n;;マミ準備\n# body 501411\n# pos 501411 5\n;;ほむら準備\n# body 501311\n# pos 501311 1\n;;ティル準備\n# body 101411\n# pos 101411 3\n# scale 101411 0.9 0\n# layer 101411 4\n;;マミ台詞\n# serif 0\n# textboxarrow 0 3\n# chara 501411\n# voice 9940 \"fok_collabo3_0130_mami\"\n# face 501411 \"sad1\"\n# face 501311 \"amazed\"\n@巴マミ\n…どうして\nこの世界に使い魔がいるの？\n\n# serif 1\n# textboxarrow 1 2\n# chara 101411\n# voice 9940 \"fok_collabo3_0131_tyrufing\"\n@ティルフィング\nもうじきこの世界は、\nワルプルギスの夜によって\n崩壊へと導かれる\n\n# serif 0\n# textboxarrow 0 0\n# voice 9940 \"fok_collabo3_0132_homura\"\n# face 501311 \"surprise\"\n# face 501411 \"surprise\"\n@ほむら＆マミ\n！！\n\n# serif 1\n# textboxarrow 1 2\n# chara 101411\n# voice 9940 \"fok_collabo3_0134_tyrufing\"\n# face 101411 \"angry\"\n@ティルフィング\nワルプルギスの夜は、\nディメンションホールをこじ開け、\n皆さんが元いた世界も破壊するんです\n\n# serif 0\n# textboxarrow 0 3\n# chara 501411\n# voice 9940 \"fok_collabo3_0135_mami\"\n# face 501411 \"sad1\"\n# face 501311 \"sad\"\n@巴マミ\nそんな…\n\n# serif 1\n# textboxarrow 1 2\n# chara 101411\n# voice 9940 \"fok_collabo3_0136_tyrufing\"\n# face 101411 \"sad\"\n@ティルフィング\n私はその状況をこの目で見たんです\nしかし、ほむらさんの能力で、\n時を遡ったのです…\n\n# body 401111\n# pos 401111 3\n# alpha 401111 0 0\n# body 102011\n# pos 102011 5\n# alpha 102011 0 0\n# body 301511\n# pos 301511 1\n# alpha 301511 0 0\n;;ティル台詞\n# serif 1\n# textboxarrow 1 2\n# chara 101411\n# voice 9940 \"fok_collabo3_0137_tyrufing\"\n# face 101411 \"angry\"\n@ティルフィング\nそれをまどかさん達に伝えるために…\n\n;;みんな消す\n# alpha 501311 0 0.5\n# alpha 101411 0 0.5\n# alpha 501411 0 0.5\n# textboxarrow 1 0\n# textboxarrow 0 0\n# waitandnext 0.5\n\n;;3人出す\n# alpha 401111 1 0.5\n# alpha 102011 1 0.5\n# alpha 301511 1 0.5\n;;まどか台詞\n# serif 0\n# textboxarrow 0 2\n# chara 401111\n# voice 9940 \"fok_collabo3_0138_madoka\"\n# face 401111 \"usual\"\n@鹿目まどか\n未来のほむらちゃんからのメッセージ\nちゃんと受け取ったよ\nだから私達…この世界に来たんだ\n\n;;杏子台詞\n# serif 1\n# textboxarrow 1 1\n# chara 301511\n# voice 9940 \"fok_collabo3_0139_kyoko\"\n# face 301511 \"smile\"\n@佐倉杏子\n二つの世界を救うためにな\n\n;;さやか台詞\n# serif 0\n# textboxarrow 0 3\n# chara 102011\n# voice 9940 \"fok_collabo3_0140_sayaka\"\n# face 102011 \"smile\"\n@美樹さやか\nうん\n\n;;杏子さやか消す\n# alpha 301511 0 0.5\n# alpha 102011 0 0.5\n# move 401111 4 0.5\n# alpha 501311 1 0.5\n# move 501311 2 0\n;;ほむら台詞\n# serif 1\n# textboxarrow 1 1\n# chara 501311\n# voice 9940 \"fok_collabo3_0141_homura\"\n# face 501311 \"sad\"\n@暁美ほむら\n…バカ\n\n# serif 0\n# textboxarrow 0 3\n# chara 401111\n# voice 9940 \"fok_collabo3_0142_madoka\"\n# face 401111 \"surprise\"\n@鹿目まどか\nえ？\n\n# serif 1\n# textboxarrow 1 1\n# chara 501311\n# voice 9940 \"fok_collabo3_0143_homura\"\n# face 501311 \"amazed\"\n@暁美ほむら\n私が助けに来てなんて\n言うはずがない\n\n# serif 1\n# textboxarrow 1 1\n# chara 501311\n# voice 9940 \"fok_collabo3_0144_homura\"\n# face 501311 \"sad\"\n@暁美ほむら\nたぶん、あなた達に\n忠告したかっただけよ\n\n# serif 0\n# textboxarrow 0 3\n# chara 401111\n# voice 9940 \"fok_collabo3_0145_madoka\"\n# face 401111 \"happy\"\n@鹿目まどか\nだとしても、\n来ないわけがないじゃない\n\n# serif 1\n# textboxarrow 1 1\n# chara 501311\n# voice 9940 \"fok_collabo3_0146_homura\"\n# face 501311 \"surprise\"\n@暁美ほむら\n…………\n\n# serif 0\n# textboxarrow 0 3\n# chara 401111\n# voice 9940 \"fok_collabo3_0147_madoka\"\n# face 401111 \"usual\"\n@鹿目まどか\n私達、魔法少女は一緒だよ\n\n# serif 1\n# textboxarrow 1 1\n# chara 501311\n# voice 9940 \"fok_collabo3_0148_homura\"\n# face 501311 \"sad\"\n@暁美ほむら\n…………\n\n# move 101411 1 0\n# alpha 101411 1 0.5\n# move 501311 3 0.5\n# move 401111 5 0.5\n;;ティル台詞\n# serif 0\n# textboxarrow 0 1\n# textboxarrow 1 0\n# chara 101411\n# voice 9940 \"fok_collabo3_0149_tyrufing\"\n# face 101411 \"angry\"\n@ティルフィング\nさぁ、ディメンションホールへ\n向かいましょう\n\n# serif 0\n# textboxarrow 0 1\n# chara 101411\n# voice 9940 \"fok_collabo3_0150_tyrufing\"\n@ティルフィング\nもうじき、\nワルプルギスの夜が現れます\n\n# alpha 101411 0 0.5\n# alpha 301511 1 0.5\n;;杏子台詞\n# serif 1\n# textboxarrow 1 1\n# chara 301511\n# voice 9940 \"fok_collabo3_0151_kyoko\"\n# face 301511 \"angry\"\n@佐倉杏子\n食い止めなきゃな\n\n# serif 0\n# textboxarrow 0 3\n# chara 401111\n# voice 9940 \"fok_collabo3_0152_madoka\"\n@鹿目まどか\nうん"
	}
]