[
	{
		"ID": 320171201,
		"script": ";;悪魔ヤグルシ_EP1\n# script \"lisp\"\n# background \"plain\"\n# bgm \"bgm002\" 0\n# body 3201711\n# pos 3201711 3\n# mask 3201711 off\n# alpha 3201711 0 0\n# face 3201711 \"happy\"\n# textflame 0 0\n@\n新しくマスターの隊に入った姫、\nヤグルシ\n\n# textflame 0 0\n@\nケイオスリオンにいた彼女は、\n悪魔バエルの力を内包している\n\n# textflame 0 0\n@\nその力とは…\n\n;;※姿は見えず、セリフのみ\n# textflame 1 1\n# textboxarrow 0 0\n# chara 3201711\n# voice 320171 \"yagurushi_a_0020\"\n@ヤグルシ\nうふふふふ…\n\n# textflame 0 0\n@\nお～い、ヤグルシ～\nどこにいるの～？\n彼女を探すマスター\n\n# textflame 0 0\n@\nすると、どこからともなく\n『ゲコゲコ』と現れるカエル\nマスターが近づくと…\n\n# fadein \"black\" 0.5\n# alpha 3201711 1 0\n# textflame 1 1\n# textboxarrow 0 2\n# chara 3201711\n# voice 320171 \"yagurushi_a_0006\"\n@ヤグルシ\nばぁぁぁぁっ！\n\n# textflame 0 0\n@\nカエルが突如、ヤグルシの姿に！\n\n# textflame 0 0\n@\nわぁぁぁぁぁっ！\n驚き、\n腰を抜かしてしまうマスター\n\n# textflame 1 1\n# textboxarrow 0 2\n# chara 3201711\n# voice 320171 \"yagurushi_a_0005\"\n@ヤグルシ\nあははは！\nマスター、ビックリし過ぎぃ～！\n今のはヤグの変身能力だよ～\n\n# alpha 3201711 0 0.5\n# textflame 0 0\n@\n変身能力でイタズラを仕掛ける彼女\n\n# textflame 0 0\n@\nそして、またある時は…\n\n;;※姿は見せず、セリフのみ\n# textflame 1 1\n# textboxarrow 0 0\n# chara 3201711\n@ヤグルシ\n…ふぅぅぅ\n\n;;※姿が現れ、\n# fadein \"black\" 0.5\n# alpha 3201711 1 0\n# face 3201711 \"normal\"\n# textflame 1 1\n# textboxarrow 0 2\n# chara 3201711\n@ヤグルシ\nこっちだよ！敵さん！！\n\n# textflame 0 0\n@\nステルス能力で身を隠し、\nいきなり現れ、敵を攪乱\n\n# fadein \"white\" 0.5\n# shake 0 0.5\n# se \"SE_4762\"\n# face 3201711 \"angry\"\n# textflame 1 1\n# textboxarrow 0 2\n# chara 3201711\n@ヤグルシ\nえぇぇぇぇいっ！！\n\n# textflame 0 0\n@\nそうした上で攻撃を加えるなど\n彼女の内包された悪魔の能力は、\n色んな場面で活かされていた\n\n# textflame 1 1\n# textboxarrow 0 2\n# chara 3201711\n@ヤグルシ\nどう！？\nこれがバエルを取り込んだヤグの、\n闇の斧の味だよ！\n\n# textflame 0 0\n@\nわぁぁっ！と、\n勝利に沸く隊の姫たち\n\n# face 3201711 \"happy\"\n# textflame 1 1\n# textboxarrow 0 2\n# chara 3201711\n# voice 320171 \"yagurushi_a_0021\"\n@ヤグルシ\nみんな！次もがんばろうね！\nエイエイオ～！\n\n# textflame 0 0\n@\nその実力と明るい性格で、\n彼女は隊の仲間の信頼も厚かった\n\n# textflame 0 0\n@\nしかし…\n\n# face 3201711 \"sad\"\n# textflame 1 1\n# textboxarrow 0 2\n# chara 3201711\n@ヤグルシ\n………\n\n# textflame 0 0\n@\nどうしたの？と、声を掛けるマスター\n\n# face 3201711 \"surprise\"\n# textflame 1 1\n# textboxarrow 0 2\n# chara 3201711\n# voice 320171 \"yagurushi_a_0022\"\n@ヤグルシ\n…え？なに、なに？\n\n# textflame 1 1\n# textboxarrow 0 2\n# chara 3201711\n# voice 320171 \"yagurushi_a_0008\"\n@ヤグルシ\nそ、そんな…\n別に気に掛かること\nなんてないよ\n\n# face 3201711 \"happy\"\n# textflame 1 1\n# textboxarrow 0 2\n# chara 3201711\n# voice 320171 \"yagurushi_a_0003\"\n@ヤグルシ\nヤグは大丈夫！だよ\n\n# textflame 0 0\n@\nその笑顔が、\n空元気でなければ\nいいのだが…\n\n# textflame 0 0\n@\nマスターは、\n彼女が時折見せる\n寂しげな目が気になっていた\n\n# face 3201711 \"sad\"\n# textflame 1 1\n# textboxarrow 0 2\n# chara 3201711\n@ヤグルシ\n………\n\n# fadeout \"black\" 1.5\n# waitandnext 1.5\n\n# background \"town_night\"\n# alpha 3201711 0 0\n# waitandnext 0.6\n\n# fadein \"black\" 1\n# textflame 0 0\n@\nそんなある夜…\n\n# textflame 0 0\n@\n…！\nヤグルシ…？\n\n# textflame 0 0\n@\nマスターの予感は\n的中していたのか…\n\n# textflame 0 0\n@\n彼女は部屋から\n忽然と姿を消していた…"
	}
]