[
	{
		"ID": 320171202,
		"script": ";;悪魔ヤグルシ_EP2\n# script \"lisp\"\n# background \"town_night\"\n# bgm \"bgm002\" 0\n# body 3201711\n# pos 3201711 3\n# mask 3201711 off\n# alpha 3201711 0 0\n# face 3201711 \"sad\"\n# imageset 2 \"bg_white_circle\"\n# imagealpha 2 0 0\n# imagescale 2 1.2 0\n# textflame 0 0\n@\n部屋から姿を消したヤグルシ\n\n# imagepos 2 0 0 0\n# textflame 0 0\n@\n隊のメンバーは、\nまたステルス能力で隠れてるんじゃ\nないの？…と、気にも留めない\n\n# textflame 0 0\n@\n確かにあんなに明るい彼女が\n家出するとは誰も考えないだろう\n\n;;※フラッシュ\n# fadeout \"black\" 1.5\n# waitandnext 1.5\n\n# background \"plain\"\n# alpha 3201711 1 0\n# imagealpha 2 1 0\n# waitandnext 0.6\n\n# fadein \"black\" 1\n# textflame 1 1\n# textboxarrow 0 2\n# chara 3201711\n@ヤグルシ\nそ、そんな…\n別に気に掛かること\nなんてないよ\n\n# fadein \"white\" 0.5\n# imagealpha 2 0 0\n# background \"town_night\"\n# alpha 3201711 0 0\n# textflame 0 0\n@\nしかし、その悲しげな目を\n見ていたマスターは\n彼女を探しに出るのだった\n\n# fadeout \"black\" 1.5\n# waitandnext 1.5\n\n# background \"plain_night\"\n# alpha 3201711 1 0\n# waitandnext 0.6\n\n# fadein \"black\" 1\n# textflame 0 0\n@\nある場所─\n\n# textflame 1 1\n# textboxarrow 0 2\n# chara 3201711\n@ヤグルシ\n………\n\n# textflame 1 1\n# textboxarrow 0 2\n# chara 3201711\n@ヤグルシ\n……うぅ\n\n# textflame 1 1\n# textboxarrow 0 2\n# chara 3201711\n@ヤグルシ\n…お姉ちゃん\n\n# textflame 0 0\n@\n一人佇むヤグルシ\nそこにマスターの声が\n聞こえてきた\n\n# select \"お～い、ヤグルシ～！\" \"select_label_01\" \"ヤグルシ、出てきてよ～！\" \"select_label_02\" \"ヤグルシ、姿を見せてよ～！\" \"select_label_03\"\n一人佇むヤグルシ\nそこにマスターの声が\n聞こえてきた\n\n# label \"select_label_01\"\n# labeljump \"select_label_end\"\n# face 3201711 \"surprise\"\n# textflame 1 1\n# textboxarrow 0 2\n# chara 3201711\n# voice 320171 \"yagurushi_a_0022\"\n@ヤグルシ\n…！マ、マスター…\n\n# label \"select_label_02\"\n# labeljump \"select_label_end\"\n# face 3201711 \"surprise\"\n# textflame 1 1\n# textboxarrow 0 2\n# chara 3201711\n# voice 320171 \"yagurushi_a_0022\"\n@ヤグルシ\n…！ど、どうして、ここが…？\n\n# label \"select_label_03\"\n# labeljump \"select_label_end\"\n# face 3201711 \"surprise\"\n# textflame 1 1\n# textboxarrow 0 2\n# chara 3201711\n# voice 320171 \"yagurushi_a_0022\"\n@ヤグルシ\n…！マスター、もしかして…\n\n# label \"select_label_end\"\n# textflame 0 0\n@\n探し回っているマスターを見て、\n\n;;モヤモヤ吹き出し\n# face 3201711 \"shy\"\n# serif 0\n# textwindow \"close\"\n# move 3201711 3 0\n# serif 1\n# textwindow \"moya\"\n# textboxarrow 0 0\n# chara 3201711\n@ヤグルシ\nマスター…\nヤグのこと…\n探しに来てくれたの…\n\n;;モヤモヤ吹き出し\n# face 3201711 \"sad\"\n# serif 0\n# textwindow \"close\"\n# move 3201711 3 0\n# serif 1\n# textwindow \"moya\"\n# textboxarrow 0 0\n# chara 3201711\n# voice 320171 \"yagurushi_a_0031\"\n@ヤグルシ\nでも…ごめんね\n\n# alpha 3201711 0 0.5\n# serif 1\n# textwindow \"close\"\n# serif 0\n# textwindow \"normal\"\n# textflame 0 0\n@\n悪魔バエルの能力でネコに変身し、\nその場から逃げるヤグルシ\n\n# textflame 0 0\n@\nあ！もしかして…\nヤグルシ！？\n\n;;※姿は見えず、セリフのみ\n# textflame 1 1\n# textboxarrow 0 0\n# chara 3201711\n@ヤグルシ\n！！\n\n# textflame 0 0\n@\nきみ…ヤグルシじゃないの！？\nネコになった彼女に\n必死に声をかけるマスター\n\n;;※姿は見えず、セリフのみ\n# textflame 1 1\n# textboxarrow 0 0\n# chara 3201711\n@ヤグルシ\n………\n\n# textflame 0 0\n@\nねぇ？そうなんでしょ！？\n\n# textflame 0 0\n@\nマスターの熱意に根負けした彼女が、\nその場に姿を現した\n\n;;※姿が見えて\n# alpha 3201711 1 0.5\n# textflame 1 1\n# textboxarrow 0 2\n# chara 3201711\n@ヤグルシ\n…正解…だよ\n\n# textflame 0 0\n@\nやっぱり！\n良かったぁ、見つかって…\nマスターが安堵の表情を見せる\n\n# face 3201711 \"usual\"\n# textflame 1 1\n# textboxarrow 0 2\n# chara 3201711\n# voice 320171 \"yagurushi_a_0001\"\n@ヤグルシ\nねぇ、マスター\nどうしてヤグだって分かったの？\n\n# textflame 0 0\n@\nいや、分からなかった\n\n# face 3201711 \"surprise\"\n# textflame 1 1\n# textboxarrow 0 2\n# chara 3201711\n# voice 320171 \"yagurushi_a_0022\"\n@ヤグルシ\nえ？だって…\n\n# textflame 0 0\n@\nだから、\nきみが行きそうな場所を\n手当たり次第、探したんだ\n\n# face 3201711 \"usual\"\n# textflame 1 1\n# textboxarrow 0 2\n# chara 3201711\n@ヤグルシ\n…手当たり次第？\n\n# textflame 0 0\n@\nでも、どこにもいないし…\n\n# textflame 0 0\n@\nもしかしたらと思って、\n一か八かで声を掛けてみたんだ\nこの間のカエルのこともあるしね\n\n# face 3201711 \"surprise\"\n# textflame 1 1\n# textboxarrow 0 2\n# chara 3201711\n@ヤグルシ\n…あ！\n\n# textflame 0 0\n@\n見ると、\nマスターの足元は\n泥だらけになっていた\n\n# face 3201711 \"sad\"\n# textflame 1 1\n# textboxarrow 0 2\n# chara 3201711\n@ヤグルシ\nどうして、そこまで…\nヤグのために\n\n# textflame 0 0\n@\n寂しい想いはさせたくないからね\nそう答えるマスター\n\n# face 3201711 \"surprise\"\n# textflame 1 1\n# textboxarrow 0 2\n# chara 3201711\n@ヤグルシ\n…！\n\n# face 3201711 \"sad\"\n# textflame 1 1\n# textboxarrow 0 2\n# chara 3201711\n# voice 320171 \"yagurushi_a_0037\"\n@ヤグルシ\nヤグが…\n寂しがってると\n思ったの…？\n\n# textflame 0 0\n@\nそんな目をしていたから\n\n# textflame 1 1\n# textboxarrow 0 2\n# chara 3201711\n@ヤグルシ\n…マスター\n\n# textflame 0 0\n@\nその優しさに打たれた彼女は、\n胸の内を語り始めた\n\n;;【EP3】\n# textflame 0 0\n@\n自分の過去を話し始めるヤグルシ\n\n# textflame 1 1\n# textboxarrow 0 2\n# chara 3201711\n@ヤグルシ\nみんなの前から姿を消して、\nここにいたのはね…\n\n# textflame 1 1\n# textboxarrow 0 2\n# chara 3201711\n@ヤグルシ\n“お姉ちゃん”を探してたから\n\n# textflame 0 0\n@\n彼女の姉とは、\n同じく斬ル姫の\nアイムールのことである\n\n# face 3201711 \"usual\"\n# textflame 1 1\n# textboxarrow 0 2\n# chara 3201711\n@ヤグルシ\nヤグは昔から…\nお姉ちゃんが大好きだった\n\n# textflame 1 1\n# textboxarrow 0 2\n# chara 3201711\n@ヤグルシ\nケイオスリオンに使役されてた頃は…\n\n# face 3201711 \"normal\"\n# textflame 1 1\n# textboxarrow 0 2\n# chara 3201711\n@ヤグルシ\nお姉ちゃんに「助けてもらいたい」…\n\n# textflame 1 1\n# textboxarrow 0 2\n# chara 3201711\n@ヤグルシ\nお姉ちゃんを\n「独り占めしたい！」って\n気持ちが大きかった…\n\n# face 3201711 \"usual\"\n# textflame 1 1\n# textboxarrow 0 2\n# chara 3201711\n@ヤグルシ\nでも解放された今は……\n\n# face 3201711 \"shy\"\n# textflame 1 1\n# textboxarrow 0 2\n# chara 3201711\n@ヤグルシ\nこんなことも出来るようになったよ！\n…って、\nしっかりしたヤグを見せたいの\n\n# face 3201711 \"sad\"\n# textflame 1 1\n# textboxarrow 0 2\n# chara 3201711\n# voice 320171 \"yagurushi_a_0015\"\n@ヤグルシ\nでも、お姉ちゃんは\n単独行動を好むし、\n今は会えないから寂しい…\n\n# textflame 0 0\n@\nマスターが旅を始めて\nまだ間もないこともあり、\n\n# textflame 0 0\n@\nヤグルシは姉のアイムールとは\n出会えていなかったのだ\n\n# textflame 1 1\n# textboxarrow 0 2\n# chara 3201711\n# voice 320171 \"yagurushi_a_0028\"\n@ヤグルシ\nヤグは…お姉ちゃんに\n「強くなったよ！」「成長したよ！」\nって、とこを見せたいのに…\n\n# face 3201711 \"normal\"\n# textflame 1 1\n# textboxarrow 0 2\n# chara 3201711\n@ヤグルシ\nお姉ちゃんはヤグのすべてだから…\n\n# face 3201711 \"sad\"\n# textflame 1 1\n# textboxarrow 0 2\n# chara 3201711\n# voice 320171 \"yagurushi_a_0037\"\n@ヤグルシ\nだから、お姉ちゃんがいない\nこの世界に…\nヤグの居場所はないの…\n\n# textflame 0 0\n@\n明るく振る舞っていたが、\n大きな寂しさを抱えていたヤグルシ\n\n# textflame 0 0\n@\nそんな彼女にマスターは…\n\n# select \"お姉ちゃんの代わりは出来ないけど…\" \"select_label_04\" \"お姉ちゃんには勝てないけど…\" \"select_label_05\" \"頼りないマスターだけど…\" \"select_label_06\"\nそんな彼女にマスターは…\n\n# label \"select_label_04\"\n# labeljump \"select_label_end2\"\n# face 3201711 \"surprise\"\n# textflame 1 1\n# textboxarrow 0 2\n# chara 3201711\n@ヤグルシ\nえ？なに、マスター？\n\n# label \"select_label_05\"\n# labeljump \"select_label_end2\"\n# face 3201711 \"surprise\"\n# textflame 1 1\n# textboxarrow 0 2\n# chara 3201711\n@ヤグルシ\nえ？なにが…？\n\n# label \"select_label_06\"\n# labeljump \"select_label_end2\"\n# face 3201711 \"surprise\"\n# textflame 1 1\n# textboxarrow 0 2\n# chara 3201711\n@ヤグルシ\nえ？どうしたの…？\n\n# label \"select_label_end2\"\n# textflame 0 0\n@\nきみの話を聞くくらいなら…\n相手になってあげるくらいなら…\nいつでもするからね\n\n# textflame 1 1\n# textboxarrow 0 2\n# chara 3201711\n@ヤグルシ\n…！\n\n# textflame 0 0\n@\nだから姿を消さないで…\n居場所が無いなんて言わないで…\nいつでも話を聞かせて欲しい\n\n# textflame 0 0\n@\n僕も一緒に…\nきみの居場所を探していきたいんだ\n\n# face 3201711 \"shy\"\n# textflame 1 1\n# textboxarrow 0 2\n# chara 3201711\n# voice 320171 \"yagurushi_a_0001\"\n@ヤグルシ\n……マスター\n\n# textflame 1 1\n# textboxarrow 0 2\n# chara 3201711\n# voice 320171 \"yagurushi_a_0030\"\n@ヤグルシ\n…ありがとう\n\n# textflame 0 0\n@\n寂しげだった彼女が、\n柔らかく微笑む\n\n# face 3201711 \"usual\"\n# textflame 1 1\n# textboxarrow 0 2\n# chara 3201711\n@ヤグルシ\nケイオスリオンにいた頃は、\nバエルの力で\n隊を統率したりもしてたけど…\n\n# face 3201711 \"shy\"\n# textflame 1 1\n# textboxarrow 0 2\n# chara 3201711\n# voice 320171 \"yagurushi_a_0004\"\n@ヤグルシ\nここではマスターに\n頼ることができるんだね\n\n# textflame 1 1\n# textboxarrow 0 2\n# chara 3201711\n@ヤグルシ\nヤグを気にかけて、\n探し回ってくれる\nマスターの元なら…\n\n# face 3201711 \"angry\"\n# textflame 1 1\n# textboxarrow 0 2\n# chara 3201711\n@ヤグルシ\nヤグはもっともっと…\n力を出せる！！\n\n# face 3201711 \"normal\"\n# textflame 1 1\n# textboxarrow 0 2\n# chara 3201711\n@ヤグルシ\n悪魔バエルは\n人に力や知恵を\n与えることができるの！\n\n# face 3201711 \"angry\"\n# textflame 1 1\n# textboxarrow 0 2\n# chara 3201711\n# voice 320171 \"yagurushi_a_0003\"\n@ヤグルシ\nヤグも、そうなれるように…\nがんばるよ！\n\n# textflame 0 0\n@\n新たな力を解放する彼女\n\n# se \"SE_0602\"\n# textflame 0 0\n@\nそれは新スキル\n『幻惑の破滅\n　-グッドスマイル-』\n\n# textflame 0 0\n@\n誕生の瞬間だった\n\n# face 3201711 \"usual\"\n# textflame 1 1\n# textboxarrow 0 2\n# chara 3201711\n# voice 320171 \"yagurushi_a_0002\"\n@ヤグルシ\nで、マスター\n寂しいヤグの相手を\nしてくれるって言ったけど…\n\n# textflame 1 1\n# textboxarrow 0 2\n# chara 3201711\n@ヤグルシ\nどうするの？\n\n# textflame 0 0\n@\n寂しい時はパーッと遊ぼうよ！\nと、答えるマスター\n\n# face 3201711 \"surprise\"\n# textflame 1 1\n# textboxarrow 0 2\n# chara 3201711\n# voice 320171 \"yagurushi_a_0022\"\n@ヤグルシ\n遊ぶって…\nこんなに真っ暗なのに？\n\n# textflame 0 0\n@\n…あ\nもう…どこも\n開いてるとこ無いね…\n\n# textflame 0 0\n@\n夢中で彼女を探してたので、\nすっかり夜も更けてたことに\n気付かなかったマスターだった\n\n# face 3201711 \"happy\"\n# textflame 1 1\n# textboxarrow 0 2\n# chara 3201711\n# voice 320171 \"yagurushi_a_0005\"\n@ヤグルシ\nあはは！\nも～マスターって、\nヤグよりドジなんじゃないの？\n\n# face 3201711 \"shy\"\n# textflame 1 1\n# textboxarrow 0 2\n# chara 3201711\n@ヤグルシ\nでも…\nそんなとこも大好き！\n\n# face 3201711 \"happy\"\n# textflame 1 1\n# textboxarrow 0 2\n# chara 3201711\n@ヤグルシ\n行こ！\nこの先の丘で\n星でも見ようよ！\n\n# imageset 0 \"c3201711\"\n# imagealpha 0 0 0\n# imagelayer 0 1\n# textflame 0 0\n@\nマスターの手を引いてゆくヤグルシ\n自分の居場所を見つけた彼女は、\nとても嬉しそうだった\n\n;;yagurushi_a_kyara_0025\n;;ヤグルシ　「うう、どうしちゃったんだろう。\n;;マスターの事を考えると、胸がいっぱいになっていく」\n# imagealpha 0 1 0\n# imagepos 0 0 0 \n# fadein \"white\" 3\n# voice 320171 \"yagurushi_a_kyara_0025\"\n# textwindow \"close\"\n\n"
	}
]