[
	{
		"ID": 320293213,
		"script": ";;-----------------------------------------\n;;【ファントムオブキル_Re:ゼロコラボ】レムウェディングVer.\n;;【EP2】戦闘後\n;;スクリプト最後の背景：草原\n;;背景：草原\n;;-----------------------------------------\n# script \"lisp\"\n# background \"plain\"\n# bgmfile \"bgm270\" \"BgmLostRagnarokEvent\" 0\n;;-----------------------------------------\n;;レムウェディング\n# body 3202931\n# pos 3202931 3\n# scale 3202931 0.8 0\n# layer 3202931 2\n# alpha 3202931 0 0\n# mask 3202931 off\n;;-----------------------------------------\n;;レムウェディング一枚絵\n# imageset 0 \"c3202931\"\n# imagelayer 0 3\n# imagealpha 0 0 0\n;;-----------------------------------------\n;;背景：草原など\n;;演出：レムウェディング衣装\n# move 3202931 3 0\n# face 3202931 \"angry\"\n# alpha 3202931 1 0\n# mask 3202931 off\n# textflame 1 1\n# textboxarrow 0 2\n@レム\nた、大変ですマスター様！\nレムはとんでもないことを\nしてしまいました！\n\n;;モノローグ\n# textflame 0 0\n@\nその姿を見ればわかる、とマスター\nレムはドレスのまま\n戦ってしまったのだった\n\n# serif 1\n@おばさん\nあははっ！\nずいぶんと派手にやったねぇ！\n\n# voice 320293 \"remu_0031\"\n# face 3202931 \"sad\"\n# textflame 1 1\n# textboxarrow 0 2\n@レム\nご、ごめんなさい！\nどうお詫びしたらいいか…\n\n# serif 1\n@おばさん\nあんたたちは花畑とあたしを\n助けてくれたんだ\nむしろお礼をしなきゃだね！\n\n;;モノローグ\n# textflame 0 0\n@\nおばさんはあはは、と笑うと\nレムにそのドレスはあげると言った\n\n# serif 1\n@おばさん\nせっかくだから\nそのまま花畑行ってきなさいな！\n\n# voice 320293 \"remu_0003\"\n# face 3202931 \"normal\"\n# textflame 1 1\n# textboxarrow 0 2\n@レム\n…はいっ！\nありがとうございます！\n\n;;演出：移動の暗転\n;;\n;;背景：草原など\n# serif 1\n# textwindow \"close\"\n# serif 0\n# textwindow \"close\"\n# fadeout \"black\" 1\n# waitandnext 1.2\n\n# move 3202931 3 0\n# face 3202931 \"normal\"\n# alpha 3202931 1 0\n# mask 3202931 off\n# waitandnext 0.2\n\n# fadein \"black\" 1\n# waitandnext 1\n\n# bgmfile \"bgm272\" \"BgmLostRagnarokEvent\" 0\n# textboxarrow 0 2\n# textwindow \"normal\"\n@レム\nなんだか急にいろんなことが起きて\n不安だとか、全部どこかに\n行ってしまいました\n\n;;モノローグ\n# textflame 0 0\n@\n本当に大丈夫？\nとレムを心配するマスター\n\n# textflame 1 1\n# textboxarrow 0 2\n@レム\n大丈夫なんです\n\n# textboxarrow 0 2\n@レム\nあの女性が困っていると聞いて\nすぐ何かできないかと\nお考えになるマスター様\n\n# textboxarrow 0 2\n@レム\nレムの元気がないからと心配して\n気分転換の方法を考えてくださる\nマスター様\n\n# textboxarrow 0 2\n@レム\nなんだか、一人でくよくよと\n悩んでいたレムがバカみたいです\nダメダメでしたね\n\n;;モノローグ\n# textflame 0 0\n@\nダメなことはない、とマスター\n頼ってくれるのに遅いも早いもない\n仲間なんだから、と\n\n# voice 320293 \"remu_0004\"\n# face 3202931 \"smile\"\n# textflame 1 1\n# textboxarrow 0 2\n@レム\nふふっ、そうやってマスター様は\nずっとレムのことを仲間と認めて\nくださっていたんですよね\n\n# face 3202931 \"normal\"\n# textboxarrow 0 2\n@レム\nレムは弱いですから\n頼ってしまったらどこまでも\n甘えてしまうって思っていました\n\n# textboxarrow 0 2\n@レム\nでも、仲間に頼るということは\n決して甘えなんかじゃないんですね\n\n;;モノローグ\n# textflame 0 0\n@\nマスター達という仲間がいると\n気付いたレムは今までの不安を\n吹き飛ばし、本来の自分を取り戻した\n\n;;モノローグ\n# se \"SE_0602\"\n@\nそして新スキル\n『真摯な想い』\nがレムの力となった\n\n# face 3202931 \"smile\"\n# textflame 1 1\n# textboxarrow 0 2\n@レム\nこの世界に来てレムは少しだけ\n変われたかもしれません\n\n# face 3202931 \"normal\"\n# textboxarrow 0 2\n@レム\nマスター様たちと踏み出す\nレムの新しい一歩…\n\n# voice 320293 \"remu_0004\"\n# textboxarrow 0 2\n@レム\nこのドレスがそのきっかけ、なんて\nまるで本当の嫁入りみたいですね\n\n;;モノローグ\n# textflame 0 0\n@\nふふふっ、と無邪気に笑うレム\nマスターもまた笑顔で応えるのだった\n\n;;＜一枚絵＞\n;;背景：花畑（昼）\n;;　　　　　　\n;;表情：少し頬を染め、嬉しそうに微笑んでいます。\n;;\n;;構図：風で吹き上がった花びらに両手を添え、マスターに微笑みかけています。\n;;　　　頭に被ったベールと前髪が風で巻き上がり、隠れた片目がやや見えているイメージです。\n;;\n;;\n;;＜一枚絵ボイス＞\n;;「ここから、始めましょう。\n;;  一から……いいえ、ゼロから」\n;;ファイル名：remu_kyara_0025\n;;ホワイトアウト\n# textflame 0 0\n# imagealpha 0 1 0\n# imagepos 0 0 0\n# fadein \"white\" 3\n# buttonsout 0 0\n# textwindow \"close\"\n# voice 320293 \"remu_kyara_0025\"\n\n# frameout 0 1\n\n# waitandnext 0.8\n\n# fadeout \"black\" 1.5\n# waitandnext 1.5"
	}
]