[
	{
		"ID": 330071202,
		"script": ";;幻獣ゲイボルグ_EP2\n# script \"lisp\"\n# background \"plain\"\n# bgm \"bgm005\" 0\n# body 3300711\n# pos 3300711 2\n# scale 3300711 0.8 0\n# body 3500111\n# pos 3500111 4\n# scale 3500111 0.8 0\n# layer 3300711 2\n# layer 3500111 1\n# face 3300711 \"angry\"\n# face 3500111 \"angry\"\n# textflame 0 0\n@\n突如 攻撃を仕掛けられ、\n同じ隊のケラウノスと\n戦う事になったゲイボルグ\n\n# textflame 0 0\n@\n彼女が、ケラウノスに問いただす\n\n# textflame 1 1\n# textboxarrow 0 1\n# chara 3300711\n# voice 330071 \"gaiborugu_ge_0017\"\n@ゲイボルグ\n私が…弱いだと！？\n\n# se \"SE_4200\"\n# textflame 0 0\n@\nそう叫び槍を振るが、\nまるで歯が立たない\n\n# textflame 1 1\n# textboxarrow 0 3\n# chara 3500111\n# voice 350011 \"keraunosu_ge_0007\"\n@ケラウノス\nどうしたの？そんなもの！？\n\n# face 3300711 \"sad\"\n# textflame 1 1\n# textboxarrow 0 1\n# chara 3300711\n# voice 330071 \"gaiborugu_ge_0015\"\n@ゲイボルグ\nくっ！な、なぜだ…！？\nケルベロスを獣刻された\nこの私が…！？\n\n# face 3500111 \"normal\"\n# textflame 1 1\n# textboxarrow 0 3\n# chara 3500111\n@ケラウノス\n知りたい？\n\n# textflame 0 0\n@\n戦闘のさなか、\nケラウノスがゲイボルグに語り掛ける\n\n# textflame 1 1\n# textboxarrow 0 3\n# chara 3500111\n@ケラウノス\n私に獣刻されたのは\nガイアの“怒り”テュポーン\n\n# face 3500111 \"sad\"\n# textflame 1 1\n# textboxarrow 0 3\n# chara 3500111\n@ケラウノス\nその怒りの大きさは、\n自分でも制御できなくなるほど\n\n# face 3500111 \"normal\"\n# textflame 1 1\n# textboxarrow 0 3\n# chara 3500111\n@ケラウノス\nあなたもそんな私に似て、\nケルベロスの持つ残虐性を\n抑えられなくなるようだけど…\n\n# face 3300711 \"usual\"\n# textflame 1 1\n# textboxarrow 0 1\n# chara 3300711\n@ゲイボルグ\n…………\n\n# textflame 1 1\n# textboxarrow 0 3\n# chara 3500111\n@ケラウノス\nでも、それでも私には勝てないよ\n\n# face 3300711 \"surprise\"\n# textflame 1 1\n# textboxarrow 0 1\n# chara 3300711\n@ゲイボルグ\nな、なぜだ！？\n\n# textflame 1 1\n# textboxarrow 0 3\n# chara 3500111\n@ケラウノス\nそれはキミが…\n\n# textflame 1 1\n# textboxarrow 0 3\n# chara 3500111\n@ケラウノス\n“一人”で戦っているから\n\n# textflame 1 1\n# textboxarrow 0 1\n# chara 3300711\n# voice 330071 \"gaiborugu_ge_0022\"\n@ゲイボルグ\n！！\n\n# face 3300711 \"sad\"\n# textflame 1 1\n# textboxarrow 0 1\n# chara 3300711\n@ゲイボルグ\n…一人…だと？\n\n# textflame 1 1\n# textboxarrow 0 3\n# chara 3500111\n@ケラウノス\nそう\n\n# textflame 1 1\n# textboxarrow 0 1\n# chara 3300711\n# voice 330071 \"gaiborugu_ge_0015\"\n@ゲイボルグ\nずっと…\n\n# face 3300711 \"angry\"\n# bgm \"bgm004\" 0\n# textflame 1 1\n# textboxarrow 0 1\n# chara 3300711\n@ゲイボルグ\n一人だったはずだ！\n\n# face 3500111 \"surprise\"\n# textflame 1 1\n# textboxarrow 0 3\n# chara 3500111\n@ケラウノス\n…！\n\n# textflame 1 1\n# textboxarrow 0 1\n# chara 3300711\n@ゲイボルグ\nトレイセーマでは…\nずっと一人で戦ってきただろう！？\n\n# textflame 1 1\n# textboxarrow 0 1\n# chara 3300711\n@ゲイボルグ\n使役から解放されたとはいえ、\nそれは今も変わらないはず！\n違うのか！？\n\n# face 3500111 \"normal\"\n# textflame 1 1\n# textboxarrow 0 3\n# chara 3500111\n@ケラウノス\nどういうこと？\n\n# face 3300711 \"usual\"\n# textflame 1 1\n# textboxarrow 0 1\n# chara 3300711\n@ゲイボルグ\n私は…トレイセーマに\n３つの頭を持つ三位一体の魔獣・\nケルベロスを獣刻された\n\n# face 3300711 \"sad\"\n# textflame 1 1\n# textboxarrow 0 1\n# chara 3300711\n@ゲイボルグ\nそれがきっかけで…\n私の中にも３つの人格が\n棲みつくようになったんだ\n\n# textflame 1 1\n# textboxarrow 0 1\n# chara 3300711\n# voice 330071 \"gaiborugu_ge_0015\"\n@ゲイボルグ\n私は…分からなくなった\n本当の自分は…どれなのか\n\n# textflame 1 1\n# textboxarrow 0 1\n# chara 3300711\n@ゲイボルグ\nケルベロスにより力は得たが、\n己を失ってしまったんだ…\n\n# textflame 1 1\n# textboxarrow 0 3\n# chara 3500111\n@ケラウノス\n…………\n\n# face 3300711 \"usual\"\n# textflame 1 1\n# textboxarrow 0 1\n# chara 3300711\n@ゲイボルグ\nそして…\nトレイセーマでの呼び名は\n「Ｌ・◯六」だった…\n\n# face 3300711 \"angry\"\n# textflame 1 1\n# textboxarrow 0 1\n# chara 3300711\n@ゲイボルグ\n私は…\n本当の自分を失った上に…\n名前まで失ってしまったんだ…！\n\n# textflame 1 1\n# textboxarrow 0 3\n# chara 3500111\n@ケラウノス\n…………\n\n# face 3300711 \"sad\"\n# textflame 1 1\n# textboxarrow 0 1\n# chara 3300711\n@ゲイボルグ\nそうなった私は、\nケルベロスの残虐性を利用し、\n戦闘に明け暮れた…\n\n# textflame 1 1\n# textboxarrow 0 1\n# chara 3300711\n@ゲイボルグ\n自分は何者でもない…\nただの戦闘兵器…\n\n# textflame 1 1\n# textboxarrow 0 1\n# chara 3300711\n@ゲイボルグ\n仲間もおらず…\nただ目の前の敵を殺すだけの\n兵器として…\n\n# face 3300711 \"angry\"\n# textflame 1 1\n# textboxarrow 0 1\n# chara 3300711\n@ゲイボルグ\nそうやって…\nお前も一人で戦ってきたはずだろ？\n違うのか！？\n\n# textflame 1 1\n# textboxarrow 0 1\n# chara 3300711\n@ゲイボルグ\n信じられるのは…\n自分一人だけのはずだ！\nそれは今も変わらずに！！\n\n# textflame 0 0\n@\n彼女の叫びが、\nケラウノスに突き刺さった\n…だが、\n\n# textflame 1 1\n# textboxarrow 0 3\n# chara 3500111\n@ケラウノス\nそう思ってるうちは…\n\n# face 3300711 \"usual\"\n# textflame 1 1\n# textboxarrow 0 1\n# chara 3300711\n@ゲイボルグ\n…………\n\n# textflame 1 1\n# textboxarrow 0 3\n# chara 3500111\n@ケラウノス\n決して私には勝てない\n\n# face 3300711 \"angry\"\n# textflame 1 1\n# textboxarrow 0 1\n# chara 3300711\n@ゲイボルグ\n…！\n\n;;SE//ドガァッ！！\n# move 3500111 3 0.2\n# waitandnext 0.1\n\n# se \"SE_4602\"\n# face 3300711 \"sad\"\n# fadein \"white\" 0.3\n# move 3300711 1 0.2\n# shake 0 0.3\n# textflame 1 1\n# textboxarrow 0 1\n# chara 3300711\n# voice 330071 \"gaiborugu_ge_0038\"\n@ゲイボルグ\nぐっ！！\n\n# textflame 1 1\n# textboxarrow 0 2\n# chara 3500111\n@ケラウノス\n一人で戦っているうちはね\n\n# alpha 3500111 0 0.5\n# textflame 0 0\n@\n彼女に強烈な一撃をお見舞いし、\nケラウノスは去って行った\n\n# move 3300711 3 0.5\n# textflame 1 1\n# textboxarrow 0 2\n# chara 3300711\n@ゲイボルグ\nく…くそっ…！\n\n# textflame 0 0\n@\nケラウノスに敗れ、\n大の字で天を仰ぐゲイボルグ\n\n# textflame 1 1\n# textboxarrow 0 2\n# chara 3300711\n@ゲイボルグ\nなぜだ…\n\n# textflame 1 1\n# textboxarrow 0 2\n# chara 3300711\n@ゲイボルグ\nＧ・〇七…お前は…\n\n# textflame 1 1\n# textboxarrow 0 2\n# chara 3300711\n@ゲイボルグ\n変わったと言うのか…？\n\n# textflame 1 1\n# textboxarrow 0 2\n# chara 3300711\n# voice 330071 \"gaiborugu_ge_0019\"\n@ゲイボルグ\nその身にも植え付けられた\n忌まわしい運命から…\n逃れられたと言うのか…！？\n\n# textflame 0 0\n@\nそう呟く彼女の表情は、\nとても険しく\n鬼気迫っていた\n\n# fadeout \"black\" 1.5\n# waitandnext 1.5\n\n# bgm \"bgm005\" 0\n# alpha 3300711 0 0\n# pos 3500111 3\n# mask 3500111 off\n# mask 3300711 off\n# face 3300711 \"usual\"\n# face 3500111 \"angry\"\n# waitandnext 0.6\n\n# fadein \"black\" 1\n# textflame 0 0\n@\nまた、ある日の戦闘\n\n;;ギザギザ吹き出し大きく\n# serif 0\n# textwindow \"close\"\n# serif 1\n# textwindow \"toge\"\n# alpha 3500111 1 0.5\n# textflame 1 1\n# textboxarrow 0 0\n# textsize 32\n# chara 3500111\n# voice 350011 \"keraunosu_ge_unit_0009\"\n@ケラウノス\nうおぉぉぉぉっ！！\n\n# serif 1\n# textwindow \"close\"\n# serif 0\n# textwindow \"normal\"\n# alpha 3500111 0 0.5\n# alpha 3300711 1 0.5\n# textflame 1 1\n# textboxarrow 0 2\n# chara 3300711\n@ゲイボルグ\nあれが…あいつが言っていた\n獣刻された“怒り”…\n\n# alpha 3300711 0 0.5\n# alpha 3500111 1 0.5\n# textflame 1 1\n# textboxarrow 0 2\n# chara 3500111\n@ケラウノス\n…ふぅぅぅぅ\n\n# alpha 3300711 1 0.5\n# alpha 3500111 0 0.5\n# face 3300711 \"surprise\"\n# textflame 1 1\n# textboxarrow 0 2\n# chara 3300711\n@ゲイボルグ\n…！\n\n# textflame 0 0\n@\nしかしケラウノスは、狂気にも似た\n“怒り”をうまくコントロールし、\n目の前の敵を倒すのだった\n\n# textflame 1 1\n# textboxarrow 0 2\n# chara 3300711\n# voice 330071 \"gaiborugu_ge_0017\"\n@ゲイボルグ\nなぜだ…獣刻された…\n血に刻み込まれた幻獣の性質を\n抑える事など…不可能なはずだ\n\n# face 3300711 \"sad\"\n# textflame 1 1\n# textboxarrow 0 2\n# chara 3300711\n@ゲイボルグ\n私達は、\nそうやって使役されてきた…\n心がなくなるほどに…\n\n# textflame 1 1\n# textboxarrow 0 2\n# chara 3300711\n@ゲイボルグ\nなのに…なぜ、お前は…\n\n# bgm \"stop\" 0\n# face 3300711 \"surprise\"\n# textflame 1 1\n# textboxarrow 0 2\n# chara 3300711\n# voice 330071 \"gaiborugu_ge_battle_0005\"\n@ゲイボルグ\n…！…あ！\n\n# textflame 1 1\n# textboxarrow 0 2\n# chara 3300711\n@ゲイボルグ\nしまっ…！\n\n# textflame 0 0\n@\nケラウノスに気を取られ、\n眼前に迫った敵に気付かなかった彼女\n\n# face 3300711 \"sad\"\n# textflame 1 1\n# textboxarrow 0 2\n# chara 3300711\n@ゲイボルグ\nくっ…！\n\n# textflame 0 0\n@\nしかし、その時…\n彼女の危機を救ったのは\n\n# face 3300711 \"surprise\"\n# textflame 1 1\n# textboxarrow 0 2\n# chara 3300711\n@ゲイボルグ\nマ、マスター！！\n\n# bgm \"bgm004\" 0\n# textflame 0 0\n@\n彼に庇われ、窮地を脱するゲイボルグ\n\n# face 3300711 \"sad\"\n# textflame 1 1\n# textboxarrow 0 2\n# chara 3300711\n# voice 330071 \"gaiborugu_ge_0031\"\n@ゲイボルグ\nす、すまない…\n私のために…\n\n# face 3300711 \"usual\"\n# textflame 1 1\n# textboxarrow 0 2\n# chara 3300711\n@ゲイボルグ\nでも…\n\n# textflame 1 1\n# textboxarrow 0 2\n# chara 3300711\n@ゲイボルグ\n一つわかった\n\n# imageset 3 \"bg_white_circle\"\n# imagealpha 3 0 0\n# imagescale 3 1.2 0\n# imagelayer 3 4\n# textflame 1 1\n# textboxarrow 0 2\n# chara 3300711\n@ゲイボルグ\nあいつの言っていた意味が\n\n;;//フラッシュ\n# se \"SE_0742\"\n# face 3300711 \"surprise\"\n# face 3500111 \"normal\"\n# fadein \"white\" 0.5\n# imagealpha 3 1 0\n# imagepos 3 0 30\n# alpha 3500111 1 0\n# mask 3500111 on\n# mask 3300711 on\n# move 3500111 4 0\n# move 3300711 2 0\n# textflame 1 1\n# textboxarrow 0 3\n# chara 3500111\n@ケラウノス\nそれはキミが…\n\n# textflame 1 1\n# textboxarrow 0 3\n# chara 3500111\n@ケラウノス\n“一人”で戦っているから\n\n# face 3300711 \"usual\"\n# fadein \"white\" 0.5\n# imagealpha 3 0 0\n# alpha 3500111 0 0\n# move 3300711 3 0\n# textflame 1 1\n# textboxarrow 0 2\n# chara 3300711\n@ゲイボルグ\nたとえ３つの頭…\n３つの人格があろうとも…\n\n# textflame 1 1\n# textboxarrow 0 2\n# chara 3300711\n@ゲイボルグ\n誰も信用せず、心を消して\n一人で戦っているうちは…\n弱いということか\n\n# textflame 1 1\n# textboxarrow 0 2\n# chara 3300711\n@ゲイボルグ\n「誰も信用しない」ということは\n「諦める」ということ\n\n# textflame 1 1\n# textboxarrow 0 2\n# chara 3300711\n@ゲイボルグ\n自分だけの殻に閉じこもり、\n強くなれるチャンスから\n逃げるという事\n\n# face 3300711 \"sad\"\n# textflame 1 1\n# textboxarrow 0 2\n# chara 3300711\n@ゲイボルグ\n私は…トレイセーマでの記憶から、\n今までずっとそうやって…\n\n# textflame 0 0\n@\n悔やんだ表情を見せる彼女に\nマスターが語り掛ける\n\n# textflame 0 0\n@\n弱い自分と向き合える人は、\n強くなれるチャンスが\n広がるってことだよ\n\n# textflame 0 0\n@\nそうだろ？\nゲイボルグ\n\n# face 3300711 \"surprise\"\n# textflame 1 1\n# textboxarrow 0 2\n# chara 3300711\n@ゲイボルグ\n！！\n\n# textflame 1 1\n# textboxarrow 0 2\n# chara 3300711\n@ゲイボルグ\nゲイボルグ…\n私の…名前を…\n\n# bgmfile \"bgm266\" \"BgmLostRagnarokBattle001\" 0\n# textflame 0 0\n@\n名前を呼ばれるという\n日常ではごく普通の出来事が、\n彼女の中のなにかを変えた\n\n# face 3300711 \"usual\"\n# textflame 1 1\n# textboxarrow 0 2\n# chara 3300711\n@ゲイボルグ\n兵器ではなく…\n私を…\n１人の仲間として…！\n\n# textflame 1 1\n# textboxarrow 0 2\n# chara 3300711\n@ゲイボルグ\n私の中で…\n蓋をしていた力が目覚める…！\n\n# face 3300711 \"angry\"\n# se \"SE_0602\"\n# textflame 1 1\n# textboxarrow 0 2\n# chara 3300711\n@ゲイボルグ\n新技『貴様はもう胃の中\n　　　-ディケイグルプ-』！！\n\n# textflame 0 0\n@\nトレイセーマ時代には\n決してなかった感覚\n\n# textflame 0 0\n@\n一人の戦士として、\n一つの人格として、\n名前を呼ばれた経験\n\n# textflame 0 0\n@\nそれによりゲイボルグは、\nマスターのバイブスと激しく共鳴し\n新たなる力を手にしたのだ\n\n# se \"SE_4756\"\n# fadein \"white\" 0.5\n# shake 0 0.5\n# textflame 0 0\n@\nその強力すぎる一撃に敵は消滅した\n\n# textflame 1 1\n# textboxarrow 0 2\n# chara 3300711\n@ゲイボルグ\nはぁ…はぁ…\nこの…感覚か…\n\n# face 3500111 \"happy\"\n# move 3500111 5 0\n# textflame 0 0\n@\nそんな彼女に、\nケラウノスが声を掛ける\n\n# move 3300711 2 0.5\n# move 3500111 4 0.5\n# alpha 3500111 1 0.5\n# textflame 1 1\n# textboxarrow 0 3\n# chara 3500111\n# voice 350011 \"keraunosu_ge_0004\"\n@ケラウノス\n強くなったじゃん♪\n\n# face 3300711 \"surprise\"\n# textflame 1 1\n# textboxarrow 0 1\n# chara 3300711\n@ゲイボルグ\n…あ\n\n# face 3500111 \"usual\"\n# textflame 1 1\n# textboxarrow 0 3\n# chara 3500111\n@ケラウノス\nなんか…見えた？\n\n# face 3300711 \"usual\"\n# textflame 1 1\n# textboxarrow 0 1\n# chara 3300711\n# voice 330071 \"gaiborugu_ge_0032\"\n@ゲイボルグ\n…あぁ\n\n# textflame 1 1\n# textboxarrow 0 1\n# chara 3300711\n@ゲイボルグ\nあなたは…怒りという名の狂気を\n自分の中に収めることが出来た\nそれは…\n\n# textflame 1 1\n# textboxarrow 0 1\n# chara 3300711\n@ゲイボルグ\n自分から目を逸らさずに、\n自分と戦ったから\n\n# textflame 1 1\n# textboxarrow 0 1\n# chara 3300711\n@ゲイボルグ\n自身を見つめ、乗り越えようと…\n自ら苦しい場所に足を踏み入れたから\n\n# face 3300711 \"sad\"\n# textflame 1 1\n# textboxarrow 0 1\n# chara 3300711\n@ゲイボルグ\n私には…そんな考えも…\n勇気も覚悟もなかった\n\n# textflame 1 1\n# textboxarrow 0 1\n# chara 3300711\n@ゲイボルグ\nトレイセーマで刻まれてしまった\n忌々しい記憶から…\n自分自身を放棄してた\n\n# face 3300711 \"usual\"\n# textflame 1 1\n# textboxarrow 0 1\n# chara 3300711\n@ゲイボルグ\nそれじゃ…あなたに勝てるわけない\n前を向いた者にかなうはずがない\n\n# textflame 1 1\n# textboxarrow 0 3\n# chara 3500111\n@ケラウノス\n…………\n\n# textflame 1 1\n# textboxarrow 0 1\n# chara 3300711\n@ゲイボルグ\n永い眠りから\nようやく目覚めた気分だ…\n\n# textflame 1 1\n# textboxarrow 0 1\n# chara 3300711\n@ゲイボルグ\nこれからは…\n\n# face 3300711 \"angry\"\n# textflame 1 1\n# textboxarrow 0 1\n# chara 3300711\n@ゲイボルグ\nこの世界で…この隊で生きていく\nトレイセーマにいた頃の\n私はもうここにはいない！\n\n# face 3300711 \"usual\"\n# face 3500111 \"happy\"\n# textflame 1 1\n# textboxarrow 0 3\n# chara 3500111\n@ケラウノス\nそうよ！私達は、\nＧ・〇七でもＬ・◯六でもない！\nそうでしょ？\n\n# textflame 1 1\n# textboxarrow 0 3\n# chara 3500111\n@ケラウノス\nねっ？\n『ゲイボルグ』！！\n\n# face 3300711 \"surprise\"\n# textflame 1 1\n# textboxarrow 0 1\n# chara 3300711\n@ゲイボルグ\n…！\n\n# face 3300711 \"usual\"\n# textflame 1 1\n# textboxarrow 0 1\n# chara 3300711\n# voice 330071 \"gaiborugu_ge_0007\"\n@ゲイボルグ\n…ふっ\n\n# face 3300711 \"happy\"\n# textflame 1 1\n# textboxarrow 0 1\n# chara 3300711\n# voice 330071 \"gaiborugu_ge_0032\"\n@ゲイボルグ\nああ、そうだな\n\n# textflame 0 0\n@\nと、そこにまた敵の群れが現れる\n\n# face 3300711 \"usual\"\n# textflame 1 1\n# textboxarrow 0 1\n# chara 3300711\n@ゲイボルグ\n行きましょう、ケラウノス\n\n# face 3500111 \"usual\"\n# textflame 1 1\n# textboxarrow 0 3\n# chara 3500111\n@ケラウノス\nそうね！\n\n# textflame 0 0\n@\n構える２人\n\n# textflame 0 0\n@\nかつては、お互いに\n向き合っていた武器が、\n今は同じ敵に向いていた\n\n# textflame 1 1\n# textboxarrow 0 1\n# chara 3300711\n# voice 330071 \"gaiborugu_ge_0030\"\n@ゲイボルグ\nありがとう、ケラウノス\n私はもう一人じゃない\nすぐそばに…あなた達がいる！！\n\n# face 3300711 \"angry\"\n# textflame 1 1\n# textboxarrow 0 1\n# chara 3300711\n# voice 330071 \"gaiborugu_ge_0029\"\n@ゲイボルグ\nどんな相手だろうが関係ない\nこのゲイボルグが愛槍をもって\n敵を貫く！\n\n# imageset 0 \"c3300711\"\n# imagealpha 0 0 0\n# imagelayer 0 1\n# textflame 0 0\n@\n彼女の目は力強い決意に満ちていた\n\n;;一枚絵ボイス：ゲイボルグ「どんな相手だろうが関係ない。このゲイボルグが愛槍をもって敵を貫く」\n;;ID:gaiborugu_ge_kyara_0025\n# imagealpha 0 1 0\n# imagepos 0 0 0 \n# fadein \"white\" 3\n# voice 330071 \"gaiborugu_ge_kyara_0025\"\n# textwindow \"close\"\n\n"
	}
]