[
	{
		"ID": 330241212,
		"script": ";;-----------------------------------------\n# script \"lisp\"\n# background \"forest\"\n# bgmfile \"bgm270\" \"BgmLostRagnarokEvent\" 0\n;;-----------------------------------------\n# body 3302411\n# pos 3302411 3\n# scale 3302411 0.8 0\n# layer 3302411 2\n# alpha 3302411 1 0\n# mask 3302411 off\n;;-----------------------------------------\n# face 3302411 \"angry\"\n# textflame 1 1\n# textboxarrow 0 2\n@蜻蛉切\nよしっ！もう飲まない！\nなにがあっても！！\n\n# textflame 0 0\n@\nということで、\n蜻蛉切の禁酒生活が始まる\n\n# imageset 0 \"black\"\n# imagealpha 0 0 0\n# imagelayer 0 1\n# textflame 1 1\n# textboxarrow 0 2\n@蜻蛉切\n真の武士（もののふ）は、\n意思も強くなくっちゃ！\n\n;;暗転挟む\n# imagealpha 0 1 0\n# imagepos 0 0 30\n# imageleftin 0 0.5\n# textwindow \"close\"\n# waitandnext 0.5\n\n# face 3302411 \"normal\"\n# waitandnext 0.2\n\n# imagealpha 0 0 0.5\n# imagerightout 0 0.5\n# waitandnext 0.5\n\n# textwindow \"nomal\"\n# textflame 0 0\n@\n禁酒生活・三日目――\n\n# voice 330241 \"tonbokiri_t_0004\"\n# textflame 1 1\n# textboxarrow 0 2\n@蜻蛉切\nふふふ、私だってやればできるのよ\n\n# textflame 0 0\n@\n最初は快調な彼女\n\n# textflame 0 0\n@\nだが……、\n\n;;暗転挟む\n# imagealpha 0 1 0\n# imagepos 0 0 30\n# imageleftin 0 0.5\n# textwindow \"close\"\n# waitandnext 0.5\n\n# face 3302411 \"sad\"\n# waitandnext 0.2\n\n# imagealpha 0 0 0.5\n# imagerightout 0 0.5\n# waitandnext 0.5\n\n# textwindow \"nomal\"\n# textflame 0 0\n@\n禁酒生活・七日目―\n\n# voice 330241 \"tonbokiri_t_0015\"\n# textflame 1 1\n# textboxarrow 0 2\n@蜻蛉切\nうぅ…お酒、飲みたい……\n\n;;暗転挟む\n# imagealpha 0 1 0\n# imagepos 0 0 30\n# imageleftin 0 0.5\n# textwindow \"close\"\n# waitandnext 0.5\n\n# face 3302411 \"angry\"\n# waitandnext 0.2\n\n# imagealpha 0 0 0.5\n# imagerightout 0 0.5\n# waitandnext 0.5\n\n# textwindow \"nomal\"\n# textflame 0 0\n@\n禁酒生活・十日目―\n\n# voice 330241 \"tonbokiri_t_battle_0005\"\n# textflame 1 1\n# textboxarrow 0 2\n@蜻蛉切\nうぅぅぅぅぅ…\n我慢、我慢～！\n\n# textflame 0 0\n@\n徐々に禁断症状になるも、\nなんとか頑張っている彼女\n\n# textflame 0 0\n@\nマスターも、\n意外と続いてるな～\nと、感心している\n\n# textflame 1 1\n# textboxarrow 0 2\n@蜻蛉切\nうぅぅ～～～～…\n\n# alpha 3302411 0 0.5\n# textflame 0 0\n@\nそんな彼女に声を掛けるマスター\n\n# textflame 0 0\n@\nすごいよ\nと、言うも……\n\n# alpha 3302411 1 0.5\n# face 3302411 \"sad\"\n# voice 330241 \"tonbokiri_t_0027\"\n# textflame 1 1\n# textboxarrow 0 2\n@蜻蛉切\n……はぁ\n\n# textflame 0 0\n@\n彼女は、何やら落ち込んでいた\n\n# textflame 0 0\n@\nどうしたの？\nと、尋ねるマスター\n\n# textflame 0 0\n@\n彼女は答える\n\n# voice 330241 \"tonbokiri_t_0028\"\n# textflame 1 1\n# textboxarrow 0 2\n@蜻蛉切\n真の武士（もののふ）を\n目指すとか言いながら…\n\n# textflame 1 1\n# textboxarrow 0 2\n@蜻蛉切\n私って、こんなにも\n弱かったんだと思って…\n\n# textflame 1 1\n# textboxarrow 0 2\n@蜻蛉切\n初めての挑戦だったけど…\n禁酒くらいで、\nこんなにもイラつくし…\n\n# textflame 1 1\n# textboxarrow 0 2\n@蜻蛉切\nそれになにより\n飲むのを我慢するのが……\n辛い…\n\n# textflame 1 1\n# textboxarrow 0 2\n@蜻蛉切\n今まで弱き者は\n認めてこなかったけど…\n\n# textflame 1 1\n# textboxarrow 0 2\n@蜻蛉切\n私もなかなかに弱き者よね…\n\n# textflame 1 1\n# textboxarrow 0 2\n@蜻蛉切\nあぁ…\n真の武士（もののふ）に\nなるには、どうしたら…\n\n# textflame 0 0\n@\nため息をつく彼女\n\n# textflame 0 0\n@\nマスターは、\nそんな彼女を\n励まそうとするが…\n\n# face 3302411 \"angry\"\n# voice 330241 \"tonbokiri_t_battle_0005\"\n# textflame 1 1\n# textboxarrow 0 2\n@蜻蛉切\n！！\n\n# textflame 1 1\n# textboxarrow 0 2\n@蜻蛉切\n殿！出撃の合図よ！！\n\n# textflame 0 0\n@\n敵の出現により、\nマスターの隊は戦場へと急ぐ\n\n# textflame 1 1\n# textboxarrow 0 2\n@蜻蛉切\n今は…\n悩んでいる時間は\nないわ！\n\n# textflame 0 0\n@\n槍を取り出し、\n仲間と共に出陣する\n蜻蛉切だった"
	}
]