[
	{
		"ID": 3310002,
		"script": "# script \"lisp\"\n# background \"plain\"\n# bgm \"bgm005\" 0\n# body 0\n# pos 0 3\n# alpha 0 0 0\n# body 102211\n# pos 102211 1\n# body 101711\n# pos 101711 5\n# body 201511\n# pos 201511 3\n# face 101711 \"sad\"\n# face 102211 \"sad\"\n# face 201511 \"angry\"\n# serif 0\n# textflame 1 1\n# textboxarrow 0 3\n# chara 101711\n@セレナ\nくっ…\n予想以上に苦戦してしまいました\n\n# serif 1\n# textflame 1 1\n# textboxarrow 1 1\n# voice 1022 \"rukina_0002\"\n# chara 102211\n@ルキナ\nどこか体調が悪いのですか？\n\n# serif 0\n# textboxarrow 0 2\n# voice 2015 \"miseru_0009\"\n# chara 201511\n@ミセル\n剣の動きがまったく\nダメダメじゃない！\nさっきの特訓はなんだったのよ！\n\n# serif 1\n# textboxarrow 1 3\n# voice 1017 \"selena_0031\"\n# chara 101711\n@セレナ\n申し訳ありません\n私自身、理由が…わからなくて\n\n# alpha 0 1 0.5\n# alpha 201511 0 0.5\n# serif 0\n# textboxarrow 0 2\n# voice 9999 \"durin_0002\"\n# chara 0\n@デュリン\nちょっと休みましょう！\nきっと疲れてるのよ\n\n# serif 1\n# textboxarrow 1 3\n# voice 1017 \"selena_kyara_1014\"\n# chara 101711\n@セレナ\nいったいどうしたのよ…私\nレクシーダ…\nあなたは答えを知ってるの？"
	}
]