[
	{
		"ID": 340051212,
		"script": ";;-----------------------------------------\n;;■幻獣与一・キャラクエ\n;;【ＥＰ２】戦闘前\n;;スクリプト最後の背景：plain\n;;背景：草原\n;;-----------------------------------------\n# script \"lisp\"\n# background \"plain\"\n# bgmfile \"bgm270\" \"BgmLostRagnarokEvent\" 0\n;;-----------------------------------------\n;;与一\n# body 3400511\n# pos 3400511 3\n# scale 3400511 0.8 0\n# layer 3400511 2\n# alpha 3400511 0 0\n# mask 3400511 off\n;;-----------------------------------------\n;;【ＥＰ２】\n;;モノローグ\n# textflame 0 0\n@\n鍛錬を続けようとする与一に\nマスターが尋ねる\nなぜ、お弁当を食べる資格がないの？\n\n# voice 340051 \"yoichi_ge_0015\"\n# move 3400511 3 0\n# face 3400511 \"sad\"\n# alpha 3400511 1 0.5\n# mask 3400511 off\n# textflame 1 1\n# textboxarrow 0 2\n@与一\n…そ…それは…\n\n# textboxarrow 0 2\n@与一\n与一は……弱いですから…\n\n# textboxarrow 0 2\n@与一\nマスターから\n優しさをもらえる資格など\nないのです\n\n;;モノローグ\n# textflame 0 0\n@\n君は強いよ、戦闘でも\n活躍してるじゃない？\nと、マスターが言うと…\n\n# textflame 1 1\n# textboxarrow 0 2\n@与一\n怖いのです…\nまた…仲間を\n裏切ってしまうことが…\n\n;;モノローグ\n# textflame 0 0\n@\n彼女が、心の奥深くを語り出した\n\n# bgmfile \"bgm273\" \"BgmLostRagnarokEvent\" 0\n# face 3400511 \"usual\"\n# textflame 1 1\n# textboxarrow 0 2\n@与一\n与一は…\n獣刻されている怪物\nグライアイの影響からか…\n\n# textboxarrow 0 2\n@与一\n仲間を裏切ることに\nずっと負い目がありました…\n\n# textboxarrow 0 2\n@与一\nマスターと出会うより以前…\n\n# textboxarrow 0 2\n@与一\n自分のせいで、\n仲間を救えないことがあったのです\n\n# face 3400511 \"sad\"\n# textboxarrow 0 2\n@与一\nそれは…仲間の期待を\n裏切ったということ…\n\n# textboxarrow 0 2\n@与一\n仲間を…\n絶望させてしまったと\nいうこと…\n\n# textboxarrow 0 2\n@与一\n期待してくれる人の\n気持ちに応えられない…\n\n# textboxarrow 0 2\n@与一\nあれほど辛く…\n心が痛むことはありません…\n\n# face 3400511 \"usual\"\n# textboxarrow 0 2\n@与一\nそれからです…\n与一が強さを\n渇望するようになったのは…\n\n# textboxarrow 0 2\n@与一\n信頼に…\n心を焦がすようになったのは…\n\n# face 3400511 \"sad\"\n# textboxarrow 0 2\n@与一\nそれに……\n\n;;モノローグ\n# textflame 0 0\n@\n与一が暗い影を落とした\n\n;;モノローグ\n@\nどうしたの…？\nと、尋ねるマスターに…\n\n# textflame 1 1\n# textboxarrow 0 2\n@与一\n強くなければ…\nいつかは……\n\n# textboxarrow 0 2\n@与一\n捨てられる…\n\n# textboxarrow 0 2\n@与一\n今度は自分が…\n裏切られる………\n\n;;モノローグ\n# textflame 0 0\n@\n暗い瞳を落とす彼女にマスターは、\n大丈夫、与一を信頼しているよ\nと、告げた\n\n# voice 340051 \"yoichi_ge_0022\"\n# face 3400511 \"surprise\"\n# textflame 1 1\n# textboxarrow 0 2\n@与一\n…！\n\n# face 3400511 \"happy\"\n# textboxarrow 0 2\n@与一\nほ、本当ですか…？\n\n;;モノローグ\n# textflame 0 0\n@\n一瞬、嬉しそうな顔を見せる与一\n\n;;モノローグ\n@\nだが、その瞳の奥は曇ったままだ\n\n;;:;モヤモヤ吹き出し\n# move 3400511 3 0\n# face 3400511 \"sad\"\n# textflame 1 1\n# textboxarrow 0 0\n# textwindow \"moya\"\n# mask 3400511 off\n@与一\n言葉だけでは…\nなんとでも言えますから…\n\n;;モノローグ\n# textflame 0 0\n@\n…との暗い思いが、\n拭えなかったのだ\n\n;;モノローグ\n@\n――と、そこに、\n\n# bgmfile \"bgm276\" \"BgmLostRagnarokEvent\" 0\n# face 3400511 \"surprise\"\n# textflame 1 1\n# textboxarrow 0 2\n# textwindow \"normal\"\n@与一\n！\n\n# face 3400511 \"usual\"\n# textboxarrow 0 2\n@与一\n下がってください！！\n\n;;モノローグ\n# textflame 0 0\n@\n突然、マスターを突き飛ばす彼女\n\n;;モノローグ\n@\n間一髪だった\n先ほどマスターがいた場所に\n敵の投げた武器が突き刺さる\n\n# face 3400511 \"surprise\"\n# textflame 1 1\n# textboxarrow 0 2\n@与一\nしまった…囲まれた…！\n\n;;モノローグ\n# textflame 0 0\n@\n彼女の言葉通り、\n二人の周囲を覆うような\n敵の大群が出現\n\n# voice 340051 \"yoichi_ge_0033\"\n# face 3400511 \"usual\"\n# textflame 1 1\n# textboxarrow 0 2\n@与一\nお任せください、マスター！\n与一が必ず…\n必ず守りきってみせます！！\n\n# voice 340051 \"yoichi_ge_battle_0002\"\n# textboxarrow 0 2\n@与一\nはぁぁぁぁっ！！\n\n;;モノローグ\n# textflame 0 0\n@\n己を奮い立たせ、\n敵陣に斬り込んでいく彼女\n\n# voice 340051 \"yoichi_ge_0037\"\n# face 3400511 \"angry\"\n# textflame 1 1\n# textboxarrow 0 2\n@与一\nくっ！\n\n# textboxarrow 0 2\n@与一\nかはっ！！\n\n;;モノローグ\n# textflame 0 0\n@\nしかし、その数の多さに\n徐々に苦戦を\n強いられていくのだった…\n\n# textflame 1 1\n# textboxarrow 0 2\n@与一\nはぁ…はぁ…！\nもう…\n裏切りたくない…！！"
	}
]