[
	{
		"ID": 340081201,
		"script": ";;悪魔オティヌスEP1\n# script \"lisp\"\n# background \"devil_world\"\n# bgm \"bgm004\" 0\n# body 3400811\n# pos 3400811 3\n# mask 3400811 off\n# alpha 3400811 0 0\n# scale 3400811 0.8 0\n# body 3101311\n# pos 3101311 3\n# mask 3101311 off\n# alpha 3101311 0 0\n# scale 3101311 0.8 0\n# layer 3101311 1\n# layer 3400811 2\n# brightness 3101311 0 0\n# subfillrect 1 \"black\" 0 0 1\n# imageset 4 \"bg_black\"\n# imagealpha 4 0 0\n# imagelayer 4 5\n# imagescale 4 2 0\n# textflame 0 0\n# textboxarrow 0 0\n# chara 3400811\n@オティヌス\nあたしが“惑わす”のは…\n\n# imagepos 4 0 30\n# imagealpha 4 1 0\n# subfillrect 1 \"black\" 0 1 0\n# textflame 0 0\n# textboxarrow 0 0\n# chara 3400811\n@オティヌス\n“欺く”のは…\n\n# textflame 0 0\n# textboxarrow 0 0\n# chara 3400811\n@オティヌス\n“騙す”のは…\n\n# textflame 0 0\n# textboxarrow 0 0\n# chara 3400811\n@オティヌス\n楽しいから\n\n# textflame 0 0\n# textboxarrow 0 0\n# chara 3400811\n@オティヌス\nそれだけだと思ってる…？\n\n# textflame 0 0\n# textboxarrow 0 0\n# chara 3400811\n@オティヌス\nあたしが“惑わす”のは…\n\n;;──モノローグ終わり──\n# bgm \"bgm002\" 0\n# serif 0\n# textwindow \"close\"\n# imagealpha 4 0 1.5\n# waitandnext 1.5\n\n# serif 0\n# textwindow \"normal\"\n# textflame 0 0\n@\nこれはオティヌスが\nマスターに出会う以前の話…\n\n# textflame 0 0\n@\n悪魔の力を取り入れた人々が暮らす国\n─ケイオスリオン帝国─\n\n# textflame 1 1\n# textboxarrow 0 0\n# chara 3400811\n@？？\nオ前ガ、我ヲ、喚(よ)ンダ\n愚カ者ダナ…\n\n# serif 1\n# textboxarrow 1 0\n@男A\nひぃぃぃっ！\n\n# serif 1\n# textwindow \"close\"\n# serif 0\n# textwindow \"normal\"\n# textflame 0 0\n@\n突如現れた言葉を話す豹に驚き、\n逃げてゆくイミテーション達\n\n# textflame 1 1\n# textboxarrow 0 0\n# chara 3400811\n# voice 340081 \"otyinusu_a_0005\"\n@オティヌス\nんふふっ\n\n# alpha 3400811 1 0.5\n# textflame 1 1\n# textboxarrow 0 2\n# chara 3400811\n@オティヌス\nなんてね\nまた騙された\n\n# face 3400811 \"happy\"\n# textflame 1 1\n# textboxarrow 0 2\n# chara 3400811\n# voice 340081 \"otyinusu_a_0021\"\n@オティヌス\nオセの力はやはりいいなぁ～\n\n# textflame 0 0\n@\n豹の正体は、\n能力を使った\nオティヌスだった\n\n# textflame 0 0\n@\n彼女がドミネイトされたのは\n悪魔・オセ\n幻惑と変身の化身である\n\n# face 3400811 \"normal\"\n# textflame 1 1\n# textboxarrow 0 2\n# chara 3400811\n@オティヌス\nさぁて、次はなにをしようかな\n\n# textflame 0 0\n@\nそして…\n\n# serif 1\n# textboxarrow 1 0\n@男B\nうわぁぁっ！\n\n# face 3400811 \"happy\"\n# serif 0\n# textwindow \"normal\"\n# textflame 1 1\n# textboxarrow 0 2\n# chara 3400811\n# voice 340081 \"otyinusu_a_0020\"\n@オティヌス\nんふふふっ\n\n# serif 1\n# textboxarrow 1 0\n@男C\nひぃぃぃっ！\n\n# serif 1\n# textwindow \"close\"\n# serif 0\n# textwindow \"normal\"\n# textflame 0 0\n@\n相手を猫の姿に変えたり、\n手品と偽りカードで相手を騙したり\n\n# textflame 1 1\n# textboxarrow 0 2\n# chara 3400811\n@オティヌス\nあ～\nやはり騙された瞬間の表情は\nたまらないね\n\n# textflame 0 0\n@\n愉悦の表情を浮かべる彼女\n\n# face 3400811 \"normal\"\n# textflame 1 1\n# textboxarrow 0 2\n# chara 3400811\n@オティヌス\n…気を付けなよ？\nオセに騙された者の末路は、\n狂い果てて…\n\n# face 3400811 \"angry\"\n# textflame 1 1\n# textboxarrow 0 2\n# chara 3400811\n@オティヌス\n死んでしまうものだから\n\n# alpha 3400811 0 0.5\n# textflame 0 0\n@\n他人を騙すことで、\n彼女は己の欲求を満たしていた\n\n;;@？？？　※可能であれば黒シルエット\n# face 3101311 \"usual\"\n# alpha 3101311 1 0.5\n# textflame 1 1\n# textboxarrow 0 2\n@？？？\n…………\n\n# textflame 0 0\n@\nそんな彼女をじっと観察している\n一人の斬ル姫\n\n# brightness 3101311 1 0.5\n# textflame 1 1\n# textboxarrow 0 2\n# chara 3101311\n# voice 310131 \"paracelsus_a_0028\"\n@パラケルスス\n…………\n\n# mask 3400811 on\n# textflame 0 0\n@\nパラケルスス…\n悪魔・バフォメットを\nドミネイトされし者\n\n# face 3400811 \"normal\"\n# alpha 3101311 0 0.5\n# alpha 3400811 1 0.5\n# textflame 1 1\n# textboxarrow 0 2\n# chara 3400811\n@オティヌス\nあ～、スッキリした！\n次は誰を…\n\n# face 3400811 \"surprise\"\n# mask 3101311 on\n# move 3101311 5 0\n# textflame 1 1\n# textboxarrow 0 2\n# chara 3400811\n@オティヌス\n…！\n\n# alpha 3101311 1 0.5\n# move 3101311 4 0.5\n# move 3400811 2 0.5\n# textflame 1 1\n# textboxarrow 0 3\n# chara 3101311\n# voice 310131 \"paracelsus_a_0002\"\n@パラケルスス\n随分と楽しそうだな\n\n# textflame 1 1\n# textboxarrow 0 1\n# chara 3400811\n@オティヌス\n…パラケルスス\n\n;;モヤモヤ吹き出し\n# face 3400811 \"angry\"\n# serif 0\n# textwindow \"close\"\n# serif 1\n# move 3400811 2 0\n# textwindow \"moya\"\n# textflame 1 1\n# textboxarrow 0 0\n# chara 3400811\n@オティヌス\nこいつ…\nいつの間に後ろに\n\n# face 3400811 \"normal\"\n# serif 1\n# textwindow \"close\"\n# serif 0\n# textwindow \"normal\"\n# textflame 1 1\n# textboxarrow 0 1\n# chara 3400811\n@オティヌス\nなにか用かい？ \n\n# face 3101311 \"normal\"\n# textflame 1 1\n# textboxarrow 0 3\n# chara 3101311\n# voice 310131 \"paracelsus_a_0004\"\n@パラケルスス\nふふ、君の幻術は実に興味深い\nわたくしの研究対象に\nなってもらえないかと思ってね\n\n# face 3400811 \"sad\"\n# textflame 1 1\n# textboxarrow 0 1\n# chara 3400811\n@オティヌス\n…研究対象？\n\n# face 3101311 \"usual\"\n# textflame 1 1\n# textboxarrow 0 3\n# chara 3101311\n@パラケルスス\nそうだ、\nなぜ君はそんなにも\n人を惑わせるのか…？\n\n# textflame 1 1\n# textboxarrow 0 3\n# chara 3101311\n@パラケルスス\nただ下卑た享楽のためだけじゃ\nない気がしてね…\n\n# textflame 1 1\n# textboxarrow 0 3\n# chara 3101311\n@パラケルスス\nその心の底にある真理…\n君の“深淵”が見たい\n\n# textflame 1 1\n# textboxarrow 0 1\n# chara 3400811\n@オティヌス\n…………\n\n# voice 340081 \"otyinusu_a_0007\"\n# textflame 1 1\n# textboxarrow 0 1\n# chara 3400811\n@オティヌス\nさすが研究熱心な学者は\nどんなことにも興味を持つんだね\n\n# face 3400811 \"normal\"\n# textflame 1 1\n# textboxarrow 0 1\n# chara 3400811\n@オティヌス\nでも、難しく考え過ぎさ\nあたしはただ楽しくて\nやっているんだから\n\n# face 3101311 \"sad\"\n# textflame 1 1\n# textboxarrow 0 3\n# chara 3101311\n# voice 310131 \"paracelsus_a_0028\"\n@パラケルスス\n…本当かなぁ？\nきみを見ていると、\nそんな風には見えないけどね\n\n# textflame 1 1\n# textboxarrow 0 1\n# chara 3400811\n# voice 340081 \"otyinusu_a_0002\"\n@オティヌス\nだって、これ…\n見てごらんよ\n\n# face 3101311 \"usual\"\n# textflame 1 1\n# textboxarrow 0 3\n# chara 3101311\n@パラケルスス\n…え？\n\n# textflame 0 0\n@\n指先を見せるオティヌス\n次の瞬間…\n\n# fadein \"white\" 0.5\n# face 3101311 \"surprise\"\n# textflame 0 0\n@\n『ボン！』\n\n# textflame 1 1\n# textboxarrow 0 3\n# chara 3101311\n# voice 310131 \"paracelsus_a_0022\"\n@パラケルスス\nっ！！\n\n# textflame 0 0\n@\n指先から煙が上がり、\nその後、\n奇麗な花を出すオティヌス\n\n# face 3400811 \"happy\"\n# textflame 1 1\n# textboxarrow 0 1\n# chara 3400811\n# voice 340081 \"otyinusu_a_0005\"\n@オティヌス\nふふふっ\n人の驚く顔が見たいだけさ\n\n# face 3101311 \"angry\"\n# textflame 1 1\n# textboxarrow 0 3\n# chara 3101311\n# voice 310131 \"paracelsus_a_battle_0005\"\n@パラケルスス\nくっ…ぬぅ…！\n\n# face 3400811 \"normal\"\n# textflame 1 1\n# textboxarrow 0 1\n# chara 3400811\n@オティヌス\nふふふ…\nあなたにあたしの底が見えるかな？\n\n# textflame 1 1\n# textboxarrow 0 1\n# chara 3400811\n@オティヌス\n見れば見るほど、底が見えない…\n“深淵”とは、そういうものだよ\n\n# se \"SE_0740\"\n# alpha 3400811 0 0.5\n# textflame 0 0\n@\n…と、彼女は\nにやりと口元に笑みを浮かべて\n去っていった\n\n# textflame 1 1\n# textboxarrow 0 3\n# chara 3101311\n@パラケルスス\nこのわたくしを欺くとは…！\nなんという強力な幻術…！\nしかし…\n\n# face 3101311 \"normal\"\n# textflame 1 1\n# textboxarrow 0 3\n# chara 3101311\n# voice 310131 \"paracelsus_a_0039\"\n@パラケルスス\nますます興味深い！\n\n# fadeout \"black\" 1.5\n# waitandnext 1.5\n\n# bgm \"bgm005\" 0\n# move 3400811 3 0\n# mask 3400811 off\n# alpha 3101311 0 0\n# waitandnext 0.6\n\n# fadein \"black\" 1\n# textflame 0 0\n# textflame 0 0\n@\nそんなある日、事件が起こった\n\n# face 3400811 \"surprise\"\n# alpha 3400811 1 0.5\n# textflame 1 1\n# textboxarrow 0 2\n# chara 3400811\n# voice 340081 \"otyinusu_a_0022\"\n@オティヌス\n今…\nなんとおっしゃいました？\n\n# serif 1\n# textwindow \"normal\"\n# textboxarrow 1 0\n@魔人\n言ったとおりだ\nもうイミテーションを騙してはならぬ\n\n# serif 0\n# textflame 1 1\n# textboxarrow 0 2\n# chara 3400811\n@オティヌス\n…ど、どうしてです？\n\n# serif 1\n# textboxarrow 1 0\n@魔人\n我が奴隷であるイミテーションを、\n貴様が騙しているのが気に入らぬ\n\n# serif 1\n# textboxarrow 1 0\n@魔人\n貴様もイミテーションと同じく\n我が“所有物”…\nこれ以上の増長は許さぬ\n\n# serif 1\n# textwindow \"close\"\n# serif 0\n# textwindow \"normal\"\n# textflame 0 0\n@\nそうオティヌスに忠告し、\n魔人は去っていった\n\n# face 3400811 \"sad\"\n# textflame 1 1\n# textboxarrow 0 2\n# chara 3400811\n@オティヌス\n…………\n\n# textflame 1 1\n# textboxarrow 0 2\n# chara 3400811\n@オティヌス\n…ふ～ん\n\n# textflame 1 1\n# textboxarrow 0 2\n# chara 3400811\n@オティヌス\n所有物…ね\n\n# face 3400811 \"angry\"\n# textflame 1 1\n# textboxarrow 0 2\n# chara 3400811\n# voice 340081 \"otyinusu_a_0007\"\n@オティヌス\nあたしも同じ…\n“奴隷”ということか\n分かりきっていたけどね\n\n# textflame 0 0\n@\nその瞳の底はどす黒く濁り、\nまるで底が見えなかった"
	}
]