[
	{
		"ID": 340071202,
		"script": ";;【シェキナー】\n;;【EP2】\n# script \"lisp\"\n# background \"plain\"\n# bgm \"bgm003\" 0\n# body 3400711\n# pos 3400711 3\n# mask 3400711 off\n# alpha 3400711 0 0\n# face 3400711 \"normal\"\n# textflame 0 0\n@\nピクニックにやって来た\nマスターの隊\n\n@\n昼食の時間に差し掛かり…\n\n# alpha 3400711 1 0.5\n# textflame 1 1\n# face 3400711 \"surprise\"\n# voice 340071 \"shekina_t_0022\"\n# textboxarrow 0 2\n@シェキナー\nこ…これは…！？\n\n# textflame 0 0\n@\nお弁当の箱を開けて、\n憤慨する彼女\n\n# textflame 1 1\n# face 3400711 \"angry\"\n# voice 340071 \"shekina_t_0023\"\n# textboxarrow 0 2\n@シェキナー\n何ですか、この質素な食事は！\n\n@シェキナー\nもう忘れたのですか！？\n私は三大天使の一人を内包する\n崇高にして偉大なる存在！\n\n@シェキナー\nその私に、\nこのような粗悪な食事を出すとは！\n\n@シェキナー\nこれは、\n私を敬う気持ちが\n足りない証拠！\n\n@シェキナー\n今すぐ、もっと華美で豪華な…！\n\n# select \"みんなで食べたら美味しいよ？\" \"select_label_01\" \"みんなで食べたら楽しいよ？\" \"select_label_02\" \"みんなで食べるのも悪くないよ？\" \"select_label_03\"\n今すぐ、もっと華美で豪華な…！\n\n\n# label \"select_label_01\"\n# labeljump \"select_label_end\"\n# face 3400711 \"surprise\"\n# textboxarrow 0 2\n@シェキナー\nなんですって…？“みんな”で…？\n\n# label \"select_label_02\"\n# labeljump \"select_label_end\"\n# textboxarrow 0 2\n# face 3400711 \"surprise\"\n@シェキナー\nみんなと一緒が楽しい…ですって？\n\n# label \"select_label_03\"\n# labeljump \"select_label_end\"\n# textboxarrow 0 2\n# face 3400711 \"surprise\"\n@シェキナー\nそれは本気で言っているのですか…？\n\n# label \"select_label_end\"\n# face 3400711 \"angry\"\n# voice 340071 \"shekina_t_0014\"\n@シェキナー\n大体、私のことを\nそうやって一括りに扱うことからして\n間違っています\n\n@シェキナー\nまずはそこから改めるべきです！\n\n# textflame 0 0\n@\nそれはハルモニアでも？\n\n# textflame 1 1\n# textboxarrow 0 2\n# face 3400711 \"surprise\"\n@シェキナー\n……\n\n# face 3400711 \"angry\"\n@シェキナー\nあ、当たり前です\nみな私のことを敬い\n敬意をもって接してくれました\n\n# textflame 0 0\n@\nそういう相手って\n普通は仲間って呼べる関係なんじゃ\nとマスター\n\n# textflame 1 1\n# textboxarrow 0 2\n# face 3400711 \"sad\"\n@シェキナー\n……\n\n# face 3400711 \"angry\"\n@シェキナー\nやはり私は…\nあなた達とは相容れぬ存在\n\n@シェキナー\nあなた達のような\n下賤の者たちとは\nこれ以上一緒にいられません…\n\n# textflame 0 0\n@\n隊の姫から反感の声が上がる\n\n@\nそれをなだめるマスター\n\n# textflame 1 1\n# textboxarrow 0 2\n# voice 340071 \"shekina_t_0010\"\n@シェキナー\nここにいても無駄のようです\n私は帰らせて頂きます\n\n# textboxarrow 0 0\n# alpha 3400711 0 0.5\n# waitandnext 0.5\n\n# textflame 0 0\n@\n皆に背を向けて、\nその場から立ち去る\nシェキナーだった\n\n# textwindow \"close\"\n# fadeout \"black\" 2\n# waitandnext 3\n\n# fadein \"black\" 2\n# waitandnext 2\n\n# textwindow \"nomal\"\n# textflame 0 0\n@\n隊から離れ、\n一人帰っていた途中で…\n\n# textflame 1 1\n# textboxarrow 0 2\n# alpha 3400711 1 0.5\n# voice 340071 \"shekina_t_battle_0005\"\n# face 3400711 \"surprise\"\n@シェキナー\n…くっ！\nあなた達は…！？\n\n# textflame 0 0\n@\n予期せぬ敵襲に遭うシェキナー\n\n@\n相手は、正体の分からぬ\n不気味な者たち\n\n# textflame 1 1\n# textboxarrow 0 2\n# face 3400711 \"angry\"\n@シェキナー\n“下卑たる者”どもに…\nやられるものですか！\n\n# textflame 0 0\n@\n強気には言っているものの、\n徐々に数の多さに\n圧倒され始める彼女\n\n# textflame 1 1\n# textboxarrow 0 2\n@シェキナー\n三大天使を内包した私が…\nこんな卑しき者たちに…！\n\n# face 3400711 \"surprise\"\n@シェキナー\n…あ！\n\n# textflame 0 0\n@\n一瞬の隙を突かれ、\n敵の攻撃が眼前に迫る\n\n# textflame 1 1\n# face 3400711 \"sad\"\n# textboxarrow 0 2\n@シェキナー\nきゃあっ！\n\n# textflame 0 0\n# fadein \"white\" 0.5\n@\n『ガキィィン！』\n\n# textflame 1 1\n# textboxarrow 0 2\n@シェキナー\n……！\nあぁ…！\n\n# textflame 0 0\n@\nそこに現れたのは、\nマスターと隊の姫たちだった\n\n# textflame 1 1\n# textboxarrow 0 2\n# voice 340071 \"shekina_t_0022\"\n# face 3400711 \"surprise\"\n@シェキナー\nみ、みんな…\n\n@シェキナー\nどうして…私を助けに！？\n\n# textflame 0 0\n@\n力を合わせ、敵と戦う姫たち\n\n# textflame 1 1\n# textboxarrow 0 2\n@シェキナー\nあんなひどい事を言った私に\n手を貸してくれるなんて…\n\n@シェキナー\nやはり…\n天使である私を崇め、\n敬う気持ちがあるから…？\n\n# face 3400711 \"sad\"\n@シェキナー\nいや、違う…\nそんなんじゃない…\n\n# face 3400711 \"surprise\"\n@シェキナー\nこれは……\n\n# select \"これが“友情”だよ\" \"select_label_11\" \"これが“慈愛”だよ\" \"select_label_12\" \"これが“優しさ”だよ\" \"select_label_13\"\nこれは……\n\n# label \"select_label_11\"\n# labeljump \"select_label_end02\"\n@シェキナー\nゆ、友情…\n\n# label \"select_label_12\"\n# labeljump \"select_label_end02\"\n@シェキナー\nじ、慈愛…\n\n# label \"select_label_13\"\n# labeljump \"select_label_end02\"\n@シェキナー\nや、優しさ…\n\n# label \"select_label_end02\"\n# face 3400711 \"sad\"\n@シェキナー\nでも…なぜなの…？\n\n# textflame 0 0\n@\n彼女の問いにマスターが答える\n\n@\nだって僕たちに上下は無い\nみんな…\n\n@\n仲間だから\n\n# textflame 1 1\n# textboxarrow 0 2\n# face 3400711 \"surprise\"\n@シェキナー\n！！\n\n# face 3400711 \"normal\"\n@シェキナー\n上下が無い…\nだから…並列\nそれ即ち……\n\n@シェキナー\n…仲間！\n\n# face 3400711 \"happy\"\n@シェキナー\n…ありがとう\nみんなの想い……\n確かに受け取ったわ！！\n\n# imageset 3 \"black\"\n# imagealpha 3 0 0\n# imagelayer 3 1\n# textflame 0 0\n@\n…と、空高く舞い上がる彼女\n\n# se \"SE_0602\"\n# textflame 1 1\n# textboxarrow 0 2\n# face 3400711 \"angry\"\n@シェキナー\n新奥義…\n『理想郷への免罪符』\n－ヘヴンズ・オーダー－！\n\n# fadein \"white\" 0.5\n# shake 0 0.8\n# waitandnext 1\n\n# textflame 0 0\n@\n彼女の新たなる力で、\n敵は瞬時に\n殲滅させられるのだった\n\n;;暗転等をいれて時間経過を演出\n# imagealpha 3 1 0\n# imagepos 3 0 30\n# imageleftin 3 0.5\n# serif 0\n# textwindow \"close\"\n# serif 1\n# textwindow \"close\"\n# waitandnext 1\n\n# alpha 3400711 0 0\n# imagealpha 3 0 0.5\n# imagerightout 3 0.5\n# serif 0\n# textwindow \"nomal\"\n# textflame 0 0\n@\nそれから一時間後\n\n# alpha 3400711 1 0.5\n# textflame 1 1\n# textboxarrow 0 2\n# voice 340071 \"shekina_t_0004\"\n# face 3400711 \"surprise\"\n@シェキナー\n…おいしい\n\n@シェキナー\n質素だと馬鹿にした食事が…\nこんなにも…\n\n# face 3400711 \"shy\"\n@シェキナー\n不思議です…\n\n# textflame 0 0\n@\nね？仲間と食べる食事は\nおいしいでしょ？\nマスターが彼女に尋ねる\n\n# textflame 1 1\n# textboxarrow 0 2\n# face 3400711 \"normal\"\n@シェキナー\n…なるほど\n\n@シェキナー\n仲間とは…\n敬われるだけじゃない、\nこちらからも敬う関係…\n\n@シェキナー\n互いに“敬い合う”という事の\n大切さ…\n\n# face 3400711 \"shy\"\n# voice 340071 \"shekina_t_0042\"\n@シェキナー\nあなたはそれを私に教えようと…\nピクニックに誘ったのですね？\n\n# textflame 0 0\n@\n…と、彼女が微笑む\n\n@\nそれを見たマスターは、\nそんな所にいないで、ここに座りなよ\nとハンカチを敷いてあげる\n\n# textflame 1 1\n# textboxarrow 0 2\n@シェキナー\nそれは…敬いの心ですか？\nそれとも…\n特別な“愛情”ですか？\n\n# textflame 0 0\n@\nそうだな…\nレディに対する気遣いかな\nと答えるマスター\n\n# textflame 1 1\n# voice 340071 \"shekina_t_0005\"\n# textboxarrow 0 2\n@シェキナー\nふふ…あなたは…\nどこまで行っても\n私たちを並列に……\n\n@シェキナー\nそれが…\n分け隔ての無い\n慈愛というものなのですね\n\n# face 3400711 \"happy\"\n@シェキナー\nその気持ち…\nありがたく頂戴します\n\n# imageset 0 \"c3400711\"\n# imagealpha 0 0 0\n# textflame 0 0\n# textflame 0 0\n@\nそう言って、\n嬉しそうに座る\nシェキナーだった\n\n# imagealpha 0 1 0\n# imagepos 0 0 0\n# fadein \"white\" 3\n# textwindow \"close\"\n# voice 340071 \"shekina_t_kyara_1026\"\n;;シェキナー「あらゆるしがらみから、解放してあげましょう。…あら？　どこを見ているのですか？」"
	}
]