[
	{
		"ID": 340171212,
		"script": ";;-----------------------------------------\n;;【EP2_1】\n;;【PK】神令スイハ_キャラクエ_シナリオ_190121\n;;背景：荒野\n;;-----------------------------------------\n# script \"lisp\"\n# background \"wild\"\n# bgmfile \"bgm270\" \"BgmLostRagnarokEvent\" 0\n;;-----------------------------------------\n;;スイハ\n# body 3401711\n# pos 3401711 3\n# scale 3401711 0.8 0\n# alpha 3401711 1 0\n# mask 3401711 off\n;;-----------------------------------------\n# textflame 1 1\n# textboxarrow 0 2\n# face 3401711 \"normal\"\n# voice 340171 \"suiha_c_0001\"\n@スイハ\nこれは当てつけか？\n\n# textflame 0 0\n@\nあれ以来、スイハは時折\n戦線から外されるようになった\n\n# textflame 0 0\n@\nいつもは淡々と\n命令を了承していたスイハだったが\nその日は少し違った\n\n# textflame 0 0\n@\nマスターがスイハに\n次の命令を与える為に\nやってきた時のことだった\n\n# textflame 0 0\n@\n次の戦場でも\nスイハは待機するように、と\n\n# textflame 1 1\n# textboxarrow 0 2\n@スイハ\n私の力は、不要か？\n\n# textflame 0 0\n@\n焦った様子も、憤った様子でもなく\nただただマスターに詰問するスイハ\n\n# textflame 1 1\n# textboxarrow 0 2\n@スイハ\nそれとも、嫌がらせか何かか？\n私が気にしすぎているだけなら\n良いが\n\n# textflame 0 0\n@\n申し開きをしようとするマスターだが\nどこかぎこちなく\n言葉もたどたどしい\n\n# textflame 1 1\n# textboxarrow 0 2\n@スイハ\n？\n（歯切れが悪いな）\n\n# textflame 0 0\n@\n周りのキル姫が仲裁に入ろうとするも\nマスターがそれを制する\n\n# textflame 1 1\n# textboxarrow 0 2\n# face 3401711 \"angry\"\n# voice 340171 \"suiha_c_0009\"\n@スイハ\n…何か、言いたいことがあるなら\nはっきり言ってもらおう\n\n# textflame 1 1\n# textboxarrow 0 2\n@スイハ\n（考えを口にせず\n黙りこくっているほど\n面倒なコトはない）\n\n# textflame 0 0\n@\n明らかに自身を棚上げした小声が\n彼女から聞こえてくるが、\nマスターは聞かないことにした\n\n# textflame 1 1\n# textboxarrow 0 2\n# face 3401711 \"normal\"\n# voice 340171 \"suiha_c_0028\"\n@スイハ\n仲間が不要と言った\n任務以外で声をかけるなとも言った\nまとわりつくな、とも\n\n# textflame 1 1\n# textboxarrow 0 2\n@スイハ\n私の規範を述べたまで\n\n# textflame 1 1\n# textboxarrow 0 2\n@スイハ\n命令ならば従う\n\n# textflame 1 1\n# textboxarrow 0 2\n# voice 340171 \"suiha_c_0027\"\n@スイハ\nだが\nこれが任務とは\n別の意味合いを持っているのなら…\n\n# textflame 1 1\n# textboxarrow 0 2\n@スイハ\n私に対する\n悪意ある行為なのだとすれば…\n\n# textflame 1 1\n# textboxarrow 0 2\n# face 3401711 \"normal\"\n# voice 340171 \"suiha_c_0007\"\n@スイハ\n───噛み付いてくる犬に\n容赦はしない\n\n# textflame 0 0\n@\n立ち去ろうと背を向けるスイハ\n\n# textflame 0 0\n@\n謝ろうと\nスイハの前に出るマスターだが…\n\n# textflame 1 1\n# textboxarrow 0 2\n# face 3401711 \"angry\"\n# voice 340171 \"suiha_c_kyara_0012\"\n@スイハ\n…私の前に立つということは\n“射抜かれたい”ということか？\n\n;;選択肢\n# select \"後ろに立てばいいのかな…？\" \"select_label_01\" \"横に立てばいいのかな…？\" \"select_label_02\" \"座ればいいのかな…？\" \"select_label_03\"\n@\n…私の前に立つということは\n“射抜かれたい”ということか？\n\n;;アンサー\n# label \"select_label_01\"\n# labeljump \"select_label_end\"\n# textflame 1 1\n# textboxarrow 0 2\n# voice 340171 \"suiha_c_0007\"\n@スイハ\nいいぞ。無意識的に\n殴ってしまうかもしれないが\n\n;;アンサー\n# label \"select_label_02\"\n# labeljump \"select_label_end\"\n# textflame 1 1\n# textboxarrow 0 2\n# voice 340171 \"suiha_c_0007\"\n@スイハ\n行間が読めないのか？\n\n;;アンサー\n# label \"select_label_03\"\n# labeljump \"select_label_end\"\n# textflame 1 1\n# textboxarrow 0 2\n# face 3401711 \"surprise\"\n# voice 340171 \"suiha_c_0022\"\n@スイハ\n踏まれたいということか…？\n\n# label \"select_label_end\"\n# textflame 1 1\n# textboxarrow 0 2\n@スイハ\nとんちをやっているつもりはない\n\n# textflame 0 0\n@\nマスターは弁明する\n決して当てつけや嫌がらせで\n行ったことではないと\n\n# textflame 1 1\n# textboxarrow 0 2\n@スイハ\n…\n\n# textflame 1 1\n# textboxarrow 0 2\n# face 3401711 \"sad\"\n# voice 340171 \"suiha_c_0028\"\n@スイハ\n（そうなのかもしれない）\n\n# textflame 1 1\n# textboxarrow 0 2\n@スイハ\n（何か、温かい何かが\nバイブスを通じて\n私に干渉してくるのがわかる…）\n\n# textflame 1 1\n# textboxarrow 0 2\n@スイハ\n（だが、私の力\n軍神テュールとしての力\n私の誇りが…）\n\n# textflame 1 1\n# textboxarrow 0 2\n@スイハ\n（それを受け入れはしない）\n\n# textflame 1 1\n# textboxarrow 0 2\n@スイハ\n（…逆に\nこれが、私の認識が\n何かの勘違いだったとして…）\n\n# textflame 1 1\n# textboxarrow 0 2\n@スイハ\n（それはそれで\n顔向けしにくい…）\n\n# textflame 1 1\n# textboxarrow 0 2\n# face 3401711 \"normal\"\n# voice 340171 \"suiha_c_0007\"\n@スイハ\n…任務が無ければ\nあなたと話すこともない\n\n# textflame 1 1\n# textboxarrow 0 2\n@スイハ\n（その任務についても\n最近、違和感がある…）\n\n# textflame 1 1\n# textboxarrow 0 2\n@スイハ\n（何にせよ\n戦いに出なければ\nわからないこと…）\n\n# textflame 0 0\n@\n平静を装いながらも\nダダ漏れなスイハの心の声\n\n# textflame 1 1\n# textboxarrow 0 2\n@スイハ\n（…どうしたというんだ？私は）\n\n# textflame 0 0\n@\nしかしマスターは\n彼女にかける言葉を\n見つけられないでいた\n\n# textflame 1 1\n# textboxarrow 0 2\n@スイハ\n…\n\n# textflame 0 0\n@\nスイハは目を伏せ\nマスターの横をすり抜け\n離れていく\n\n# textflame 1 1\n# textboxarrow 0 2\n# face 3401711 \"sad\"\n# voice 340171 \"suiha_c_0027\"\n@スイハ\n………独りにして"
	}
]