[
	{
		"ID": 3401001,
		"script": "# script \"lisp\"\n# background \"antiquity\"\n# bgm \"bgm002\" 0\n# body 600231\n# pos 600231 2\n# body 500841\n# pos 500841 4\n# serif 0\n# textflame 1 1\n# textboxarrow 0 1\n# voice 6002 \"ganbantein_0003\"\n# chara 600231\n# face 600231 \"amazed\"\n@ガンバンテイン\nここも仮装した異族は\nいないみたいだねー\n\n# serif 1\n# textboxarrow 1 3\n# chara 500841\n# face 500841 \"angry2\"\n@芭蕉扇\nアンタもっとやる気出して\n探しなさいよ！\nいるかもしれないじゃない！\n\n# serif 0\n# textboxarrow 0 1\n# voice 6002 \"ganbantein_0033\"\n# chara 600231\n@ガンバンテイン\nんー\nやる気？　あるよー\n\n# serif 1\n# textboxarrow 1 3\n# chara 500841\n# face 500841 \"angry\"\n@芭蕉扇\nまったく\nどこまでマイペースなのよ\n\n# serif 1\n# textboxarrow 1 3\n# chara 500841\n@芭蕉扇\nとにかく\n雑魚達をさっさと倒すわよ！\n\n# serif 0\n# textboxarrow 0 1\n# voice 6002 \"ganbantein_0004\"\n# chara 600231\n# face 600231 \"normal\"\n@ガンバンテイン\nがんばれー\n\n# serif 1\n# textboxarrow 1 3\n# chara 500841\n# face 500841 \"angry2\"\n@芭蕉扇\nアンタも戦いなさいよ！！"
	}
]