[
	{
		"ID": 3500501,
		"script": ";;でんぱイベント みりん・もがブロック ＥＰ５（ＳＴＡＧＥ４ 開始前）\n;;レーヴァテインに向かい駆けてゆく、スロウスとプライド\n;;【指定】bgm164\n# script \"lisp\"\n# background \"plain_totaleclipse\"\n# bgmfile \"bgm164\" \"BgmPJZero001\" 0\n# body 100281\n# pos 100281 4\n# scale 100281 0.8 0\n# body 500261\n# pos 500261 2\n# scale 500261 0.8 0\n# body 100221\n# pos 100221 4\n# scale 100221 0.8 0\n# alpha 100221 0 0\n# body 24\n# pos 24 2\n# scale 24 0.8 0\n# alpha 24 0 0\n# textflame 1 1\n# textboxarrow 0 1\n# chara 500261\n# face 500261 \"happy\"\n# voice 9974 \"furaikugeru_k_pok_collabo0301_0006_1\"\n@プライド\nワァオ…！\nペインでベァッドな表情…\nもう、最高にヘァピィ！！\n\n# serif 0\n# textboxarrow 0 1\n# chara 500261\n# face 500261 \"normal\"\n# voice 9974 \"furaikugeru_k_pok_collabo0301_0006_2\"\n@プライド\n私が手足を撃ち抜く…\nスロウス、\nクールに粛清しちゃって！！\n\n# serif 1\n# textboxarrow 1 3\n# imageset 0 \"black\"\n# imagealpha 0 0 0\n# face 100281 \"angry\"\n# chara 100281\n# voice 9974 \"revatein_k_pok_collabo0301_0019\"\n@スロウス\n…長引けば、\nお互い辛い思いをするだけ\n…一撃で仕留めてあげる\n\n# imagealpha 0 1 0\n# imagepos 0 0 30\n# imageleftin 0 0.5\n# serif 0\n# textwindow \"close\"\n# serif 1\n# textwindow \"close\"\n# waitandnext 1\n\n# imagerightout 0 0.5\n# alpha 500261 0 0\n# alpha 100281 0 0\n# serif 0\n# textwindow \"nomal\"\n# textboxarrow 0 3\n# alpha 100221 1 0\n# alpha 24 1 0\n# chara 100221\n# face 24 \"angry\"\n# face 100221 \"angry\"\n# voice 9974 \"revatein_pok_collabo0301_0034\"\n@レーヴァテイン\n…！\n\n# serif 1\n# textwindow \"mad2\"\n# textboxarrow 1 1\n# chara 101411\n# voice 9974 \"tyrufing_pok_collabo0301_0011\"\n@ティルフィング\nっ、いけない…！\n\n# imagealpha 0 1 0\n# imagepos 0 0 30\n# imagerightin 0 0.5\n# serif 0\n# textwindow \"close\"\n# serif 1\n# textwindow \"close\"\n# waitandnext 1\n\n# imageleftout 0 0.5\n# alpha 500261 1 0\n# alpha 100281 1 0\n# imageset 5 \"rainbow_vertical\"\n# imagealpha 5 0 0\n# serif 0\n# textwindow \"nomal\"\n# textboxarrow 0 1\n# alpha 100221 0 0\n# alpha 24 0 0\n# face 500261 \"happy\"\n# chara 500261\n# voice 9974 \"furaikugeru_k_pok_collabo0301_0007\"\n@プライド\nＯＫ！！\nレッツ・ゴー！！\n\n;;一気に襲い掛かるスロウスとプライド\n;;次の瞬間…攻撃を阻むように現れる七色の光。ギャリンと火花が飛び散り、スロウスとプライドが弾き返される\n;;【指定】SE_5743\n;;【指定】bgm058\n# fadein \"white\" 1\n# se \"SE_5743\"\n# bgmfile \"bgm058\" \"BgmMMcollabo001\" 0\n# fadein \"white\" 1\n# imagepos 5 0 0\n# imagealpha 5 0.4 0\n# face 100281 \"surprise\"\n# face 500261 \"surprise\"\n# waitandnext 1\n\n# imagealpha 5 0 0.2\n# serif 0\n# textboxarrow 0 1\n# chara 500261\n# voice 9974 \"furaikugeru_k_pok_collabo0301_0008\"\n@プライド\nホワット！？\n\n# serif 1\n# textboxarrow 1 3\n# face 100281 \"surprise\"\n# chara 100281\n# voice 9974 \"revatein_k_pok_collabo0301_0020\"\n@スロウス\n…！…なに…？\n\n;;土煙が薄れると、そこにレーヴァテインとティルフィングを守るように立つみりんともが。新たな武器を手にしている\n# fadeout \"white\" 1\n# waitandnext 1.2\n\n# se \"SE_9022\"\n# fadein \"white\" 1\n# serif 1\n# textwindow \"close\"\n# pos 100221 5\n# alpha 100221 1 0\n# alpha 500261 0 0\n# alpha 100281 0 0\n# face 100221 \"surprise\"\n# body 502213\n# pos 502213 3\n# scale 502213 0.8 0\n# body 302213\n# pos 302213 1\n# scale 302213 0.8 0\n# layer 502213 2\n# layer 302213 1\n# serif 0\n# textwindow \"nomal\"\n# textboxarrow 0 2\n# chara 101511\n# face 502213 \"usual\"\n# voice 9974 \"mirin_pok_collabo0301_0069\"\n@みりん\n大丈夫、二人とも！？\n\n# serif 1\n# textwindow \"nomal\"\n# textboxarrow 1 3\n# chara 100281\n# voice 9974 \"revatein_pok_collabo0301_0035\"\n@レーヴァテイン\n…！\n…なに、その武器？\n\n# serif 0\n# textboxarrow 0 1\n# chara 500911\n# face 302213 \"angry\"\n# voice 9974 \"moga_pok_collabo0301_0055\"\n@もが\nわからない\n…気付いたら、手にしていたの\n\n# serif 1\n# textboxarrow 1 3\n# chara 100281\n# voice 9974 \"revatein_pok_collabo0301_0036\"\n@レーヴァテイン\n特定のキラーズを持たない…\nあなた達、何者？\n\n;;思いつめた表情で、呟くみりん\n# serif 0\n# textboxarrow 0 2\n# chara 101511\n# voice 9974 \"mirin_pok_collabo0301_0070\"\n@みりん\n…それを知りたいから、\nユグドラシルを目指しているのよ…\n\n# serif 1\n# textboxarrow 1 3\n# chara 100281\n# voice 9974 \"revatein_pok_collabo0301_0037\"\n@レーヴァテイン\n…え…？\n\n# serif 0\n# textboxarrow 0 2\n# face 502213 \"angry\"\n# chara 101511\n# voice 9974 \"mirin_pok_collabo0301_0071_1\"\n@みりん\n私は、誰かの亜種なんかじゃない！\nれっきとした、\nひとりのキラープリンセスなの！\n\n# serif 0\n# textboxarrow 0 2\n# face 502213 \"usual\"\n# chara 101511\n# voice 9974 \"mirin_pok_collabo0301_0071_2\"\n@みりん\n自分の使命も、\n過去もハッキリしない…\n\n# serif 0\n# textboxarrow 0 2\n# face 502213 \"angry\"\n# chara 101511\n# voice 9974 \"mirin_pok_collabo0301_0071_3\"\n@みりん\nなんのために生まれて、\n生きているのかも知らずに…\n私は、死んでいきたくなんてないの！\n\n# serif 1\n# textboxarrow 1 1\n# chara 500911\n# face 302213 \"surprise\"\n# voice 9974 \"moga_pok_collabo0301_0056\"\n@もが\n…！\n\n# serif 0\n# textboxarrow 0 2\n# face 502213 \"usual\"\n# chara 101511\n# voice 9974 \"mirin_pok_collabo0301_0072_1\"\n@みりん\nオリジナルのキラーズが、\nすべてをもたらしてくれる…！\n\n# serif 0\n# textboxarrow 0 2\n# face 502213 \"angry\"\n# chara 101511\n# voice 9974 \"mirin_pok_collabo0301_0072_2\"\n@みりん\n自分が何者なのか、胸を張って\n答えられるようになれば…私は\nもっともっと強くなれるはずなの！\n\n# serif 0\n# textboxarrow 0 2\n# chara 101511\n# voice 9974 \"mirin_pok_collabo0301_0072_3\"\n@みりん\nだから…邪魔をしないで！\n\n# serif 1\n# textboxarrow 1 3\n# chara 100281\n# face 100221 \"normal\"\n# voice 9974 \"revatein_pok_collabo0301_0038\"\n@レーヴァテイン\n…それが\n…キラーズを求める理由…\n\n# serif 0\n# textboxarrow 0 3\n# textboxarrow 1 0\n# pos 24 5\n# alpha 24 1 0.5\n# alpha 100221 0 0.3\n# face 24 \"sad\"\n# chara 101411\n# voice 9974 \"tyrufing_pok_collabo0301_0012\"\n@ティルフィング\n…………\n\n# serif 1\n# textboxarrow 1 3\n# textboxarrow 0 0\n# alpha 24 0 0.3\n# alpha 502213 0 0.3\n# alpha 302213 0 0.3\n# leftin 500261 0.5\n# leftin 100281 0.5\n# alpha 100281 1 0\n# alpha 500261 1 0\n# face 100281 \"sad\"\n# face 500261 \"usual\"\n# chara 100281\n# voice 9974 \"revatein_k_pok_collabo0301_0021\"\n@スロウス\n…切実な願いなんだね…\nでも、残念…\n\n;;スーッと剣を構えるスロウス\n# serif 1\n# textboxarrow 1 3\n# face 100281 \"mad\"\n# chara 100281\n# voice 9974 \"revatein_k_pok_collabo0301_0022\"\n@スロウス\n…あなたがユグドラシルに\n辿り着くことはない…\nここで、消えるんだもの\n\n# serif 0\n# textboxarrow 0 1\n# face 500261 \"happy\"\n# chara 500261\n# voice 9974 \"furaikugeru_k_pok_collabo0301_0009_1\"\n@プライド\nイェー！！\nどんな武器を手にしても、\n絶対的な力の差は埋められない…！\n\n# serif 0\n# textboxarrow 0 1\n# chara 500261\n# face 500261 \"normal\"\n# voice 9974 \"furaikugeru_k_pok_collabo0301_0009_2\"\n@プライド\n私達を超える者なんて、\nナッシング！！\nＯＫ…フルバーストで行っちゃうよ？\n\n# serif 1\n# textboxarrow 1 3\n# textboxarrow 0 0\n# alpha 100221 1 0\n# alpha 502213 1 0\n# alpha 302213 1 0\n# rightin 302213 0.5\n# rightin 502213 0.5\n# rightin 100221 0.5\n# alpha 100281 0 0.3\n# alpha 500261 0 0.3\n# layer 502213 2\n# layer 302213 1\n# chara 100221\n# face 100221 \"sad\"\n# voice 9974 \"revatein_pok_collabo0301_0039\"\n@レーヴァテイン\nクッ…！\n\n;;スッと、みりんを守るように立つもが\n# serif 0\n# textboxarrow 0 1\n# chara 500911\n# face 302213 \"angry\"\n# voice 9974 \"moga_pok_collabo0301_0057\"\n@もが\n…行って\n\n# serif 1\n# textboxarrow 1 2\n# face 502213 \"surprise\"\n# chara 101511\n# voice 9974 \"mirin_pok_collabo0301_0073\"\n@みりん\nえ…？\n\n# serif 0\n# textboxarrow 0 1\n# chara 500911\n# voice 9974 \"moga_pok_collabo0301_0058\"\n@もが\nボクが、あの人達を引き付ける…\n少しぐらい、時間が稼げると思う\n\n# serif 1\n# textboxarrow 1 2\n# chara 101511\n# voice 9974 \"mirin_pok_collabo0301_0074\"\n@みりん\nは…！？\nだって、あなたもユグドラシルを\n目指してるんじゃ…\n\n# serif 0\n# textboxarrow 0 1\n# chara 500911\n# face 302213 \"sad\"\n# voice 9974 \"moga_pok_collabo0301_0059\"\n@もが\nいいんだ、ボクは…\nもう、願いは叶ったから\n\n# serif 1\n# textboxarrow 1 2\n# chara 101511\n# voice 9974 \"mirin_pok_collabo0301_0075\"\n@みりん\nえ…？\n\n# serif 0\n# textboxarrow 0 1\n# chara 500911\n# face 302213 \"shy\"\n# voice 9974 \"moga_pok_collabo0301_0060_1\"\n@もが\n仲間は\n見捨てちゃいけないんだよね…？\n\n# serif 0\n# textboxarrow 0 1\n# chara 500911\n# face 302213 \"happy\"\n# voice 9974 \"moga_pok_collabo0301_0060_2\"\n@もが\n…次は、キミが願いを叶える番だ\n絶対に辿り着くんだよ…《みりん》\n\n# serif 1\n# textboxarrow 1 2\n# face 101511 \"shy\"\n# chara 101511\n# voice 9974 \"mirin_pok_collabo0301_0076\"\n@みりん\n…！…もが…\n\n# imagealpha 0 1 0\n# imagepos 0 0 30\n# imageleftin 0 0.5\n# serif 0\n# textwindow \"close\"\n# serif 1\n# textwindow \"close\"\n# waitandnext 1\n\n# imagerightout 0 0.5\n# alpha 500261 1 0\n# alpha 100281 1 0\n# serif 0\n# textwindow \"nomal\"\n# textboxarrow 0 3\n# alpha 100221 0 0\n# alpha 302213 0 0\n# alpha 502213 0 0\n# face 100281 \"angry\"\n# chara 100281\n# voice 9974 \"revatein_k_pok_collabo0301_0023\"\n@スロウス\n…行くわ\n\n# serif 1\n# textwindow \"nomal\"\n# textboxarrow 1 1\n# chara 500261\n# face 500261 \"angry\"\n# voice 9974 \"furaikugeru_k_pok_collabo0301_0010\"\n@プライド\nＯＫ！…ＧＯ！！\n\n;;ドンッと一気に襲い来るスロウスとプライド\n# se \"SE_5776\"\n# fadeout \"black\" 1.2\n# rightout 100281 0.6\n# rightout 500261 0.6\n# serif 0\n# textwindow \"close\"\n# serif 1\n# textwindow \"close\"\n# waitandnext 1.5\n\n"
	}
]