[
	{
		"ID": 350071211,
		"script": ";;-----------------------------------------\n;;【ファントムオブキル】悪魔ブリューナク\n;;【EP1】\n;;スクリプト最後の背景：森（昼）\n;;背景：森（昼）\n;;-----------------------------------------\n# script \"lisp\"\n# background \"forest\"\n# bgmfile \"bgm270\" \"BgmLostRagnarokEvent\" 0\n;;-----------------------------------------\n;;ブリューナク\n# body 3500711\n# pos 3500711 3\n# scale 3500711 0.8 0\n# layer 3500711 2\n# alpha 3500711 0 0\n# mask 3500711 off\n;;-----------------------------------------\n;;【EP1】\n;;背景：森（昼）\n;;モノローグ\n# textflame 0 0\n@\nマスターたちはとある調査のため\n遺跡があるという森を訪れていた\n\n;;モノローグ\n@\n遭遇した敵との戦闘を終え\n斬ル姫たちには一度休憩をして\nもらっていたのだが…\n\n# move 3500711 3 0\n# face 3500711 \"sad\"\n# alpha 3500711 1 0.5\n# mask 3500711 off\n# textflame 1 1\n# textboxarrow 0 2\n@ブリューナク\n…………\n\n;;モノローグ\n# textflame 0 0\n@\nマスターは静かにひとり佇む\nブリューナクの存在が気になった\n\n;;モノローグ\n@\n地獄の伯爵である悪魔バルバトスを\nドミネイトされている彼女\n\n;;モノローグ\n@\nその影響か、悪魔らしい冷徹さと\n気品をまとう彼女の独特な雰囲気に、\n他の斬ル姫たちも近寄りがたいようだ\n\n;;モノローグ\n@\nけれど、今は隊の仲間である彼女\nここは自分からと、マスターは\nブリューナクに声をかける\n\n# face 3500711 \"normal\"\n# textflame 1 1\n# textboxarrow 0 2\n@ブリューナク\n…マスターか\n今は休憩中だろう？\nマスターもしっかり休むといい\n\n;;モノローグ\n# textflame 0 0\n@\n突き放す訳ではないが\nどこか距離感のある\nブリューナクの言葉…\n\n;;モノローグ\n@\n彼女の考えが読めず、\n何か気がかりなことがあるのか\nと、マスターは問う\n\n# voice 350071 \"buryunaku_a_0009\"\n# textflame 1 1\n# textboxarrow 0 2\n@ブリューナク\n気がかり？\n作戦は真っ当、進行は順調\nブリューナクが口を挟む必要はない\n\n;;モノローグ\n# textflame 0 0\n@\n不満があるなら\nなんでも言ってほしいと\nマスターはブリューナクに告げるが…\n\n# voice 350071 \"buryunaku_a_0034\"\n# textflame 1 1\n# textboxarrow 0 2\n@ブリューナク\nマスターに不満などある訳がない\nむしろ、我に不満があるのなら\n遠慮なく言ってほしい\n\n# face 3500711 \"sad\"\n# textboxarrow 0 2\n@ブリューナク\nブリューナクがマスターに\n気を遣わせてしまったのなら\n謝罪しよう\n\n;;モノローグ\n# textflame 0 0\n@\nブリューナクの言葉に嘘はない\nそう感じるのだが\nどうしても距離を感じてしまう…\n\n;;モノローグ\n@\n斬ル姫たちもそう感じて\nブリューナクとどう接していいか\nわからないのだろう、と思うマスター\n\n# face 3500711 \"normal\"\n# textflame 1 1\n# textboxarrow 0 2\n@ブリューナク\nマスターのことだ\nきっとブリューナクを\n心配してくれているのだろう\n\n# textboxarrow 0 2\n@ブリューナク\nだが、その必要はない\n我は我の意志の元\nマスターに従い戦っているのだから\n\n# textboxarrow 0 2\n@ブリューナク\nケイオスリオンで支配されていた我を\n解放し自由な旅へ連れ出してくれた\nマスターへの恩は計り知れない\n\n# textboxarrow 0 2\n@ブリューナク\nその恩を少しでも返すため\nブリューナクはマスターを守ると\nそう心に決めたのだ\n\n;;モノローグ\n# textflame 0 0\n@\nブリューナクからの信頼は本物\nだが、それは状況が生み出したもの…\n\n;;モノローグ\n@\nそれは心を通わせた信頼とは\n違うもののように思え、\nブリューナクとの溝は埋まらない…\n\n# voice 350071 \"buryunaku_a_0028\"\n# face 3500711 \"surprise\"\n# textflame 1 1\n# textboxarrow 0 2\n@ブリューナク\n納得がいかない、といった顔だな\n…ふむ、弱ったな…マスターを\n困らせるつもりはないのだが…\n\n;;モノローグ\n# textflame 0 0\n@\nブリューナクが悪い訳じゃない\nけど、どうすれば彼女と距離を\n縮められるか、考えるマスター\n\n# face 3500711 \"normal\"\n# textflame 1 1\n# textboxarrow 0 2\n@ブリューナク\nマスターのことは\nこのブリューナクが守る\nそれ以上のことは必要ないだろう？\n\n# textboxarrow 0 2\n@ブリューナク\n旅に余計な荷物は不要\n余計な悩みは無駄な重荷になるだけだ\n我のことにまで気を遣わなくてもいい\n\n;;モノローグ\n# textflame 0 0\n@\nそう言うと\nまた黙ってしまうブリューナク\n\n;;モノローグ\n@\nこれ以上の会話も不要\n…ということだろう\n\n# textflame 1 1\n# textboxarrow 0 2\n@ブリューナク\n…………\n\n;;モノローグ\n# alpha 3500711 0 0.5\n# textflame 0 0\n@\n気まずい空気をまといながらも、\nマスターたちは\n調査を続行するのだった"
	}
]