[
	{
		"ID": 3500701,
		"script": ";;でんぱイベント ねむ・えいたそブロック ＥＰ３（ＳＴＡＧＥ２）　戦闘前\n;;【指定】bgm005\n# script \"lisp\"\n# bgm \"bgm005\" 0\n# background \"forest_totaleclipse\"\n# body 200911\n# pos 200911 4\n# scale 200911 0.8 0\n# body 400911\n# pos 400911 2\n# scale 400911 0.8 0\n# face 400911 \"usual\"\n# textflame 1 1\n# textboxarrow 0 3\n# chara 200911\n# voice 9974 \"nemu_pok_collabo0302_0032\"\n@ねむ\n…ねぇ、えいたそ？\n\n# serif 1\n# textboxarrow 1 1\n# chara 400911\n# voice 9974 \"eitaso_pok_collabo0302_0031\"\n@えいたそ\nん？\n\n# serif 0\n# textboxarrow 0 3\n# chara 200911\n# voice 9974 \"nemu_pok_collabo0302_0033\"\n@ねむ\nユグドラシルにあるのは…\nあなたの目も眩んでしまうような、\nキラキラしたものって言ったわよね？\n\n# serif 1\n# textboxarrow 1 1\n# chara 400911\n# face 400911 \"surprise\"\n# voice 9974 \"eitaso_pok_collabo0302_0032\"\n@えいたそ\nうん…それが？\n\n# serif 0\n# textboxarrow 0 3\n# chara 200911\n# face 200911 \"sad\"\n# voice 9974 \"nemu_pok_collabo0302_0034\"\n@ねむ\nんー…なんだかわからないけど、\nそんなのあるのかなぁ？\n\n# serif 1\n# textboxarrow 1 1\n# chara 400911\n# face 400911 \"shy\"\n# voice 9974 \"eitaso_pok_collabo0302_0033\"\n@えいたそ\n…どういう意味？\n\n# serif 0\n# textboxarrow 0 3\n# chara 200911\n# voice 9974 \"nemu_pok_collabo0302_0035\"\n@ねむ\nんー…悪く捉えないでほしいんだけど\nなんていうか…\n\n# serif 1\n# textboxarrow 1 1\n# chara 400911\n# face 400911 \"surprise\"\n# voice 9974 \"eitaso_pok_collabo0302_0034\"\n@えいたそ\n…なんで、そういうこと言うの？\n七色のまんじゅうに、\n私が気乗りしなかったから？\n\n# serif 0\n# textboxarrow 0 3\n# chara 200911\n# face 200911 \"angry\"\n# voice 9974 \"nemu_pok_collabo0302_0036\"\n@ねむ\nまんじゅうじゃない！\n肉まん！！中に入ってるのは、\nあんこじゃないよ！！\n\n# serif 1\n# textboxarrow 1 1\n# chara 400911\n# voice 9974 \"eitaso_pok_collabo0302_0035_1\"\n@えいたそ\nどっちでも、おんなじだもん！\nそれこそ、あるようには思えない…\n\n# serif 1\n# textboxarrow 1 1\n# chara 400911\n# face 400911 \"angry\"\n# voice 9974 \"eitaso_pok_collabo0302_0035_2\"\n@えいたそ\n木に、まんじゅうが\nぶら下がってるなんて…\n\n# serif 0\n# textboxarrow 0 3\n# body 100161\n# pos 100161 5\n# scale 100161 0.8 0\n# alpha 100161 0 0\n# chara 200911\n# voice 9974 \"nemu_pok_collabo0302_0037\"\n@ねむ\nだから！\nまんじゅうじゃないってば！！\n\n;;二人の背後に音もなく現れるラース\n;;【指定】SE_5776\n;;【指定】bgm024\n# bgm \"bgm024\" 0\n# se \"SE_5776\"\n# textboxarrow 0 0\n# textboxarrow 1 0\n# move 200911 1 0.5\n# alpha 400911 0 0.3\n# rightin 100161 0.7\n# alpha 100161 1 0\n# waitandnext 1.5\n\n;;スラリと刀を抜き、駆け出そうとするラース。そこへ突如、声がかかる\n;;【指定】SE_5582\n# se \"SE_5582\"\n# fadein \"black\" 0.8\n# serif 1\n# textboxarrow 1 3\n# chara 100161\n# voice 9974 \"masamune_k_pok_collabo0302_0003\"\n@ラース\n…あまりに隙だらけ…\n…もはや様子を伺う必要もない…！\n\n;;マサムネ\n# serif 0\n# textboxarrow 0 0\n# body 100111\n# pos 100111 4\n# scale 100111 0.8 0\n# alpha 100111 0 0\n# chara 100111\n# face 100111 \"nutual\"\n# voice 9974 \"masamune_pok_collabo0302_0001\"\n@？？？\nキラープリンセス相手に、\n刀を抜くとは…\nおぬし、暴走しておるのか？\n\n;;咄嗟に、背後の声の主に刀を振りぬくラース\n;;ギャリンと火花を散らし、その刃を受け止めたのはファーストキラーズ・マサムネ\n;;【指定】SE_9017\n# se \"SE_9017\"\n# serif 1\n# textboxarrow 1 1\n# move 100161 2 0.3\n# fadein \"white\" 0.5\n# alpha 200911 0 0.2\n# rightin 100111 0.3\n# alpha 100111 1 0\n# chara 100161\n# face 100161 \"surprise\"\n# voice 9974 \"masamune_k_pok_collabo0302_0004\"\n@ラース\n…！\n\n# serif 0\n# textboxarrow 0 3\n# move 100161 1 0.5\n# move 100111 5 0.5\n# chara 100111\n# face 100111 \"angry\"\n# voice 9974 \"masamune_pok_collabo0302_0002_1\"\n@マサムネ\nクッ…！\nおぬしを淘汰の対象と感じぬのは、\nどういうわけだ…？\n\n# serif 0\n# textboxarrow 0 3\n# chara 100111\n# voice 9974 \"masamune_pok_collabo0302_0002_2\"\n@マサムネ\nその姿、かりそめのものか…？\n\n;;ヒュッと刀を振りぬくラース\n;;【指定】SE_5582\n# se \"SE_5582\"\n# fadein \"black\" 0.8\n# serif 1\n# textboxarrow 1 1\n# chara 100161\n# face 100161 \"usual\"\n# voice 9974 \"masamune_k_pok_collabo0302_0005\"\n@ラース\n…フン\n\n# serif 0\n# textboxarrow 0 3\n# face 100111 \"angry\"\n# chara 100111\n# voice 9974 \"masamune_pok_collabo0302_0003\"\n@マサムネ\n！？\n\n;;咄嗟に刀で防御するマサムネ\n;;ギャリンッと飛び散る激しい火花に、その騒ぎに気付くねむとえいたそ\n;;【指定】SE_9017\n# fadein \"white\" 1\n# se \"SE_9017\"\n# serif 0\n# textboxarrow 0 3\n# textboxarrow 1 0\n# move 100161 3 0.3\n# chara 100111\n# face 100111 \"nutual\"\n# voice 9974 \"masamune_pok_collabo0302_0004\"\n@マサムネ\nグッ…！\n\n# serif 1\n# textboxarrow 1 1\n# textboxarrow 0 0\n# pos 200911 4\n# pos 400911 2\n# alpha 100161 0 0.3\n# alpha 100111 0 0.3\n# rightin 200911 0.5\n# rightin 400911 0.5\n# alpha 400911 1 0\n# alpha 200911 1 0\n# face 200911 \"surprise\"\n# chara 400911\n# face 400911 \"surprise\"\n# voice 9974 \"eitaso_pok_collabo0302_0036\"\n@えいたそ\nな、なに！？\n\n# serif 0\n# textboxarrow 0 3\n# chara 200911\n# voice 9974 \"nemu_pok_collabo0302_0038\"\n@ねむ\nマサムネが二人…！？\n…淘汰！？\n\n# serif 1\n# textboxarrow 1 1\n# pos 100161 1\n# move 200911 5 0.5\n# move 400911 3 0.5\n# leftin 100161 0.5\n# alpha 100161 1 0\n# chara 100161\n# voice 9974 \"masamune_k_pok_collabo0302_0006_1\"\n@ラース\n…このような雑魚と一緒にするな\n拙者はコードネーム《ラース》…\n\n# serif 1\n# textboxarrow 1 1\n# chara 100161\n# face 100161 \"angry\"\n# voice 9974 \"masamune_k_pok_collabo0302_0006_2\"\n@ラース\n《憤怒》の罪を背負いし\nキラープリンセスなり\n\n# serif 1\n# textboxarrow 1 1\n# chara 100161\n# voice 9974 \"masamune_k_pok_collabo0302_0006_3\"\n@ラース\n何者かは知らぬが…\nおぬしら二人の命、もらい受ける！！\n\n# jump 200911\n# jump 400911\n# serif 0\n# textboxarrow 0 0\n# voice 9974 \"eitaso_pok_collabo0302_0037\"\n# voice 9974 \"nemu_pok_collabo0302_0039\"\n@ねむ・えいたそ\nえええ！？\n\n"
	}
]