[
	{
		"ID": 350172212,
		"script": ";;-----------------------------------------\n;;グリモワール2-1\n;;-----------------------------------------\n# script \"lisp\"\n# background \"town_night_snow\"\n# bgm \"bgm032\" 0\n;;-----------------------------------------\n# body 3501721\n# pos 3501721 3\n# scale 3501721 0.8 0\n# layer 3501721 3\n# mask 3501721 off\n# alpha 3501721 0 0\n# body 3810001\n# pos 3810001 3\n# scale 3810001 0.8 0\n# layer 3810001 3\n# mask 3810001 off\n# alpha 3810001 0 0\n;;-----------------------------------------\n;;背景：「背景１：街中」雪の日の街中の景色があればそちらでお願いします\n# textflame 0 0\n@\nグリモワールたちは、\nなんとかハルモニア兵を退け、\nサンタを助けることに成功する\n\n# textflame 0 0\n@\nだが、騒動の中で\nサンタは足に怪我を\n負ってしまったのだった\n\n# textflame 0 0\n@\nグリモワールは\n応急処置をしながら\nサンタに対して告げる\n\n# alpha 3501721 1 0.5\n# voice 350172 \"grimoire_ge_0003\"\n# face 3501721 \"usual\"\n# textflame 1 1\n# textboxarrow 0 2\n@グリモワール\n重傷ってわけじゃないけど\n一週間くらいは\nおとなしくしてたほうがいいわ\n\n# textflame 0 0\n@\nそんな彼女の言葉に\nサンタは首を横に振り、\n立ち上がった\n\n# voice 350172 \"grimoire_ge_0002\"\n# textflame 1 1\n# textboxarrow 0 2\n@グリモワール\n…どうして、\nそこまでする必要があるの？\n\n# textflame 1 1\n# textboxarrow 0 2\n@グリモワール\nプレゼントを渡すんだったら\n別に今日じゃなくっても\nいつでもいいじゃない！\n\n# textflame 0 0\n@\nしかし、それでもサンタは\n子供たちが待っているからと\n足を引きずりながら歩き出す\n\n# voice 350172 \"grimoire_ge_0027\"\n# face 3501721 \"angry\"\n# textflame 1 1\n# textboxarrow 0 2\n@グリモワール\n…理解できないわ\n\n# textflame 0 0\n@\nすると、マスターがサンタに\n自分たちが代わりに配ると\n言い出す\n\n# voice 350172 \"grimoire_ge_0023\"\n# face 3501721 \"surprise\"\n# textflame 1 1\n# textboxarrow 0 2\n@グリモワール\nちょ、ちょっと待って\nたちってことは、ワタシも？\n\n# textflame 0 0\n@\nそうだよ、と\nにっこり微笑むマスター\n\n# voice 350172 \"grimoire_ge_0010\"\n# textflame 1 1\n# textboxarrow 0 2\n@グリモワール\n冗談じゃないわ\nどうして、ワタシが\nそんなことしないといけないのよ！\n\n# textflame 0 0\n@\nサンタのことが理解できないなら\nやってみるのが一番早いよ\nというマスター\n\n# textflame 1 1\n# textboxarrow 0 2\n@グリモワール\nで、でも、だからって…\n\n# textflame 0 0\n@\n理解できないからって\n知ろうともしないの？\nその言葉に詰まるグリモワール\n\n# face 3501721 \"angry\"\n# textflame 1 1\n# textboxarrow 0 2\n@グリモワール\nあー、もう、わかったわよ\nやればいいんでしょ、\nやれば！\n\n# imageset 0 \"black\"\n# imagealpha 0 0 0\n# imagelayer 0 1\n# textflame 0 0\n@\nこうして、二人は\nサンタの代わりに\nプレゼントを配るのだった\n\n;;暗転（時間経過）\n# imagealpha 0 1 0\n# imagepos 0 0 30\n# imageleftin 0 0.5\n# textwindow \"close\"\n# waitandnext 0.5\n\n# alpha 3501721 0 0\n# waitandnext 0.2\n\n# imagealpha 0 0 0.5\n# imagerightout 0 0.5\n# waitandnext 0.5\n\n# alpha 3501721 1 1.5\n# textwindow \"nomal\"\n# face 3501721 \"normal\"\n# textflame 1 1\n# textboxarrow 0 2\n@グリモワール\n……\n\n# textflame 0 0\n@\n寝ている子供を起こさないように\n枕元にそっと\nプレゼントを置くグリモワール\n\n# textflame 0 0\n@\n家を出る時に、その子の両親に\nありがとうございます\nあの子も喜びますとお礼を言われる\n\n# voice 350172 \"grimoire_ge_0007\"\n# textflame 1 1\n# textboxarrow 0 2\n@グリモワール\n…別に\n頼まれたからやってるだけよ\nほらマスター、次行くわよ\n\n# textflame 0 0\n@\n少し照れながら、\nぶっきらぼうに挨拶をして出ていく\n\n# textflame 0 0\n@\n道中、マスターは\n少しはサンタの気持ち、わかった？\nと問いかけてみる\n\n# voice 350172 \"grimoire_ge_0028\"\n# face 3501721 \"angry\"\n# textflame 1 1\n# textboxarrow 0 2\n@グリモワール\n全然よ\nさっきの家で１５件目だけど、\n逆にわからなくなったくらいだわ\n\n# textflame 1 1\n# textboxarrow 0 2\n@グリモワール\n寒いし、疲れるし\nいいことなんてないじゃない\n正直、もう止めたいくらいよ\n\n# face 3501721 \"usual\"\n# textflame 1 1\n# textboxarrow 0 2\n@グリモワール\nまあ、一度引き受けたからには\n最後までやるけど…\n\n# alpha 3501721 0 0.5\n# alpha 3810001 1 0.5\n# textflame 1 1\n# textboxarrow 0 2\n@ハルモニア兵\nあなたたちですね？\n報告にあった、深夜に街をさまよう\n不審者というのは\n\n# textflame 0 0\n@\n突然、目の前に\nハルモニア兵が現れた\nマスターは逃げようと提案するが…\n\n# alpha 3501721 1 0.5\n# alpha 3810001 0 0.5\n# voice 350172 \"grimoire_ge_0034\"\n# textflame 1 1\n# textboxarrow 0 2\n@グリモワール\nそんなことしてたら\n朝までにプレゼントを\n全部配れないわ\n\n# face 3501721 \"angry\"\n# textflame 1 1\n# textboxarrow 0 2\n@グリモワール\nここは強引に押し切るわよ！"
	}
]