[
	{
		"ID": 350131211,
		"script": ";;-----------------------------------------\n;;ほむら1-1\n;;-----------------------------------------\n# script \"lisp\"\n# background \"plain\"\n# bgmfile \"bgm270\" \"BgmLostRagnarokEvent\" 0\n;;-----------------------------------------\n;;ほむら\n# body 3501311\n# pos 3501311 3\n# scale 3501311 0.8 0\n# layer 3501311 2\n# alpha 3501311 0 0\n# mask 3501311 off\n;;ほむら（通常）\n# body 501311\n# pos 501311 3\n# scale 501311 0.8 0\n# layer 501311 2\n# alpha 501311 1 0\n# mask 501311 off\n;;-----------------------------------------\n;;背景：平原など\n;;演出：ほむら通常衣装\n# textflame 1 1\n# textboxarrow 0 2\n# face 501311 \"normal\"\n# voice 5013 \"homura_battle_0001\"\n@ほむら\nはっ！\n\n;;演出：攻撃エフェクト、倒される敵兵\n# fadein \"white\" 0.5\n# textflame 0 0\n@\nほむらは目にも止まらぬ動きで\n敵兵を倒していく\nその姿は頼もしいの一言に尽きる\n\n# textflame 1 1\n# textboxarrow 0 2\n@ほむら\n…………\n\n# textflame 0 0\n@\nだが、ほむらとマスター達の関係は\n戦いにおいて、単なる協力関係であり\nそれ以外のなにものでもない\n\n# textflame 1 1\n# textboxarrow 0 2\n# voice 5013 \"homura_0003\"\n@ほむら\n…また、戦闘があれば\nいつでも力になるわ\n\n# textflame 0 0\n@\nそう言ってマスター達から\n離れていくほむらに\nマスターは何か声を掛けたいが…\n\n# select \"…わかった\" \"select_label_01\" \"一緒に休憩しない？\" \"select_label_02\" \"今日はいい天気だね\" \"select_label_03\"\nそう言ってマスター達から\n離れていくほむらに\nマスターは何か声を掛けたいが…\n\n;;Ａ\n# label \"select_label_01\"\n# labeljump \"select_label_end\"\n# textflame 1 1\n# textboxarrow 0 2\n@ほむら\n…………\n\n;;Ｂ\n# label \"select_label_02\"\n# labeljump \"select_label_end\"\n# textflame 1 1\n# textboxarrow 0 2\n@ほむら\n結構よ\n\n;;Ｃ\n# label \"select_label_03\"\n# labeljump \"select_label_end\"\n# textflame 1 1\n# textboxarrow 0 2\n@ほむら\n…そうかしら\n\n;;答えたあと\n# label \"select_label_end\"\n# textflame 0 0\n@\nほむらとの会話は\nどうも上手く弾まない\n\n# textflame 1 1\n# textboxarrow 0 2\n@ほむら\n…………\n\n# textflame 1 1\n# textboxarrow 0 2\n# voice 5013 \"homura_0002\"\n@ほむら\nわたしについて\n何か心配しているなら\nそれは無用よ\n\n# textflame 1 1\n# textboxarrow 0 2\n@ほむら\nあくまで今の状況で\n目的が一致しているから\n共に行動しているだけだから\n\n# imageset 0 \"black\"\n# imagealpha 0 0 0\n# imagelayer 0 1\n;;演出：ほむらout\n# alpha 501311 0 0.5\n# textflame 0 0\n@\nマスターは\nそんなほむらを\nただ見送ることしかできなかった\n\n;;演出：時間経過の暗転\n# imagealpha 0 1 0\n# imagepos 0 0 30\n# imageleftin 0 0.5\n# serif 0\n# textwindow \"close\"\n# serif 1\n# textwindow \"close\"\n# waitandnext 0.7\n\n# imagealpha 0 0 0.5\n# imagerightout 0 0.5\n# waitandnext 0.5\n\n# serif 0\n# textwindow \"nomal\"\n# textflame 0 0\n@\nある日のこと\nマスター達は補給のために\n近くの街を訪れることになった\n\n# textflame 0 0\n@\nそのメンバーの中に\nほむらがいるのだが…\n\n# textflame 0 0\n@\nほむらの能力に不満はない\nきっと大丈夫だろうと\nマスターは気を取り直す\n\n;;演出：ほむらドレスverでin\n# alpha 3501311 1 0.5\n# textflame 0 0\n@\nしかし、そこに現れた\nほむらの格好にマスターは息を飲む\n\n# textflame 1 1\n# textboxarrow 0 2\n# face 3501311 \"surprise\"\n# voice 350131 \"homura_0009\"\n@ほむら\n…ん？\nああ、この服ね\n\n# textflame 1 1\n# textboxarrow 0 2\n# face 3501311 \"normal\"\n@ほむら\nあの辺りに潜入するなら\nこれがいいって言われたのよ\n\n# textflame 0 0\n@\nほむらに何かを吹き込んだであろう\n斬ル姫達のほうを見ると\nなぜかグッと親指を立てている\n\n# textflame 0 0\n@\n見慣れないほむらの服装に\n違和感を覚えつつマスター達は\n補給へ向かうのだった…\n\n;;演出：移動の暗転\n;;背景：平原\n# imagealpha 0 1 0\n# imagepos 0 0 30\n# imageleftin 0 0.5\n# serif 0\n# textwindow \"close\"\n# serif 1\n# textwindow \"close\"\n# waitandnext 0.7\n\n# imagealpha 0 0 0.5\n# imagerightout 0 0.5\n# waitandnext 0.5\n\n# serif 0\n# textwindow \"nomal\"\n# textflame 1 1\n# textboxarrow 0 2\n# voice 350131 \"homura_0001\"\n@ほむら\n…さっきから\n落ち着かないようだけど、\nどうしたの？\n\n# textflame 0 0\n@\nなんでもない、と返すマスター\n本当はいつもと違うほむらの\n雰囲気にドキドキしているのだが…\n\n# textflame 1 1\n# textboxarrow 0 2\n@ほむら\n…そう\n油断だけはしないでほしいわ\n\n# textflame 0 0\n@\nそのほむらの言葉に\nハッとしたマスター\n前方には敵兵が…\n\n# textflame 1 1\n# textboxarrow 0 2\n# face 3501311 \"angry\"\n# voice 350131 \"homura_battle_0005\"\n@ほむら\n巡回中の兵士に\nこんなにあっさり\n見つかるなんて…！"
	}
]