[
	{
		"ID": 350322211,
		"script": ";;-----------------------------------------\n;;賀正ティファレト1-1\n;;-----------------------------------------\n# script \"lisp\"\n# background \"plain_night\"\n# bgmfile \"bgm358\" \"BgmNewYear002\" 0\n;;-----------------------------------------\n# body 3503221\n# pos 3503221 3\n# scale 3503221 0.8 0\n# layer 3503221 2\n# alpha 3503221 1 0\n# mask 3503221 off\n;;-----------------------------------------\n;;背景：森（夜）←さいとうメモ：森の夜合わなかったので平原夜に変更\n;;演出：ティファレト正月衣装\n# textflame 1 1\n# textboxarrow 0 2\n# face 3503221 \"normal\"\n@ティファレト\nフリソデ…というのは\n不思議なものですね\n\n# textflame 1 1\n# textboxarrow 0 2\n@ティファレト\n決して戦うのに\n適した服装ではないのですが\nなんとも気が引き締まります\n\n# textflame 0 0\n@\nお正月特有の浮ついたような\nけれど厳かな雰囲気のなか\nティファレトは言う\n\n# textflame 1 1\n# textboxarrow 0 2\n@ティファレト\n新年を迎えるということは\nとても…素晴らしいことですね\n\n# textflame 0 0\n@\n素晴らしい、という割には\nティファレトの少し固い表情に\n違和感を覚えるマスター\n\n# textflame 1 1\n# textboxarrow 0 2\n# face 3503221 \"surprise\"\n@ティファレト\nああ、申し訳ありません\n私にとってこの時期は\n少々特別な思いがありまして…\n\n# textflame 0 0\n@\nマスターはティファレトに\n話してみて、と促す\n\n# textflame 1 1\n# textboxarrow 0 2\n# face 3503221 \"normal\"\n# voice 350322 \"tiphereth_t_0003\"\n@ティファレト\n私が教皇であった頃の\n話になるのですが…\n\n# textflame 1 1\n# textboxarrow 0 2\n@ティファレト\n新年を迎えるということは\n教皇として国の民を１年間、無事に\n導くことができたという確認…\n\n# textflame 1 1\n# textboxarrow 0 2\n@ティファレト\nそれと同時に新たな１年へ向けて\n改めて気を引き締める\nそういうものだったのです\n\n# textflame 1 1\n# textboxarrow 0 2\n@ティファレト\n言葉にすれば\nいいことのように感じられますが\nその重圧はすさまじいものでした\n\n# textflame 1 1\n# textboxarrow 0 2\n# face 3503221 \"sad\"\n# voice 350322 \"tiphereth_t_0028\"\n@ティファレト\n自分は間違っていなかった\nこの先も間違えないようにしよう\nそのことばかり考えていたのです…\n\n# textflame 0 0\n@\nティファレトは\n遠くを見つめその頃のことを\n思い出しているかのようだった\n\n# textflame 1 1\n# textboxarrow 0 2\n@ティファレト\n民を無事に導けたこと\nそこに喜びはありました\n\n# textflame 1 1\n# textboxarrow 0 2\n@ティファレト\nしかし教皇としての私は諸手を挙げて\n民に対しての一年の息災を\n喜ぶことはできませんでした\n\n# textflame 1 1\n# textboxarrow 0 2\n# face 3503221 \"normal\"\n@ティファレト\n…と、いうのも過去の話\n今は主様のもとで、ただの斬ル姫\nとして新年を迎えられます\n\n# textflame 1 1\n# textboxarrow 0 2\n# face 3503221 \"happy\"\n# voice 350322 \"tiphereth_t_0004\"\n@ティファレト\nこのように新しい衣装も\n用意していただけましたし\n\n# textflame 0 0\n@\nティファレトは\nそう言ってにこりと笑うが\nふと、また表情を曇らせる\n\n# textflame 1 1\n# textboxarrow 0 2\n# face 3503221 \"sad\"\n@ティファレト\n…けれど、民を導くことが\nできなかったという過ちは\nなかったことにできませんよね\n\n# textflame 0 0\n@\nティファレトは\nどうしても教皇であった頃のことが\n気がかりなのだろう\n\n# textflame 0 0\n@\nそれは彼女の優しさであり\n誰かのためであろうとするという\n強さにも繋がっているのだろう\n\n# textflame 0 0\n@\nしかし、後悔が\n原動力というのはあまりにも悲しい\n何かできないかと考えるマスター\n\n# textflame 1 1\n# textboxarrow 0 2\n@ティファレト\n主様…\n今の私に何かできることは\nあるのでしょうか？\n\n# textflame 0 0\n@\nその意味は違えど\nティファレトも\n同じことを考えていたようだ\n\n# textflame 0 0\n@\nティファレトは\n以前マスターの指示に従い\n自分の意志を見せなかった\n\n# textflame 0 0\n@\nそんなティファレトが\n何かできることはないかと\n相談してくれた\n\n# textflame 0 0\n@\n何か…と考え込むマスター\n\n# textflame 1 1\n# textboxarrow 0 2\n# face 3503221 \"surprise\"\n# voice 350322 \"tiphereth_t_0002\"\n@ティファレト\nあの…主様？\nどうなされましたか？\n私が何か…\n\n# textflame 0 0\n@\n今のティファレトにできること…\nそれは初詣、かな\nマスターはそう告げる\n\n# textflame 1 1\n# textboxarrow 0 2\n# face 3503221 \"surprise\"\n# voice 350322 \"tiphereth_t_0022\"\n@ティファレト\nは、初詣ですか？\n\n# textflame 0 0\n@\n呆気にとられるティファレトを連れ\nマスターは初詣へ向けて出発する"
	}
]