[
	{
		"ID": 360251202,
		"script": ";;【EP2】\n;;//背景：街道\n# script \"lisp\"\n# background \"plain\"\n# bgm \"bgm002\" 0\n# textwindow \"nomal\"\n# body 3602511\n# mask 3602511 off\n# pos 3602511 2\n# scale 3602511 0.8 0\n# alpha 3602511 0 0\n# body 163\n# pos 163 4\n# scale 163 0.6 0\n# layer 163 2\n# alpha 163 0 0\n# body 3810001\n# pos 3810001 3\n# scale 3810001 0.8 0\n# alpha 3810001 0 0\n# entry 9938199 3810001\n# pos 9938199 5\n# scale 9938199 0.8 0\n# alpha 9938199 0 0\n# entry 99381991 3810001\n# pos 99381991 1\n# scale 99381991 0.8 0\n# alpha 99381991 0 0\n# textflame 0 0\n@\nマスターとのやり取りから\n数日後\n二人は拠点から離れていた\n\n# alpha 163 1 0.5\n# alpha 3602511 1 0.5\n# textflame 1 1\n# textboxarrow 0 3\n# voice 9951 \"kipuru_0001\"\n@キプル\nあああ、カリス！\n隊から離れすぎですっ…\n勝手なことをしては―\n\n# face 3602511 \"happy\"\n# textflame 1 1\n# textboxarrow 0 1\n# voice 6025 \"chalice_t_0004\"\n@カリス\nなんとなくだけど、\n大丈夫だって～！\n\n# textflame 1 1\n# textboxarrow 0 3\n# voice 9951 \"kipuru_0013\"\n@キプル\nすいません、マスター！\nカリスを止められなくて、\n本当にすいません！\n\n# textflame 0 0\n@\n必死に止めようとするキプルだったが\nカリスの押しに負けてついていく\n\n# textflame 1 1\n# textboxarrow 0 1\n# voice 6025 \"chalice_t_0002\"\n@カリス\nあそこって…\n擬人区だったよね？\n\n# textflame 0 0\n@\nカリスが指差したのは、\nハルモニアのイミテーションが\n暮らす地区―擬人区だった\n\n# face 3602511 \"angry\"\n# textflame 1 1\n# textboxarrow 0 1\n# voice 6025 \"chalice_t_0004\"\n@カリス\nなんとなくだけど、\nあそこが気になる！\n\n# textflame 0 0\n@\n目的地以外なにも見えないように\n走るカリスを追ってキプルも\n擬人区に向かった\n\n;;//暗転\n;;//背景：奴隷地区\n# textwindow \"close\"\n# fadeout \"black\" 0.5\n# waitandnext 0.5\n\n# move 3602511 3 0\n# alpha 163 0 0\n# bgmfile \"bgm276\" \"BgmLostRagnarokEvent\" 0\n# background \"church_room\"\n# waitandnext 0.5\n\n# fadein \"black\" 0.5\n# waitandnext 0.5\n\n# textwindow \"nomal\"\n# textflame 0 0\n@\nどこか寂れた雰囲気を感じさせる\n擬人区\nそこに足を踏み入れたカリス達\n\n;;//成人男性\n# serif 1\n# brightness 3602511 0.5 0.2\n# brightness 163 0.5 0.2\n@イミテーションA\nう、ぅぅ…\n\n# serif 1\n# textwindow \"close\"\n# serif 0\n# brightness 3602511 1 0.2\n# brightness 163 1 0.2\n# textflame 1 1\n# textboxarrow 0 2\n# face 3602511 \"surprise\"\n# voice 6025 \"chalice_t_0022\"\n@カリス\n大丈夫！？\n\n# textflame 0 0\n@\n彼女達が目にしたのは、\n力なく倒れこむイミテーション達の\n姿だった\n\n# brightness 3602511 0.5 0.2\n# brightness 163 0.5 0.2\n# serif 1\n@イミテーションA\nう、あ…\n\n# serif 1\n@イミテーションB\nう、ぐ…\n\n# serif 1\n@イミテーションC\nはぁ…っ、はあ…\n\n# serif 1\n# textwindow \"close\"\n# serif 0\n# brightness 3602511 1 0.2\n# brightness 163 1 0.2\n# textflame 1 1\n# textboxarrow 0 2\n# face 3602511 \"sad\"\n# voice 6025 \"chalice_t_0015\"\n@カリス\nすごい熱っ！\nそれに汗も…\n\n# serif 1\n# brightness 3602511 0.5 0.2\n# brightness 163 0.5 0.2\n@イミテーションA\nお、お嬢さん…止めるんだ\nアンタにも感染ってしまう\nこれは病だ…\n\n# serif 1\n# textwindow \"close\"\n# serif 0\n# brightness 3602511 1 0.2\n# brightness 163 1 0.2\n# textflame 1 1\n# face 3602511 \"happy\"\n# textboxarrow 0 2\n# voice 6025 \"chalice_t_0005\"\n@カリス\n任せてよ！\nそれなら、わたしが治すから！\nいっくよぉぉっ！\n\n# textflame 0 0\n@\n杖を取り出し、魔力を流すカリス\n放たれる淡い光が、\nイミテーションに降り注ぐ\n\n# serif 1\n# brightness 3602511 0.5 0.2\n# brightness 163 0.5 0.2\n@イミテーションA\nアンタ…っ、斬ル姫か…\nいや、いい…\n\n# serif 1\n@イミテーションA\n助けてもらった、なら…\n斬ル姫だとか、関係ない\n\n# serif 1\n# textwindow \"close\"\n# serif 0\n# brightness 3602511 1 0.2\n# brightness 163 1 0.2\n# textflame 1 1\n# textboxarrow 0 2\n# face 3602511 \"normal\"\n@カリス\nよしっ！\nこれでどうかな？\n\n# serif 1\n# brightness 3602511 0.5 0.2\n# brightness 163 0.5 0.2\n@イミテーションA\nああ…\n苦しかったのは、治まったよ\nありがとう\n\n# serif 1\n@イミテーションB\nぐっ…\nあなたは命の恩人だ\n\n# serif 1\n# textwindow \"close\"\n# serif 0\n# brightness 3602511 1 0.2\n# brightness 163 1 0.2\n# textflame 1 1\n# textboxarrow 0 2\n# face 3602511 \"happy\"\n# voice 6025 \"chalice_t_0021\"\n@カリス\nあははっ！\nカリスちゃんってばマジ天使！\n…なんてね\n\n# textflame 0 0\n@\n人々から感謝されたことに、\nカリスは照れくさそうに\n笑みを浮かべた\n\n# alpha 163 1 0.5\n# textflame 1 1\n# textboxarrow 0 3\n# voice 9951 \"kipuru_0002\"\n@キプル\nカリス\n終わったなら早く戻りましょう\n日が暮れてしまいますよ\n\n# textflame 1 1\n# textboxarrow 0 2\n# voice 6025 \"chalice_t_0003\"\n@カリス\nそうだねっ\n急がないと―\n\n# bgm \"stop\"\n;;//ここは立ち絵なしで\n;;//ハルモニア兵\n# serif 1\n# brightness 3602511 0.5 0.2\n# brightness 163 0.5 0.2\n@？？\n待ちなさい\n\n# bgmfile \"bgm271\" \"BgmLostRagnarokEvent\" 0\n# face 3602511 \"surprise\"\n# serif 1\n# textwindow \"close\"\n# serif 0\n# brightness 3602511 1 0.2\n# brightness 163 1 0.2\n# textboxarrow 0 3\n# voice 9951 \"kipuru_0023\"\n@キプル\nしょえええ！？\n見つかってしまいました！\n\n;;//ハルモニア兵の立ち絵表示\n# alpha 3602511 0 0.5\n# alpha 163 0 0.5\n# alpha 3810001 1 0.5\n# textboxarrow 0 2\n@ハルモニア兵\nやはりあなたはカリス…\n教皇様の加護を受けながら\n逃げ出した背信者\n\n@ハルモニア兵\n今、教皇様のもとに帰るというなら、\nその罪も軽くなるでしょう\nこちらに来なさい\n\n# alpha 3602511 1 0.5\n# alpha 163 1 0.5\n# alpha 3810001 0 0.5\n# textflame 1 1\n# face 3602511 \"angry\"\n# textboxarrow 0 2\n# voice 6025 \"chalice_t_0011\"\n@カリス\nそんなの聞けないよっ！\n\n# alpha 3602511 0 0.5\n# alpha 163 0 0.5\n# alpha 3810001 1 0.5\n# textboxarrow 0 2\n@ハルモニア兵\nふん…まあ、いいでしょう\n教皇様に仇なす背信者は\n粛清します\n\n@ハルモニア兵\nついでにそこの奴隷共も\n排除しなければ…\n\n@ハルモニア兵\n感染が我々、天使人にも\n拡がる可能性がありますから\n\n# alpha 3602511 1 0.5\n# alpha 163 1 0.5\n# alpha 3810001 0 0.5\n# face 3602511 \"surprise\"\n# textflame 1 1\n# textboxarrow 0 2\n# voice 6025 \"chalice_t_0017\"\n@カリス\nそんなっ！\n病気はわたしが治したよ！？\n\n# alpha 3602511 0 0.5\n# alpha 163 0 0.5\n# alpha 3810001 1 0.5\n@ハルモニア兵\nあなたのような背信者の言葉を\n我々が信じるわけがないでしょう\n\n;;//ハルモニア兵の立ち絵追加\n# textboxarrow 0 2\n# alpha 9938199 1 0.5\n# alpha 99381991 1 0.5\n# waitandnext 0.5\n\n# imageset 3 \"black\"\n# imagealpha 3 0 0\n# imagelayer 3 1\n# textflame 0 0\n@\nそれぞれの武器を構え、\n一気に攻め込んでくる\nハルモニア兵達\n\n# imagealpha 3 1 0\n# imagepos 3 0 30\n# imageleftin 3 0.5\n# textwindow \"close\"\n# waitandnext 0.5\n\n\n# alpha 3810001 0 0\n# alpha 9938199 0 0\n# alpha 99381991 0 0\n# waitandnext 0.5\n\n# imagealpha 3 0 0.5\n# imagerightout 3 0.5\n# waitandnext 0.5\n\n# serif 1\n# textwindow \"nomal\"\n@イミテーションB\nひっ、ひいぃぃっ！？\n\n# serif 1\n# textwindow \"close\"\n# serif 0\n# textwindow \"nomal\"\n# alpha 3602511 1 0.5\n# textflame 1 1\n# face 3602511 \"angry\"\n# textboxarrow 0 2\n# voice 6025 \"chalice_t_0015\"\n@カリス\nみんな、逃げてっ！\n\n# textflame 0 0\n@\n恐怖で動けない\nイミテーションたちの前に\nカリスは立った\n\n# textflame 0 0\n@\nぐっと杖を握る\nしかし…\n\n;;//モヤモヤ\n# textflame 1 1\n# serif 0\n# move 3602511 3 0\n# textwindow \"moya\"\n# textboxarrow 0 0\n# face 3602511 \"sad\"\n@カリス\nでも…\n彼らも…人…\n\n# textflame 0 0\n@\n『人々を救う』\nキラーズから伝わる記憶が\nカリスを縛る\n\n# se \"SE_4817\"\n# fadein \"red\" 0.5\n# shake 0 0.5\n# waitandnext 0.5\n\n# textflame 1 1\n# serif 0\n# textwindow \"nomal\"\n# textboxarrow 0 2\n# voice 6025 \"chalice_t_0038\"\n@カリス\nきゃぁっ！\n\n# alpha 3602511 0 0.5\n# alpha 3810001 1 0.5\n@ハルモニア兵\nどうしました？\nこの程度ですか？\n\n# se \"SE_4817\"\n# fadein \"red\" 0.5\n# shake 0 0.5\n# textflame 0 0\n@\nただ耐えるだけで\n攻撃しようとしない\nカリスをあざ笑う\n\n# textflame 1 1\n@ハルモニア兵\n本気にならないなら\n都合がいい\nそのまま粛清を受け入れなさい\n\n# se \"SE_4817\"\n# fadein \"red\" 0.5\n# shake 0 0.5\n# textflame 0 0\n@\n無慈悲な刃が\nカリスを傷つけていく\n\n# alpha 3602511 1 0.5\n# alpha 3810001 0 0.5\n# textflame 1 1\n# textboxarrow 0 2\n# voice 6025 \"chalice_t_0015\"\n@カリス\nうぅっ…！\n\n# textflame 1 1\n# textwindow \"nomal\"\n# serif 0\n# move 3602511 3 0\n# textwindow \"moya\"\n# textboxarrow 0 0\n@カリス\nイミテーションを守る…\nでも、傷つけたくない\n\n# textflame 0 0\n@\nカリスの中にあった矛盾が\nカリス自身を苦しめる\n\n# textflame 0 0\n@\nそんな時だった―\n\n# face 3602511 \"surprise\"\n# serif 1\n# brightness 3602511 0.5 0.2\n# brightness 163 0.5 0.2\n@イミテーションＡ\nま、待て…これ以上\n彼女に手出しは…させない\n\n# serif 1\n@イミテーションＢ\nそうだ…\n\n# serif 1\n@イミテーションＣ\nもう、指一本…触れさせない\n\n# serif 1\n# textwindow \"close\"\n# textflame 1 1\n# serif 0\n# textwindow \"nomal\"\n# brightness 3602511 1 0.2\n# brightness 163 1 0.2\n# textboxarrow 0 2\n@カリス\nみんな！？\nだ、ダメだよ！\n\n# textflame 0 0\n@\nカリスの前に\nイミテーション達が立っていた\n\n# textflame 1 1\n# alpha 3602511 0 0.5\n# alpha 3810001 1 0.5\n@ハルモニア兵\nあなた達…\n奴隷の分際で、\n逆らうというのですか？\n\n# serif 1\n# brightness 3810001 0.5 0.2\n@イミテーションＡ\n恩を返さなければ、\nそれこそ奴隷以下に\nなってしまう\n\n# serif 1\n# textwindow \"close\"\n# serif 0\n# textwindow \"nomal\"\n# brightness 3810001 1 0.2\n@ハルモニア兵\nその意気は買いましょう\nですが無駄なことです\n\n;;//SE：矢が飛ぶ音、風を切るような音\n# serif 0\n# bgm \"stop\"\n# textwindow \"close\"\n# subfillrect 1 \"black\" 0.2 0 1\n# waitandnext 0.2\n\n# alpha 3810001 0 0\n# alpha 3602511 1 0\n# face 3602511 \"sad\"\n# se \"SE_4301\"\n# effectbody 700 31 0 0 4\n# effectstart 700\n# waitandnext 0.3\n\n# subfillrect 1 \"black\" 0.2 1 0\n# serif 0\n# textwindow \"nomal\"\n# textflame 0 0\n@\nイミテーションの決意を\n笑うかのように、\n矢がカリスに向かい…\n\n# textwindow \"close\"\n# alpha 163 1 0.3\n# move 163 3 0.3\n# waitandnext 0.3\n\n# bgmfile \"bgm273\" \"BgmLostRagnarokEvent\" 0\n# textwindow \"nomal\"\n# fadein \"red\" 0.5\n# shake 0 0.5\n# move 163 5 0.2\n# textflame 1 1\n# textboxarrow 0 3\n# face 3602511 \"surprise\"\n# voice 9951 \"kipuru_0038\"\n@キプル\nカリスッ！\nうぅ…っ！\n\n# textflame 1 1\n# textboxarrow 0 2\n@カリス\nキプルっ！？\nそんな、どうして…\n\n# textflame 0 0\n@\nカリスへの攻撃を防いだのは\nキプルだった\n\n# face 3602511 \"sad\"\n# textflame 1 1\n# textboxarrow 0 3\n# voice 9951 \"kipuru_0008\"\n@キプル\n…カリスっ！\nただ、人を救いたいと\n思っているだけではダメなのです\n\n# textflame 1 1\n# textboxarrow 0 2\n@カリス\nキプル？\n\n# textflame 1 1\n# textboxarrow 0 3\n@キプル\n人を救いたいなら…\n世界を救いたいなら…\n\n# textflame 1 1\n# textboxarrow 0 3\n# voice 9951 \"kipuru_0004\"\n@キプル\n自分が何者か、\nなんのためにここにいるのか、\n思い出してください\n\n# textflame 1 1\n# textboxarrow 0 2\n@カリス\n自分がなんなのか…\n\n;;//モヤモヤ\n# serif 0\n# move 3602511 3 0\n# textwindow \"moya\"\n# textflame 1 1\n# textboxarrow 0 0\n# voice 6025 \"chalice_t_0016\"\n@カリス\nわたしは…\nわたしはっ…！\n\n# bgmfile \"bgm291\" \"BgmLostRagnarokSideStory\" 0\n# face 3602511 \"angry\"\n# textflame 1 1\n# serif 0\n# textwindow \"nomal\"\n# textboxarrow 0 2\n@カリス\nわたしは斬ル姫！\n人を…世界を救う！\nミラクルをわたしが起こすの！\n\n# textflame 0 0\n@\n戦う決意を固めたカリス\nその思いが更なる力を呼び覚ます\n\n# textflame 1 1\n# textboxarrow 0 2\n@カリス\nあぁぁぁぁぁっ！！！\n\n# alpha 3602511 0 0.5\n# alpha 163 0 0.5\n# textwindow \"nomal\"\n# textflame 0 0\n@\n巨大な魔法陣が上空に展開され、\nそこから魔力の塊が降り注ぐ\n\n;;//SE：爆発音\n# se \"SE_5753\"\n# shake 1 0.9\n# fadein \"white\" 0.5\n# waitandnext 0.5\n\n# textflame 1 1\n# alpha 3810001 1 0.5\n# textboxarrow 0 2\n@ハルモニア兵\nくっ！\nこれほどの力を秘めているとはっ…\n撤退します！\n\n# textboxarrow 0 0\n# alpha 3810001 0 0.5\n# waitandnext 0.5\n\n# textflame 0 0\n@\nその威力に撤退を決意した\nハルモニア兵達は、\n逃げ出していく\n\n# alpha 3602511 1 0.5\n# face 3602511 \"shy\"\n# textflame 1 1\n# textboxarrow 0 2\n@カリス\nはぁ…はぁ…\nよかった…\n\n# se \"SE_0602\"\n# textflame 0 0\n# textsize 22\n@\n新たに目覚めた力\n『聖血の断罪 -ルイン・ブレイカー-』\nによって敵を撃退したカリス\n\n# textsize 24\n# textflame 0 0\n@\n疲れ果てた彼女の表情は\nどこか吹っ切れた笑みが\n浮かんでいた\n\n;;//時間経過演出\n;;//背景：街道（夕方）\n# bgm \"stop\"\n# fadeout \"black\" 1\n# textwindow \"close\"\n# waitandnext 1\n\n\n# alpha 3602511 0 0\n# alpha 163 0 0\n# move 163 4 0\n# background \"plain_evening\"\n# waitandnext 0.5\n\n# bgmfile \"bgm293\" \"BgmLostRagnarokSideStory\" 0\n# fadein \"black\" 1\n# waitandnext 1\n\n# textwindow \"normal\"\n# alpha 3602511 1 0.5\n# alpha 163 1 0.5\n# textflame 1 1\n# textboxarrow 0 3\n@キプル\nカリスゥ…\nマスターに怒られますよ？\n\n# textflame 1 1\n# textboxarrow 0 2\n@カリス\nうん\n怒られちゃうかもしれないけど、\n見捨てるなんてできないよ\n\n# textflame 0 0\n@\nカリスの視線の先には、\n荷物を纏めたイミテーションの\n集団がいた\n\n# textflame 0 0\n@\n国を離れることにした彼らのために\nカリスは護衛を申し出ていた\n\n# textflame 1 1\n# textboxarrow 0 3\n# voice 9951 \"kipuru_0027\"\n@キプル\n仕方ないですね…\nキプルも付き合います\n\n# textflame 1 1\n# textboxarrow 0 3\n# voice 9951 \"kipuru_0004\"\n@キプル\nカリスのなんとなくのせいで、\n謝るのには慣れていますから\n\n# textflame 1 1\n# textboxarrow 0 2\n# voice 6025 \"chalice_t_0030\"\n@カリス\nふふふっ、\nありがとう、キプル\n\n# imageset 1 \"c3602511\"\n# imagealpha 1 0 0\n# imagelayer 1 1\n# textflame 0 0\n@\nキプルを連れ、\nカリスはどこか誇らしげに\n笑みを浮かべていた\n\n# voice 6025 \"chalice_t_kyara_0027\"\n# buttonsout 0 0\n# imagepos 1 0 0\n# imagealpha 1 1 0\n# fadein \"white\" 3\n# textwindow \"close\"\n\n# frameout 0 1\n# waitandnext 0.8\n\n# fadeout \"black\" 1.5\n# waitandnext 1.5\n# textwindow \"close\""
	}
]