[
	{
		"ID": 4000303,
		"script": "# script \"lisp\"\n# background \"foot_mountain_village\"\n# bgm \"bgm003\" 0\n# body 400131\n# scale 400131 0.9 0\n# pos 400131 1\n# body 401311\n# scale 401311 0.9 0\n# pos 401311 5\n# textflame 1 1\n# textboxarrow 0 1\n# face 400131 \"shy\"\n# voice 4001 \"arutemisu_kyara_1004\"\n# chara 400131\n@アルテミス\n私は…マスターが！！\n\n;;吹き出し大きく\n# serif 0\n# textsize 30\n# textboxarrow 0 1\n# face 400131 \"angry\"\n# chara 400131\n@アルテミス\n好きですッッ！！\nきっと…あなたよりも！！\n\n# serif 1\n# textsize 24\n# textboxarrow 1 3\n# face 401311 \"surprise\"\n# voice 4013 \"aphrodite_0022\"\n# chara 401311\n@アフロディーテ\n！！この力は…！\n\n# serif 0\n# textsize 24\n# textboxarrow 0 1\n# chara 400131\n@アルテミス\nあなたのおかげで目覚めました！\n\n# se \"SE_5200\"\n# textflame 0 0\n@\nアルテミスの放った\n大いなる力に\n膝をつくアフロディーテ\n\n# serif 1\n# textboxarrow 1 3\n# face 401311 \"happy\"\n# chara 401311\n@アフロディーテ\nうふふ、やっぱり…\n強いですわね\n\n# textflame 1 1\n# serif 0\n# textboxarrow 0 1\n# face 400131 \"sad\"\n# voice 4001 \"arutemisu_0013\"\n# chara 400131\n@アルテミス\nわ、私…\n\n# serif 1\n# textboxarrow 1 3\n# face 401311 \"worry\"\n# chara 401311\n@アフロディーテ\n抑え込んでいた想いを\n爆発させたことで…\n\n# serif 1\n# textboxarrow 1 3\n# face 401311 \"normal\"\n# voice 4013 \"aphrodite_0039\"\n# chara 401311\n@アフロディーテ\n潜在していた力も\n解放されたんじゃなくて…？\n\n# serif 0\n# textboxarrow 0 1\n# face 400131 \"nutual\"\n# chara 400131\n@アルテミス\nアフロディーテさん…\n\n# serif 1\n# textboxarrow 1 3\n# chara 401311\n@アフロディーテ\n行きなさい…\nマスターはこの先にいますわ\nあなたの想いを…伝えるのです\n\n# serif 0\n# textboxarrow 0 1\n# face 400131 \"happy\"\n# voice 4001 \"arutemisu_0004\"\n# chara 400131\n@アルテミス\nアフロディーテさん…\n私…素直になります！\n\n# textflame 0 0\n# textboxarrow 0 0\n# leftout 400131 0.5\n@\nアフロディーテに後押しされ、\nアルテミスは駆け出した\n\n# serif 1\n# textboxarrow 1 2\n# move 401311 3 0.7\n# face 401311 \"happy\"\n# voice 4013 \"aphrodite_0005\"\n# chara 401311\n@アフロディーテ\nうふふ…今のあなた…\n\n# imageset 0 \"black\"\n# imagealpha 0 0 0\n# imagelayer 0 1\n# serif 1\n# textboxarrow 1 2\n# face 401311 \"shy\"\n# voice 4013 \"aphrodite_0041\"\n# chara 401311\n@アフロディーテ\n美しいわ\n\n# serif 1\n# textwindow \"close\"\n# serif 0\n# textwindow \"close\"\n# imagealpha 0 1 0\n# imagepos 0 0 30\n# imageleftin 0 0.3\n\n# alpha 401311 0 0\n# imagerightout 0 0.3\n# serif 0\n# textflame 1 1\n# textwindow \"nomal\"\n# textboxarrow 0 2\n# pos 400131 3\n# mask 400131 off\n# alpha 400131 1 0\n# face 400131 \"shy\"\n# voice 4001 \"arutemisu_0042\"\n# chara 400131\n@アルテミス\nマスター…私…\nあなたのことが…！\n"
	}
]