[
	{
		"ID": 40014301,
		"script": "# script \"lisp\"\n# background \"valley\"\n# bgm \"bgm003\" 0\n# body 400141\n# mask 400141 off\n# pos 400141 3\n# textboxarrow 0 2\n# face 400141 \"sad\"\n# voice 4001 \"arutemisu_0042\"\n# chara 400141\n@アルテミス\nうぅぅぅ…\nいくら教会本部からの指令とはいえ…\nなんでこんな格好を…\n\n# voice 4001 \"arutemisu_0012\"\n# chara 400141\n@アルテミス\nマッ…マスター！\nそんなにジロジロ見ないでください！\nは…恥ずかしい！\n\n# face 400141 \"angry\"\n# voice 4001 \"arutemisu_0027\"\n# chara 400141\n@アルテミス\nそもそも、こんな服装で\n戦えるわけがありません！\n\n# chara 400141\n@アルテミス\nもし異族の攻撃で\n肩紐を切られて、\n水着がずり落ちたら…\n\n# face 400141 \"shy\"\n# voice 4001 \"arutemisu_0025\"\n# chara 400141\n@アルテミス\nきゃあぁぁぁぁ〜！\n\n# textflame 0 0\n@\n顔を真っ赤にするアルテミス\n普段から貞操観念が非常に強い\n彼女には、水着は酷だったか\n\n# textflame 0 0\n@\n常に胸元と下を隠しながら\nモジモジしている\n\n# voice 4001 \"arutemisu_0042\"\n# textflame 1 1\n# chara 400141\n@アルテミス\nこれでは異族に挑むどころか…\n全然動けませんよぉ…！\n\n# textflame 0 0\n@\nそこで、マスターは、\n彼女にある提案をした\n\n# face 400141 \"usual\"\n# voice 4001 \"arutemisu_0022\"\n# textflame 1 1\n# chara 400141\n@アルテミス\n水着に慣れる作戦…？\nなんですか、それは…？\n\n# face 400141 \"surprise\"\n# chara 4001  \n@アルテミス\nビ…ビーチバレー！？\n\n# textflame 0 0\n@\n湖に行く前に、近くの川で\nバレーでもして、水着に\n慣れようと言うマスター\n\n# textflame 1 1\n# face 400141 \"shy\"\n# voice 4001 \"arutemisu_0034\"\n# chara 400141\n@アルテミス\nで…でも…\n\n# face 400141 \"surprise\"\n# textwindow \"toge\"\n# textsize 35\n# voice 4001 \"arutemisu_0025\"\n# chara 400141\n@アルテミス\n…！！\nぎ…ぎゃあぁぁぁ！\n\n# textwindow \"nomal\"\n# textsize 24\n# voice 4001 \"arutemisu_0016\"\n# chara 400141\n@アルテミス\nマ、マスター！\nななななな…\nなに脱ぎだしてるんですか！？\n\n# face 400141 \"angry\"\n# chara 400141\n@アルテミス\nマ、マスターは\n水着にならなくて\nいいですッ！\n\n# textflame 0 0\n@\nまったく免疫のない彼女に\n困り果てるマスターだった"
	}
]