[
	{
		"ID": 40061203,
		"script": "# script \"lisp\"\n# background \"foot_mountain_village\"\n# bgm \"bgm003\" 0\n# textboxarrow 0 2\n# body 400611\n# mask 400611 off\n# pos 400611 3\n# face 400611 \"happy\"\n# textflame 0 0\n@\n街を歩く二人\n\n# textflame 1 1\n@梓弓\nどこへ行きますか？\nマスターの仰る所なら、\nどこへでも付いていきますよ\n\n# textflame 0 0\n@\nじゃあ、こっち！\nとマスターが先導する\n\n# face 400611 \"normal\"\n# textflame 1 1\n@梓弓\n…？\n何か欲しいものでも\nあるのですか？\n\n# voice 4006 \"azusa_0004\"\n# face 400611 \"happy\"\n@梓弓\nあ、わかった\n食いしん坊のマスターですから、\n何か食べたいものでも…\n\n# textflame 0 0\n@\nしかし、マスターが\nやってきたのは…\n\n# voice 4006 \"azusa_kyara_2003\"\n# face 400611 \"surprise\"\n# textflame 1 1\n@梓弓\n…え？ここ…？\n…ですか？\n\n# textflame 0 0\n@\nそれは、女性ものを扱う\n和服のお店だった\n\n# select \"その恰好…少し寒くない？\" \"select_label_01\" \"羽織る物でも…どう？\" \"select_label_02\" \"冬は寒いでしょ？\" \"select_label_03\"\nそれは、女性ものを扱う\n和服のお店だった\n\n# face 400611 \"happy\"\n# label \"select_label_01\"\n# labeljump \"select_label_end\"\n# textflame 1 1\n# chara 400611\n@梓弓\nそこまで…心配して頂けるなんて…\n\n# face 400611 \"surprise\"\n# label \"select_label_02\"\n# labeljump \"select_label_end\"\n# textflame 1 1\n# chara 400611\n@梓弓\nえ？わたくし用…ですか！？\n\n# face 400611 \"surprise\"\n# label \"select_label_03\"\n# labeljump \"select_label_end\"\n# textflame 1 1\n# chara 400611\n@梓弓\nわ…わたくしに…これを！？\n\n# label \"select_label_end\"\n# face 400611 \"normal\"\n# textflame 0 0\n@\nマスターから、一枚の着物を\nプレゼントされる梓弓\n\n# voice 4006 \"azusa_0004\"\n# face 400611 \"happy\"\n# textflame 1 1\n@梓弓\n…嬉しい\nこれは…\n至上のご褒美です\n\n# face 400611 \"normal\"\n@梓弓\n突き詰め、極める事こそが肝要…\nずっと、そのように考えておりました\n\n@梓弓\n…ですが、\n自分へのご褒美や、\n達成感の積み重ねがないと…\n\n# face 400611 \"sad\"\n@梓弓\n張り詰め過ぎた糸は、\nいつか切れてしまう\n\n# face 400611 \"normal\"\n@梓弓\nマスターは、わたくしに\nその事を伝えて下さろうと…\n\n@梓弓\nマスターとの未来に\n光を見ていたはずだったのに…\n\n@梓弓\n目の前のことに無我夢中で…\nいつのまにか見失ってたようです\n\n# voice 4006 \"azusa_0004\"\n# face 400611 \"happy\"\n@梓弓\n先にある大志を決して忘れず…\nこれからも精進してゆきます！\n\n# textflame 0 0\n@\nその心の変化が、\n彼女に新たなる力を与えたのか…\n\n# textwindow \"toge\"\n# textsize 30\n# textflame 1 1\n@梓弓\n新技『咲き誇る春陽の弓』、\n覚醒です！！\n\n# textwindow \"normal\"\n# textsize 24\n#se \"SE_0602\"\n# textflame 0 0\n@\nそれは、まさに\n彼女が新たなるスキルに\n目覚めた瞬間だった\n\n# voice 4006 \"azusa_0041\"\n# face 400611 \"happy\"\n# textflame 1 1\n@梓弓\nあぁ…温かい…\n\n@梓弓\nこれは身も…\nそして、心も温かくなったから\nでしょうね\n\n# textflame 0 0\n@\nマスターからもらった\n着物に頬を置き、\n幸せそうにつぶやく彼女\n\n@\nいや、そうじゃないみたい…\nマスターが切り返す\n\n# voice 4006 \"azusa_kyara_2003\"\n# face 400611 \"normal\"\n# textflame 1 1\n@梓弓\n…え？\n\n# face 400611 \"surprise\"\n@梓弓\n…あっ\n\n# textflame 0 0\n@\n見ると、木々は\n咲き乱れる花に包まれていた\n\n# voice 4006 \"azusa_0041\"\n# face 400611 \"normal\"\n# textflame 1 1\n@梓弓\nわたくしたちが知らない間に…\n春は来てたんだ\n\n# voice 4006 \"azusa_0004\"\n@梓弓\nふふ…どんなに寒い冬が続こうと…\n春の来ない冬なんてない…\nそういう事なのですね\n\n# textflame 0 0\n@\nあ～、せっかくのプレゼントが～\n暖かくなったら意味ないよ～\nと嘆くマスター\n\n# imageset 0 \"c400611\"\n# imagealpha 0 0 0\n# voice 4006 \"azusa_0005\"\n# face 400611 \"happy\"\n# textflame 1 1\n@梓弓\n大丈夫ですよ\nマスターからのお心遣い、\n大切にさせて頂きますから！\n\n# imagealpha 0 1 0\n# imagepos 0 0 0 \n# fadein \"white\" 3\n# voice 4006 \"azusa_kyara_0017\"\n# textwindow \"close\"\n\n# textwindow \"nomal\"\n# textflame 0 0\n@\nその笑顔は、\n咲き誇る花のように美しかった"
	}
]