[
	{
		"ID": 400772014,
		"script": ";;-----------------------------------------\n;;4007724\n;;シェキナー(ウェディング)　キャラ【EP3】\n;;-----------------------------------------\n# script \"lisp\"\n# background \"town\"\n# bgm \"bgm002\" 0\n;;シェキナー\n# body 400771\n# pos 400771 3\n# scale 400771 0.8 0\n# layer 400771 1\n# mask 400771 off\n# alpha 400771 0 0\n;;カーテンフェード\n# imageset 0 \"black\"\n# imagealpha 0 0 0\n# imagelayer 0 1\n;;一枚絵\n# imageset 1 \"c400771\"\n# imagealpha 1 0 0\n# imagelayer 1 1\n;;◆背景：街中１----------------------------------\n# textflame 0 0\n@\nマスターがシェキナーから\n宝石をプレゼントされた後の\nある日…\n\n# textflame 0 0\n@\n姫達から離れ、マスターは\n一人、青ざめながら\n床や地面を這いずり回っていた\n\n# textflame 0 0\n@\nと、そこへドレス姿のシェキナーが\nマスターを探しにやってくる\n\n# textwindow \"close\"\n# alpha 400771 1 0.5\n# waitandnext 0.5\n\n# textwindow \"normal\"\n# textflame 1 1\n# textboxarrow 0 2\n# face 400771 \"normal\"\n# voice 4007 \"shekina_0002\"\n# chara 400771\n@シェキナー\nマスター？\nいったいどうしたんですか\n皆も心配して…\n\n# textflame 1 1\n# textboxarrow 0 2\n# chara 400771\n@シェキナー\nだいたい…どうして貴方はそんなに\n服も顔も、泥やほこりまみれに\nなってるんです？\n\n# textflame 0 0\n@\nだが\nシェキナーに寄られるといっそう\nうろたえてしまうマスター\n\n# textflame 1 1\n# textboxarrow 0 2\n# face 400771 \"sad\"\n# chara 400771\n@シェキナー\nなにかお困りの様子ですが\n私もお手伝いしたほうが\nいいのでしょうか？\n\n# textflame 0 0\n@\nだ、大丈夫…\n自分一人で解決するから、と\nマスターは大きく左右に首を振る\n\n# textflame 1 1\n# textboxarrow 0 2\n# face 400771 \"angry\"\n# voice 4007 \"shekina_0003\"\n# chara 400771\n@シェキナー\n貴方は確かにキラープリンセスの長\nですが…黙って誰にも相談しないなど\n逆に皆に失礼ですよ\n\n# textflame 0 0\n@\nで、でも…！\n\n# textflame 1 1\n# textboxarrow 0 2\n# face 400771 \"normal\"\n# chara 400771\n@シェキナー\n…わかりました\nそれほど言いにくいことなら\n私が、皆には内緒で手を貸します\n\n;;選択肢-----------------------------------------------------\n# select \"ダメだ！そのドレスが汚れる！\" \"select_label_end\" \"やめてくれ！きみがケガをする！\" \"select_label_end\"\n…わかりました\nそれほど言いにくいことなら\n私が、皆には内緒で手を貸します\n\n;;合流-----------------------------------------------------\n# label \"select_label_end\"\n# textflame 1 1\n# textwindow \"toge\"\n# move 400771 3 0\n# textboxarrow 0 0\n# face 400771 \"angry\"\n# voice 4007 \"shekina_0012\"\n# chara 400771\n@シェキナー\nいいえ！\n見過ごすわけにはいきません！\nさあ！おっしゃってください！\n\n# textwindow \"normal\"\n# textflame 0 0\n@\n彼女の剣幕に観念したマスター\n実は探し物をしていて…と\nシェキナーに告げた\n\n# textflame 1 1\n# textboxarrow 0 0\n# face 400771 \"normal\"\n# chara 400771\n@シェキナー\nまったく仕方ありませんね…\nで、いったい\nなにをなくしたんです？\n\n;;◆背景：空--------------------------------------\n# imagepos 0 0 30\n# imagealpha 0 1 0\n# imageleftin 0 0.5\n# textwindow \"close\"\n# waitandnext 0.6\n\n# alpha 400771 0 0\n# background \"mov2_1\"\n# waitandnext 0.5\n\n# imagealpha 0 0 0.5\n# imagerightout 0 0.5\n# waitandnext 0.5\n\n# textwindow \"normal\"\n# textflame 0 0\n@\nまさか、シェキナーからもらった\nあの宝石をなくした…とは\n言えないマスターだった\n\n;;◆背景：街中２----------------------------------\n# imagepos 0 0 30\n# imagealpha 0 1 0\n# imageleftin 0 0.5\n# textwindow \"close\"\n# waitandnext 0.6\n\n# alpha 400771 1 0\n# face 400771 \"sad\"\n# background \"town\"\n# waitandnext 0.5\n\n# imagealpha 0 0 0.5\n# imagerightout 0 0.5\n# waitandnext 0.5\n\n# textwindow \"normal\"\n# textflame 1 1\n# textboxarrow 0 2\n# voice 4007 \"shekina_0027\"\n# chara 400771\n@シェキナー\nはぁ…町のゴミ溜めから\n近くの小川の底まで探しても\n全然、見つかる気配はなし…\n\n# textflame 1 1\n# textboxarrow 0 2\n# face 400771 \"surprise\"\n# chara 400771\n@シェキナー\nえ？ドレスが汚れた？\n裾も破けてる？\n…構いませんよ、少しくらい…\n\n# textflame 1 1\n# textboxarrow 0 2\n# face 400771 \"angry\"\n# voice 4007 \"shekina_0013\"\n# chara 400771\n@シェキナー\nそれより、マスター！\nもっと詳しく、探し物の特徴を\n教えてくださいます？\n\n# textflame 1 1\n# textboxarrow 0 2\n# chara 400771\n@シェキナー\n貴方があまりに\nあいまいな言い方をするから\n私も探しにくくて仕方ありません\n\n# textflame 0 0\n@\nすまない、すまない…\nとマスター、ひたすら頭を下げつつ\n\n# textflame 0 0\n@\nある人から大事なプレゼントとして\nもらった、光る石なんだ…\nと答える\n\n# textflame 1 1\n# textboxarrow 0 2\n# face 400771 \"sad\"\n# chara 400771\n@シェキナー\n正直なところ…貴方が\nなにをそんなに必死に探しているのか\n…察しはついていますけど\n\n# textflame 0 0\n@\n申し訳ない…だけど！\nとマスター\n\n# textflame 1 1\n# textboxarrow 0 2\n# face 400771 \"angry\"\n# voice 4007 \"shekina_battle_0005\"\n# chara 400771\n@シェキナー\n言い訳無用！\nああ、もう…\n本当にこの人は…\n\n# textflame 1 1\n# textboxarrow 0 2\n# chara 400771\n@シェキナー\nそんなに大事なものだって\n思うなら…どうして\nなくしてしまうんですか…！\n\n# textflame 0 0\n@\nだって、きみがくれたものだ\n戦いのときでも肌身離さずつけて\nいたかったから…とマスターは言う\n\n# textflame 1 1\n# textboxarrow 0 2\n# face 400771 \"surprise\"\n# voice 4007 \"shekina_0024\"\n# chara 400771\n@シェキナー\nあ…\n\n# textflame 0 0\n@\nだから自分の力で見つけたかった\nたとえどんなに人に笑われようとも\nたとえ異族に襲われようとも…と\n\n# textflame 1 1\n# textboxarrow 0 2\n# face 400771 \"shy\"\n# chara 400771\n@シェキナー\n…命がけで探そうと\nしてくださっていたのですね\n\n# textflame 0 0\n@\nほこりまみれの姿のままの\nマスターを見て、薄汚れたドレスの\nシェキナーが微笑む\n\n# textflame 1 1\n# textboxarrow 0 2\n# face 400771 \"happy\"\n# voice 4007 \"shekina_0004\"\n# chara 400771\n@シェキナー\n今日はもう日が暮れますから\n教会に戻りましょう…\n探し物はまた今度に\n\n;;◆背景：教会------------------------------------\n# se \"SE_2025\"\n# imagepos 0 0 30\n# imagealpha 0 1 0\n# imageleftin 0 0.5\n# textwindow \"close\"\n# waitandnext 0.6\n\n# bgm \"bgm003\" 0\n# face 400771 \"normal\"\n# background \"006_church\"\n# waitandnext 0.5\n\n# imagealpha 0 0 0.5\n# imagerightout 0 0.5\n# waitandnext 0.5\n\n# textwindow \"normal\"\n# textflame 0 0\n@\nそして、マスターの隊が\n現在拠点として使っている\n教会まで戻ってみると…\n\n# textwindow \"close\"\n# se \"SE_5786\"\n# subfillrect 1 \"white\" 0.8 0.6 0\n# face 400771 \"surprise\"\n# waitandnext 0.8\n\n# textwindow \"normal\"\n# textflame 1 1\n# textboxarrow 0 2\n# face 400771 \"normal\"\n# voice 4007 \"shekina_0005\"\n# chara 400771\n@シェキナー\nあ…床に光が…\nマスター！あの宝石です！\nこんなところに…\n\n# textflame 1 1\n# textboxarrow 0 2\n# face 400771 \"happy\"\n# chara 400771\n@シェキナー\nあははは…先日の出撃の前に\nここに置いていったまま\nだったんですね\n\n# textflame 0 0\n@\nシェキナーが石を拾い上げた\n間違いなく、例の宝石だった\n彼女は再びそれをマスターへと手渡す\n\n# textflame 1 1\n# textboxarrow 0 2\n# face 400771 \"normal\"\n# voice 4007 \"shekina_0001\"\n# chara 400771\n@シェキナー\nほら、マスター\n二度と見失わないでくださいね？\n大切な贈り物…\n\n# textflame 1 1\n# textboxarrow 0 2\n# face 400771 \"shy\"\n# chara 400771\n@シェキナー\nこの光は、他の誰でもない…\n貴方だけのものなのだから\nふふっ…\n\n# se \"SE_0602\"\n# textflame 0 0\n@\n『誓いのジュエルリング』\n光とともに…シェキナーは\n新たな境地を見つけていた\n\n# textflame 0 0\n@\n石の不思議な輝きが、\n薄汚れた格好のシェキナーと\nマスターをあたたかく照らした\n\n;;◆一枚絵----------------------------------------\n# textwindow \"close\"\n# fadein \"white\" 3\n# imagealpha 1 1 0\n# imagepos 1 0 0\n# alpha 400771 0 0\n# voice 4007 \"shekina_event_0007\"\n# buttonsout 0 0\n# textwindow \"close\"\n;;「はぁ…。いつか、私の隣に並んでヴァージンロードを歩いてくれるのはどんな方なのでしょう…」\n\n# frameout 0 1\n# waitandnext 0.8\n\n# fadeout \"black\" 1.5\n# waitandnext 1.5"
	}
]