[
	{
		"ID": 40072202,
		"script": ";;【EP2】（ウケ）\n# script \"lisp\"\n# background \"town\"\n# bgm \"bgm002\" 0\n# body 400721\n# pos 400721 3\n# mask 400721 off\n# textflame 1 1\n# textboxarrow 0 2\n# chara 400721\n# face 400721 \"angry1\"\n@シェキナー\n金輪際、胸元の開いた服は\n着ませんから！！\n\n# textflame 0 0\n@\nと、高らかに宣言したシェキナー\nなのに…\n\n# textflame 1 1\n# textboxarrow 0 2\n# chara 400721\n# face 400721 \"happy\"\n@シェキナー\nきゃ～っ！\nかわいぃ～っ！！\n\n# textboxarrow 0 2\n# chara 400721\n# voice 4007 \"shekina_0021\"\n@シェキナー\nこの洋服、すごくかわいい～！\n\n# textflame 0 0\n@\n手に取るのは全部、\n胸元の開いた派手なものばかり\n\n# textflame 1 1\n# textboxarrow 0 2\n# chara 400721\n# voice 4007 \"shekina_0024\"\n# face 400721 \"angry1\"\n@シェキナー\n…え？水着の時も\n結局派手なのばかり選んでた…？\nし、仕方ないじゃないですか！\n\n# textboxarrow 0 2\n# chara 400721\n# voice 4007 \"shekina_0004\"\n# face 400721 \"happy\"\n@シェキナー\nやっぱり派手で可愛らしいのが\n好きなんですから！\nということで、これはキープ♪\n\n# textflame 0 0\n@\nそう言って、次の店に向かう彼女\n\n# textflame 1 1\n# textboxarrow 0 2\n# chara 400721\n@シェキナー\nこれもかわいい～！！\nでも、やっぱりさっきの店の\n方がいいわ！\n\n# textflame 0 0\n@\n…と、戻ってみるも\n\n# textflame 1 1\n# textboxarrow 0 2\n# chara 400721\n# voice 4007 \"shekina_0022\"\n# face 400721 \"sad\"\n@シェキナー\n…ない！さっきの洋服が…な～い！\n店員さん、さっきの…\nえ～！売り切れ～！？そんな～！！\n\n# textboxarrow 0 2\n# chara 400721\n# face 400721 \"normal\"\n@シェキナー\nしょうがない…じゃあ、第２候補で…\n\n# textflame 0 0\n@\n２軒目の洋服屋に戻ってみるも…\n\n# textflame 1 1\n# textboxarrow 0 2\n# chara 400721\n# voice 4007 \"shekina_0023\"\n# face 400721 \"sad\"\n@シェキナー\nまた売り切れ～！？\nあぁ～、迷ってる隙にお気にが\nどんどんなくなっちゃう～！！\n\n# textboxarrow 0 2\n# chara 400721\n# voice 4007 \"shekina_0013\"\n@シェキナー\nこれは…私の優柔不断な性格のせい\nでしょうか…？その甘さが…\nこの結果を招いたのでしょうか…？\n\n# textboxarrow 0 2\n# chara 400721\n# voice 4007 \"shekina_0015\"\n@シェキナー\nやっぱり私は…胸以外、\n何の取り得もない\n女なのでしょうか…？\n\n# textflame 0 0\n@\n激しく落胆する彼女\n\n# select \"相変わらず真面目だなぁ\" \"select_label_01\" \"もっと似合う服が見つかるよ\" \"select_label_02\" \"君のいい所は胸なんかじゃないよ\" \"select_label_03\"\n激しく落胆する彼女\n\n# label \"select_label_01\"\n# labeljump \"select_label_end\"\n# textflame 1 1\n# textboxarrow 0 2\n# chara 400721\n# face 400721 \"sad\"\n@シェキナー\nそう言われましても…え？\nそこがいいところ…？\n\n# label \"select_label_02\"\n# labeljump \"select_label_end\"\n# textflame 1 1\n# textboxarrow 0 2\n# chara 400721\n# face 400721 \"sad\"\n@シェキナー\n落ち込む必要はないと…？\nもっと…私らしい服が…\n\n# label \"select_label_03\"\n# labeljump \"select_label_end\"\n# textflame 1 1\n# textboxarrow 0 2\n# chara 400721\n# face 400721 \"sad\"\n@シェキナー\nどういうことですか…？真面目な性格\nが私の…長所？\n\n# label \"select_label_end\"\n# textflame 1 1\n# textboxarrow 0 2\n# chara 400721\n# face 400721 \"smile\"\n@シェキナー\n本当ですか、マスター…？\n貴方がそう言ってくれるなら…\nもう迷いません！\n\n# textboxarrow 0 2\n# chara 400721\n# voice 4007 \"shekina_0006\"\n# face 400721 \"normal\"\n@シェキナー\n私は…私らしさを追求します！！\n\n# textflame 0 0\n@\n彼女の目に再び光が戻ってきた"
	}
]