[
	{
		"ID": 40083204,
		"script": "# script \"lisp\"\n# background \"town\"\n# bgm \"bgm003\" 0\n# body 400831\n# mask 400831 off\n# pos 400831 3\n# textflame 0 0\n@\n数日後─\n\n# textflame 0 0\n@\nマスターを発見し、\n笑顔で手を振るオティヌス\n\n# textflame 1 1\n# textboxarrow 0 2\n# voice 4008 \"otyinusu_0002\"\n@オティヌス\nよっ、マスター♪\n\n# select \"また一人で考え事してた？\" \"select_label_01\" \"もしかして、また悩んでた？\" \"select_label_02\" \"今日は明るいね？\" \"select_label_03\"\nよっ、マスター♪\n\n# face 400831 \"usual\"\n# label \"select_label_01\"\n# labeljump \"select_label_end\"\n# textflame 1 1\n# textboxarrow 0 2\n@オティヌス\nそ！また考えてたんだ\n\n# face 400831 \"usual\"\n# label \"select_label_02\"\n# labeljump \"select_label_end\"\n# textflame 1 1\n# textboxarrow 0 2\n@オティヌス\n悩んでるっていうか…\n\n# face 400831 \"usual\"\n# label \"select_label_03\"\n# labeljump \"select_label_end\"\n# textflame 1 1\n# textboxarrow 0 2\n@オティヌス\n少し…見えたかも\n\n# label \"select_label_end\"\n# voice 4008 \"otyinusu_0001\"\n@オティヌス\nマスターの前で笑ってる自分が\nあたしらしさ…って\n言っただろ？\n\n@オティヌス\nじゃあ、そうするためには、\nどうしなきゃいけないのかって…\n\n# face 400831 \"happy\"\n# voice 4008 \"otyinusu_0032\"\n@オティヌス\nで、わかったんだ！\n\n# voice 4008 \"otyinusu_0004\"\n@オティヌス\nあたしが笑顔でいるには…\nやっぱマスターにも\n笑顔でいてもらわなきゃって！！\n\n@オティヌス\nマスターが苦しんだり、\n傷ついたりしたら…\nあたしも笑えないんだよ！\n\n# face 400831 \"usual\"\n@オティヌス\nだから…\n\n# face 400831 \"mad\"\n# voice 4008 \"otyinusu_0029\"\n@オティヌス\nもっともっと強くなる！！\nもっと自分を磨いてくよ！\n\n# face 400831 \"normal\"\n#se \"SE_0602\"\n@オティヌス\nそう思ったら…またできたんだ！！\n新奥義が！！\nその名も『ウェイトゥライブ』！！\n\n# textflame 0 0\n@\n彼女の想いの強さが、\nまた新たなる力を\nもたらしていた\n\n# face 400831 \"usual\"\n# textflame 1 1\n# textboxarrow 0 2\n@オティヌス\nって、そんな真面目なことを言う\n“あたしらしさ”もありゃ…\n\n# textflame 0 0\n@\n次の瞬間…！\nズボッ！とマスターが\n落とし穴に落ちた\n\n# face 400831 \"happy\"\n# textflame 1 1\n# textboxarrow 0 2\n# voice 4008 \"otyinusu_0005\"\n@オティヌス\nあっははははは！\n大成功〜っ！！\n\n# voice 4008 \"otyinusu_0004\"\n@オティヌス\n悪巧み、イタズラ好きの\n“あたしらしさ”も\nあるってことでヨロシク！！\n\n# textflame 0 0\n@\n落とし穴から上がったマスターが\n彼女に呟く\n\n# textflame 0 0\n@\nこの穴の深さが、きみの\n愛の深さってことだね\n\n# face 400831 \"worry2\"\n# textflame 1 1\n# textboxarrow 0 2\n# voice 4008 \"otyinusu_0009\"\n@オティヌス\nバッ…！\nな、なに、バカなこと\n言ってんだよ！！\n\n# textflame 0 0\n@\n真っ赤な顔で\nマスターにパンチする彼女\n\n# face 400831 \"worry\"\n# textflame 1 1\n# textboxarrow 0 2\n# voice 4008 \"otyinusu_0042\"\n@オティヌス\nあ…愛とか…！\n\n# imageset 0 \"c400831\"\n# imagealpha 0 0 0\n# imagepos 0 0 0\n@オティヌス\n…ま、まぁ…\n当たってなくも…\nないけど…\n\n# voice 4008 \"otyinusu_kyara_0017\"\n# imagealpha 0 1 0\n# imagepos 0 0 0 \n# fadein \"white\" 3\n# textwindow \"close\"\n\n# textwindow \"nomal\"\n# textflame 0 0\n@\n見た目や言葉遣いは変わってないが、\n随分と女の子らしくなったオティヌス\nを微笑ましく思うマスターだった"
	}
]