[
	{
		"ID": 40131201,
		"script": "# script \"lisp\"\n# background \"foot_mountain_village\"\n# bgm \"bgm003\" 0\n# body 401311\n# mask 401311 off\n# pos 401311 3\n# textflame 1 1\n# textboxarrow 0 2\n# face 401311 \"happy\"\n# voice 4013 \"aphrodite_0001\"\n@アフロディーテ\nマスター♪\n何をなさっているのです？\n\n# voice 4013 \"aphrodite_0002\"\n@アフロディーテ\nせっかくの休日\nご予定がないのでしたら、\n一緒に散歩でもしませんか？\n\n# voice 4013 \"aphrodite_0004\"\n@アフロディーテ\nお気に入りの場所に\n是非マスターをお連れしたいのです\n\n# textflame 0 0\n@\nそう言って、積極的に\n腕を組んでくるアフロディーテ\n\n# face 401311 \"shy\"\n# textflame 1 1\n# textboxarrow 0 2\n# voice 4013 \"aphrodite_0004\"\n@アフロディーテ\nあら？当たってる…？\nふふ、当ててるんですよ\nその方がマスターも嬉しいでしょ？\n\n# textflame 0 0\n@\n大胆な彼女に、\nいつもクラクラさせられるマスター\n\n# face 401311 \"normal\"\n# textflame 1 1\n# textboxarrow 0 2\n# voice 4013 \"aphrodite_0020\"\n@アフロディーテ\n何を照れてらっしゃるのです\nスキンシップは\n最良のコミュニケーション\n\n@アフロディーテ\nまぁ、確かに\nいつもその事でアルテミスには\nたしなめられていますが…\n\n# voice 4013 \"aphrodite_0027\"\n@アフロディーテ\nでも、彼女ったらおかしいんですよ\n貞潔の神のくせに、マスターに対する\n態度がぶれぶれなんですもの\n\n# voice 4013 \"aphrodite_0020\"\n@アフロディーテ\nあれじゃ意地悪というか…\nからかいたくもなりますわ\n\n# voice 4013 \"aphrodite_0006\"\n@アフロディーテ\nその点、私はぶれることは\nありません\n\n@アフロディーテ\nだって、美しくないですからね\n自分というものを\nしっかりと持てないのは\n\n# voice 4013 \"aphrodite_0005\"\n@アフロディーテ\n私は“美”を愛している\nそこに一点の曇りもありませんわ\n\n# face 401311 \"happy\"\n@アフロディーテ\nでは参りましょう\n\n# textflame 0 0\n@\nむにゅっ…\n\n# textflame 0 0\n@\n柔らかい感触に包まれながら、\nアフロディーテに連れられる\nマスターだった"
	}
]