[
	{
		"ID": 40141302,
		"script": ";;【EP2】（ウケ）\n# script \"lisp\"\n# background \"plain\"\n# bgm \"bgm002\" 0\n# body 401413\n# mask 401413 off\n# pos 401413 3\n# textflame 1 1\n# textboxarrow 0 2\n# voice 40141 \"nemu2_0014\"\n# face 401413 \"sad\"\n# chara 401413\n@ねむ\nうぅぅぅぅぅ…\nもうダメだぁ～\n限界だぁ～\n\n# textflame 0 0\n@\nお腹が空きすぎて、\n今にも倒れそうなねむ\n\n@\nそんな彼女に向かって、\nマスターが木の下で休もうと\n提案する\n\n# textflame 1 1\n# textboxarrow 0 2\n# voice 40141 \"nemu2_0017\"\n# face 401413 \"angry\"\n# chara 401413\n@ねむ\n………やだ\n\n# select \"どうして、そこまで…？\" \"select_label_01\" \"何かあったの？\" \"select_label_02\" \"ほんの少し休むくらいなら…\" \"select_label_03\"\n………やだ\n\n# label \"select_label_01\"\n# labeljump \"select_label_end\"\n# textflame 1 1\n# textboxarrow 0 2\n# chara 401413\n@ねむ\n無理…しなきゃなの\n\n# label \"select_label_02\"\n# labeljump \"select_label_end\"\n# textflame 1 1\n# textboxarrow 0 2\n# chara 401413\n@ねむ\n無理するって…決めたから\n\n# label \"select_label_03\"\n# labeljump \"select_label_end\"\n# textflame 1 1\n# textboxarrow 0 2\n# chara 401413\n@ねむ\nそれじゃ…ダメなの\n\n# label \"select_label_end\"\n# textflame 1 1\n# textboxarrow 0 2\n# voice 40141 \"nemu2_0019\"\n# face 401413 \"sad\"\n# chara 401413\n@ねむ\n……ねむってさ\n\n@ねむ\n結構、ずぼらって言うか…\n\n# voice 40141 \"nemu2_0028\"\n@ねむ\n決めたことをやり切れなかったり、\n目標が曖昧になっちゃう事が\nあるから…\n\n@ねむ\n今回こそは、\nやり切ろうって…\n\n# face 401413 \"angry\"\n# voice 40141 \"nemu2_unit_1010\"\n@ねむ\n自分で決めた約束事、\n守り切ろうって…！\n\n@ねむ\n例え、それがダイエットでも…\n達成することが出来たら、\nきっと自信になると思うから…！！\n\n# textflame 0 0\n@\n珍しく熱く語るねむに\n心打たれるマスター\n\n@\nだったら、このまま\nハイキング続行しよ…！\nと言い掛けると…\n\n# textflame 1 1\n# textboxarrow 0 2\n# voice 40141 \"nemu2_kyara_1025\"\n# face 401413 \"normal\"\n# chara 401413\n@ねむ\n…でも、まぁ～\n\n;;吹き出し小さく\n# textsize 18\n# face 401413 \"usual\"\n@ねむ\nマスターがどうしても\n休みたいって言うなら…？\n付き合ってあげてもいいけど\n\n# textstop 0\n# textflame 0 0\n@\n何じゃ、そら！\nついついツッコんでしまう\nマスターだった"
	}
]