[
	{
		"ID": 40171202,
		"script": ";;【EP2】(ウケ)\n# script \"lisp\"\n# background \"highland\"\n# bgm \"bgm002\" 0\n# body 401711\n# pos 401711 3\n# mask 401711 off\n# textflame 0 0\n@\nマスターからもらったおはぎを\n素っ気なく受け取り、\n特訓に戻ろうとするスイハ\n\n# textflame 0 0\n@\nマスターは\n行こうとする彼女を\n呼び止めた\n\n# textflame 1 1\n# textboxarrow 0 2\n# chara 401711\n# face 401711 \"surprise\"\n@スイハ\n…え？まだなにか…？\n\n# textboxarrow 0 2\n# chara 401711\n# face 401711 \"sad\"\n@スイハ\nどうして、そこまでわたくしに…\n\n# textboxarrow 0 2\n# chara 401711\n# voice 4017 \"suiha_0022\"\n# face 401711 \"normal\"\n@スイハ\n…！わたくしが…\n悩んでいるように見えた…？\n\n;;※フラッシュバック\n# fadein \"white\" 1.2\n# textboxarrow 0 2\n# chara 401711\n@スイハ\nこれでは…このままでは…\n\n# textboxarrow 0 2\n# chara 401711\n@スイハ\n…………\n\n# textflame 0 0\n@\n良かったら話してくれないかな？\n彼女の目を見つめ、マスターが言う\n\n# textflame 1 1\n# textboxarrow 0 2\n# chara 401711\n# face 401711 \"sad\"\n@スイハ\n…クールビューティー\n\n# textboxarrow 0 2\n# chara 401711\n@スイハ\n姫の中には、わたくしを\nそのように呼んでいる者も\nいるようです…ですが…\n\n# textboxarrow 0 2\n# chara 401711\n# voice 4017 \"suiha_0013\"\n@スイハ\nそれが…重荷なのです\n\n# textboxarrow 0 2\n# chara 401711\n@スイハ\n近寄りがたい雰囲気を\n出しているのは…\n\n# textboxarrow 0 2\n# chara 401711\n@スイハ\nわたくしが人と話す\n『勇気』がないだけ…\n\n# textboxarrow 0 2\n# chara 401711\n@スイハ\nそれは過去に…\n人々から存在自体を\nなきものとされた記憶から…\n\n# textboxarrow 0 2\n# chara 401711\n# face 401711 \"angry\"\n@スイハ\nでも、本当は…\n\n# textboxarrow 0 2\n# chara 401711\n# face 401711 \"normal\"\n@スイハ\nもっとたくさん\n人と関りを持ちたいと\n願っている…\n\n# textboxarrow 0 2\n# chara 401711\n@スイハ\nわたくしに内包される七元徳は\n『勇気』と『不屈の精神』\n\n# textboxarrow 0 2\n# chara 401711\n# voice 4017 \"suiha_0027\"\n# face 401711 \"sad\"\n@スイハ\nそのはずなのに、\nともに持ってない自分の性格が\n嫌になるのです…\n\n# textflame 0 0\n@\nいつも凛とした美しさで\n佇んでいた彼女\n\n# textflame 0 0\n@\n初めて彼女の苦悩を\n聞いたマスターは、\n\n# textflame 0 0\n@\n心の声まで聞こえてくるような\n気がしていた\n\n# textflame 0 0\n@\nそう、心の声まで…\n\n# textflame 1 1\n# textboxarrow 0 2\n# chara 401711\n# face 401711 \"surprise\"\n@スイハ\n…あ、こんな話をしてしまって\n（わわわわわ…しゃべり過ぎた、\nしゃべり過ぎた、しゃべり過ぎた！）\n\n# textflame 0 0\n@\nあれ…？\n本当に聞こえているような気が…\n\n# textflame 0 0\n@\nマスターは自信なさげに佇む彼女に、\n声を掛けた\n\n# select \"『勇気』、あると思うけど\" \"select_label_01\" \"『勇気』、ないことないよ？\" \"select_label_02\" \"君の『勇気』に敬意を払うよ\" \"select_label_03\"\nマスターは自信なさげに佇む彼女に、\n声を掛けた\n\n# label \"select_label_01\"\n# labeljump \"select_label_end\"\n# textflame 1 1\n# textboxarrow 0 2\n# chara 401711\n# face 401711 \"surprise\"\n@スイハ\n…え？…ウソでしょ？\n\n# label \"select_label_02\"\n# labeljump \"select_label_end\"\n# textflame 1 1\n# textboxarrow 0 2\n# chara 401711\n# face 401711 \"sad\"\n@スイハ\nそんな…勇気なんて…ありませんよ\n\n# label \"select_label_03\"\n# labeljump \"select_label_end\"\n# textflame 1 1\n# textboxarrow 0 2\n# chara 401711\n# face 401711 \"sad\"\n@スイハ\nわたくしに…勇気なんて…\n\n# label \"select_label_end\"\n# textboxarrow 0 2\n# chara 401711\n# face 401711 \"angry\"\n@スイハ\n…！\n\n# textboxarrow 0 2\n# chara 401711\n# voice 4017 \"suiha_0040\"\n# face 401711 \"normal\"\n@スイハ\nふむ…なるほど\n（え？そうなの？そうなのかな！？）\n\n# textboxarrow 0 2\n# chara 401711\n# face 401711 \"sad\"\n@スイハ\nでも…もっと勇気と…\n不屈の精神を持つには\nどうすればいいのかと…\n\n# textflame 0 0\n@\n晴れない顔の彼女に\n「ま、今はおはぎを食べよう」と\nマスターが提案する\n\n# textflame 1 1\n# textboxarrow 0 2\n# chara 401711\n# face 401711 \"normal\"\n@スイハ\n…は、はい\nそうですね…\n（わ～い！大好物のおはぎ！）\n\n# textboxarrow 0 2\n# chara 401711\n# face 401711 \"surprise\"\n@スイハ\nあの、マスター\nありが…\n\n# textflame 0 0\n@\nびゅうっ！！\n\n# textflame 0 0\n@\n彼女がなにかを言い掛けた時、\n突然の強風が吹いた\n\n# textflame 1 1\n# textboxarrow 0 2\n# chara 401711\n# face 401711 \"angry\"\n@スイハ\n…あっ！\n\n# textflame 0 0\n@\n彼女のおはぎは\n皿から地面へと落ちてしまった\n\n# textflame 1 1\n# textboxarrow 0 2\n# chara 401711\n# voice 4017 \"suiha_0025\"\n# face 401711 \"sad\"\n@スイハ\nあぁ…おはぎが…！"
	}
]