[
	{
		"ID": 413020243,
		"script": "# script \"lisp\"\n# background \"devil_world\"\n# bgmfile \"bgm272\" \"BgmLostRagnarokEvent\" 0\n# textwindow \"nomal\"\n# body 3600211\n# pos 3600211 3\n# scale 3600211 0.8 0\n# alpha 3600211 0 0\n# mask 3600211 off\n# body 3502411\n# pos 3502411 3\n# scale 3502411 0.8 0\n# alpha 3502411 0 0\n# mask 3502411 off\n# textflame 0 0\n@\nそして…\n\n# face 3502411 \"sad\"\n# alpha 3502411 1 0\n# fadein \"red\" 0.5\n# shake 0 0.5\n# textflame 1 1\n# voice 350241 \"saika_a_battle_0007\"\n# textboxarrow 0 2\n@雑賀\nくぅっ！\n\n# textflame 0 0\n@\n自分の後をつけてきた雑賀を\n追い返そうとするガンバンテイン\n\n# alpha 3502411 0 0.5\n# textflame 0 0\n@\nだが、使い魔で足止めをしても\nサルガタナスの能力で\n瞬時に遠くへ移動させても\n\n# textflame 0 0\n@\n雑賀はしつこく追い回してきた\n\n# face 3600211 \"sad\"\n# alpha 3600211 1 0.5\n# textflame 1 1\n# textboxarrow 0 2\n@ガンバンテイン\nはぁ～、放っといて欲しいのに…\nめんどくさいな～\n\n# textwindow \"close\"\n# fadeout \"black\" 1\n# waitandnext 1\n\n# face 3600211 \"happy\"\n# mask 3600211 on\n# mask 3502411 on\n# alpha 3600211 0 0\n# move 3600211 2 0\n# move 3502411 4 0\n# face 3502411 \"sad\"\n# background \"201_room\"\n# waitandnext 0.1\n\n# fadein \"black\" 0.5\n# waitandnext 0.5\n\n# textwindow \"nomal\"\n# textflame 0 0\n@\n数時間後─\n\n# alpha 3600211 1 0.5\n# alpha 3502411 1 0.5\n# textflame 1 1\n# textboxarrow 0 1\n@ガンバンテイン\n…………\n\n# textflame 1 1\n# textboxarrow 0 3\n@雑賀\nはぁ…はぁ…はぁ…\n\n# textflame 1 1\n# textboxarrow 0 1\n@ガンバンテイン\nあんびり～ばぼ～\n\n# face 3502411 \"angry\"\n# textflame 1 1\n# textboxarrow 0 3\n@雑賀\nやっと見つけたっすよ\n\n# textflame 0 0\n@\nガンバンテインの部屋を\n訪ねてきた雑賀\n\n# textflame 1 1\n# textboxarrow 0 1\n@ガンバンテイン\n使い魔さん達の妨害を\nかいくぐって来たんだ？\nすごいね～\n\n# textflame 1 1\n# textboxarrow 0 1\n@ガンバンテイン\nそこまでして…\nあたしになんか用？\n\n# voice 350241 \"saika_a_0002\"\n# textflame 1 1\n# textboxarrow 0 3\n@雑賀\n…頼みがあるっす！\n\n# voice 360021 \"ganbantein_a_0031\"\n# textflame 1 1\n# textboxarrow 0 1\n@ガンバンテイン\nやだ\n\n# face 3502411 \"surprise\"\n# voice 350241 \"saika_a_0023\"\n# textflame 1 1\n# textboxarrow 0 3\n@雑賀\nまだなんも言ってないっすよ！\n\n# textflame 1 1\n# textboxarrow 0 1\n@ガンバンテイン\nそんなの、どうせ\nめんどくさいことでしょ？\n\n# face 3502411 \"angry\"\n# textflame 1 1\n# textboxarrow 0 3\n@雑賀\n戦場でぼ～っとしてるのに\n傷を一切追わないなんて\n\n# textflame 1 1\n# textboxarrow 0 3\n@雑賀\nあんなのかなりの実力がないと\n出来ない芸当っす\n\n# textflame 1 1\n# textboxarrow 0 3\n@雑賀\nそこで尾行してみたら\n案の定、その片鱗を垣間見た…\n\n# textflame 1 1\n# textboxarrow 0 3\n@雑賀\nそれで思ったんです\nあんたに…\n諜報部隊に入って欲しいって\n\n# voice 360021 \"ganbantein_a_0013\"\n# textflame 1 1\n# textboxarrow 0 1\n@ガンバンテイン\nあたしが…？\nちょ～ほ～ぶたい…？\n\n# textflame 1 1\n# textboxarrow 0 3\n@雑賀\nあんたの使い魔を操れる力は、\n敵の情勢や軍事秘密を探るのに\n適してるっす\n\n# textflame 1 1\n# textboxarrow 0 3\n@雑賀\n国のため…\n是非、力を貸して欲しいっす\n\n# voice 360021 \"ganbantein_a_0026\"\n# textflame 1 1\n# textboxarrow 0 1\n@ガンバンテイン\n国のためか～\n\n# voice 350241 \"saika_a_0003\"\n# textflame 1 1\n# textboxarrow 0 3\n@雑賀\nそうっす！\n\n# face 3600211 \"sad\"\n# textflame 1 1\n# textboxarrow 0 1\n@ガンバンテイン\nこんな戦争ばっかの時代に\n生まれちゃったけど…\n\n# textflame 1 1\n# textboxarrow 0 1\n@ガンバンテイン\nあたしは\nのんびり静かに\n暮らしたいんだ～\n\n# textflame 1 1\n# textboxarrow 0 1\n@ガンバンテイン\nてことで、じゃあね～\n\n# alpha 3600211 0 0.5\n# waitandnext 0.5\n\n# face 3502411 \"surprise\"\n# voice 350241 \"saika_a_0022\"\n# textflame 1 1\n# textboxarrow 0 3\n@雑賀\nあっ！\n\n# textflame 0 0\n@\nガンバンテインはサルガタナスの\n能力で透明になり、雑賀の前から\n消え失せてしまうのだった"
	}
]