[
	{
		"ID": 413022013,
		"script": ";;-----------------------------------------\n;;413022021\n;;ロンゴピックアップ【EP2】「獣の本質」前半\n;;-----------------------------------------\n# script \"lisp\"\n# background \"201_border\"\n# bgmfile \"bgm271\" \"BgmLostRagnarokEvent\" 0\n;;ロンゴミアント\n# body 3301011\n# pos 3301011 4\n# scale 3301011 0.8 0\n# layer 3301011 4\n# mask 3301011 on\n# alpha 3301011 1 0\n# face 3301011 \"angry\"\n;;ミョルニル\n# body 3200111\n# pos 3200111 2\n# scale 3200111 0.8 0\n# layer 3200111 3\n# mask 3200111 on\n# alpha 3200111 1 0\n;;トレイセーマC\n# body 3830001\n# pos 3830001 2\n# scale 3830001 0.8 0\n# layer 3830001 2\n# mask 3830001 on\n# alpha 3830001 0 0\n;;トレイセーマD\n# entry 938300019 3830001\n# pos 938300019 4\n# scale 938300019 0.8 0\n# layer 938300019 2\n# mask 938300019 on\n# alpha 938300019 0 0\n;;カーテンフェード\n# imageset 0 \"black\"\n# imagealpha 0 0 0\n# imagelayer 0 1\n;;◆背景：国境-----------------------------------------\n# textflame 1 1\n# textboxarrow 0 1\n# face 3200111 \"normal\"\n# voice 320011 \"myuruniru_ge_0002\"\n# chara 3200111\n@ミョルニル\nキミは敵ってことでいいんだよね？\n\n# textflame 1 1\n# textboxarrow 0 3\n# voice 330101 \"rhongomiant_a_0003\"\n# chara 3301011\n@ロンゴミアント\nええ、そうですよ\n\n# textflame 0 0\n@\nミョルニルの言葉に頷く\nロンゴミアントだったが\nその顔は険しい\n\n# textflame 0 0\n@\nなぜなら―\n\n;;◆背景：国境（後方）---------------------------------\n# imagepos 0 0 30\n# imagealpha 0 1 0\n# imageleftin 0 0.5\n# textwindow \"close\"\n# waitandnext 0.5\n\n# alpha 3200111 0 0\n# alpha 3301011 0 0\n# background \"201_border\"\n# waitandnext 0.5\n\n# imagealpha 0 0 0.5\n# imagerightout 0 0.5\n# waitandnext 0.5\n\n# se \"SE_5575\"\n# alpha 3830001 1 0\n# alpha 938300019 1 0\n# leftin 3830001 0.5\n# leftin 938300019 0.5\n# waitandnext 0.5\n\n# textwindow \"normal\"\n# textflame 1 1\n# textboxarrow 0 1\n# voice 383000 \"cryptid_battle_0002\"\n# chara 3830001\n@トレイセーマ兵\nこっちだっ！\n援護急げっ！\n\n# textflame 1 1\n# textboxarrow 0 3\n# voice 383000 \"cryptid_0029\"\n# chara 3830001\n@トレイセーマ兵\nミョルニル！\nさっさとその悪魔憑きを倒せ！\n\n# textflame 0 0\n@\nミョルニルの後方に、\n新たな部隊が\n展開していたからだ\n\n;;◆背景：国境-----------------------------------------\n# imagepos 0 0 30\n# imagealpha 0 1 0\n# imageleftin 0 0.5\n# textwindow \"close\"\n# waitandnext 0.5\n\n# alpha 3830001 0 0\n# alpha 938300019 0 0\n# pos 3200111 3\n# mask 3200111 off\n# face 3200111 \"happy\"\n# alpha 3200111 1 0\n# background \"201_border\"\n# waitandnext 0.5\n\n# imagealpha 0 0 0.5\n# imagerightout 0 0.5\n# waitandnext 0.5\n\n# textwindow \"normal\"\n# textflame 1 1\n# textboxarrow 0 2\n# voice 320011 \"myuruniru_ge_0004\"\n# chara 3200111\n@ミョルニル\nまっかせて！\n\n# textflame 1 1\n# textboxarrow 0 2\n# face 3200111 \"normal\"\n# chara 3200111\n@ミョルニル\nふっふっふっ～\nミョルニルちゃんがぺったんこに\nしちゃうんだから～！\n\n# textflame 0 0\n@\n今すぐにでも\n戦いが始まりそうななか、\nそんなことを言うミョルニル\n\n# textwindow \"close\"\n# alpha 3200111 0 0.5\n# waitandnext 0.5\n\n# pos 3200111 2\n# mask 3200111 on\n# alpha 3200111 1 0.5\n# alpha 3301011 1 0.5\n# face 3301011 \"normal\"\n# waitandnext 0.5\n\n# textwindow \"normal\"\n# textflame 1 1\n# textboxarrow 0 3\n# face 3301011 \"surprise\"\n# voice 330101 \"rhongomiant_a_0002\"\n# chara 3301011\n@ロンゴミアント\nなんです？\nここは戦場、\n遊び場ではありませんよ\n\n# textflame 1 1\n# textboxarrow 0 1\n# face 3200111 \"happy\"\n# voice 320011 \"myuruniru_ge_0009\"\n# chara 3200111\n@ミョルニル\nなに言ってるのぉ？\nあなたも楽しいから\n戦ってるとき笑ってるんでしょ？\n\n# textflame 1 1\n# textboxarrow 0 3\n# face 3301011 \"normal\"\n# voice 330101 \"rhongomiant_a_0005\"\n# chara 3301011\n@ロンゴミアント\nふふふふっ、楽しい、ですよ？\n\n# textflame 0 0\n@\n意識を切り替えるように、\nロンゴミアントは槍を一振りする\n\n# textflame 1 1\n# textboxarrow 0 3\n# face 3301011 \"angry\"\n# voice 330101 \"rhongomiant_a_0011\"\n# chara 3301011\n@ロンゴミアント\nでも、あなたとは違います\n遊びでここにいるわけではありません\n\n# textflame 1 1\n# textboxarrow 0 1\n# face 3200111 \"surprise\"\n# voice 320011 \"myuruniru_ge_0028\"\n# chara 3200111\n@ミョルニル\nふ～ん\nあまり変わらないんじゃない？\nだってあなたも獣でしょ？\n\n# textflame 1 1\n# textboxarrow 0 3\n# face 3301011 \"sad\"\n# voice 330101 \"rhongomiant_a_0027\"\n# chara 3301011\n@ロンゴミアント\nなにを言うかと思えば…\n私は悪魔グラシャラボラスの力、\n悪魔の殺戮技法を受け継いだ者\n\n# textflame 1 1\n# textboxarrow 0 3\n# face 3301011 \"normal\"\n# chara 3301011\n@ロンゴミアント\nトレイセーマの畜生とは\n違います\n\n# bgm \"stop\"\n# textflame 1 1\n# textboxarrow 0 1\n# face 3200111 \"happy\"\n# voice 320011 \"myuruniru_ge_0039\"\n# chara 3200111\n@ミョルニル\nそうかなぁ？\nミョルニルには分かるよ\nきみの中にある獣の匂い\n\n# se \"SE_0648\"\n# textflame 1 1\n# textboxarrow 0 3\n# face 3301011 \"angry\"\n# voice 330101 \"rhongomiant_a_0037\"\n# chara 3301011\n@ロンゴミアント\nっ…\n\n# bgm \"bgm029_030\" 0\n# textflame 0 0\n@\nギリッ、とロンゴミアントが\n口を固く閉ざし、\n怒りの形相でにらみつけた\n\n# textflame 1 1\n# textboxarrow 0 3\n# face 3301011 \"normal\"\n# voice 330101 \"rhongomiant_a_0004\"\n# chara 3301011\n@ロンゴミアント\n私を獣だと、蔑みましたね…\n\n# textflame 1 1\n# textboxarrow 0 3\n# chara 3301011\n@ロンゴミアント\n私は\nロンゴミアント・\nD. plug・グラシャラボラス\n\n# textflame 1 1\n# textboxarrow 0 3\n# chara 3301011\n@ロンゴミアント\nあなたたち獣を狩る者です\nだから…\n\n# face 3200111 \"normal\"\n# se \"SE_5205\"\n# textflame 0 0\n@\nぐっと握り締めた槍の柄がきしむ\n\n# shake 0 0.6\n# se \"SE_4756\"\n# fadein \"white\" 0.6\n# textwindow \"toge\"\n# textflame 1 1\n# textboxarrow 0 3\n# face 3301011 \"angry\"\n# voice 330101 \"rhongomiant_a_0029\"\n# chara 3301011\n@ロンゴミアント\nあなたは必ず倒してあげますよぉぉっ！\n\n# textwindow \"normal\"\n# textflame 1 1\n# textboxarrow 0 1\n# face 3200111 \"angry\"\n# voice 320011 \"myuruniru_ge_0005\"\n# chara 3200111\n@ミョルニル\nあっははは～！\nきみに出来るかな～？"
	}
]