[
	{
		"ID": 413020271,
		"script": ";;■幻獣梓弓・キャラクエ　シナリオ　　　　　　　　　　　　　　　　　　　　　　　　\n;;スキル効果　EP3：デュエル EP4：バフ\n;;幻獣梓弓×幻獣アロンダイト\n;;新章の新出要素として、EP1を通してハルモニア国は少数精鋭であることを示しています。\n;;【ＥＰ１】\n# script \"lisp\"\n# background \"201_border\"\n# bgmfile \"bgm276\" \"BgmLostRagnarokEvent\" 0\n# body 3100711\n# pos 3100711 2\n# scale 3100711 0.8 0\n# alpha 3100711 0 0\n# body 3400611\n# pos 3400611 3\n# scale 3400611 0.8 0\n# alpha 3400611 0 0\n# entry 938200019 3810001\n# pos 938200019 5\n# scale 938200019 0.8 0\n# alpha 938200019 0 0\n# reversal 938200019 0\n# body 3810001\n# pos 3810001 1\n# scale 3810001 0.8 0\n# alpha 3810001 0 0\n# textwindow \"nomal\"\n# textflame 0 0\n@\nこれは梓弓が\nマスターに出会う以前の話…\n\n# textflame 0 0\n@\n幻獣の力を取り入れた\n人々が暮らす国…、\nトレイセーマ共和国\n\n# face 3400611 \"usual\"\n# alpha 3400611 1 0.5\n# textflame 1 1\n# textboxarrow 0 2\n@梓弓\n…始まる\n\n# textflame 1 1\n# textboxarrow 0 2\n@梓弓\n『変化の兆し』は…\nすぐそこに…\n\n# voice 340061 \"azusa_ge_0007\"\n# textflame 1 1\n# textboxarrow 0 2\n@梓弓\nこの戦…吉と出るのか…\nはたまた\n凶と出るのか……\n\n# textflame 0 0\n@\nここはトレイセーマ共和国と、\nハルモニア教皇国の軍が衝突している\nとある戦場\n\n# textflame 0 0\n@\n兵力数では圧倒的な差を誇る\nトレイセーマ共和国だが、\n\n# textflame 0 0\n@\n少数精鋭のハルモニア教皇国と\n一進一退の攻防を続けていた\n\n# face 3100711 \"angry\"\n# move 3400611 4 0.5\n# alpha 3100711 1 0.5\n# textflame 1 1\n# voice 310071 \"arondaito_ge_0032\"\n# textboxarrow 0 1\n@アロンダイト\nいざ参りましょう\n\n# textflame 1 1\n# textboxarrow 0 3\n@梓弓\n…………\n戦場では…\n\n# voice 310071 \"arondaito_ge_0022\"\n# face 3100711 \"surprise\"\n# textflame 1 1\n# textboxarrow 0 1\n@アロンダイト\n…え？\n\n# voice 340061 \"azusa_ge_0028\"\n# textflame 1 1\n# textboxarrow 0 3\n@梓弓\nくれぐれも\nわたくしと目を合わせぬよう\nお願い致します\n\n# textflame 1 1\n# textboxarrow 0 1\n@アロンダイト\nな、なぜです…？\n\n# face 3400611 \"sad\"\n# textflame 1 1\n# textboxarrow 0 3\n@梓弓\n…………\n\n# textwindow \"close\"\n# alpha 3400611 0 0.5\n# waitandnext 0.5\n\n# imageset 3 \"black\"\n# imagealpha 3 0 0\n# imagelayer 3 1\n# textwindow \"nomal\"\n# textflame 0 0\n@\n何も告げぬまま、\n梓弓は敵兵に向かって飛び出した\n\n# imagealpha 3 1 0\n# imagepos 3 0 30\n# imageleftin 3 0.5\n# serif 0\n# textwindow \"close\"\n# serif 1\n# textwindow \"close\"\n# waitandnext 0.6\n\n# alpha 3400611 0 0\n# alpha 3100711 0 0\n# move 3100711 3 0\n# mask 3100711 off\n# bgmfile \"bgm291\" \"BgmLostRagnarokSideStory\" 0\n# waitandnext 0.5\n\n# imagealpha 3 0 0.5\n# imagerightout 3 0.5\n# waitandnext 0.5\n\n# serif 0\n# textwindow \"nomal\"\n# textflame 0 0\n@\nハルモニア軍に対し、\n攻撃を仕掛けるトレイセーマ軍\n\n# voice 310071 \"arondaito_ge_0029\"\n# face 3100711 \"angry\"\n# alpha 3100711 1 0.5\n# textflame 1 1\n# textboxarrow 0 2\n@アロンダイト\nはぁぁぁっ！！\n\n;;//SE:ガキィィィン！！\n# serif 0\n# textwindow \"close\"\n# subfillrect 1 \"black\" 0 0 1\n# waitandnext 0.2\n\n# se \"SE_4815\"\n# effectbody 700 1 0 0 5\n# effectstart 700\n# waitandnext 0.3\n\n# subfillrect 1 \"black\" 0 1 0\n# textwindow \"nomal\"\n# textflame 1 1\n# textboxarrow 0 2\n@アロンダイト\n我が騎士道！\nそしてユニコーンの力で、\nお前たちを倒す！！\n\n# textflame 0 0\n@\n圧倒的な剣技で、\nハルモニア兵に斬り掛かる\nアロンダイト\n\n# textflame 1 1\n# textboxarrow 0 2\n@アロンダイト\n我が信念にかけて…\n絶対に負けません！\n\n# voice 310071 \"arondaito_ge_0024\"\n# face 3100711 \"surprise\"\n# textflame 1 1\n# textboxarrow 0 2\n@アロンダイト\n…！あ…あれは…\n\n# textflame 0 0\n@\n彼女が見た先では、\n梓弓が数名のハルモニア兵に\n取り囲まれていた\n\n# voice 310071 \"arondaito_ge_0013\"\n# face 3100711 \"angry\"\n# textflame 1 1\n# textboxarrow 0 2\n@アロンダイト\n相手が一体でも手こずるのに…\nあんなにいては…！\n\n# imageset 3 \"black\"\n# imagealpha 3 0 0\n# imagelayer 3 1\n# textflame 0 0\n@\n彼女が梓弓の救援に向かおうとした、\nその時…\n\n# imagealpha 3 1 0\n# imagepos 3 0 30\n# imageleftin 3 0.5\n# serif 0\n# textwindow \"close\"\n# serif 1\n# textwindow \"close\"\n# waitandnext 0.5\n\n# alpha 3100711 0 0\n# alpha 3400611 1 0\n# alpha 3810001 1 0\n# alpha 938200019 1 0\n# move 3400611 3 0\n# waitandnext 0.5\n\n# imagealpha 3 0 0.5\n# imagerightout 3 0.5\n# waitandnext 0.5\n\n# serif 0\n# voice 340061 \"azusa_ge_0007\"\n# textwindow \"nomal\"\n# textflame 1 1\n# textboxarrow 0 2\n@梓弓\n愚かな…\n\n# face 3400611 \"angry\"\n# fadein \"pink\" 0.5\n# textflame 0 0\n@\n俯いていた梓弓が顔を上げ、\nカッ！と目を見開いた\n\n# textflame 1 1\n# textboxarrow 0 3\n@ハルモニア兵\n…なっ！\n\n# textflame 0 0\n@\nまるで蛇に睨まれた蛙のように、\n身が硬直して動けない\nハルモニア兵たち\n\n# voice 340061 \"azusa_ge_battle_0003\"\n# textflame 1 1\n# textboxarrow 0 2\n@梓弓\n邪眼と弓に…\n\n# textflame 1 1\n# textboxarrow 0 2\n@梓弓\n射抜かれなさい！\n\n# se \"SE_4200\"\n# effectbody 7000 28 220 0 2\n# effectstart 7000\n# effectbody 7001 28 -220 0 2\n# effectstart 7001\n# waitandnext 0.3\n\n# shake 0 0.5\n# fadein \"red\" 0.5\n# alpha 3810001 0 0.7\n# alpha 938200019 0 0.7\n# face 3400611 \"usual\"\n# textflame 0 0\n@\n彼女が放った矢は、\n敵兵を３人もろとも串刺しにした\n\n# voice 310071 \"arondaito_ge_0009\"\n# face 3100711 \"surprise\"\n# alpha 3400611 0 0.5\n# alpha 3100711 1 0.5\n# textflame 1 1\n# textboxarrow 0 2\n@アロンダイト\nい、今の力は…！\n\n# voice 340061 \"azusa_ge_0004\"\n# face 3400611 \"amazed\"\n# mask 3400611 off\n# alpha 3400611 1 0.5\n# alpha 3100711 0 0.5\n# textflame 1 1\n# textboxarrow 0 2\n@梓弓\n言ったでしょ？\nわたくしと\n目を合わせないようにと…\n\n# alpha 3400611 0 0.5\n# alpha 3100711 1 0.5\n# textflame 1 1\n# textboxarrow 0 2\n@アロンダイト\n…！\n\n# textwindow \"close\"\n# fadeout \"black\" 1\n# waitandnext 1.5\n\n# mask 3100711 on\n# mask 3400611 on\n# move 3100711 4 0\n# move 3400611 2 0\n# alpha 3100711 0 0\n# face 3400611 \"angry\"\n# waitandnext 0.2\n\n# fadein \"black\" 1\n# waitandnext 1\n\n# textwindow \"nomal\"\n# textflame 0 0\n@\nその後も剣と弓、\n各々の武器を駆使し、\nハルモニア兵を倒していく２人\n\n# voice 310071 \"arondaito_ge_battle_0001\"\n# face 3100711 \"angry\"\n# alpha 3400611 1 0.5\n# alpha 3100711 1 0.5\n# textflame 1 1\n# textboxarrow 0 3\n@アロンダイト\nはぁぁぁっ！！\n\n# textflame 0 0\n@\nアロンダイト…\n聖獣ユニコーンをプラントされ、\n清き戦い方をする彼女に比べ…\n\n# voice 340061 \"azusa_ge_0005\"\n# face 3400611 \"happy\"\n# textflame 1 1\n# textboxarrow 0 1\n@梓弓\nうふふ…\nふふふふふ…！\n\n# textflame 0 0\n@\n梓弓がプラントされたのは\n怪物メデューサ\n\n# textflame 0 0\n@\nその戦いざまは…\nまさに光と闇ほども違う\n\n# textflame 1 1\n# textboxarrow 0 1\n@梓弓\nあはははは！\n\n# textflame 0 0\n@\n恍惚の表情を浮かべ、\n敵を射抜いていく彼女\n\n# textflame 0 0\n@\nその瞳の奥は、\n恐ろしき狂気を感じさせる\n\n# textflame 1 1\n# textboxarrow 0 1\n@梓弓\n我が瞳は悪しき邪眼…\n何人たりとも…\n逃れることはできないのです…\n\n# textflame 1 1\n# textboxarrow 0 1\n@梓弓\nうふふふふ…！\n\n# textwindow \"close\"\n# fadeout \"black\" 1\n# waitandnext 1\n\n# move 3100711 3 0\n# move 3400611 3 0\n# alpha 3400611 0 0\n# alpha 3100711 0 0\n# mask 3400611 off\n# mask 3100711 off\n# waitandnext 0.5\n\n# fadein \"black\" 1\n# waitandnext 1\n\n# textwindow \"nomal\"\n# textflame 0 0\n@\nそれから一時間ほどが経過した\n\n# voice 340061 \"azusa_ge_0004\"\n# alpha 3400611 1 0.5\n# textflame 1 1\n# textboxarrow 0 2\n@梓弓\nふふふ…\nだいぶ片付いてきましたね\n\n# textflame 0 0\n@\n戦闘はトレイセーマ軍優勢で\n進んでいたのだが…\n\n# alpha 3400611 0 0.5\n# alpha 3100711 1 0.5\n# textflame 1 1\n# textboxarrow 0 2\n@アロンダイト\nはあっ！\n\n# face 3400611 \"amazed\"\n# alpha 3400611 1 0.5\n# alpha 3100711 0 0.5\n# textflame 1 1\n# textboxarrow 0 2\n@梓弓\n…………\n\n# textflame 0 0\n@\nアロンダイトに目をやる梓弓\n\n# face 3100711 \"surprise\"\n# alpha 3400611 0 0.5\n# alpha 3100711 1 0.5\n# textflame 1 1\n# textboxarrow 0 2\n@アロンダイト\n大丈夫ですか！？\n\n# textflame 0 0\n@\nアロンダイトが\n負傷した味方の斬ル姫に\n手を差し伸べている\n\n# voice 340061 \"azusa_ge_0027\"\n# mask 3400611 on\n# alpha 3400611 1 0.5\n# alpha 3100711 0 0.5\n# textflame 1 1\n# textboxarrow 0 2\n@梓弓\n一体、なにを…\nわたくし達はいわば道具…\n他人を助けるだなんて…\n\n# voice 340061 \"azusa_ge_0037\"\n# face 3400611 \"sad\"\n# textflame 1 1\n# textboxarrow 0 2\n@梓弓\nう…\nうぅ…\n\n# textflame 0 0\n@\n先程までの恍惚状態から\nうって変わり、\n苦しげな顔を浮かべる\n\n# bgm \"stop\"\n# textflame 0 0\n@\nその時…！\n\n# face 3400611 \"surprise\"\n# move 3810001 2 0.3\n# alpha 3810001 1 0.3\n# textflame 1 1\n# textboxarrow 0 1\n@ハルモニア兵\nはっ！\n\n# se \"SE_4001\"\n# move 3400611 4 0.2\n# shake 0 0.5\n# fadein \"red\" 0.5\n# waitandnext 0.3\n\n# bgmfile \"bgm271\" \"BgmLostRagnarokEvent\" 0\n# voice 340061 \"azusa_ge_battle_0008\"\n# face 3400611 \"sad\"\n# textflame 1 1\n# textboxarrow 0 3\n@梓弓\nうぐっ！\n\n# textflame 0 0\n@\n一瞬の隙を突かれ、\n敵の攻撃を受ける彼女\n\n# voice 340061 \"azusa_ge_battle_0002\"\n# face 3400611 \"angry\"\n# textflame 1 1\n# textboxarrow 0 3\n@梓弓\nくっ…！\nはあっ！\n\n# se \"SE_4200\"\n# textwindow \"close\"\n# effectbody 7002 28 -180 0 2\n# effectstart 7002\n# waitandnext 0.3\n\n# fadein \"red\" 0.5\n# shake 0 0.5\n# alpha 3810001 0 0.5\n# waitandnext 0.5\n\n# face 3400611 \"sad\"\n# move 3100711 1 0\n# textwindow \"nomal\"\n# textflame 0 0\n@\n何とか退けるも、\n傷を負った彼女は\nガクリと膝をついてしまった\n\n# mask 3100711 on\n# move 3100711 2 0.5\n# alpha 3100711 1 0.5\n# textflame 1 1\n# textboxarrow 0 1\n@アロンダイト\nだ、大丈夫ですか？\nまさか、毒でも塗られて…？\n\n# textflame 1 1\n# textboxarrow 0 3\n@梓弓\n…………\n\n# voice 310071 \"arondaito_ge_0004\"\n# face 3100711 \"normal\"\n# textflame 1 1\n# textboxarrow 0 1\n@アロンダイト\n安心してください\n\n# textflame 1 1\n# textboxarrow 0 1\n@アロンダイト\n私は毒に耐性を持つ、\nユニコーンをプラントされています\n\n# face 3100711 \"happy\"\n# textflame 1 1\n@アロンダイト\nなので、\n私はその毒に臆せず治療できます！\n\n# textflame 1 1\n# textboxarrow 0 3\n@梓弓\n私の毒を…\n臆することなく…！\n\n# voice 340061 \"azusa_ge_0022\"\n# face 3400611 \"surprise\"\n# textflame 1 1\n@梓弓\nあ、あなたが…\n我が占いにより導き出された…\n『変化の兆し』…！\n\n# voice 310071 \"arondaito_ge_0022\"\n# face 3100711 \"surprise\"\n# textflame 1 1\n# textboxarrow 0 1\n@アロンダイト\n変化…？占い…？\nなんのことです…？\n\n# voice 340061 \"azusa_ge_battle_0005\"\n# face 3400611 \"sad\"\n# textflame 1 1\n# serif 0\n# move 3400611 4 0\n# textwindow \"moya\"\n# textboxarrow 0 0\n@梓弓\n彼女に気を取られたせいで、\nわたくしは怪我を…\n\n# textflame 1 1\n@梓弓\nもしかして彼女が…\nわたくしに“凶”をもたらす\n存在なのでは…\n\n# face 3100711 \"happy\"\n# textflame 1 1\n# serif 0\n# textwindow \"nomal\"\n# textboxarrow 0 1\n@アロンダイト\n…どうしました？\n\n# face 3400611 \"usual\"\n# textflame 1 1\n# textboxarrow 0 3\n@梓弓\nだ、大丈夫です…\nこれくらいの傷…\nなんともありません\n\n# face 3100711 \"surprise\"\n# textflame 1 1\n# textboxarrow 0 1\n@アロンダイト\nしかし…！\n\n# voice 340061 \"azusa_ge_0014\"\n# face 3400611 \"angry\"\n# textflame 1 1\n# textboxarrow 0 3\n@梓弓\nわたくしに\n触れないでください！\n\n# face 3100711 \"sad\"\n# textflame 1 1\n# textboxarrow 0 1\n@アロンダイト\n…！\n\n# face 3400611 \"sad\"\n# textflame 1 1\n# textboxarrow 0 3\n@梓弓\n一人で…\n大丈夫ですから…\n\n# textwindow \"close\"\n# alpha 3400611 0 0.5\n# waitandnext 0.5\n\n# textwindow \"nomal\"\n# textflame 0 0\n@\nそう言って、再び戦場へと\n足を向ける梓弓だった"
	}
]