[
	{
		"ID": 413011001,
		"script": ";;ベガルタ_EP1\n;;//背景：荒廃した街中\n# script \"lisp\"\n# background \"ground_surface_break\"\n# bgmfile \"bgm276\" \"BgmLostRagnarokEvent\" 0\n;;異族\n# body 810004\n# pos 810004 3\n# scale 810004 0.8 0\n# alpha 810004 0 0\n# mask 810004 off\n# layer 810004 5\n;;悪魔\n# body 910013\n# pos 910013 3\n# scale 910013 0.8 0\n# mask 910013 off\n# layer 910013 4\n;;幻獣\n# body 900016\n# pos 900016 3\n# scale 900016 0.8 0\n# alpha 900016 0 0\n# mask 900016 off\n# layer 900016 3\n;;モラルタ\n# body 3104011\n# pos 3104011 4\n# scale 3104011 0.8 0\n# alpha 3104011 0 0\n# face 3104011 \"angry\"\n# layer 3104011 1\n;;ベガルタ\n# body 3104111\n# pos 3104111 2\n# scale 3104111 0.8 0\n# alpha 3104111 0 0\n# layer 3104111 2\n# face 3104111 \"usual\"\n;;アルマス\n# body 3103811\n# pos 3103811 3\n# scale 3103811 0.8 0\n# alpha 3103811 0 0\n# brightness 3103811 0 0\n# layer 3103811 23\n;;レヴァ\n# body 100211\n# pos 100211 3\n# scale 100211 0.8 0\n# alpha 100211 0 0\n# brightness 100211 0 0\n# layer 100211 23\n;;マサムネ\n# body 100111\n# pos 100111 3\n# scale 100111 0.9 0\n# alpha 100111 0 0\n# brightness 100111 0 0\n# layer 100111 23\n;;ティル\n# body 24\n# pos 24 3\n# scale 24 0.9 0\n# alpha 24 0 0\n# brightness 24 0 0\n# layer 24 23\n# serif 0\n# textwindow \"close\"\n# serif 1\n# textwindow \"normal\"\n# textboxarrow 1 2\n# chara 910013\n@悪魔\nグアアアアアアア！\n\n# alpha 910013 0 0.5\n# alpha 900016 1 0.5\n# serif 1\n# textwindow \"normal\"\n# textboxarrow 1 2\n# chara 900016\n@幻獣\nグルルルルルルルル！\n\n;;@天使（異族でも良いかも）\n# alpha 810004 1 0.5\n# alpha 900016 0 0.5\n# serif 1\n# textwindow \"normal\"\n# textboxarrow 1 2\n# chara 810004\n@天使\nギイイイイイイイイイ！\n\n# serif 0\n# textwindow \"normal\"\n# textboxarrow 0 0\n@男\n逃げろぉっ！\nもう…この町はダメだぁっ…！\n\n# textboxarrow 0 0\n@女\nイヤアアア…！\n誰か助けてぇっ…！\n\n;;//魔獣達に追われて人々が逃げ惑う\n# serif 1\n# textwindow \"close\"\n# serif 0\n# textwindow \"close\"\n# alpha 810004 0 0.5\n# waitandnext 1.5\n\n# serif 0\n# textwindow \"normal\"\n# alpha 3104111 1 0.5\n# alpha 3104011 1 0.5\n# textflame 1 1\n# textboxarrow 0 1\n# chara 3104111\n@ベガ\nお姉ちゃぁん…！\n家が…家が燃えてるよぉっ…\n\n# textflame 1 1\n# textboxarrow 0 3\n# chara 3104011\n@モラ\nそれより走って！\nお父さんの手を放しちゃダメだよっ\n\n# textflame 1 1\n# textboxarrow 0 3\n# chara 3104011\n@モラ\n私もお母さんの手を放さないから…\n大丈夫だよ、きっと…\n\n# textflame 1 1\n# textboxarrow 0 1\n# chara 3104111\n@ベガ\n本当っ…？\n本当に大丈夫なのっ…？\n怖いよ、お姉ちゃん…\n\n# textflame 1 1\n# textboxarrow 0 3\n# chara 3104011\n@モラ\nお父さんもお母さんも、\n私だっているんだから大丈夫！\nほら、しっかり走って！\n\n# face 3104111 \"normal\"\n# textflame 1 1\n# textboxarrow 0 1\n# chara 3104111\n@ベガ\nうん…\n\n# serif 0\n# move 3104111 2 0\n# textwindow \"moya\"\n# textboxarrow 0 0\n# chara 3104111\n@ベガ\nお姉ちゃんはすごいな…\n私は怖くて泣いてばかりなのに\n\n# serif 1\n# textboxarrow 1 0\n@幻獣\nグルルルルルルルルル！\n\n# face 3104111 \"surprise\"\n# face 3104011 \"surprise\"\n# serif 0\n# textwindow \"normal\"\n# textflame 1 1\n# textboxarrow 0 3\n# chara 3104011\n@モラ\nキャアアアアア！\nちっ…近づくなぁっ…！\nあっち行けぇっ…\n\n# face 3104111 \"usual\"\n# textflame 1 1\n# textboxarrow 0 1\n# chara 3104111\n@ベガ\nヤダヤダヤダヤダッ…！\n怖いよ、こっちに来ないでよぉっ…\n\n# serif 1\n# textwindow \"close\"\n# serif 0\n# move 3104111 2 0\n# textwindow \"moya\"\n# face 3104111 \"surprise\"\n# imageset 0 \"bg_black\"\n# imagealpha 0 0 0\n# imagelayer 0 1\n# imagescale 0 2 0\n# imageset 1 \"mov2_3_overlay\"\n# imagealpha 1 0 0\n# imagelayer 1 2\n# imagescale 1 1.2 0\n# imageset 2 \"mov2_3_sword\"\n# imagealpha 2 0 0\n# imagelayer 2 3\n# imagescale 2 1.2 0\n# imageset 3 \"bg_white\"\n# imagealpha 3 0 0\n# imagelayer 3 4\n# imagescale 3 2 0\n# textboxarrow 0 0\n# chara 3104111\n@ベガ\nあっ…お父さんの手…\n放しちゃダメって\nお姉ちゃんに言われたのにっ…\n\n;;//幻獣や魔獣が襲い掛かる\n;;//斬撃演出（血しぶき演出ある？）\n# se \"SE_9160\"\n# fadein \"black\" 0.5\n# serif 0\n# textwindow \"close\"\n# imagepos 0 0 30\n# imagepos 1 0 30\n# imagepos 2 0 30\n# imagealpha 0 1 0\n# imagealpha 1 1 0\n# imagealpha 2 1 0\n# waitandnext 1\n\n# imagealpha 0 0 0.3\n# imagealpha 1 0 1\n# imagealpha 2 0 1\n# waitandnext 1.5\n\n# face 3104111 \"usual\"\n# face 3104011 \"sad\"\n# serif 0\n# textwindow \"normal\"\n# textflame 1 1\n# textboxarrow 0 1\n# chara 3104111\n@ベガ\nお姉ちゃん…お父さんが…\nお母さんがぁっ…！\n\n# serif 0\n# move 3104111 2 0\n# textwindow \"moya\"\n# textboxarrow 0 0\n# chara 3104111\n@ベガ\n私…手を放しちゃった…\nだからお父さん、殺されて…\n私の…せい…？\n\n# face 3104111 \"sad\"\n# serif 0\n# move 3104111 2 0\n# textwindow \"moya\"\n# textboxarrow 0 0\n# chara 3104111\n@ベガ\n私がいけなかったの？\n私が言いつけ守れない子だから、\nお父さんもお母さんも…\n\n# serif 0\n# textwindow \"normal\"\n# textflame 1 1\n# textboxarrow 0 3\n# chara 3104011\n@モラ\n私達、死ぬんだ…\nここでみんな…\n殺されちゃうんだぁっ！！\n\n# face 3104111 \"usual\"\n# textflame 1 1\n# textboxarrow 0 1\n# chara 3104111\n@ベガ\nお姉ちゃん！？\nしっかりして！\nしっかりしてよぉっ…！\n\n;;//モラルタが倒れる\n# serif 0\n# textwindow \"close\"\n# alpha 3104011 0 0.5\n# waitandnext 0.3\n\n# se \"SE_3001\"\n# shake 0 0.5\n# waitandnext 0.5\n\n# serif 0\n# textwindow \"normal\"\n# move 3104111 3 0.5\n# textflame 1 1\n# textboxarrow 0 2\n# chara 3104111\n@ベガ\n私を一人にしないでっ…！\nお姉ちゃん…！\nそんな…どうしよう…\n\n;;//幻獣や天使が迫ってくる\n# serif 0\n# textwindow \"close\"\n# alpha 3104111 0 0.5\n# waitandnext 0.5\n\n# mask 810004 on\n# mask 910013 on\n# mask 900016 on\n# move 910013 5 0\n# move 900016 1 0\n# alpha 810004 1 0.5\n# alpha 910013 1 0.5\n# alpha 900016 1 0.5\n# waitandnext 1\n\n# face 3104111 \"sad\"\n# serif 0\n# textwindow \"normal\"\n# textboxarrow 0 0\n# chara 3104111\n@ベガ\nああ、そっか…\n私達、みんなここで死ぬんだ…\nここで終わりなんだ…\n\n# serif 0\n# textwindow \"normal\"\n# textboxarrow 0 0\n# chara 3104111\n@ベガ\nなんで…\nこんな世界に生まれたんだろう…\n最悪だよ…\n\n# serif 1\n# textboxarrow 1 0\n@魔獣\nグオオオオオオオオ！\n\n# serif 1\n# textwindow \"toge\"\n# textboxarrow 1 0\n@？？？\nせいっ！\n\n;;//斬ル姫（アルマス？）が魔獣を斬り伏せる\n;;//逆光やシルエットなどでアルマスとわからないようにぼかす\n# serif 0\n# textwindow \"close\"\n# se \"SE_4830\"\n# effectbody 1002 4 0 0 7\n# effectstart 1002\n# imagealpha 0 1 0\n# waitandnext 0.2\n\n# shake 0 0.5\n# fadeout \"white\" 0.5\n# waitandnext 0.5\n\n# alpha 3103811 0.01 0\n# imagepos 3  0 30\n# imagealpha 0 0 0\n# imagealpha 3 1 0\n# alpha 810004 0 0\n# alpha 910013 0 0\n# alpha 900016 0 0\n# alpha 3104111 1 0\n# alpha 100211 0.01 0\n# alpha 100111 0.01 0\n# alpha 24 0.01 0\n# waitandnext 0.1\n\n# fadein \"white\" 1\n# waitandnext 1\n\n# face 3104111 \"surprise\"\n# serif 0\n# textwindow \"normal\"\n# effectskip 1002\n# textflame 1 1\n# textboxarrow 0 0\n# chara 3104111\n@ベガ\nえっ…？\nお姉さん…誰…？\n\n# serif 1\n# textwindow \"normal\"\n# textboxarrow 1 2\n@？？？\n…………\n\n;;//斬ル姫が走り去る\n# se \"SE_5575\"\n# serif 1\n# textwindow \"close\"\n# alpha 3103811 0 0.5\n# alpha 100211 0 0.5\n# alpha 100111 0 0.5\n# alpha 24 0 0.5\n# waitandnext 1\n\n# imagealpha 3 0 1\n# textflame 1 1\n# textboxarrow 0 2\n# chara 3104111\n@ベガ\n待って！待ってよぉ…！\nああ、行っちゃった…\nううっ…うっ…うっ…\n\n# face 3104111 \"normal\"\n# imageset 4 \"black\"\n# imagealpha 4 0 0\n# imagelayer 4 5\n# serif 0\n# move 3104111 3 0\n# textwindow \"moya\"\n# textboxarrow 0 0\n# chara 3104111\n@ベガ\n逃げないと…お姉ちゃんと一緒に…\nどこか…化け物のいない世界にっ…\n\n;;//ベガルタがモラルタを担いで歩いていく\n;;――場面転換――\n# imagealpha 4 1 0\n# imagepos 4 0 30\n# imageleftin 4 0.5\n# serif 0\n# textwindow \"close\"\n# serif 1\n# textwindow \"close\"\n# waitandnext 1\n\n# background \"laboratory_area\"\n# alpha 3104111 1 0\n# waitandnext 0.6\n\n# imagealpha 4 0 0.5\n# imagerightout 4 0.5\n# serif 1\n# textwindow \"normal\" \n# textboxarrow 1 0\n@研究員\nおい！\nこんなところに子どもが二人いるぞ！\n収容施設に運べ！\n\n# serif 0\n# move 3104111 3 0\n# textwindow \"moya\"\n# textboxarrow 0 0\n# chara 3104111\n@ベガ\nこの人達、誰…？\n私達、助かったの…？\nお姉ちゃん…\n\n;;//背景：収容所\n\n# fadeout \"black\" 1.5\n# waitandnext 1.5\n\n# serif 1\n# textwindow \"close\"\n# background \"red_corridor\"\n# move 3104111 2 0\n# move 3104011 4 0\n# alpha 3104011 1 0\n# face 3104011 \"surprise\"\n# waitandnext 0.6\n\n# serif 0\n# textwindow \"normal\"\n# fadein \"black\" 1\n# textflame 1 1\n# textboxarrow 0 3\n# chara 3104011\n@モラ\n！？\n…あれ、ここは？\n\n# face 3104111 \"happy\"\n# textflame 1 1\n# textboxarrow 0 1\n# chara 3104111\n@ベガ\nお姉ちゃん！\n\n# textflame 1 1\n# textboxarrow 0 1\n# chara 3104111\n@ベガ\n良かった…\nもう起きてくれないのかと\n心配したよぉ…\n\n# face 3104011 \"sad\"\n# textflame 1 1\n# textboxarrow 0 3\n# chara 3104011\n@モラ\n私、気絶してたんだ…\nごめんね\n怖かったよね\n\n# textflame 1 1\n# textboxarrow 0 1\n# chara 3104111\n@ベガ\nお姉ちゃんが無事で…\n良かった…\n\n# textflame 1 1\n# textboxarrow 0 3\n# chara 3104011\n@モラ\nねえ…ここ、どこ？\n\n# face 3104111 \"sad\"\n# textflame 1 1\n# textboxarrow 0 1\n# chara 3104111\n@ベガ\n私にも良く分からないの…\n知らない人達に連れてこられて…\n他の人達も同じみたい…\n\n;;//研究者達が姿を現す\n# face 3104111 \"normal\"\n# serif 1\n# textboxarrow 1 0\n@所長\nやあやあ、ようこそ！\nよくぞ私達の実験室に来てくれました\n勇敢なる皆さん！\n\n# serif 1\n# textboxarrow 1 0\n@所長\n皆さんにはこれから人類の可能性を\n探求するための尊い実験台となって\nいただきます！\n\n# serif 1\n# textboxarrow 1 0\n@所長\nこの実験が成功した暁には、\n人類史に新たな一頁が\n記されることでしょう\n\n# serif 1\n# textboxarrow 1 0\n@所長\n実に素晴らしい！\n\n# face 3104111 \"usual\"\n# serif 0\n# move 3104111 2 0\n# textwindow \"moya\"\n# textboxarrow 0 0\n# chara 3104111\n@ベガ\nあの人の目…怖い…\n私達、助かったんじゃなかったの？\n"
	}
]