[
	{
		"ID": 414020131,
		"script": ";;----------------------------------------------\n;;414020131\n;;２章 輪廻の斬ル姫【EP3バトル前】\n;;----------------------------------------------\n# script \"lisp\"\n# background \"201_room\"\n# bgmfile \"bgm271\" \"BgmLostRagnarokEvent\" 0\n;;カシウス\n# body 166\n# pos 166 3\n# scale 166 0.8 0\n# layer 166 1\n# mask 166 on\n# alpha 166 1 0\n;;ムラマサ\n# body 3102511\n# pos 3102511 2\n# scale 3102511 0.8 0\n# layer 3102511 3\n# mask 3102511 on\n# alpha 3102511 0 0\n;;マサムネ\n# body 3100111\n# pos 3100111 3\n# scale 3100111 0.8 0\n# layer 3100111 2\n# mask 3100111 off\n# alpha 3100111 0 0\n;;カーテンフェード\n# imageset 0 \"black\"\n# imagealpha 0 0 0\n# imagelayer 0 5\n;;回想フィルター\n# imageset 2 \"bg_white_circle\"\n# imagealpha 2 0 0\n# imagelayer 0 1\n;;剣閃エフェクト(マサムネ)\n# effectbody 1000 1 0 0 5\n;;◆背景：ムラマサの宿場----------------------------------\n# textflame 1 1\n# textboxarrow 0 2\n# face 166 \"normal\"\n# chara 166\n# voice 3031 \"cassius_ge_0002\"\n@カシウス\n殺さないの？\n私を\n\n# textflame 1 1\n# textboxarrow 0 2\n# face 166 \"sad\"\n# chara 166\n# voice 3031 \"cassius_ge_0009\"\n@カシウス\nもしくはご主人様の元へ\n連れていくとか\n\n# textwindow \"close\"\n# move 166 4 0.5\n# alpha 3102511 1 0.5\n# waitandnext 0.5\n\n# textwindow \"normal\"\n# textflame 1 1\n# textboxarrow 0 1\n# face 3102511 \"sad\"\n# voice 310251 \"muramasa_ge_0028\"\n# chara 3102511\n@ムラマサ\n…\n\n# textflame 1 1\n# textboxarrow 0 3\n# face 166 \"normal\"\n# chara 166\n# voice 3031 \"cassius_ge_0002\"\n@カシウス\nウロボロスの子飼い\nなんでしょ？\n\n# textflame 1 1\n# textboxarrow 0 1\n# face 3102511 \"normal\"\n# chara 3102511\n@ムラマサ\n…なぜ\n拙者に問いかけたのだ\n\n# textflame 1 1\n# textboxarrow 0 3\n# face 166 \"surprise\"\n# chara 166\n# voice 3031 \"cassius_ge_0022\"\n@カシウス\nいつの話？\n私、いつもどこかで、誰かに\nよく問いかけてしまうから\n\n# textflame 1 1\n# textboxarrow 0 1\n# face 3102511 \"angry\"\n# voice 310251 \"muramasa_ge_0013\"\n# chara 3102511\n@ムラマサ\n昨晩、拙者が酔っているなどと\n\n# textflame 1 1\n# textboxarrow 0 3\n# face 166 \"happy\"\n# chara 166\n# voice 3031 \"cassius_ge_0020\"\n@カシウス\nあはは。そのこと\n\n# textflame 1 1\n# textboxarrow 0 1\n# face 166 \"normal\"\n# chara 166\n@ムラマサ\n拙者は正気だ\n弁明無きまま帰すわけには参らん…！\n\n# SE \"SE_5206\"\n# textflame 0 0\n@\nムラマサは迷子になった\nその思考を振り払うように\n自身の刀をカシウスに向ける\n\n# textflame 0 0\n@\nカシウスは冷ややかに\n平静とムラマサを見つめる\n\n# textflame 1 1\n# textboxarrow 0 3\n# face 166 \"normal\"\n# chara 166\n# voice 3031 \"cassius_ge_0002\"\n@カシウス\nその八つの頭は飾りなの？\n\n# textflame 1 1\n# textboxarrow 0 1\n# face 3102511 \"angry\"\n# voice 310251 \"muramasa_ge_0010\"\n# chara 3102511\n@ムラマサ\n拙者のオロチまで侮辱するのか！\n\n# textflame 1 1\n# textboxarrow 0 3\n# chara 166\n@カシウス\n考えて。思索を巡らせる旅\nこんな窮屈な檻から\n翼がなくとも頭があれば\n\n# textflame 0 0\n@\nカシウスはどこか\n詩をそらんじるように\n言葉を紡ぐ\n\n# textflame 1 1\n# textboxarrow 0 3\n# face 166 \"sad\"\n# chara 166\n# voice 3031 \"cassius_ge_0028\"\n@カシウス\n監視され、管理され\n思考力を奪われ尽くした者に\nラグナロクへの道は見えもしない\n\n# bgm \"stop\"\n# textflame 1 1\n# textboxarrow 0 3\n# face 166 \"normal\"\n# chara 166\n# voice 3031 \"cassius_ge_0047\"\n@カシウス\n…ムラマサ\nあなたは今、何をしているの？\n\n# se \"SE_5210\"\n# face 3102511 \"normal\"\n# textflame 0 0\n@\nムラマサは逡巡するも\nカシウスに突きつけていた切先を\nゆっくりと下げる\n\n;;◆背景：黒バック(ムラマサ)------------------------------\n# textwindow \"close\"\n# fadeout \"black\" 0.8\n# waitandnext 0.8\n\n# subfillrect 1 \"red\" 0 0 0.2\n# bgmfile \"bgm273\" \"BgmLostRagnarokEvent\" 0\n# alpha 166 0 0\n# pos 3102511 3\n# mask 3102511 off\n# alpha 3102511 1 0\n# face 3102511 \"angry\"\n# brightness 3102511 0.2 0\n# background \"bg_black\"\n# waitandnext 0.5\n\n# fadein \"black\" 0.8\n# waitandnext 1.0\n\n# textwindow \"normal\"\n# textflame 0 0\n# textboxarrow 0 0\n# chara 3102511\n@ムラマサ\n…敵を斬っていた\n\n# textflame 0 0\n# textboxarrow 0 0\n# chara 3102511\n@ムラマサ\nだが、斬る度に\n拙者の理想から遠ざかる気がするのだ\n\n# textflame 0 0\n# textboxarrow 0 0\n# chara 3102511\n@ムラマサ\n国を守る為、理想郷を追わんが為\n刃を振るっていたはずなのに\n悪しき獣を斬り払ったはずなのに\n\n# brightness 3102511 0.9 0.5\n# textflame 0 0\n# textboxarrow 0 0\n# chara 3102511\n@ムラマサ\n血にまみれた我が刀身にうつる\n拙者の顔はまるで…\n\n;;◆背景：ムラマサの宿場----------------------------------\n# imagepos 0 0 30\n# imagealpha 0 1 0\n# imageleftin 0 0.5\n# textwindow \"close\"\n# waitandnext 0.6\n\n# subfillrect 1 \"red\" 0 0.2 0\n# alpha 166 1 0\n# pos 166 4\n# mask 166 on\n# pos 3102511 2\n# face 3102511 \"sad\"\n# alpha 3102511 1 0\n# mask 3102511 on\n# background \"201_room\"\n# waitandnext 0.5\n\n# imagealpha 0 0 0.5\n# imagerightout 0 0.5\n# waitandnext 0.5\n\n# textwindow \"normal\"\n# textflame 1 1\n# textboxarrow 0 1\n# voice 310251 \"muramasa_ge_battle_0005\"\n# chara 3102511\n@ムラマサ\nろくに考えもせず、お告げの通り\n依存と命令に従って\n無数の命を貪る拙者こそが、まるで…\n\n# textflame 1 1\n# textboxarrow 0 3\n# face 166 \"sad\"\n# chara 166\n@カシウス\n獣であると\n\n# face 3102511 \"normal\"\n# textflame 0 0\n@\n無言で頷くムラマサに\nカシウスは優しく声を掛ける\n\n# textflame 1 1\n# textboxarrow 0 3\n# face 166 \"happy\"\n# chara 166\n# voice 3031 \"cassius_ge_0004\"\n@カシウス\n酒を浴び過ぎたの\n勝利の美酒、殺しの愉悦\n獣に劣らず愚かな行為\n\n# textflame 1 1\n# textboxarrow 0 3\n# chara 166\n@カシウス\n酒も知らぬ乙女の身には\n厳しいものがあったのよ\n\n# textflame 1 1\n# textboxarrow 0 1\n# face 3102511 \"surprise\"\n# voice 310251 \"muramasa_ge_0015\"\n# chara 3102511\n@ムラマサ\n…カシウス、そなた…\n\n# textflame 1 1\n# textboxarrow 0 3\n# face 166 \"normal\"\n# chara 166\n# voice 3031 \"cassius_ge_0002\"\n@カシウス\nあなたの理想は何かしら\n\n# textflame 1 1\n# textboxarrow 0 1\n# face 3102511 \"normal\"\n# chara 3102511\n@ムラマサ\n拙者の、理想\n\n# textflame 1 1\n# textboxarrow 0 3\n# face 166 \"sad\"\n# chara 166\n@カシウス\n真実を話しましょう\n\n;;◆背景：平原--------------------------------------------\n# textwindow \"close\"\n# fadeout \"black\" 0.8\n# waitandnext 0.8\n\n# imagepos 2 0 0\n# imagelayer 2 1\n# imagescale 2 1.2 0\n# imagealpha 2 1 0\n# alpha 3102511 0 0\n# alpha 166 0 0\n# background \"101_plain_daytime\"\n# waitandnext 0.5\n\n# fadein \"black\" 0.8\n# waitandnext 1.0\n\n# textwindow \"normal\"\n# textflame 1 1\n# textboxarrow 0 0\n# chara 166\n@カシウス\n今この世界を治めている三大国\n\n# textflame 1 1\n# textboxarrow 0 0\n# chara 166\n@カシウス\n天使人のハルモニア教皇国\n悪魔人のケイオスリオン王国\nここ、幻獣人のトレイセーマ帝国\n\n# textflame 1 1\n# textboxarrow 0 0\n# chara 166\n@カシウス\n現在、三大国には各々4人ずつ\n計12人の斬ル姫がいる\nあなたのような力を持つ姫たちが\n\n# textflame 1 1\n# textboxarrow 0 0\n# chara 166\n@カシウス\nそして、どの国にも属していない\n“ファントム”と呼ばれている存在が\n私を含めて4人\n\n# textflame 1 1\n# textboxarrow 0 0\n# chara 166\n@カシウス\nこの大陸に散らばっている\n\n# textflame 1 1\n# textboxarrow 0 0\n# chara 166\n@カシウス\n私たちは理想郷へ至る為の「鍵」\n私たちを手中に納めることに\n三国が躍起になっているというわけ\n\n;;◆背景：ムラマサの宿場----------------------------------\n# imagepos 0 0 30\n# imagealpha 0 1 0\n# imageleftin 0 0.5\n# imagealpha 2 0 0.6\n# textwindow \"close\"\n# waitandnext 0.6\n\n# alpha 3102511 1 0\n# alpha 166 1 0\n# face 166 \"normal\"\n# face 3102511 \"normal\"\n# background \"201_room\"\n# waitandnext 0.5\n\n# imagealpha 0 0 0.5\n# imagerightout 0 0.5\n# waitandnext 0.5\n\n# textwindow \"normal\"\n# textflame 1 1\n# textboxarrow 0 1\n# voice 310251 \"muramasa_ge_0003\"\n# chara 3102511\n@ムラマサ\n大体は聞いた古い伝承だ\nその「鍵」を探す為、我々も\n国外へも調査の手を伸ばしている\n\n# textflame 1 1\n# textboxarrow 0 3\n# chara 166\n# voice 3031 \"cassius_ge_0003\"\n@カシウス\nオーダーキラーズ四人衆の\nアルテミスとグリモワールね\n\n# textflame 1 1\n# textboxarrow 0 1\n# face 3102511 \"angry\"\n# chara 3102511\n@ムラマサ\nそなたは、どこまで知っている\n\n# textflame 1 1\n# textboxarrow 0 3\n# face 166 \"surprise\"\n# chara 166\n# voice 3031 \"cassius_ge_0007\"\n@カシウス\nご苦労なことね\n探さずとも\nこうして出向いて来ているのに\n\n# textflame 1 1\n# textboxarrow 0 1\n# face 3102511 \"normal\"\n# voice 310251 \"muramasa_ge_0002\"\n# chara 3102511\n@ムラマサ\nそなたがいれば\nトレイセーマは\n理想郷へと至れるのか？\n\n# textflame 1 1\n# textboxarrow 0 3\n# face 166 \"sad\"\n# chara 166\n# voice 3031 \"cassius_ge_0028\"\n@カシウス\nそれがわかれば\nこんな回りくどいことはしないの\nだけど神様って寡黙だから\n\n# textflame 1 1\n# textboxarrow 0 3\n# chara 166\n@カシウス\nそれについては\n神のみぞ知る、のかしら\n字のごとく\n\n# textflame 1 1\n# textboxarrow 0 1\n# face 3102511 \"sad\"\n# voice 310251 \"muramasa_ge_0017\"\n# chara 3102511\n@ムラマサ\n翻弄されているのだな…\n拙者たちも\nそなたらも\n\n# textflame 1 1\n# textboxarrow 0 3\n# face 166 \"normal\"\n# chara 166\n# voice 3031 \"cassius_ge_0003\"\n@カシウス\nだからこそ私は\nこの国を選んだ\n神でも悪魔でもなく\n\n# textflame 1 1\n# textboxarrow 0 3\n# chara 166\n@カシウス\n最も多くの民が集まり\n最も荒れ狂う獣が集う国\nそれを制する国こそが…\n\n# textflame 1 1\n# textboxarrow 0 3\n# face 166 \"happy\"\n# chara 166\n# voice 3031 \"cassius_ge_0004\"\n@カシウス\nラグナロクへと\n至る力を持つのではないかと\n\n# textflame 1 1\n# textboxarrow 0 3\n# face 166 \"normal\"\n# chara 166\n# voice 3031 \"cassius_ge_0047\"\n@カシウス\nそうして私は\nあなたを選んだ\n\n# textflame 1 1\n# textboxarrow 0 1\n# face 3102511 \"surprise\"\n# chara 3102511\n@ムラマサ\n…なにゆえ\n\n# textflame 1 1\n# textboxarrow 0 3\n# face 166 \"sad\"\n# chara 166\n# voice 3031 \"cassius_ge_0003\"\n@カシウス\n鎖が千切れそうだったから\nあなた\n\n# textflame 1 1\n# textboxarrow 0 3\n# chara 166\n@カシウス\n今にも放たれそうな獣\nそれでいて理想を追い求める刃\n\n# textflame 1 1\n# textboxarrow 0 3\n# face 166 \"normal\"\n# chara 166\n@カシウス\nその相反する心に\n私は好奇心をくすぐられた\n平たく言えば、気になったの\n\n# textflame 1 1\n# textboxarrow 0 1\n# face 3102511 \"happy\"\n# voice 310251 \"muramasa_ge_0004\"\n# chara 3102511\n@ムラマサ\n…ふふっ\n\n# textflame 1 1\n# textboxarrow 0 3\n# face 166 \"surprise\"\n# chara 166\n# voice 3031 \"cassius_ge_0022\"\n@カシウス\n何を笑うの？\n\n# textflame 1 1\n# textboxarrow 0 1\n# face 3102511 \"normal\"\n# chara 3102511\n@ムラマサ\nいや、理想郷への「鍵」は\n随分と自由だなと思って\n気に障ったなら、あいすまぬ\n\n# textflame 1 1\n# textboxarrow 0 3\n# face 166 \"happy\"\n# chara 166\n# voice 3031 \"cassius_ge_0003\"\n@カシウス\nええ。気に障ったわ\n\n# textflame 0 0\n@\n二人は顔を見合わせると\n笑顔を交わす\n\n# bgm \"stop\"\n# textflame 1 1\n# textboxarrow 0 3\n# face 166 \"sad\"\n# chara 166\n# voice 3031 \"cassius_ge_0028\"\n@カシウス\n………でもね\n心配事がひとつ\n\n# textflame 1 1\n# textboxarrow 0 1\n# face 3102511 \"surprise\"\n# voice 310251 \"muramasa_ge_0022\"\n# chara 3102511\n@ムラマサ\nなに？\n\n# textflame 1 1\n# textboxarrow 0 3\n# face 166 \"normal\"\n# chara 166\n@カシウス\nこの国の監視・管理に例外はない\nそれはあなたたち\nオーダーキラーズにおいても\n\n# textflame 1 1\n# textboxarrow 0 1\n# face 3102511 \"normal\"\n# chara 3102511\n@ムラマサ\nそうであろうな\n\n# textflame 1 1\n# textboxarrow 0 3\n# face 166 \"sad\"\n# chara 166\n# voice 3031 \"cassius_ge_0002\"\n@カシウス\nムラマサ、あなたが今まで一度も\nこの国の状況に疑問を持たなかった\nわけがないのよ\n\n# textflame 1 1\n# textboxarrow 0 1\n# face 3102511 \"sad\"\n# chara 3102511\n@ムラマサ\n…拙者は初めて\n気づいたことばかりだと…\n\n# textflame 1 1\n# textboxarrow 0 3\n# face 166 \"normal\"\n# chara 166\n@カシウス\nもしかしたら\nあなたはその度に…\n\n;;◆マサムネ合流------------------------------------------\n# textwindow \"close\"\n# alpha 3102511 0 0.5\n# alpha 166 0 0.5\n# waitandnext 0.5\n\n;;演出・SE：部屋の扉が壊される。マサムネが登場。\n# bgmfile \"bgm276\" \"BgmLostRagnarokEvent\" 0\n# se \"SE_5620\"\n# shake 0 0.6\n# effectstart 1000\n# fadein \"white\" 0.6\n# se \"SE_0719\"\n# waitandnext 0.8\n\n# alpha 3100111 1 0.5\n# waitandnext 0.8\n\n# textwindow \"normal\"\n# textflame 1 1\n# textboxarrow 0 2\n# face 3100111 \"normal\"\n# voice 310011 \"masamune_ge_0004\"\n# chara 3100111\n@マサムネ\n…ムラマサ\n\n# textwindow \"close\"\n# alpha 3100111 0 0.5\n# waitandnext 0.5\n\n# pos 3100111 4\n# mask 3100111 on\n# alpha 3100111 1 0.5\n# pos 3102511 2\n# alpha 3102511 1 0.5\n# face 3102511 \"surprise\"\n# waitandnext 0.5\n\n# textwindow \"normal\"\n# textflame 1 1\n# textboxarrow 0 1\n# voice 310251 \"muramasa_ge_0023\"\n# chara 3102511\n@ムラマサ\n…!?\n姉上、どうして\n\n# textflame 1 1\n# textboxarrow 0 3\n# face 3100111 \"angry\"\n# chara 3100111\n@マサムネ\nそれはこちらのセリフだ\nムラマサ…なぜそなたが\nカシウスを匿っている\n\n# textflame 1 1\n# textboxarrow 0 1\n# face 3102511 \"sad\"\n# chara 3102511\n@ムラマサ\nそ、それは\n\n# textflame 1 1\n# textboxarrow 0 3\n# face 3100111 \"normal\"\n# voice 310011 \"masamune_ge_0034\"\n# chara 3100111\n@マサムネ\nウロボロス様のお導き通りだ\n\n# textflame 1 1\n# textboxarrow 0 1\n# face 3102511 \"surprise\"\n# chara 3102511\n@ムラマサ\nえ…っ？\n\n# textflame 1 1\n# textboxarrow 0 3\n# face 3100111 \"sad\"\n# chara 3100111\n@マサムネ\n赤紙が届いた。暗殺指令書\nその標的は───\n\n# textflame 0 0\n@\nマサムネは震える指で\n赤紙を開き\nムラマサに見せつける\n\n# textflame 1 3\n# textboxarrow 0 3\n# face 3100111 \"normal\"\n# voice 310011 \"masamune_ge_0013\"\n# chara 3100111\n@マサムネ\nムラマサ、そなただ\n\n# textflame 1 1\n# textboxarrow 0 1\n# chara 3102511\n@ムラマサ\n…そんな…!?\n\n# textflame 1 1\n# textboxarrow 0 3\n# face 3100111 \"angry\"\n# chara 3100111\n@マサムネ\n厳命\nムラマサの拿捕・連行\nおよび「鍵」の確保…！\n\n# textflame 1 1\n# textboxarrow 0 1\n# face 3102511 \"angry\"\n# voice 310251 \"muramasa_ge_battle_0006\"\n# chara 3102511\n@ムラマサ\nご、誤解です姉上！\n拙者はただ、この国の為を考え\n理想郷への道を模索すべく…\n\n# textflame 1 1\n# textboxarrow 0 3\n# chara 3100111\n@マサムネ\nその“考え”こそ禁じられている！\nウロボロス様の庇護の元\n秩序を守り続けることのみが使命！\n\n# textflame 1 1\n# textboxarrow 0 1\n# chara 3102511\n@ムラマサ\nそれは姉上の考えですか!?\n\n# textflame 1 1\n# textboxarrow 0 0\n# voice 310011 \"masamune_ge_0012\"\n# chara 3100111\n@マサムネ\n考えてなどいないと申している！\n\n# textwindow \"normal\"\n# textflame 1 1\n# textboxarrow 0 1\n# voice 310251 \"muramasa_ge_0012\"\n# chara 3102511\n@ムラマサ\n思考を停め、依存に溺れ\nそれで理想への道など\nどうして追いかけられましょう！\n\n# textflame 1 1\n# textboxarrow 0 3\n# chara 3100111\n@マサムネ\n我らはオーダーキラーズだ！\nウロボロス様の牙であり\n我を捨て秩序に身を捧げるのだ！\n\n# textflame 1 1\n# textboxarrow 0 3\n# voice 310011 \"masamune_ge_0037\"\n# chara 3100111\n@マサムネ\nいい加減\n理想論ばかり語るのは控えよ！\nでなければまた…!!\n\n# face 3102511 \"surprise\"\n# face 3100111 \"surprise\"\n# textflame 0 0\n@\nマサムネは、ハッと何かに気づき\n口を押さえる\n\n# textflame 1 1\n# textboxarrow 0 1\n# voice 310251 \"muramasa_ge_0018\"\n# chara 3102511\n@ムラマサ\n「いい加減」…？\n「でなければまた」…？\n\n# alpha 3100111 0 0.5\n# alpha 3102511 0 0.5\n# pos 166 3\n# mask 166 off\n# alpha 166 1 0.5\n# textflame 1 1\n# textboxarrow 0 2\n# face 166 \"sad\"\n# chara 166\n# voice 3031 \"cassius_ge_0009\"\n@カシウス\nやっぱりね\n\n# alpha 166 0 0.5\n# alpha 3100111 1 0.5\n# face 3100111 \"normal\"\n# alpha 3102511 1 0.5\n# textflame 1 1\n# textboxarrow 0 1\n# face 3102511 \"angry\"\n# voice 310251 \"muramasa_ge_battle_0007\"\n# chara 3102511\n@ムラマサ\n姉上…拙者は以前にも\n同じような考えに至ったことが\nあるのですね？\n\n# textflame 1 1\n# textboxarrow 0 3\n# face 3100111 \"sad\"\n# chara 3100111\n@マサムネ\n…\n\n# textflame 1 1\n# textboxarrow 0 1\n# face 3102511 \"sad\"\n# chara 3102511\n@ムラマサ\nその度に拙者は…\n\n# alpha 3100111 0 0.5\n# alpha 3102511 0 0.5\n# alpha 166 1 0.5\n# textflame 1 1\n# textboxarrow 0 2\n# face 166 \"sad\"\n# chara 166\n@カシウス\n洗脳や調整が施された…？\n\n# textflame 1 1\n# textboxarrow 0 2\n# face 166 \"normal\"\n# chara 166\n@カシウス\nいえ、獣なら「調教」なのかも\n\n;;◆警報--------------------------------------------------\n;;演出・SE：ドーンという轟音・その後、街中に警報が鳴り響く\n# bgm \"stop\"\n# textwindow \"close\"\n# alpha 166 0 0.5\n# waitandnext 0.5\n\n# se \"SE_8015\"\n# shake 0 0.8\n# fadein \"white\" 0.6\n# waitandnext 1.2\n\n# se \"SE_0710\"\n# pos 3100111 3\n# mask 3100111 off\n# face 3100111 \"surprise\"\n# alpha 3100111 1 0.5\n# waitandnext 0.5\n\n# bgmfile \"bgm222_223\" \"BgmTowerBattle\" 0\n# textwindow \"normal\"\n# textflame 1 1\n# textboxarrow 0 2\n# face 3100111 \"angry\"\n# voice 310011 \"masamune_ge_0022\"\n# chara 3100111\n@マサムネ\nなんだ、この警報は…！\n門の方から…？\n\n# se \"SE_5586\"\n# brightness 3100111 0.6 0.3\n# serif 1\n# textwindow \"normal\"\n# textboxarrow 1 0\n@伝令兵\nで、伝令！　首都守備隊からの報告！\nこのグライヒハイトに\nハルモニア軍が接近中！\n\n# serif 1\n# textwindow \"normal\"\n# textboxarrow 1 0\n@伝令兵\nグライヒハイト周辺で戦闘が開始！\n先の爆発しかり、首都中心部へ\n飛び火の恐れがあります！\n\n# brightness 3100111 1.0 0.3\n# serif 0\n# textwindow \"normal\"\n# textflame 1 1\n# textboxarrow 0 2\n# face 3100111 \"surprise\"\n# voice 310011 \"masamune_ge_battle_0005\"\n# chara 3100111\n@マサムネ\nハルモニアだと…!?\nなぜ止められなかった！\n\n# brightness 3100111 0.6 0.3\n# serif 1\n# textwindow \"normal\"\n# textboxarrow 1 0\n@伝令兵\n不確定ではありますが\nハルモニアの斬ル姫が\n先陣を切っている模様で…!!\n\n# textwindow \"top_close\"\n# textwindow \"bottom_close\"\n# alpha 3100111 0 0.5\n# waitandnext 0.5\n\n# pos 166 4\n# mask 166 on\n# alpha 166 1 0.5\n# pos 3102511 2\n# mask 3102511 on\n# alpha 3102511 1 0.5\n# face 3102511 \"surprise\"\n# waitandnext 0.5\n\n# textwindow \"normal\"\n# textflame 1 1\n# textboxarrow 0 3\n# face 166 \"sad\"\n# chara 166\n# voice 3031 \"cassius_ge_0015\"\n@カシウス\n…私が、いるからか\n\n# textflame 1 1\n# textboxarrow 0 1\n# face 3102511 \"angry\"\n# voice 310251 \"muramasa_ge_0037\"\n# chara 3102511\n@ムラマサ\n…ッ！\n\n# textwindow \"close\"\n# se \"SE_0648\"\n# move 3102511 3 0.2\n# waitandnext 0.2\n\n# se \"SE_5575\"\n# face 166 \"surprise\"\n# rightout 3102511 0.5\n# rightout 166 0.4\n# waitandnext 0.5\n\n# alpha 166 0 0\n# alpha 3102511 0 0\n# textwindow \"normal\"\n# textflame 0 0\n@\nムラマサはカシウスの手を取り\n開かれた窓へと向かう\n\n# pos 166 3\n# mask 166 off\n# alpha 166 1 0.5\n# textflame 1 1\n# textboxarrow 0 2\n# face 166 \"surprise\"\n# chara 166\n# voice 3031 \"cassius_ge_0023\"\n@カシウス\nム、ムラマサ…!?\n\n# alpha 166 0 0.5\n# pos 3102511 3\n# mask 3102511 off\n# alpha 3102511 1 0.5\n# textflame 1 1\n# textboxarrow 0 2\n# face 3102511 \"angry\"\n# voice 310251 \"muramasa_ge_battle_0001\"\n# chara 3102511\n@ムラマサ\n申し訳ありません！　姉上！\n\n# alpha 3102511 0 0.5\n# brightness 3100111 1.0 0\n# alpha 3100111 1 0.5\n# textflame 1 1\n# textboxarrow 0 2\n# face 3100111 \"angry\"\n# chara 3100111\n@マサムネ\n待て！\n\n# alpha 3100111 0 0.5\n# alpha 3102511 1 0.5\n# textflame 1 1\n# textboxarrow 0 2\n# face 3102511 \"angry\"\n# chara 3102511\n@ムラマサ\n拙者には拙者の理想があります！\n\n# alpha 3102511 0 0.5\n# alpha 3100111 1 0.5\n# textflame 1 1\n# textboxarrow 0 2\n# face 3100111 \"angry\"\n# voice 310011 \"masamune_ge_0038\"\n# chara 3100111\n@マサムネ\nここで逃げれば、オーダーキラーズを\nトレイセーマの全てを\n敵に回すこととなるぞ！\n\n# textflame 1 1\n# textboxarrow 0 2\n# chara 3100111\n@マサムネ\nその娘を連れ行けば\n外のハルモニアにも狙われる！\n考え直せ！　ムラマサ！\n\n# alpha 3100111 0 0.5\n# alpha 166 1 0.5\n# textflame 1 1\n# textboxarrow 0 2\n# face 166 \"sad\"\n# chara 166\n# voice 3031 \"cassius_ge_0050\"\n@カシウス\nいいの？\nこんな、考えなしに…\n\n# alpha 166 0 0.5\n# alpha 3102511 1 0.5\n# textflame 1 1\n# textboxarrow 0 2\n# face 3102511 \"angry\"\n# voice 310251 \"muramasa_ge_0013\"\n# chara 3102511\n@ムラマサ\n…考えた結果だ！"
	}
]