[
	{
		"ID": 50023204,
		"script": ";;フライクーゲル（クリスマスver.）【EP4】\n# script \"lisp\"\n# background \"highland_snow\"\n# bgm \"bgm032\" 0\n# body 500231\n# pos 500231 3\n# mask 500231 off\n# face 500231 \"smile\"\n# textflame 0 0\n@\nあれから１年が経った\n\n# textflame 1 1\n# textboxarrow 0 2\n# chara 500231\n@フライクーゲル\n去年は花火でみんなを\nヘァピィにできたけど…\n\n# face 500231 \"happy\"\n# textflame 1 1\n# textboxarrow 0 2\n# chara 500231\n# voice 5002 \"furaikugeru_0033\"\n@フライクーゲル\n今年もやるよ！\nサンタフライクーゲルちゃん！\n\n# face 500231 \"surprise\"\n# textflame 1 1\n# textboxarrow 0 2\n# chara 500231\n# voice 5002 \"furaikugeru_0040\"\n@フライクーゲル\nわたし、わかったんだ！\nマスター！\n\n# textflame 1 1\n# textboxarrow 0 2\n# chara 500231\n@フライクーゲル\nなんで、みんな\nクリスマスが好きなのか？\nクリスマスを待ち望むのか？\n\n# face 500231 \"smile\"\n# textflame 1 1\n# textboxarrow 0 2\n# chara 500231\n@フライクーゲル\nそれはね…\n\n# face 500231 \"happy\"\n# textflame 1 1\n# textboxarrow 0 2\n# chara 500231\n# voice 5002 \"furaikugeru_0005\"\n@フライクーゲル\n１年で一番、\n世界中が優しい日だから！\n\n# select \"どういうこと？\" \"select_label_01\" \"優しい日…？\" \"select_label_02\" \"世界中が…？\" \"select_label_03\"\n１年で一番、\n世界中が優しい日だから！\n\n# label \"select_label_01\"\n# labeljump \"select_label_end\"\n# face 500231 \"smile\"\n# textflame 1 1\n# textboxarrow 0 2\n# chara 500231\n@フライクーゲル\nビコーズ！だってさ…\n\n# label \"select_label_02\"\n# labeljump \"select_label_end\"\n# face 500231 \"smile\"\n# textflame 1 1\n# textboxarrow 0 2\n# chara 500231\n@フライクーゲル\nイエス！だってさ…\n\n# label \"select_label_03\"\n# labeljump \"select_label_end\"\n# face 500231 \"smile\"\n# textflame 1 1\n# textboxarrow 0 2\n# chara 500231\n@フライクーゲル\nワールドワイド！だってさ…\n\n# label \"select_label_end\"\n# face 500231 \"normal\"\n# textflame 1 1\n# textboxarrow 0 2\n# chara 500231\n# voice 5002 \"furaikugeru_0020\"\n@フライクーゲル\nプレゼントをもらったら\nヘァピィになれるでしょ？\n\n# face 500231 \"happy\"\n# textflame 1 1\n# textboxarrow 0 2\n# chara 500231\n# voice 5002 \"furaikugeru_0021\"\n@フライクーゲル\nでもプレゼントをした方も\nヘァピィになれるんだよね！\n\n# textflame 1 1\n# textboxarrow 0 2\n# chara 500231\n@フライクーゲル\nそうやって、\n世界中にヘァピィが\nどんどん広がって行く！\n\n# face 500231 \"smile\"\n# textflame 1 1\n# textboxarrow 0 2\n# chara 500231\n@フライクーゲル\n誰かに優しくしたら、\n誰かに優しくしてもらえる\n\n# face 500231 \"happy\"\n# textflame 1 1\n# textboxarrow 0 2\n# chara 500231\n# voice 5002 \"furaikugeru_0041\"\n@フライクーゲル\nクリスマスって、\nみんなが優しい気持ちで\n過ごせるミラクルな夜なんだよ！\n\n# textflame 1 1\n# textboxarrow 0 2\n# chara 500231\n# voice 5002 \"furaikugeru_0006\"\n@フライクーゲル\nだからわたしは\n今年もプレゼントする！\nヘァピィの花火を！！\n\n# textflame 1 1\n# textboxarrow 0 2\n# chara 500231\n@フライクーゲル\nみんなをヘァピィにして、\nわたしもヘァピィをもらいたいから☆\n\n# fadein \"white\" 0.5\n# se \"SE_0605\"\n# face 500231 \"happy\"\n# textflame 0 0\n@\nそう言って、\n彼女が花火を打ち上げる\n\n# textflame 0 0\n@\nそれを見ている\n街のみんなの目は、\nキラキラと輝きに満ちている\n\n# se \"SE_0602\"\n# face 500231 \"happy\"\n# textflame 1 1\n# textboxarrow 0 2\n# chara 500231\n@フライクーゲル\nどう！？\nこれがわたしのニューパワー！\n『マナ☆クリスマス』だよ！\n\n# face 500231 \"smile\"\n# textflame 1 1\n# textboxarrow 0 2\n# chara 500231\n# voice 5002 \"furaikugeru_0040\"\n@フライクーゲル\nヘァピィを増やすオンリーワンの方法\nそれは分け与えることなんだね！\n\n# textflame 1 1\n# textboxarrow 0 2\n# chara 500231\n@フライクーゲル\nてことでエブリワン！\n今年も…\n\n# imageset 0 \"c500231\"\n# imagealpha 0 0 0\n# imagelayer 0 1\n# face 500231 \"happy\"\n# textflame 1 1\n# textboxarrow 0 2\n# chara 500231\n# voice 5002 \"furaikugeru_event_1012\"\n@フライクーゲル\nメリ～☆クリスマ～ス！\n\n# textflame 0 0\n@\n彼女の笑顔を見て、\nこっちも幸せになれる…\nそんな素敵な聖夜だった\n\n# imagealpha 0 1 0\n# imagepos 0 0 0 \n# fadein \"white\" 3\n# voice 5002 \"furaikugeru_kyara_2026\"\n# textwindow \"close\"\n"
	}
]