[
	{
		"ID": 50021301,
		"script": "# script \"lisp\"\n# background \"foot_mountain_village\"\n# bgm \"bgm006\" 0\n# body 500213\n# mask 500213 off\n# pos 500213 3\n# textboxarrow 0 2\n# chara 500213\n# voice 5002 \"furaikugeru_0001\"\n@フライクーゲル\nねぇねぇマスター！\nわたしとマスター、二人だけの\nシークレット、作っちゃわない？\n\n# chara 500213\n@フライクーゲル\nそんなホワイ？な顔しなくても\nだーいじょーぶ☆\n\n# chara 500213\n@フライクーゲル\nこの森の奥まで一緒に\n来てくれるだけでオーケーだから！\n\n# face 500213 \"shy\"\n# voice 5002 \"furaikugeru_0003\"\n# chara 500213\n@フライクーゲル\nマスターもわたしの百発百中の\nマスィンガンのヒ・ミ・ツ…\n知りたいでしょ？\n\n# face 500213 \"normal\"\n# chara 500213\n@フライクーゲル\nん？それだけ乱射すれば、\n百発百中も当たり前？\nたーしーかーにー！！\n\n# voice 5002 \"furaikugeru_0005\"\n# chara 500213\n@フライクーゲル\nさすがはマスター！\nわたしは言葉も弾丸も\nマッスィンガーン！だからね☆\n\n# voice 5002 \"furaikugeru_0008\"\n# chara 500213\n@フライクーゲル\nはいはいはーい！\nそんな残念なものを見るような\nアイズはノ〜ノォ〜ウだよ！\n\n# chara 500213\n@フライクーゲル\nねぇ…マスターは、\n見えないものって、信じるタイプ？\n\n# chara 500213\n@フライクーゲル\n確かに！\nこの世界は理解を超えるような\nことばかりだよね！\n\n# chara 500213\n@フライクーゲル\nじゃあ！信じるってことでオーケー？\nそうこなくっちゃねー☆\n\n# face 500213 \"happy\"\n# chara 500213\n@フライクーゲル\nよし！それじゃあ、フライクーゲルの\n謎を探るシークレットツアー！\nレッツあゴーゴー☆\n\n# voice 5002 \"furaikugeru_0029\"\n# textflame 0 0\n@\nマスターの答えを聞くなり、\nより一層ご機嫌になるフライクーゲル\n\n# textflame 0 0\n@\n強引な彼女に戸惑いながらも、\nマスターは共に森の奥を\n目指すのだった…"
	}
]