[
	{
		"ID": 50042204,
		"script": "# script \"lisp\"\n# background \"foot_mountain_village\"\n# bgm \"bgm003\" 0\n# body 500421\n# mask 500421 off\n# pos 500421 3\n# imageset 1 \"bg_black\"\n# imagepos 1 0 0\n# imagealpha 1 0 0\n# textflame 0 0\n@\nあれから数日後-\n\n# textflame 1 1\n# textboxarrow 0 2\n# voice 5004 \"burafumasutora_0001\"\n@ブラフマーストラ\nさぁ、マスター\n今日も瞑想するわよ！\n\n# face 500421 \"happy\"\n# voice 5004 \"burafumasutora_0004\"\n@ブラフマーストラ\nふふっ、\n無の境地への道は長いんだから！\n\n# select \"“無”の先になにがあるの？\" \"select_label_01\" \"“無”の境地はなにか役に立つの？\" \"select_label_02\" \"“無”からなにか生まれるものはあるの？\" \"select_label_03\"\nふふっ、\n無の境地への道は長いんだから！\n\n# face 500421 \"surprise\"\n# label \"select_label_01\"\n# labeljump \"select_label_end\"\n@ブラフマーストラ\n“無”の先…考えもしなかったわ\n\n# face 500421 \"amazed\"\n# label \"select_label_02\"\n# labeljump \"select_label_end\"\n@ブラフマーストラ\n役に立つ、立たないの次元ではないのよ！\n\n# label \"select_label_03\"\n# labeljump \"select_label_end\"\n@ブラフマーストラ\n“無”から生まれるものもあるわ！\n\n# face 500421 \"normal\"\n# label \"select_label_end\"\n# voice 5004 \"burafumasutora_0003\"\n@ブラフマーストラ\n溜まったものを吐き出し\n一度“無”にすることで\n気持ちをリフレッシュするの\n\n# face 500421 \"happy\"\n@ブラフマーストラ\n“無”とはそれこそ\n破壊にも似ているわね！\n\n# voice 5004 \"burafumasutora_0007\"\n@ブラフマーストラ\n一度全部リセットして\nやり直すの！\n\n# face 500421 \"normal\"\n# voice 5004 \"burafumasutora_0003\"\n@ブラフマーストラ\nこれまでの歴史の中で多くのモノが\n破壊され再創造ののちに\n今の秩序が造られていったわ\n\n@ブラフマーストラ\nそれはなにも秩序や体制だけじゃない\n一人一人においてもそれは当てはまるの\n\n# face 500421 \"amazed\"\n# voice 5004 \"burafumasutora_0015\"\n@ブラフマーストラ\nいま手にしているモノを\n破壊するのは怖いわ\n\n@ブラフマーストラ\n再創造したモノが今より良くなる\n保証なんてどこにもないのだから\n\n@ブラフマーストラ\nそれでも、進化するためには\n破壊と再創造は必要よ\n\n# face 500421 \"normal\"\n# voice 5004 \"burafumasutora_0029\"\n@ブラフマーストラ\nだから、私は一度\n手にした奥義を破壊する\n\n@ブラフマーストラ\nそして今以上にマスターを\n敵から守れるよう\n新しい奥義を生みだすわ\n\n# imagepos 1 0 0\n# imagealpha 1 1 1\n# textflame 0 0\n@\nそう言うと\nブラフマーストラは\n堂に籠もり瞑想をはじめた\n\n# textflame 0 0\n@\n三日三晩、座禅を組み\n不眠不休、断食で\n瞑想を続けるブラフマーストラ\n\n# imagepos 1 0 0\n# imagealpha 1 0 1\n# textflame 0 0\n@\nそして四日目の朝…\n\n# textflame 1 1\n# textboxarrow 0 2\n# voice 5004 \"burafumasutora_0006\"\n@ブラフマーストラ\n見えた！！\n瞑想の中で\n新たな真理を見つけたわ\n\n#se \"SE_0602\"\n@ブラフマーストラ\nこれぞ…\n新しい奥義\n『梵天・創造真我』！！\n\n# face 500421 \"amazed\"\n@ブラフマーストラ\nもし失敗したら\nマスターを守れなくなったり\n危険な目に合わせてしまうかもって\n\n# voice 5004 \"burafumasutora_0003\"\n@ブラフマーストラ\nそう思うと怖かったけど\n瞑想の中で自分に打ち勝てた\n\n# face 500421 \"normal\"\n@ブラフマーストラ\nまさに\n『再構築するための破壊』\nだったわ\n\n# imageset 0 \"c500421\"\n# imagealpha 0 0 0\n# imagepos 0 0 0\n# face 500421 \"happy\"\n# voice 5004 \"burafumasutora_0001\"\n@ブラフマーストラ\nこれからもマスターは私が守る！\nそのためにも私は日々\n破壊と創造をしていくわ！\n\n# voice 5004 \"burafumasutora_kyara_0013\"\n# imagealpha 0 1 0\n# imagepos 0 0 0\n# fadein \"white\" 3\n# textwindow \"close\"\n\n# textwindow \"nomal\"\n# textflame 0 0\n@\n溢れる笑顔でウインクする\n彼女の笑顔はいつもより\n輝いていた"
	}
]