[
	{
		"ID": 50072201,
		"script": "# script \"lisp\"\n# background \"town\"\n# bgm \"bgm004\" 0\n# body 500722\n# mask 500722 off\n# pos 500722 3\n# voice 5007 \"buryunaku_0002\"\n# textboxarrow 0 2\n# chara 500722\n@ブリューナク\n…マスター、すまない\n本当に申し訳ないが、\n一緒に来て貰いたいのだが…？\n\n# textboxarrow 0 2\n# chara 500722\n@ブリューナク\n…深刻？\nあぁ、これは深刻な問題だ\n\n# voice 5007 \"buryunaku_0013\"\n# face 500722 \"sad\"\n# textboxarrow 0 2\n# chara 500722\n@ブリューナク\n今までのどの戦いよりも…\n恐ろしく…凄惨を極めるかも知れない\n\n# voice 5007 \"buryunaku_0031\"\n# textboxarrow 0 2\n# chara 500722\n@ブリューナク\n戦闘を離れた束の間の休息に\n声を掛けて本当にすまない…\n…だが、\n\n# textboxarrow 0 2\n# chara 500722\n@ブリューナク\n奴は突如、姿を現した…\nそして、我を弄ぶかの如く…\n\n# face 500722 \"angry\"\n# textboxarrow 0 2\n# chara 500722\n@ブリューナク\n常に冷静沈着と言われた我を\nここまで追い詰めるとは…くそっ！\n\n# bgm \"bgm007\" 0\n# face 500722 \"normal\"\n# textboxarrow 0 2\n# chara 500722\n@ブリューナク\nここだ、マスター\n…ここに“奴”が\n\n# face 500722 \"sad\"\n# voice 5007 \"buryunaku_0037\"\n# textboxarrow 0 2\n# chara 500722\n@ブリューナク\nくぅ…っ！\n見てくれ、あれが…敵の姿だ！\n\n# textflame 0 0\n@\n…マスターが\n連れてこられたのは炊事場\n\n# textflame 0 0\n@\nそして彼女が指した先にいたのは…\n黒光りする害虫の“アレ”であった\n\n# face 500722 \"surprise\"\n# voice 5007 \"buryunaku_0010\"\n# textflame 1 0\n# textboxarrow 0 2\n# chara 500722\n@ブリューナク\nな、なに…？\nあれが虫の一種だというのか！？\n\n# face 500722 \"normal\"\n# textboxarrow 0 2\n# chara 500722\n@ブリューナク\n我が知りえる虫のなかに、\nあのように黒光りした異形のものなど\n存在しないぞ\n\n# textflame 0 0\n@\nこのままでは夕飯の支度が進まない\nと…マスターとブリューナクは\n『対Ｇ共同戦線』を張ることにした"
	}
]