[
	{
		"ID": 50081202,
		"script": "# script \"lisp\"\n# background \"plain\"\n# bgm \"bgm002\" 0\n# body 500812\n# mask 500812 off\n# pos 500812 3\n# textboxarrow 0 2\n# voice 5008 \"bashosen_0020\"\n# face 500812 \"shy\"\n# chara 500812\n@芭蕉扇\nねぇ、待って〜ん！あなたぁ〜！\nそんなに離れて歩くことないでしょ？\n私達、夫婦なんだから\n\n# face 500812 \"surprise\"\n# chara 500812\n@芭蕉扇\n…あら、やだ\n雨が降ってきちゃたわ\n\n# face 500812 \"normal\"\n# chara 500812\n@芭蕉扇\nでも、安心して？\n私のこの扇、\n傘にもなるのよ？ほら！\n\n# voice 5008 \"bashosen_0004\"\n# chara 500812\n@芭蕉扇\nうふ、幸せ♪\nあなたと相合傘ができるなんて\n\n# select \"きみって…優しいんだね？\" \"select_label_01\" \"どうして他の女の子には厳しいの？\" \"select_label_02\" \"他の女の子にも優しくしてあげたら？\" \"select_label_03\"\nうふ、幸せ♪\nあなたと相合傘ができるなんて\n\n# label \"select_label_01\"\n# labeljump \"select_label_end\"\n# chara 500812\n@芭蕉扇\nもう〜！あなたにだけよ！\nでも、あなたは…他の女の子に\n優しくしたらダメよ！？\n\n# label \"select_label_02\"\n# labeljump \"select_label_end\"\n# chara 500812\n@芭蕉扇\nどうして私が、あんな女どもに\n優しくしなくちゃならないの！？\n\n# label \"select_label_03\"\n# labeljump \"select_label_end\"\n# chara 500812\n@芭蕉扇\nいやよ！私はあなただけなの！\n友情なんて…\n\n# label \"select_label_end\"　\n# chara 500812\n@芭蕉扇\n私が優しくするのは、\n愛する殿方だけ\n\n# face 500812 \"sad\"\n# chara 500812\n@芭蕉扇\nでも…本当は…\n\n# textflame 0 0\n@\n少し寂しげな表情で、\nマスターの肩に頭を置く芭蕉扇\nその時…\n\n# shakeloop 0\n# se \"SE_4820\"\n\n# textflame 1 0\n# face 500812 \"angry\"\n# shakestop\n# chara 500812\n@芭蕉扇\n…！\nあれは、まさか…\n\n# chara 500812\n@芭蕉扇\n土砂崩れ！？\n\n# bgm \"bgm005\" 0\n\n# voice 5008 \"bashosen_0038\"\n# chara 500812\n@芭蕉扇\nここは私に任せて！\nこの扇で…！\nはあぁぁぁーーーっ！！\n\n# face 500812 \"surprise\"\n# chara 500812\n@芭蕉扇\n…！ダメ…！\n次から次へと押し寄せてくる！\nこのままじゃ…\n\n# textsize 48\n# chara 500812\n@芭蕉扇\nキャーーーーッ！！\n\n# voice 5008 \"bashosen_unit_1011\"\n# face 500812 \"sad\"\n# textsize 24\n# chara 500812\n@芭蕉扇\n…う…うぅ\nあ…あなた…大丈夫！？\n土砂が…！\n\n# chara 500812\n@芭蕉扇\n待ってて…！絶対に…\n助け出すから！\n\n# voice 5008 \"bashosen_0018\"\n# chara 500812\n@芭蕉扇\nくっ…！この私の力ですら…\nどうにも出来ないなんて…！\n\n# voice 5008 \"bashosen_unit_1012\"\n# chara 500812\n@芭蕉扇\nイヤ…こんな……\nこのまま…助けて…あなた…\n助けて…\n\n# chara 500812\n@芭蕉扇\nみんな！\n\n# textflame 0 0\n@\n脳裏に浮かんだのは、他のキル姫の顔\nしかし彼女の意識は土砂に埋もれ、\nどんどん薄らいでいくのだった…"
	}
]