[
	{
		"ID": 50086204,
		"script": ";;【EP4】\n# script \"lisp\"\n# background \"schoolroad_afternoon\"\n# bgm \"bgm002\" 0\n# body 81\n# mask 81 off\n# pos 81 3\n# alpha 81 1 0\n# textflame 0 0\n@\n一週間後――\n前回のデートのときと\n同じベンチにマスターは座っている\n\n# textflame 1 1\n# textboxarrow 0 2\n# face 81 \"shy\"\n# voice 5008 \"bashosen_0004\"\n# chara 500861\n@芭蕉扇\nはい、あ・な・た…♪\nあ～～ん♪\n\n# textflame 0 0\n@\n素直に口を開くマスター\nあの日から何度か\n芭蕉扇がこんなふうになる時がある\n\n# textflame 0 0\n@\nこんな時は流れるままに\n身を任せるのが一番だと\n数日前にマスターは悟った…\n\n# textflame 1 1\n# textboxarrow 0 2\n# face 81 \"surprise\"\n# voice 5008 \"bashosen_kyara_1020\"\n# chara 500861\n@芭蕉扇\nこれはデートなのか…ですって？\nヤダあなた…照れてるの？\n\n# face 81 \"happy\"\n# voice 5008 \"bashosen_0020\"\n# chara 500861\n@芭蕉扇\n私たち婚約しているんですもの\n毎週のデートは当然でしょ♪\n\n# textflame 0 0\n@\n来週は風邪をひこう\n芭蕉扇に悪いが、\nそう決心するマスター\n\n# textflame 1 1\n# textboxarrow 0 2\n# face 81 \"normal\"\n# chara 500861\n@芭蕉扇\n…あれからね\n従者たちには遠慮をしないようにと\n言い聞かせているの\n\n# face 81 \"shy\"\n# voice 5008 \"bashosen_0028\"\n# chara 500861\n@芭蕉扇\nでも…なかなか\n骨のある者は現れないわ\nうまくいかないものね\n\n# textflame 0 0\n@\n友達探しは難航している模様\nしかし芭蕉扇は\n落ち込んだ様子は見せなかった\n\n# textflame 1 1\n# textboxarrow 0 2\n# face 81 \"normal\"\n# chara 500861\n@芭蕉扇\nでも、あなたがかけてくれた言葉を\n胸に…諦めずに探すわ\n\n# face 81 \"shy\"\n# voice 5008 \"bashosen_0020\"\n# chara 500861\n@芭蕉扇\nゆっくり探せばいい\nもう、俺がいるんだから…\nうふふ、あなたったら♪\n\n# textflame 0 0\n@\nゆっくり探せばいいとは\n確かに言った\nしかし…\n\n# textflame 0 0\n@\nもう、俺がいるんだから…\nそれは言っていない\n確実に！\n\n# textflame 1 1\n# textboxarrow 0 2\n# face 81 \"surprise\"\n# voice 5008 \"bashosen_kyara_1003\"\n# chara 500861\n@芭蕉扇\nいえ、言ったわ！確かに言った！\n私の腰に手を当てて…\nささやくように…\n\n# textflame 0 0\n@\n脳内補完されている\nもう何を言っても\n覆りそうにない…\n\n# textflame 0 0\n@\n話を変えよう！！\n\n# select \"芭蕉扇にとって友達ってどんなもの？\" \"select_label_01\" \"どうなったら友達だと思う？\" \"select_label_02\" \"友達ができたら何したい？\" \"select_label_03\"\n話を変えよう！！\n\n# label \"select_label_01\"\n# labeljump \"select_label_end\"\n# textflame 1 1\n# textboxarrow 0 2\n# chara 500861\n@芭蕉扇\n利用し利用される関係ね！\n\n# label \"select_label_02\"\n# labeljump \"select_label_end\"\n# textflame 1 1\n# textboxarrow 0 2\n# chara 500861\n@芭蕉扇\n私のために命を放り出してくれたら！\n\n# label \"select_label_03\"\n# labeljump \"select_label_end\"\n# textflame 1 1\n# textboxarrow 0 2\n# chara 500861\n@芭蕉扇\n裏切らないように契約書を交わすわ！\n\n# label \"select_label_end\"\n# textflame 0 0\n@\n普通に解釈したらとんでもないことを\n芭蕉扇は言っている\nしかし慣れたものだ\n\n# textflame 0 0\n@\nマスターには\n彼女が何を言いたいのか\nわかってしまった\n\n# textflame 1 1\n# textboxarrow 0 2\n# face 81 \"normal\"\n# chara 500861\n@芭蕉扇\nもちろん、これはお互い様よ？\n私も友達に対して\n同じことをするわ\n\n# se \"SE_0602\"\n# chara 500861\n@芭蕉扇\n『扇喜成幸』\nマスターが困っていたら\n全力で助けてあげるから\n\n# textflame 0 0\n@\nそれはまさしく、\n彼女が新たなるスキルに\n目覚めた瞬間だった\n\n# textflame 0 0\n@\n互いに助け合う関係\nそれこそが、芭蕉扇の考える\n友達の定義だった\n\n# textflame 1 1\n# textboxarrow 0 2\n# face 81 \"surprise\"\n# voice 5008 \"bashosen_0004\"\n# chara 500861\n@芭蕉扇\nマスターはもう婚約者だけれど…\n元・友達として命ずるわ\n\n# face 81 \"happy\"\n# voice 50086 \"bashosen_event_1017\"\n# chara 500861\n@芭蕉扇\n私の友達作りに\n全身全霊で協力すること！\nいいわね！\n\n# textflame 0 0\n@\nいつも通りの強い口調\nでもその笑顔には\n協力せざるを得ない輝きがあった\n\n# imageset 0 \"c500861\"\n# imagealpha 0 0 0\n# imagepos 0 0 0\n# textflame 1 1\n# textboxarrow 0 2\n# face 81 \"surprise\"\n# voice 5008 \"bashosen_0002\"\n# chara 500861\n@芭蕉扇\n早速だけど！\n\n;;一枚絵ボイス\n;;芭蕉扇「ねえ、誰か役に立ちそうな新人はいた？　いい？役に立ちそうなって、聞いたんですからね！」\n# voice 50086 \"bashosen_event_0017\"\n# imagealpha 0 1 0\n# imagepos 0 0 0\n# fadein \"white\" 3\n# textwindow \"close\"\n"
	}
]