[
	{
		"ID": 50091303,
		"script": "# script \"lisp\"\n# background \"highland\"\n# bgm \"bgm002\" 0\n# body 500911\n# mask 500911 off\n# pos 500911 3\n# textboxarrow 0 2\n# textflame 0 0\n@\n数日後…\n\n# face 500911 \"surprise\"\n# voice 5009 \"moga_0023\"\n# shake 1 1\n# textflame 1 0\n# textwindow \"toge\"\n# textboxarrow 0 0\n# textsize 36\n# chara 500911\n@もが\n…ぅわあぁっ！！\n\n# face 500911 \"usual2\"\n# voice 5009 \"moga_kyara_1012\"\n# textwindow \"nomal\"\n# textboxarrow 0 2\n# textsize 24\n# chara 500911\n@もが\n…あ、マスター\n…どうも…\n\n# face 500911 \"surprise\"\n# chara 500911\n@もが\n…！マスター\nそれは…？\n\n# textflame 0 0\n@\n弦楽器を持って、\nもがの元にやって来たマスター\n\n# select \"どう？一緒にやらない？\" \"select_label_01\" \"たまにはセッションもどうかな？\" \"select_label_02\" \"音は多い方が楽しいよ、きっと\" \"select_label_03\"\n弦楽器を持って、\nもがの元にやって来たマスター\n\n# label \"select_label_01\"\n# labeljump \"select_label_end\"\n# face 500911 \"happy\"\n# textflame 1 0\n# chara 500911\n@もが\n…楽器できたの？意外だね\n\n# label \"select_label_02\"\n# labeljump \"select_label_end\"\n# face 500911 \"happy\"\n# textflame 1 0\n# chara 500911\n@もが\nわざわざ練習してくれたの？\nぼくのために…\n\n# label \"select_label_03\"\n# labeljump \"select_label_end\"\n# face 500911 \"happy\"\n# textflame 1 0\n# chara 500911\n@もが\n誰かと合わせたことなんて…\n今までないから\n\n# label \"select_label_end\"　\n# voice 5009 \"moga_kyara_1009\"\n# chara 500911\n@もが\n練習してきてくれたんなら…\n悪いし…\nせっかくだから…\n\n# face 500911 \"angry\"\n# chara 500911\n@もが\nいくよ？\n１・２・３・４…\n\n# textflame 0 0\n@\n重なり合う音と音\n\n# face 500911 \"surprise\"\n# voice 5009 \"moga_kyara_1009\"\n# textflame 1 0\n# chara 500911\n@もが\n！！\n\n# voice 5009 \"moga_kyara_1004\"\n# textflame 1 0\n# chara 500911\n@もが\nなに…この感覚…\n誰かと一緒にやるのって…\n\n# chara 500911\n@もが\nこんなに楽しいんだ！\n\n# face 500911 \"sad\"\n# voice 5009 \"moga_kyara_1005\"\n# chara 500911\n@もが\nずっと一人でいたのは…\n楽だからじゃない…\n本当は…怖かったから…\n\n# chara 500911\n@もが\n誰かに…傷つけられるのが…\n\n# voice 5009 \"moga_kyara_1026\"\n# chara 500911\n@もが\nだから、ぼくは…\n人が嫌いなふりをして…\nずっと逃げてた…でも…\n\n# face 500911 \"angry\"\n# chara 500911\n@もが\n人は…人の中でしか生きられない！\n誰かと力を合わせて！\n\n# chara 500911\n@もが\n逃げた先からは…\nなにも生まれない！！\n\n# textflame 0 0\n@\n瞬間、もがの演奏が爆ぜた\n凄まじいビートを刻む\n\n# textflame 0 0\n@\nそれはまさしく、\n彼女が新たなるスキルに\n目覚めた瞬間だった\n\n# se \"SE_0602\"\n# voice 5009 \"moga_0006\"\n# textflame 1 0\n# chara 500911\n@もが\nできた！\nこれがぼくの新奥義！\n『金色アンサンブル』だ！！\n\n# face 500911 \"happy\"\n# voice 5009 \"moga_0030\"\n# chara 500911\n@もが\nありがとう、マスター！\n\n# voice 5009 \"moga_kyara_2026\"\n# chara 500911\n@もが\nぼく、少しだけ…\n変われそうな気がするよ\n\n# chara 500911\n@もが\nもう逃げたりしない…\nだから、また…\nセッションしてくれる？\n\n# chara 500911\n@もが\n音楽だけじゃなく、\n今度は戦闘でも！\nもし良かったら…\n\n# chara 500911\n@もが\nぼくと一緒に戦ってほしい\n\n# voice 5009 \"moga_0004\"\n# chara 500911\n@もが\nマスターといると…\n人を好きになれる気がするんだ\n\n# textflame 0 0\n@\nそう言って微笑むもが\nそれはマスターが見た、\n彼女の初めての笑顔だった\n\n# voice 5009 \"moga_kyara_0028\"\n# textflame 1 0\n# chara 500911\n@もが\nふふ…でもマスターって…\nあんまりリズム感ないんだね\n\n# imageset 0 \"c500911\"\n# imagealpha 0 0 0\n# textflame 0 0\n@\nそう言って最後に、\n悪戯っぽく笑うのであった\n\n# imagealpha 0 1 0\n# imagepos 0 0 0 \n# voice 5009 \"moga_kyara_0027\"\n# fadein \"white\" 3\n# textwindow \"close\""
	}
]