[
	{
		"ID": 50161104,
		"script": "# script \"lisp\"\n# background \"highland_night\"\n# bgm \"bgm003\" 0\n# body 501611\n# mask 501611 off\n# pos 501611 3\n# textflame 0 0\n@\nあれから─\n高台の頂上を目指すマスター\nそこで目にしたのは…\n\n# textflame 1 1\n# textboxarrow 0 2\n# voice 5016 \"Flabellum_0003\"\n@フラベルム\nふふ、ここに来れば…\nあなたも来ると思っていました\n\n@フラベルム\n今日は、年に一度の\n特別な流星群の夜\n\n@フラベルム\n絶対に逃すまいと\n思っていましたから\n\n@フラベルム\nでも、\nあなたに気づかれず…\n先にここへ着いた\n\n# face 501611 \"mad\"\n# voice 5016 \"Flabellum_0010\"\n@フラベルム\nこれはわたくしの技の精度が\n上がったということでしょうね\n\n# se \"SE_0602\"\n# face 501611 \"normal\"\n@フラベルム\n新技『メテオザフェイト』\n…とでも名付けましょうか\n\n# textflame 0 0\n@\n彼女の奥義は日々の中で、\nより研ぎ澄まされていた\n\n# textflame 1 1\n# textboxarrow 0 2\n# voice 5016 \"Flabellum_0003\"\n@フラベルム\nこれでもう、\nあなたの助けなんか\nなくても大丈夫です\n\n# face 501611 \"sad\"\n# voice 5016 \"Flabellum_0028\"\n@フラベルム\nそれに、あんなオンボロ自転車、\n二度と乗りたくないですしね\n\n# face 501611 \"surprise\"\n@フラベルム\n…\n\n# face 501611 \"shy\"\n# voice 5016 \"Flabellum_kyara_2007\"\n@フラベルム\nオ、オホン…\n\n@フラベルム\nま、前にも言いましたが、\nどうせ来るなら…\n\n# voice 5016 \"Flabellum_0005\"\n@フラベルム\n今度は馬車で来て下さいね\n\n# textflame 0 0\n@\n頬を赤くするフラベルム\n\n# select \"それは…また乗ってくれるってこと？\" \"select_label_01\" \"馬車なら…喜んでくれるのかな？\" \"select_label_02\" \"馬車から流星群…ロマンチックだね\" \"select_label_03\"\n頬を赤くするフラベルム\n\n# label \"select_label_01\"\n# labeljump \"select_label_end\"\n# textflame 1 1\n# textboxarrow 0 2\n@フラベルム\nば、馬車ならね…！\n\n# label \"select_label_02\"\n# labeljump \"select_label_end\"\n# textflame 1 1\n# textboxarrow 0 2\n@フラベルム\nレ、レディを誘うなら…！男として、\nそれが最低限のマナーです！\n\n# label \"select_label_03\"\n# labeljump \"select_label_end\"\n# textflame 1 1\n# textboxarrow 0 2\n@フラベルム\nあ、あなたじゃ…！\nロマンチックには程遠いですけどね！\n\n# label \"select_label_end\"\n# textflame 1 1\n# textboxarrow 0 2\n# voice 5016 \"Flabellum_kyara_2007\"\n@フラベルム\nま、まぁ辛辣な言葉を並べましたが…\nこんなにも美しい夜空なら…\n\n@フラベルム\nい、一緒に見ても…\n悪くはないというか…\n\n# textflame 0 0\n@\n「え？なに？」と聞き返すマスター\n\n# face 501611 \"surprise\"\n# textflame 1 1\n# textboxarrow 0 2\n# voice 5016 \"Flabellum_0022\"\n@フラベルム\nと、とにかく！\n次の流星群の日までには、\n馬車の用意をしておくこと！\n\n# face 501611 \"angry\"\n# imageset 0 \"c501611\"\n# imagealpha 0 0 0\n# imagepos 0 0 0\n# textsize 34\n@フラベルム\nいいですね！？\n\n# voice 5016 \"Flabellum_kyara_0028\"\n# imagealpha 0 1 0\n# imagepos 0 0 0\n# fadein \"white\" 3\n# textwindow \"close\"\n\n# textwindow \"nomal\"\n# textsize 24\n# textflame 0 0\n@\nそれは流星のせいだからだろうか…\n彼女の顔が、いつにもなく\n柔らかく見えた"
	}
]