[
	{
		"ID": 50172103,
		"script": "# script \"lisp\"\n# background \"gymnasium\"\n# bgm \"bgm002\" 0\n# body 501721\n# mask 501721 off\n# pos 501721 3\n# textflame 0 0\n@\n一週間後…\n\n# textflame 0 0\n@\nとうとう迎えた演奏会の当日\n\n# face 501721 \"sad\"\n# textflame 1 1\n# textwindow \"moya\"\n# chara 501721\n@グリモワール\n大丈夫…\nあれだけ特訓したんだもの…\n絶対に…大丈夫…\n\n# textwindow \"nomal\"\n# textflame 0 0\n@\n指揮者が構える\n遂に始まる本番\nしかし…\n\n# face 501721 \"surprise\"\n# textflame 1 1\n# textboxarrow 0 2\n# chara 501721\n@グリモワール\n…！\n\n# face 501721 \"sad\"\n# textboxarrow 0 0\n# textwindow \"moya\"\n# voice 5017 \"grimoire_0024\"\n@グリモワール\nダメ…！緊張で…\n指が動かない…！\n\n# textwindow \"nomal\"\n# textflame 0 0\n@\n手は震え、顔も真っ青になる彼女\n\n# textboxarrow 0 2\n# textflame 1 1\n# textboxarrow 0 2\n# chara 501721\n@グリモワール\nこのままじゃ…！\n\n# textflame 0 0\n@\nその目に飛び込んできたものは…\n\n# face 501721 \"surprise\"\n# textflame 1 1\n# textboxarrow 0 2\n# chara 501721\n@グリモワール\n！！\n\n# voice 5017 \"grimoire_unit_1007\"\n# chara 501721\n# textboxarrow 0 2\n@グリモワール\n…クロ…ピヨ…\n\n# textflame 0 0\n@\n体育館の一番後ろで、\n大きく羽を羽ばたかせて\n応援しているクロピヨ\n\n# textflame 0 0\n@\n…を持つマスター\n\n# face 501721 \"normal\"\n# textflame 1 1\n# textboxarrow 0 2\n# chara 501721\n@グリモワール\n…マスター\n\n# face 501721 \"happy\"\n# textsize 30\n# voice 5017 \"grimoire_0030\"\n# chara 501721\n# textboxarrow 0 2\n@グリモワール\nありがと！！\n\n# textsize 24\n# se \"SE_0602\"\n# textflame 0 0\n@\n次の瞬間、彼女の手が\n高貴な光を帯び始めた\n\n# voice 5017 \"grimoire_0020\"\n# textflame 1 1\n# textboxarrow 0 2\n# chara 501721\n@グリモワール\n動く…！指が動く！！\nもう大丈夫！\nめちゃくちゃ…\n\n# textwindow \"toge\"\n# textsize 30\n# textboxarrow 0 2\n# chara 501721\n@グリモワール\n楽しい！！\n\n# textwindow \"nomal\"\n# textsize 24\n# textflame 0 0\n@\n会場から起こる拍手喝采！\nそれは今まで聞いたこともないような\n素晴らしい演奏だった\n\n# face 501721 \"normal\"\n# textflame 1 1\n# textboxarrow 0 2\n# chara 501721\n@グリモワール\nマスター、ワタシ…\n\n# face 501721 \"happy\"\n# textboxarrow 0 2\n# chara 501721\n@グリモワール\nできたよ！！\n\n# fadeout \"black\" 1\n# textboxarrow 0 0\n# waitandnext 1\n\n# fadein \"black\" 1\n# alpha 501721 0 0\n# textflame 0 0\n@\n放課後─\n\n# textflame 0 0\n@\n夕焼けが差し込む渡り廊下を\n一人歩くマスター\n\n# textflame 0 0\n@\n気が付くと、\n廊下の向こう側に…\n\n# alpha 501721 1 0.5\n# textboxarrow 0 2\n# face 501721 \"shy\"\n# voice 5017 \"grimoire_event_1007\"\n# textflame 1 1\n# chara 501721\n@グリモワール\n…あ…あの…\n\n# voice 5017 \"grimoire_0030\"\n# textboxarrow 0 2\n# chara 501721\n@グリモワール\nキミのおかげで…\nちゃんと演奏できたわ…\nそ、その…ありが…\n\n# select \"ちょっとリズムが走ってたね\" \"select_label_01\" \"あのパートはもう少しイケたでしょ？\" \"select_label_02\" \"練習の時の方が良い部分もあったなぁ\" \"select_label_03\"\nキミのおかげで…\nちゃんと演奏できたわ…\nそ、その…ありが…\n\n# label \"select_label_01\"\n# labeljump \"select_label_end\"\n# face 501721 \"normal\"\n# textboxarrow 0 2\n# chara 501721\n@グリモワール\n…！指揮者みたいに言って…ふ～ん\n\n# label \"select_label_02\"\n# labeljump \"select_label_end\"\n# face 501721 \"normal\"\n# textboxarrow 0 2\n# chara 501721\n@グリモワール\n…！評論家みたいに言って…ふ～ん\n\n# label \"select_label_03\"\n# labeljump \"select_label_end\"\n# face 501721 \"normal\"\n# textboxarrow 0 2\n# chara 501721\n@グリモワール\n…！コーチみたいに言って…ふ～ん\n\n# label \"select_label_end\"\n# textboxarrow 0 2\n# chara 501721\n@グリモワール\nあっそ！\n\n# face 501721 \"angry\"\n# voice 5017 \"grimoire_0003\"\n# textboxarrow 0 2\n# chara 501721\n@グリモワール\nでぇ！？だから、なに！？\n別に、キミに気に入られるために\n吹いてるわけじゃないから！！\n\n# textflame 0 0\n@\nその答えに微笑むマスター\n\n# face 501721 \"happy\"\n# voice 5017 \"grimoire_0004\"\n# textflame 1 1\n# textboxarrow 0 2\n# chara 501721\n@グリモワール\n……ふふ…ふふふふ\n\n# voice 5017 \"grimoire_0030\"\n# textboxarrow 0 2\n# chara 501721\n@グリモワール\nありがとう\nその事を教えてくれて…\n\n# textboxarrow 0 2\n# chara 501721\n@グリモワール\nワタシは…人から上手いって思われる\n演奏をしなきゃって…\nずっと思ってた…\n\n# textboxarrow 0 2\n# chara 501721\n@グリモワール\nでも…\n\n# face 501721 \"normal\"\n# textboxarrow 0 2\n# chara 501721\n@グリモワール\nそうじゃないってキミは教えてくれた\n音楽は人の目を気にするものじゃなく\n自分をさらけ出すものだって\n\n# voice 5017 \"grimoire_0004\"\n# textboxarrow 0 2\n# chara 501721\n@グリモワール\nそれがわかったら…\n嫌いになりそうだった吹奏楽が\n急に楽しくなった\n\n# face 501721 \"happy\"\n# textboxarrow 0 2\n# chara 501721\n@グリモワール\nなんだか…\nキミに魔法をかけられたみたい！\n\n# textflame 0 0\n@\n彼女の瞳に、\nもう不安の陰りは無かった\n\n# face 501721 \"shy\"\n# voice 5017 \"grimoire_event_1007\"\n# textflame 1 1\n# textboxarrow 0 2\n# chara 501721\n@グリモワール\n…あ…あの…\nこれ…\n\n# textflame 0 0\n@\n意を決したように、\n手紙を差し出す彼女\nもしかして…ラブレター？\n\n# voice 5017 \"grimoire_0014\"\n# textflame 1 1\n# textwindow \"toge\"\n# textboxarrow 0 2\n# chara 501721\n@グリモワール\nバ、バッカじゃないの！？\n招待状よ！！\n\n# textwindow \"nomal\"\n# textboxarrow 0 2\n# chara 501721\n@グリモワール\nお礼に…高貴な\nワタシの特別演奏会に\n招待したげるっての！！\n\n# textsize 30\n# textwindow \"toge\"\n# textboxarrow 0 2\n# chara 501721\n@グリモワール\nラブレターなわけないでしょ！\nバカッ！大バカッ！！\n\n# textsize 24\n# textwindow \"nomal\"\n# textflame 0 0\n@\n真っ赤になって怒る彼女は、\nとてもいじらしく可愛かった\n\n# face 501721 \"normal\"\n# voice 5017 \"grimoire_0027\"\n# textflame 1 1\n# textwindow \"moya\"\n# textboxarrow 0 0\n# chara 501721\n@グリモワール\nまったく…\n\n# textflame 1 1\n# textwindow \"moya\"\n# textboxarrow 0 0\n# chara 501721\n@グリモワール\n音楽も…恋も…\n魔術で上手くいくなら\nどんなにラクか\n\n# textflame 1 1\n# textwindow \"moya\"\n# textboxarrow 0 0\n# voice 5017 \"grimoire_0004\"\n# chara 501721\n@グリモワール\nでも…だから楽しいんだけどね！\n\n# textflame 0 0\n@\n本当にラブレターじゃないの？\n\n# face 501721 \"angry\"\n# voice 5017 \"grimoire_0012\"\n# textflame 1 1\n# textwindow \"toge\"\n# textsize 30\n# textboxarrow 0 2\n# chara 501721\n@グリモワール\nうるさい！！\n\n# textwindow \"nomal\"\n# textboxarrow 0 2\n# textsize 24\n# textflame 0 0\n@\nからかうマスターに、\n顔を真っ赤にして怒る\nグリモワールだった\n\n;;※ブラックアウト\n# fadeout \"black\" 2\n# waitandnext 2\n\n# background \"plain_evening\"\n# alpha 501721 0 0\n# body 501711\n# pos 501711 3\n# mask 501711 off\n# face 501711 \"sad\"\n# fadein \"black\" 2\n# voice 5017 \"grimoire_0028\"\n# textflame 1 1\n# textboxarrow 0 2\n# chara 501721\n@グリモワール\n…ぅ、う～ん\n\n# textflame 0 0\n@\nゆさゆさと体を揺らされる彼女\n\n# face 501711 \"normal\"\n# textflame 1 1\n# textboxarrow 0 2\n# chara 501721\n@グリモワール\nあ、あれ…？マスター…\n\n# textflame 0 0\n@\nどうしたの？\nニヤニヤしながら\n寝てたけど…\n\n# voice 5017 \"grimoire_0022\"\n# textflame 1 1\n# textboxarrow 0 2\n# chara 501721\n@グリモワール\n………え\n\n# textboxarrow 0 2\n# voice 5017 \"grimoire_0019\"\n@グリモワール\n…なんだ…夢か…\n\n# textflame 1 1\n# textwindow \"moya\"\n# textboxarrow 0 0\n@グリモワール\nマスターと\n２人っきりの演奏会…\nしたかったな\n\n# imageset 0 \"c501721\"\n# imagealpha 0 0 0\n# textflame 0 0\n@\n何か言った？とマスター\n\n# imagealpha 0 1 0\n# imagepos 0 0 0 \n# fadein \"white\" 3\n# voice 5017 \"grimoire_kyara_0027\"\n# textwindow \"close\"\n\n# voice 5017 \"grimoire_0023\"\n# textflame 1 1\n# textwindow \"nomal\"\n# textboxarrow 0 2\n# chara 501721\n@グリモワール\n何でもないっ！バカッ！！\n\n# textflame 0 0\n@\nまた幸せな夢が見られますように…\n微笑みながら、再び眠りにつく\nグリモワールだった"
	}
]