[
	{
		"ID": 50173203,
		"script": "# script \"lisp\"\n# background \"006_town\"\n# bgm \"bgm002\" 0\n# body 501731\n# mask 501731 off\n# pos 501731 3\n# alpha 501731 0 0\n# face 501731 \"sad\"\n# textflame 0 0\n# chara 501731\n@\n次の日\n\n# textflame 0 0\n@\n図書館を訪れるマスター\n\n# textflame 0 0\n@\n一人で俯き、\n座り込んでいる\nグリモワールを見つけた\n\n# alpha 501731 1 0.5\n# textflame 1 1\n# textboxarrow 0 2\n@グリモワール\n………\n\n# textflame 0 0\n@\nなにしているの？と尋ねると…\n\n# textflame 1 1\n# textboxarrow 0 2\n# voice 5017 \"grimoire_0008\"\n@グリモワール\nもう…諦めたよ…\n\n# textflame 1 1\n@グリモワール\n探しても探しても…\nどこにも載ってないし…\n\n# textflame 1 1\n@グリモワール\n結局、記憶も…戻ってこないし…\n\n# textflame 0 0\n@\n顔を伏せたまま、彼女が言葉を紡ぐ\n\n# textflame 1 1\n@グリモワール\nでも…\n\n# textflame 1 1\n# face 501731 \"usual\"\n@グリモワール\n一つだけ\n覚えていることがあるの\nそれは…\n\n# textflame 1 1\n@グリモワール\nワタシは…\n魔法とか…魔術とか…\nワクワクする世界が好きだった\n\n# textflame 1 1\n@グリモワール\n自分にも…\nそんなチカラがあればと\nずっと思ってた\n\n# textflame 1 1\n# face 501731 \"happy\"\n@グリモワール\nそんな自分に…\nずっとなりたかった！！\n\n# textflame 1 1\n@グリモワール\nそれだけは…覚えてる！！\n\n# textflame 0 0\n@\n次の瞬間、彼女の身体を光が包み、\nぶわっとスカートがまくれ上がった\n\n# fadein \"white\" 1\n# textflame 1 1\n# textboxarrow 0 2\n@グリモワール\nここは…それができる世界\nこのチカラは…\nワタシだけのオリジナル！\n\n# se \"SE_0602\"\n# textflame 1 1\n@グリモワール\n奥義『魔砲黒ぴよ』！！\n\n# textflame 0 0\n@\nそれはまさしく\n彼女が新たなるスキルに\n目覚めた瞬間だった\n\n# textflame 1 1\n# textboxarrow 0 2\n# voice 5017 \"grimoire_0009\"\n# face 501731 \"angry\"\n@グリモワール\nもう…悩むのはやめた！\n\n# textflame 1 1\n# voice 5017 \"grimoire_0004\"\n# face 501731 \"happy\"\n@グリモワール\nワタシはこの世界で…\nそう、キミの元で…\n“なりたい自分”になる！！\n\n# textflame 0 0\n@\nそれは今まで見たことがないほど、\n晴れやかな笑顔だった\n\n# textflame 1 1\n# textboxarrow 0 2\n# voice 5017 \"grimoire_event_1003\"\n# face 501731 \"shy\"\n@グリモワール\nい、言っとくけど…別に\nキミの言葉で吹っ切れたとか\nそんなんじゃないから！\n\n@グリモワール\nワタシは…\n自分で乗り越えたんだからね！\n\n# select \"そういう事にしといてあげるよ\" \"select_label_01\" \"ハハ、だよね？\" \"select_label_02\" \"フフ、負けず嫌いだなぁ…\" \"select_label_03\"\nワタシは…\n自分で乗り越えたんだからね！\n\n# label \"select_label_01\"\n# labeljump \"select_label_end\"\n# textflame 1 1\n# textboxarrow 0 2\n# face 501731 \"angry\"\n@グリモワール\n…！なぁに…？その言い方…ふぅ～ん\n\n# label \"select_label_02\"\n# labeljump \"select_label_end\"\n# textflame 1 1\n# textboxarrow 0 2\n# face 501731 \"angry\"\n@グリモワール\n…！なぁに…？バカにしてる…？\n\n# label \"select_label_03\"\n# labeljump \"select_label_end\"\n# textflame 1 1\n# textboxarrow 0 2\n# face 501731 \"angry\"\n@グリモワール\n…！なぁに…？疑ってるの…？\n\n# label \"select_label_end\"\n# textflame 1 1\n# voice 5017 \"grimoire_0003\"\n@グリモワール\n…でぇ！？\n\n# textflame 1 1\n@グリモワール\nその態度は、\nワタシを嘘つき呼ばわり\nしてるわけぇ！？\n\n# textflame 0 0\n@\n僕の知ってる勝気で\n生意気なグリモワールだ\nそう思い、ニヤリと微笑むマスター\n\n# textflame 0 0\n@\n安心して、\n図書館を後にしようとした\nその時…\n\n# textflame 1 1\n# textboxarrow 0 2\n# face 501731 \"shy\"\n@グリモワール\nあ…あのさ…！\nその……\n\n;;吹き出し小さく\n;;文字小さくして対応\n# textflame 1 1\n# voice 5017 \"grimoire_0030\"\n# textsize 18\n@グリモワール\n……ありがと\n\n# textflame 0 0\n# textsize 24\n@\n赤くなった顔を本で隠し、\n小さな声で告げた彼女\n\n# textflame 0 0\n@\nその姿はとてもいじらしく、\n可憐だった\n\n# imageset 0 \"c501731\"\n# imagealpha 0 0 0\n# textflame 1 1\n# textboxarrow 0 2\n# voice 5017 \"grimoire_0009\"\n# face 501731 \"angry\"\n@グリモワール\nだからなに！？\n用は済んだんだから…\n早く行って！！\n\n;;音声指定：グリモワール「キミにワタシのことがすべて理解できるとは思えない…\n;;けれど…互いを知ることは…いいことですものねぇ…うん…」\n;;音声ID:grimoire_kyara_0018\n# imagealpha 0 1 0\n# imagepos 0 0 0\n# fadein \"white\" 3\n# textwindow \"close\"\n# voice 5017 \"grimoire_kyara_0018\"\n"
	}
]