[
	{
		"ID": 50181104,
		"script": "# script \"lisp\"\n# background \"flower_garden\"\n# bgm \"bgm003\" 0\n# body 501811\n# mask 501811 off\n# pos 501811 3\n# textflame 0 0\n@\nそれから数日後─\n\n# textflame 0 0\n@\nマスターは、\n花畑でティータイム中のほむらを\n見かけ後ろから声をかける\n\n# select \"何してるの、１人で？\" \"select_label_01\" \"混ぜてくれないかな？\" \"select_label_02\" \"何を飲んでるの？\" \"select_label_03\"\nマスターは、\n花畑でティータイム中のほむらを\n見かけ後ろから声をかける\n\n# label \"select_label_01\"\n# labeljump \"select_label_end\"\n# textflame 1 1\n# textboxarrow 0 2\n@暁美ほむら\n…あ…マスター居たのね\n\n# label \"select_label_02\"\n# labeljump \"select_label_end\"\n# textflame 1 1\n# textboxarrow 0 2\n@暁美ほむら\nダメよ、今は一人の時間なの\n\n# label \"select_label_03\"\n# labeljump \"select_label_end\"\n# textflame 1 1\n# textboxarrow 0 2\n@暁美ほむら\n秘密よ…\n\n# face 501811 \"amazed\"\n# label \"select_label_end\"\n# voice 5018 \"devilhomura_0002\" \n@暁美ほむら\n…考えていたの\n\n@暁美ほむら\nこの世界でも一人で戦おうって\nそう決めてた\n\n# voice 5018 \"devilhomura_0003\" \n@暁美ほむら\nただ、まどかの幸せを願い…\nそのためだけに誰とも\n手を合わせずに…\n\n# face 501811 \"normal\"\n@暁美ほむら\nでも…\n\n# voice 5018 \"devilhomura_0008\"\n@暁美ほむら\n言ってくれたわよね？\n“付き合う”って\n\n@暁美ほむら\nだったら私も、\nあなたが困った時くらいは…\n手を貸してあげてもいいわ\n\n# textflame 0 0\n@\nほむらがマスターに振り向く\n\n# textflame 1 1\n# textboxarrow 0 2\n@暁美ほむら\nこうやって\n\n# textflame 0 0\n@\nほむらがマスターに\n手を差し伸べて見せる\n\n# textflame 0 0\n@\n光を放つほむらの手\n\n# textflame 0 0\n@\nマスターのことをほんの少し\n気にかけるようになったためか、\n彼女の奥義はさらに強力になっていた\n\n#se \"SE_0602\"\n# textflame 0 0\n@\nそれは彼女が更なる奥儀\n『深愛の叛逆』に\n目覚めた瞬間だった\n\n# textflame 1 1\n# textboxarrow 0 2\n@暁美ほむら\nさあ、行きましょう\n\n# textflame 0 0\n@\nどこへ？\nマスターが尋ねる\n\n# textflame 1 1\n# textboxarrow 0 2\n# voice 5018 \"devilhomura_0005\"\n@暁美ほむら\n戦闘の時間でしょ？\n\n# voice 5018 \"devilhomura_0001\"\n@暁美ほむら\n私のマスターだと言い切った\nあなたが言うのなら…\n今回は…\n\n# voice 5018 \"devilhomura_0020\"\n@暁美ほむら\n手を貸してあげてもいいわ\n\n# imageset 0 \"c501811\"\n# imagealpha 0 0 0\n# imagepos 0 0 0\n# textflame 0 0\n@\nそう言ってダークオーブを手にし\n戦場に向かうほむら\n\n# voice 5018 \"devilhomura_kyara_0018\"\n# imagealpha 0 1 0\n# imagepos 0 0 0 \n# fadein \"white\" 3\n# textwindow \"close\"\n\n# textwindow \"nomal\"\n# textflame 0 0\n@\n彼女の背中は\nそれはとても気高く\n美しく頼もしい背中だった"
	}
]