[
	{
		"ID": 50200102,
		"script": "# script \"lisp\"\n# background \"town\"\n# bgm \"bgm002\" 0\n# body 502011\n# mask 502011 off\n# pos 502011 3\n# textflame 0 0\n@\nタスラムを連れ、\n街へとやってくるマスター\n目を爛々と輝かせ、彼女が叫ぶ\n\n# textflame 1 1\n# textboxarrow 0 2\n# voice 5020 \"tasuramu_0002\"\n@タスラム\nおい、見ろ！！\n\n# voice 5020 \"tasuramu_0004\"\n@タスラム\n「ジャンボステーキ、食べ切ったら\n賞金１０万ゼニー！」だってさ！\n\n# face 502011 \"happy\"\n# voice 5020 \"tasuramu_0006\"\n@タスラム\nよ〜し！やるぞ！！\n\n# textflame 0 0\n@\n小さな女の子の挑戦とあって、\n「やめといた方がいい」と\n一笑に付す店主\n\n# face 502011 \"angry\"\n# textflame 1 1\n# textboxarrow 0 2\n# voice 5020 \"tasuramu_0010\"\n@タスラム\nむ〜っ！チビだからって、\n無理だと決めつけやがって…！\n\n@タスラム\nチビでもやったらできるってとこ…\n見せてやるッッ！！\n\n# textflame 0 0\n@\nこうして彼女の挑戦が始まった\n\n# select \"あんまり無理しない方が…\" \"select_label_01\" \"そんなに食べると、お腹壊すよ\" \"select_label_02\" \"君の顔より大きいステーキなんて…\" \"select_label_03\"\nこうして彼女の挑戦が始まった\n\n# label \"select_label_01\"\n# labeljump \"select_label_end\"\n# textflame 1 1\n# textboxarrow 0 2\n@タスラム\nうるさいっ！黙って見てろ！！\n\n# label \"select_label_02\"\n# labeljump \"select_label_end\"\n# textflame 1 1\n# textboxarrow 0 2\n@タスラム\nナメられたまま黙ってられるか！\n食べきる！\n\n# label \"select_label_03\"\n# labeljump \"select_label_end\"\n# textflame 1 1\n# textboxarrow 0 2\n@タスラム\n今の…あたしが\nちっちゃいって意味だったのか…？\n\n# label \"select_label_end\"\n# textflame 0 0\n@\nいくらタスラムが大食漢とはいえ、\nここのステーキの大きさは\n常軌を逸している\n\n# textflame 1 1\n# textboxarrow 0 2\n# voice 5020 \"tasuramu_0029\"\n@タスラム\nそれでも…\n絶対に…おまえを認めさせるんだ！\nもうチビだとは…言わせない！！\n\n# textflame 0 0\n@\n彼女の目には、\n決意の炎が燃え盛っていた"
	}
]