[
	{
		"ID": 50200103,
		"script": "# script \"lisp\"\n# background \"town\"\n# bgm \"bgm002\" 0\n# body 502011\n# mask 502011 off\n# pos 502011 3\n# face 502011 \"cry\"\n# textflame 0 0\n@\nタスラムがジャンボステーキに\n挑戦し始めて、３０分が\n経過しようとしていた…\n\n# textflame 1 1\n# textboxarrow 0 2\n# voice 5020 \"tasuramu_0008\"\n@タスラム\nぅ…うぅぅ…\n\n# textflame 0 0\n@\n底抜けの胃袋と言われる彼女でも、\nさすがに限界が来ているようだ\n\n;;涙目で\n# textflame 1 1\n# textboxarrow 0 2\n# voice 5020 \"tasuramu_0015\"\n@タスラム\nうぅ…チビでも…\n根性あるとこ見せようと\n思ったのに…！\n\n# textflame 0 0\n@\n悔しさに涙を浮かべながら、\nステーキを噛み締めるタスラム\n\n# textflame 1 1\n# textboxarrow 0 2\n# voice 5020 \"tasuramu_0013\"\n@タスラム\nでも、もぅ…\n\n# textflame 0 0\n@\n諦めかけた、その時…！\n\n# face 502011 \"mad\"\n# textflame 1 1\n# textboxarrow 0 2\n@タスラム\n！！\n\n# textflame 0 0\n@\nがんばれーーーっ！！\n\n# textflame 1 1\n# textboxarrow 0 2\n# voice 5020 \"tasuramu_0022\"\n@タスラム\nこ、これは…？\n\n# textflame 0 0\n@\n店内にいたお客さんだけじゃなく、\n噂を聞き付けた街の人が\n彼女の応援に駆け付けたのだ\n\n\n# select \"これが君の…魅力なんじゃない？\" \"select_label_01\" \"みんなの期待に応えられる？\" \"select_label_02\" \"でも、あまり無理はしないで？\" \"select_label_03\"\n店内にいたお客さんだけじゃなく、\n噂を聞き付けた街の人が\n彼女の応援に駆け付けたのだ\n\n# face 502011 \"angry\"\n# label \"select_label_01\"\n# labeljump \"select_label_end\"\n# textflame 1 1\n# textboxarrow 0 2\n@タスラム\n…！！…み、みんな…ありがと…\nよ…よ〜し！\n\n# face 502011 \"angry\"\n# label \"select_label_02\"\n# labeljump \"select_label_end\"\n# textflame 1 1\n# textboxarrow 0 2\n@タスラム\n…！期待…されてる…？あたしが…\nよ…よ〜し！\n\n# face 502011 \"angry\"\n# label \"select_label_03\"\n# labeljump \"select_label_end\"\n# textflame 1 1\n# textboxarrow 0 2\n@タスラム\n…なに言ってんだ？力が湧いてきた…\nよ…よ〜し！\n\n\n# label \"select_label_end\"\n# voice 5020 \"tasuramu_0029\"\n@タスラム\nうおりゃ〜〜っ！！\n\n# textflame 0 0\n@\n街の人たちに元気をもらい\n一気に完食するタスラム\n\n# textflame 0 0\n@\nそ、そんな馬鹿な〜っ！！と、\n店主がへたり込む\n\n# textflame 1 1\n# textboxarrow 0 2\n@タスラム\nふぅ…ふぅ…うっぷ…\nみ、みんなから…\n力をもらった！\n\n# face 502011 \"happy\"\n#se \"SE_0602\"\n@タスラム\nこの力は大きな技になる！！\n奥義『弾丸ヘッドロング』\n誕生だ〜〜〜っ！！\n\n# textflame 0 0\n@\nそれはまさしく、\n彼女が新たなるスキルに\n目覚めた瞬間だった\n\n# textflame 0 0\n@\nみんなから元気をもらったんじゃない\n君の頑張りがみんなを元気づけたんだ\n…と、彼女の頭を撫でるマスター\n\n# face 502011 \"mad\"\n# textflame 1 1\n# textboxarrow 0 2\n@タスラム\n…！！\n\n@タスラム\n…あ\n\n# voice 5020 \"tasuramu_0004\"\n@タスラム\nま…まぁな…！\nそんなの…わかってるし！\n\n# textflame 0 0\n@\n一瞬、顔を赤らめるも、\nすぐに悪態をつく彼女\n\n# textflame 0 0\n@\nしかし…\n\n# face 502011 \"normal\"\n# textflame 1 1\n# textboxarrow 0 2\n# voice 5020 \"tasuramu_0002\"\n@タスラム\n…ん？なんだ…？\n\n# textflame 0 0\n@\n食べたなぁ\nと、チラ見するマスター\n\n# face 502011 \"angry\"\n# textflame 1 1\n# textboxarrow 0 2\n@タスラム\nおい！セクハラおやじ！！\n今…お腹見たろ！\nお腹は出てるのに…\n\n@タスラム\nお胸は出てない、\nつるぺたとか思ったんだろ！？\n\n# imageset 0 \"c502011\"\n# imagealpha 0 0 0\n# imagepos 0 0 0\n# voice 5020 \"tasuramu_0010\"\n@タスラム\n許さ〜ん！！\n\n# voice 5020 \"tasuramu_kyara_0025\"\n# imagealpha 0 1 0\n# imagepos 0 0 0 \n# fadein \"white\" 3\n# textwindow \"close\"\n\n# textwindow \"nomal\"\n# textflame 0 0\n@\n顔を真っ赤にして怒るその顔は\n少女らしく、とてもチャーミングだった"
	}
]