[
	{
		"ID": 50252202,
		"script": ";;【EP2】\n# script \"lisp\"\n# background \"highland\"\n# bgm \"stop\" 0\n# textboxarrow 0 2\n# body 502521\n# mask 502521 off\n# pos 502521 3\n# alpha 502521 0 0\n# textflame 0 0\n# se \"SE_9126\"\n@\n『ちゅどぉぉぉぉぉん！！』\n\n# alpha 502521 1 1\n# textflame 1 1\n# textboxarrow 0 2\n# chara 502521\n# face 502521 \"sad\"\n@めぐみん\nはふん\n\n# alpha 502521 0 0\n# textflame 0 0\n@\nバタリ\n\n# bgm \"bgm002\" 0.7\n# textflame 0 0\n@\n魔力を使い果たした\nめぐみんを背負って、\n帰るマスター\n\n# textflame 0 0\n@\nはぁ…これが毎日続くのか…\n…と、先が思いやられる\n\n# textflame 1 1\n# textboxarrow 0 2\n# alpha 502521 1 0.5\n# chara 502521\n# voice 5025 \"megumin_0001\"\n# face 502521 \"normal\"\n@めぐみん\n明日もお願いしますね、マスター\n私は疲れたので眠ります\n\n# textflame 0 0\n@\nマスターは、めぐみんに\n特訓の手応えを聞いてみた\n\n# select \"以前よりは魔法力、上がったでしょ？\" \"select_label_01\" \"自分でも強くなってると思うでしょ？\" \"select_label_02\" \"別に焦る必要はないんじゃない？\" \"select_label_03\"\nマスターは、めぐみんに\n特訓の手応えを聞いてみた\n\n# label \"select_label_01\"\n# labeljump \"select_label_end\"\n# textflame 1 1\n# textboxarrow 0 2\n# chara 502521\n# face 502521 \"sad\"\n@めぐみん\nまだまだ…ダメなのです\n\n# label \"select_label_02\"\n# labeljump \"select_label_end\"\n# textflame 1 1\n# textboxarrow 0 2\n# chara 502521\n# face 502521 \"sad\"\n@めぐみん\nいいえ、そうは思いませんね\n\n# label \"select_label_03\"\n# labeljump \"select_label_end\"\n# textflame 1 1\n# textboxarrow 0 2\n# chara 502521\n# face 502521 \"sad\"\n@めぐみん\nそういうわけにはいきませんよ\n\n# label \"select_label_end\"\n# textflame 0 0\n@\nどうして？\n\n# textflame 1 1\n# textboxarrow 0 2\n# chara 502521\n# face 502521 \"normal\"\n@めぐみん\nこんなところで満足はしてられません\nもっともっと…\n成長しなければ…！\n\n# textflame 0 0\n@\nマスターは、\n先日めぐみんが言った言葉を\n思い出していた\n\n# textflame 0 0\n@\n\"憧れの人\"…か…\n\n# textflame 1 1\n# textboxarrow 0 2\n# chara 502521\n# voice 5025 \"megumin_0003\"\n@めぐみん\nそうです！\n\n# textflame 1 1\n# textboxarrow 0 2\n# chara 502521\n# face 502521 \"sad\"\n@めぐみん\nでも…\n\n# textflame 1 1\n# textboxarrow 0 2\n# chara 502521\n# face 502521 \"normal\"\n@めぐみん\nもう何日も見ていて\n気付いているでしょう？\n\n# textflame 1 1\n# textboxarrow 0 2\n# chara 502521\n# voice 5025 \"megumin_0022\"\n@めぐみん\n私の魔力の底上げが\nほとんど出来ていない事を…\n\n# textflame 0 0\n@\n珍しく、彼女が弱音を吐いた\n\n# textflame 1 1\n# textboxarrow 0 2\n# chara 502521\n@めぐみん\n…あ、明日も特訓です！\nよろしくお願いしますね、\nマスター！\n\n# alpha 502521 0 0.5\n# textflame 0 0\n@\n偉そうな時もあるけど、\n魔法に対してはいつも一生懸命\n\n# textflame 0 0\n@\nわかった、明日もがんばろうね！\n\n# textflame 0 0\n@\nそう、彼女に声を掛けるマスターだった\n\n# textflame 1 1\n# textboxarrow 0 0\n# chara 502521\n@めぐみん\n…zzzz……\n\n# textflame 0 0\n@\n…って、寝てるじゃないか！"
	}
]