[
	{
		"ID": 50261201,
		"script": ";;【EP1】\n# script \"lisp\"\n# background \"town\"\n# bgm \"bgm002\" 0\n# body 106\n# mask 106 off\n# pos 106 3\n# alpha 106 0 0\n# textflame 0 0\n@\n今日は、戦闘はお休み\n隊の姫たちは思い思いの\n静かな時間を過ごしている\n\n# alpha 106 1 0.5\n# textflame 1 1\n# textboxarrow 0 2\n# chara 106\n# voice 5026 \"yunyun_kyara_2001\"\n# face 106 \"normal\"\n@ゆんゆん\n我が名はゆんゆん！\nアークウィザードにして\n上級魔法を操る者！\n\n# voice 5026 \"yunyun_kyara_3001\"\n@ゆんゆん\nやがては紅魔族の長となる者！\n\n# textflame 0 0\n@\nあぁ…静かな休日が…\n\n# textflame 1 1\n# voice 5026 \"yunyun_kyara_1009\"\n# textboxarrow 0 2\n# chara 106\n# face 106 \"surprise\"\n@ゆんゆん\nあ、あれ～！？めぐみんは！？\nさっきまでいたはずなのに！\n\n# face 106 \"normal\"\n@ゆんゆん\n一人で名乗りをあげるなんて\n恥ずかしいじゃない！\n\n# textflame 0 0\n@\n彼女はゆんゆん\n異世界から舞い降り、\nマスターの隊に新しく入った姫だ\n\n# textflame 1 1\n# voice 5026 \"yunyun_kyara_1021\"\n# textboxarrow 0 2\n# chara 106\n# face 106 \"shy\"\n@ゆんゆん\nあ、あの…めぐみんは…？\n\n# textflame 0 0\n@\nめぐみんなら、もう出掛けたよ\nそう答えるマスター\n\n# textflame 1 1\n# textboxarrow 0 2\n# chara 106\n# face 106 \"surprise\"\n@ゆんゆん\nえぇ～っ！！そんな～！！\nせっかく勝負を挑みに来たのに…\n\n# textflame 0 0\n# face 106 \"sad\"\n@\n両ひざと両手を地面につけ、\nがっくりとうなだれる彼女\nそこまで落ち込まなくても…\n\n# textflame 1 1\n# textboxarrow 0 2\n# chara 106\n# face 106 \"angry\"\n@ゆんゆん\nそうだ！\n今なら、まだ間に合うかも！\n追いかけて勝負を…！\n\n# textflame 0 0\n@\nもう、無理じゃない？\nマスターが彼女に言い放つ\n\n# textflame 1 1\n# voice 5026 \"yunyun_0009\"\n# textboxarrow 0 2\n# chara 106\n# face 106 \"sad\"\n@ゆんゆん\nえ？どうして…ですか？\n\n# textflame 0 0\n@\nすごい勢いで走って行ってたし、\n見つけ出すのは難しいと思うよ\n\n# textflame 1 1\n# textboxarrow 0 2\n# chara 106\n# face 106 \"angry\"\n@ゆんゆん\nで…でも…私と彼女は、\n終世のライバルなんです！\n\n@ゆんゆん\n絶対に見つけ出して。\n今日こそ決着を…！\n\n# textflame 0 0\n@\nそんなに勝負がしたいんなら…\n僕とどうだい？一勝負\nマスターがゆんゆんに持ち掛ける\n\n# voice 5026 \"yunyun_kyara_1025\"\n# textflame 1 1\n# textboxarrow 0 2\n# chara 106\n# face 106 \"surprise\"\n@ゆんゆん\nえ？私が…マスターさんと勝負…？\n\n# textflame 0 0\n@\n突然の提案に驚きを隠せない\nゆんゆんだった"
	}
]