[
	{
		"ID": 510143213,
		"script": ";;-----------------------------------------\n;;■異族化ティルフィング　キャラクエ　シナリオ\n;;【ＥＰ２】戦闘後\n;;スクリプト最後の背景：平原\n;;背景：平原\n;;-----------------------------------------\n# script \"lisp\"\n# background \"plain\"\n# bgmfile \"bgm401\" \"BgmIntegralNoahEvent\" 0\n;;-----------------------------------------\n;;異族化ティルフィング\n# body 5101431\n# pos 5101431 3\n# scale 5101431 0.8 0\n# layer 5101431 2\n# alpha 5101431 0 0\n# mask 5101431 off\n;;-----------------------------------------\n;;異族化ティルフィング一枚絵\n# imageset 0 \"c5101431\"\n# imagelayer 0 3\n# imagealpha 0 0 0\n;;-----------------------------------------\n# voice 510143 \"tyrufing_iz_battle_0001\"\n# move 5101431 3 0\n# face 5101431 \"angry\"\n# alpha 5101431 1 0\n# mask 5101431 off\n# textflame 1 1\n# textboxarrow 0 2\n@ティルフィング\nはぁっ！！\n\n;;モノローグ\n# textflame 0 0\n@\n懸命に戦うティルフィング\n\n;;モノローグ\n@\nだが敵の数の多さと、\nマスターを庇いながらの戦闘のため、\n疲労が色濃い\n\n# textflame 1 1\n# textboxarrow 0 2\n@ティルフィング\nはぁ…はぁ…！\n\n;;モノローグ\n# textflame 0 0\n@\nそして……\n\n# voice 510143 \"tyrufing_iz_0024\"\n# face 5101431 \"surprise\"\n# textflame 1 1\n# textboxarrow 0 2\n@ティルフィング\n…あっ！\nしまっ……！！\n\n;;モノローグ\n# textflame 0 0\n@\n彼女の隙を突いて、\n敵の攻撃がマスターに\n振り下ろされた\n\n# face 5101431 \"angry\"\n# textflame 1 1\n# textboxarrow 0 2\n@ティルフィング\nマスター！！\n\n;;モノローグ\n# textflame 0 0\n@\n――――が！\n\n# bgmfile \"bgm403\" \"BgmIntegralNoahEvent\" 0\n# voice 510143 \"tyrufing_iz_0022\"\n# face 5101431 \"surprise\"\n# textflame 1 1\n# textboxarrow 0 2\n@ティルフィング\n！！\n…あなたは\n\n;;モノローグ\n# textflame 0 0\n@\nそれを救ったのは、\nいつかのあの姫だった\n\n;;モノローグ\n@\n当時は新入りで、\n足がすくんでしまった彼女\n\n;;モノローグ\n@\nだが、自らを見つめ直し、心を鍛えて\nマスターを守れる勇気と力を\n身に着けていたのだ\n\n# face 5101431 \"normal\"\n# textflame 1 1\n# textboxarrow 0 2\n@ティルフィング\n……私が、\n間違っていたようですね\n\n;;モノローグ\n# textflame 0 0\n@\nそう言う彼女に、\nマスターは声を掛ける\n\n;;モノローグ\n@\n君が描く理想の世界、\nそれを実行しようとする覚悟\n\n;;モノローグ\n@\nそのため、自分が悪になってでも\n遂行しようという決意…\nそのどれもが素晴らしい\n\n;;モノローグ\n@\nでも自分が悪になってもいいという\n決意の裏には、悲しさが宿っている\n\n;;モノローグ\n@\nだったら…その悲しさごと、\n僕が一緒に背負ってあげるよ、と\n\n# face 5101431 \"surprise\"\n# textflame 1 1\n# textboxarrow 0 2\n@ティルフィング\n！！\n\n;;モノローグ\n# textflame 0 0\n@\nと言いつつ、僕は完全どころか\n不完全な人間だけどね、と\n苦笑するマスター\n\n# face 5101431 \"normal\"\n# textflame 1 1\n# textboxarrow 0 2\n@ティルフィング\n悲しみは…\nずっと一人で抱えていくものだと\n思っていました\n\n# textboxarrow 0 2\n@ティルフィング\nでも、あなたは…\n共に背負ってくれると…\n\n# textboxarrow 0 2\n@ティルフィング\nそんなあなたと\nこの先も一緒に\n進んでいきたい…\n\n;;モノローグ\n# textflame 0 0\n@\nその想いの変化が、\n彼女に新たなる力を与える\n\n;;モノローグ\n@\nそして見事、\n敵を殲滅するのだった\n\n# textflame 1 1\n# textboxarrow 0 2\n@ティルフィング\nまた少し…\n完全なる世界の完成に\n近づきました\n\n# textwindow \"close\"\n# fadeout \"black\" 1\n# waitandnext 1.2\n\n# background \"plain\"\n# alpha 5101431 0 0\n# waitandnext 0.2\n\n# fadein \"black\" 1\n# waitandnext 1\n\n;;モノローグ\n# textflame 0 0\n# textwindow \"normal\"\n@\n戦闘後――\n\n;;モノローグ\n@\nコスモス畑にて、\nマスターと語らう彼女\n\n# move 5101431 3 0\n# face 5101431 \"normal\"\n# alpha 5101431 1 0.5\n# mask 5101431 off\n# textflame 1 1\n# textboxarrow 0 2\n@ティルフィング\nあなたに出会って…\n少し変わりました\n\n# textboxarrow 0 2\n@ティルフィング\n今までは理想のため、\n純潔な者のみを世界に残そうと\nしていました\n\n# textboxarrow 0 2\n@ティルフィング\nでも…\n\n# textboxarrow 0 2\n@ティルフィング\n純潔な者以外を排除し、\n無駄を無くす調和ではなく…\n\n# textboxarrow 0 2\n@ティルフィング\nあらゆるものの存在を認める調和が、\n大切なのかも知れない…\n\n# textboxarrow 0 2\n@ティルフィング\nそう思うようになりました\n\n# textboxarrow 0 2\n@ティルフィング\nさっきの彼女を見て、思ったのです\n\n# textboxarrow 0 2\n@ティルフィング\n完全じゃないものにも、\n希望はある\n\n# textboxarrow 0 2\n@ティルフィング\nそう、『成長』という名の希望が\n\n# voice 510143 \"tyrufing_iz_0015\"\n# face 5101431 \"sad\"\n# textboxarrow 0 2\n@ティルフィング\n一度の失敗で切り捨てる\nそんな世の中はあなたの言った通り、\nやっぱり悲しい…\n\n# face 5101431 \"normal\"\n# textboxarrow 0 2\n@ティルフィング\n失敗した者、\n過ちを犯した者を許し、\n受け入れる\n\n# textboxarrow 0 2\n@ティルフィング\nそんな心の大きさ、強さこそが、\n新世界には必要なのですね\n\n;;:;モヤモヤ吹き出し\n# move 5101431 3 0\n# textboxarrow 0 0\n# textwindow \"moya\"\n# mask 5101431 off\n@ティルフィング\nいつか…\nそんな優しい世界が\n来てほしい\n\n;;モノローグ\n# textflame 0 0\n@\nマスターの目を見つめ、\n彼女が問い掛ける\n\n# voice 510143 \"tyrufing_iz_0001\"\n# face 5101431 \"happy\"\n# textflame 1 1\n# textboxarrow 0 2\n# textwindow \"normal\"\n@ティルフィング\nねぇ、マスター\nコスモスの花言葉を知っていますか？\n\n# textboxarrow 0 2\n@ティルフィング\n『調和』\n\n# textboxarrow 0 2\n@ティルフィング\n色んな人の\n色んな思いが認められる\n世界こそが\n\n# textboxarrow 0 2\n@ティルフィング\n調和の取れた\n完全なる世界なのかも\n\n;;モノローグ\n# textflame 0 0\n@\n彼女が優しく微笑むと、\n穏やかな風が吹いた\n\n;;■一枚絵指定\n;;★５\n;;背景：花畑（昼）\n;;表情：かすかにふっと微笑んでいます。\n;;構図：長い髪が風でたなびいているイメージです。\n;;　　　キャラのモチーフがコスモスですので、コスモスの花びらを飛ばしていただけますと幸いです。\n;;　　　可愛いより美しい寄せでお願いいたします。\n;;一枚絵ボイス：「善も悪も全ての存在を認め、共に生きること…。それが調和…アナタの出した答えなのですね。\n;;アナタが見つけた、その可能性の芽がどのような花を咲かせるのか…見てみたいと思うのです」\n;;変更後のボイス：「もう少し上手く伝えられたらいいのですが…ごめんなさい…。\n;;でも、今すごく、胸が…熱いんです…。」\n;;ホワイトアウト\n# textflame 0 0\n# imagealpha 0 1 0\n# imagepos 0 0 0\n# fadein \"white\" 3\n# buttonsout 0 0\n# textwindow \"close\"\n# voice 510143 \"tyrufing_iz_kyara_0025\"\n\n# frameout 0 1\n\n# waitandnext 0.8\n\n# fadeout \"black\" 1.5\n# waitandnext 1.5"
	}
]