[
	{
		"ID": 516011211,
		"script": ";;【EP1】(フリ)【男性・アスクレピオス】スキル効果\n# script \"lisp\"\n# background \"plain\"\n# bgm \"bgm100\" 0\n# body 1600111\n# pos 1600111 3\n# mask 1600111 off\n# textflame 0 0\n# alpha 1600111 0 0\n@\n今日は戦闘の合間の休息日\n皆、思い思いの時間を過ごしている\n\n# textflame 0 0\n@\nそんな中、マスターは\nあるキラーメイルに声を掛けた\n\n# alpha 1600111 1 0.5\n# textflame 1 1\n# textboxarrow 0 2\n# voice 16001 \"asklepiosm_0001\"\n# face 1600111 \"normal\"\n@アスクレピオス\n…？\nなんだい、マスター？\n\n# textboxarrow 0 2\n# face 1600111 \"surprise\"\n@アスクレピオス\nえ？\nこれから、\nみんなで食事に…？\n\n# textflame 0 0\n@\n彼の名はアスクレピオス\n医療を研究している杖使いだ\n\n# textflame 1 1\n# textboxarrow 0 2\n# face 1600111 \"sad\"\n@アスクレピオス\n…………\n\n# textflame 0 0\n@\n一瞬の間を置いて、\n彼が笑顔で応える\n\n# textflame 1 1\n# textboxarrow 0 2\n# face 1600111 \"smile_1\"\n@アスクレピオス\nありがとう\n\n# textboxarrow 0 2\n# face 1600111 \"sad\"\n@アスクレピオス\nでも…\n\n# textboxarrow 0 2\n@アスクレピオス\nせっかく誘ってくれて\n申し訳ないけど遠慮しておくよ\n\n# textflame 0 0\n@\nどうして？\nそう尋ねるマスター\n\n# textflame 1 1\n# textboxarrow 0 2\n# face 1600111 \"normal\"\n@アスクレピオス\n実は、やっておきたい事があってね\n\n# textboxarrow 0 2\n@アスクレピオス\n欲しい本が入荷したらしくてね、\n今日を逃すと\nもう手に入らないかも知れないんだ\n\n# textboxarrow 0 2\n@アスクレピオス\n医療は僕の生き甲斐だから、\nどうしても手に入れたくて\n\n# textboxarrow 0 2\n# voice 16001 \"asklepiosm_0031\"\n# face 1600111 \"sad\"\n@アスクレピオス\n本当に申し訳ない\n\n# textboxarrow 0 2\n# face 1600111 \"normal\"\n@アスクレピオス\nそういうわけで、\n食事はまたの機会に\n\n# textflame 0 0\n@\n…と、読み掛けだった\n分厚い医療書を閉じ、\n爽やかにその場を後にしようとする\n\n# textflame 1 1\n# textboxarrow 0 2\n@アスクレピオス\n…ん？\nなに？\n\n# textflame 0 0\n@\nいつも笑顔の彼だが、\nどうも距離感があると言うか…\n\n# textflame 0 0\n@\nそのことがずっと\n気に掛かっていたマスターは、\nある行動に出た\n\n# textflame 1 1\n# textboxarrow 0 2\n# voice 16001 \"asklepiosm_0018\"\n# face 1600111 \"surprise\"\n@アスクレピオス\n…えっ！\nついてくるの…？\n\n# textboxarrow 0 2\n# face 1600111 \"sad\"\n@アスクレピオス\n…………\n\n# textboxarrow 0 2\n# face 1600111 \"normal\"\n@アスクレピオス\nまぁ…別にいいけど\n\n# textflame 0 0\n@\nとは言うものの、\n少々不服そうな\nアスクレピオスであった"
	}
]