[
	{
		"ID": 6002042,
		"script": ";;4話戦闘後\n;;グラウンド\n# sclipt \"lisp\"\n# background \"Schoolyard_daytime\"\n# bgm \"bgm002\" 0\n# body 100241\n# pos 100241 1\n# alpha 100241 0 0\n# body 61\n# pos 61 4\n# scale 61 0.8 0\n# alpha 61 0 0\n# body 500151\n# pos 500151 2\n# scale 500151 0.8 0\n# alpha 500151 0 0\n# body 300641\n# pos 300641 3\n# scale 300641 0.8 0\n# textflame 1 1\n# textboxarrow 0 2\n# chara 300641\n# face 300641 \"surprise\"\n@血の気の多そうな少女\nう～ん…\n\n# chara 300641\n# voice 3006 \"torisyula_0028\"\n@血の気の多そうな少女\nなんだ？\n妙にすっきりしてんなあ\n\n# textflame 0 0\n@マスター\n正気に戻ったみたいですね\n体の具合は――\n\n# textflame 1 1\n# textboxarrow 0 2\n# chara 300641\n# face 300641 \"angry2\"\n# voice 3006 \"torisyula_0007\"\n@血の気の多そうな少女\nおっと！\nスパイに気ぃ使われるほど、\nあたいは落ちぶれちゃいねえんだよ！\n\n# chara 300641\n@血の気の多そうな少女\nあたいは陸上部の元エース！\nトリシューラ様だぜ！\n\n# textflame 0 0\n@マスター\n元…ですか？\n\n# textflame 1 1\n# textboxarrow 0 2\n# chara 300641\n# face 300641 \"angry1\"\n# voice 3006 \"torisyula_0037\"\n@トリシューラ\n…チッ！\n\n# chara 300641\n# face 300641 \"angry2\"\n@トリシューラ\nそこでやる気なさそうにしてる奴に\n抜かれちまったのさ！\n\n;;レーヴァテイン登場\n# textflame 1 1\n# textboxarrow 0 1\n# move 300641 2 0.5\n# rightin 61 0.5\n# alpha 61 1 0\n# mask 300641 on\n# chara 300641\n@トリシューラ\nおいレーヴァテイン！\nあんた、うちのエースだって\n自覚はあんのかよっ？\n\n# chara 300641\n@トリシューラ\nいつもいつも\n練習サボりやがって！\n\n;;ボイスカット中\n# textboxarrow 0 3\n# chara 100221\n# voice 10027 \"revatein2_event_1001\"\n@レーヴァテイン\n別に…\n\n# chara 100221\n# face 61 \"sad\"\n@レーヴァテイン\nあなた達が勝手に\nエースにしたんでしょ…\n私はどうでもいい…\n\n;;レーヴァテイン退場\n# textflame 1 1\n# textboxarrow 0 1\n# rightout 61 0.8\n# chara 300641\n# voice 3006 \"torisyula_0004\"\n@トリシューラ\nはっ！\n天才は言うことが違うねぇ\n\n# chara 300641\n# face 300641 \"angry1\"\n@トリシューラ\n今度の体育祭で\n情けねえ姿見せたら\nしょうちしねえぞ\n\n# textflame 0 0\n@マスター\nあの…\n仲間割れは良くないですよ…\n\n# textflame 1 1\n# textboxarrow 0 1\n# chara 300641\n# face 300641 \"angry2\"\n# voice 3006 \"torisyula_0009\"\n@トリシューラ\nうるせぇな！\n\n# chara 300641\n@トリシューラ\nこそこそ嗅ぎ回ることしかできねえ\n城学の犬は黙ってろ！\n\n# chara 300641\n# face 300641 \"usual2\"\n# voice 3006 \"torisyula_0007\"\n@トリシューラ\nまあ、いくら嗅ぎ回っても\n城学がラグ女に勝てる見込みは\nこれっぽっちもねえけどな\n\n;;ケラウノス登場\n# bgmfile \"bgm181\" \"BgmGakuen002\" 0\n# textflame 1 1\n# textboxarrow 0 1\n# move 300641 4 0.5\n# leftin 500151 0.5\n# alpha 500151 1 0\n# chara 500151\n# face 500151 \"surprise\"\n# voice 5001 \"keraunosu_0039\"\n@ケラウノス\nへ～っ\n自信あるんだね\n\n# chara 500151\n# voice 5001 \"keraunosu_0007\"\n@ケラウノス\n私もラグ女が\n城学に勝てる見込みは\nないと思うな～\n\n# textboxarrow 0 3\n# chara 300641\n# face 300641 \"angry2\"\n# voice 3006 \"torisyula_0009\"\n@トリシューラ\nんだとぉ？\nあんた、その冗談は\n全然笑えねえなあ\n\n# textboxarrow 0 1\n# chara 500151\n# face 500151 \"normal\"\n@ケラウノス\n冗談じゃないから\n笑わなくていいよ\n\n# textboxarrow 0 3\n# body 38\n# pos 38 3\n# scale 38 0.8 0\n# alpha 38 0 0\n# chara 300641\n# face 300641 \"usual2\"\n# voice 3006 \"torisyula_0039\"\n@トリシューラ\nほほぅ…\nちぃっと痛い目\n見せてやんねぇといけないようだねぇ\n\n;;ヴァジュラ登場\n# textboxarrow 0 2\n# move 300641 5 0.5\n# move 500151 1 0.5\n# alpha 38 1 0.5\n# layer 300641 1\n# layer 38 2\n# chara 500531\n# face 38 \"irregular2\"\n# voice 5005 \"vajura_0027\"\n@度量が広そうな少女\nやめなトリシューラ\n暴力沙汰は御法度だよ\n\n# textboxarrow 0 3\n# chara 300641\n# face 300641 \"angry1\"\n# voice 3006 \"torisyula_0009\"\n@トリシューラ\nヴァジュラ…\nぬるいこと言ってんじゃねえ！\n\n# chara 300641\n# face 300641 \"angry2\"\n# voice 3006 \"torisyula_0010\"\n@トリシューラ\n城学の連中に\n嘗められてたまるかってんだ！\n\n# textboxarrow 0 2\n# chara 500531\n# face 38 \"irregular\"\n@ヴァジュラ\nわかってるよ\nこんにちは、お二人さん\n\n# chara 500531\n@ヴァジュラ\nマスターに…\nキミはケラウノスだね\n\n# chara 500531\n# face 38 \"usual\"\n@ヴァジュラ\nあたしはヴァジュラ\nここの生徒会長をやってる\n\n# chara 500531\n# face 38 \"normal\"\n# voice 3006 \"torisyula_0004\"\n@ヴァジュラ\n今度の体育祭、\n城学と競い合えるのを\n楽しみにしてるよ\n\n# chara 500531\n# voice 5005 \"vajura_0007\"\n@ヴァジュラ\nその実力がキミ達にあれば、\nだけどね\n\n# textflame 0 0\n@マスター\nものすごい上から目線ですね…\n\n# textflame 1 1\n# textboxarrow 0 2\n# chara 500531\n# face 38 \"smile\"\n# voice 5005 \"vajura_0031\"\n@ヴァジュラ\nごめんごめん\nそんなつもりは\nなかったんだ\n\n# chara 500531\n# face 38 \"irregular\"\n@ヴァジュラ\nただ、あたしは\n本音しか言えなくてねぇ\n\n# textboxarrow 0 1\n# chara 500151\n# face 500151 \"surprise\"\n# voice 5001 \"keraunosu_0003\"\n@ケラウノス\nふ～ん\nそういうの\nわかりやすくて良いと思うよ\n\n# chara 500151\n# face 500151 \"normal\"\n# voice 5001 \"keraunosu_kyara_1006\"\n@ケラウノス\nじゃあ、\n私も正直に\n言わせてもらうね！\n\n# chara 500151\n# face 500151 \"angry\"\n@ケラウノス\n城学はラグ女なんかに\n絶対負けない！\n\n# chara 500151\n@ケラウノス\n優勝するのは私達だから！！\n\n# textflame 0 0\n@マスター\nケラウノスっ…\nそんな断言するなんて…\n\n# textflame 1 1\n# textboxarrow 0 2\n# chara 500531\n# face 38 \"smile\"\n# voice 5005 \"vajura_0005\"\n@ヴァジュラ\nはっはっは！良いね！\nキミ、気に入ったよ\n\n# chara 500531\n# face 38 \"normal\"\n# voice 5005 \"vajura_0004\"\n@ヴァジュラ\n体育祭、\n本当に楽しみに\nなってきた\n"
	}
]