[
	{
		"ID": 60032301,
		"script": "# script \"lisp\"\n# background \"foot_mountain_village\"\n# bgm \"bgm001\" 0\n# body 600323\n# mask 600323 off\n# pos 600323 3\n# textsize 36\n# voice 6003 \"tyurusosu_0006\"\n# textboxarrow 0 2\n# textflame 1 0\n# chara 600323\n# face 600323 \"normal\"\n@テュルソス\nよっしゃっ！\n\n# voice 6003 \"tyurusosu_0020\"\n# textsize 24\n# textflame 1 0\n# chara 600323\n# face 600323 \"normal\"\n@テュルソス\nま、ざっとこんなところかな？\n\n# textflame 0 0\n@\n強い…！\n異族をものともせずに\n勝利したテュルソス\n\n# textflame 1 0\n# chara 600323\n@テュルソス\nう～ん！\n今日は快心の勝利だったね！\nこんな日は～\n\n# textflame 0 0\n@\n来た\n彼女の楽しみ、それは…\n\n# textflame 1 0\n# chara 600323\n# face 600323 \"happy\"\n@テュルソス\nみんなでパーッと飲もうよ！！\n# voice 6003 \"tyurusosu_unit_1001\"\n\n# bgm \"bgm003\" 0\n# textflame 0 0\n@\n酒場─\n\n# textflame 1 0\n# chara 600323\n@テュルソス\nちょっと、飲んでる～？\nほら、グラス空けて\n# voice 6003 \"tyurusosu_kyara_1008\"\n\n# voice 6003 \"tyurusosu_0027\"\n# textflame 1 0\n# chara 600323\n@テュルソス\nあのね、酒の席で\n堅いことは言いっこなし\n\n# textflame 1 0\n# chara 600323\n@テュルソス\nやるときはやって、\n休むときは休む！\nそして飲むときは飲む！\n\n# voice 6003 \"tyurusosu_0004\"\n# textflame 1 0\n# chara 600323\n@テュルソス\nこれが私のモットーなの！\nってことで、まぁ、まぁ１杯！\n\n# voice 6003 \"tyurusosu_0028\"\n# textflame 1 0\n# chara 600323\n@テュルソス\nしっかし、今日の戦いは\n危なかったな～！\n\n# voice 6003 \"tyurusosu_1023\"\n# textflame 1 0\n# chara 600323\n# face 600323 \"shy\"\n@テュルソス\n…え？楽勝？\nまぁ、端から見てたら、\nそうかも知んないけど\n\n# textflame 1 0\n# chara 600323\n@テュルソス\nやってるこっちは\n冷や汗もんだったんだから\n# voice 6003 \"tyurusosu_0008\"\n\n# textflame 1 0\n# chara 600323\n# face 600323 \"mad\"\n@テュルソス\n…意外？そ～お？\nマスターって、私のこと\n誤解してるみたいね？ふふん\n# voice 6003 \"tyurusosu_0007\"\n\n# textflame 1 0\n# chara 600323\n# face 600323 \"shy\"\n@テュルソス\n私って…\nみんなが思ってるほど…\n強くないんだよ？\n\n# textflame 0 0\n@\n彼女がふと見せた上目遣いに、\nドキリとするマスターだった"
	}
]