[
	{
		"ID": 60052203,
		"script": ";;【EP3】（オチ）\n# script \"lisp\"\n# background \"town_night\"\n# bgm \"bgm002\" 0\n# body 600521\n# mask 600521 off\n# pos 600521 3\n# face 600521 \"angry\"\n# textflame 0 0\n@\nマスター達を襲った\n異族を追いかける\nケーリュケイオン\n\n;;//モヤモヤ吹き出し\n# textflame 1 1\n# textboxarrow 0 0\n# textwindow \"moya\"\n# chara 600521\n@ケーリュケイオン\n絶対に許さない…！\n\n# textwindow \"nomal\"\n# textflame 0 0\n@\n駆けていると\nマスターの衣服の一部を引っ掛けた\n異族を発見した\n\n# textflame 1 1\n# textboxarrow 0 2\n# chara 600521\n@ケーリュケイオン\n見つけた…！\n\n# textflame 0 0\n@\n異族はケーリュケイオンを\nマスターの仲間だと判断したのか\n即座に戦闘態勢をとった\n\n# textflame 1 1\n# textboxarrow 0 2\n# chara 600521\n# face 600521 \"normal\"\n# voice 6005 \"keryukeion_0039\"\n@ケーリュケイオン\nいい度胸じゃない…\nやってやるんだから！\n\n# face 600521 \"angry\"\n@ケーリュケイオン\n私の大切な人を\n傷つけたその罪…\n\n;;//モヤモヤ吹き出し\n# textboxarrow 0 0\n# textwindow \"moya\"\n# face 600521 \"sad\"\n@ケーリュケイオン\nなによりも腹立たしいのは\n大切な人がピンチな時に\n熟睡しちゃってた私…！\n\n# textboxarrow 0 2\n# textwindow \"nomal\"\n# face 600521 \"angry\"\n@ケーリュケイオン\n全部まとめて\nあなたに償ってもらうわ！\n\n# textflame 0 0\n@\n徐々に異族の周りを\n禍々しい空間が包み込む…\n\n# textflame 1 1\n# textboxarrow 0 2\n# chara 600521\n# voice 6005 \"keryukeion_0029\"\n# face 600521 \"normal\"\n@ケーリュケイオン\n最恐の悪夢を\n見せてあげる…！\n\n# se \"SE_0602\"\n# face 600521 \"angry\"\n@ケーリュケイオン\n眠りの魔法の進化系！！\n『蛇咬ノ悪夢』！！\n\n# textflame 0 0\n@\n新たに目覚めたスキルで\n異族の撃退に成功した\nケーリュケイオン\n\n# imageset 0 \"black\"\n# imagealpha 0 0 0\n# imagelayer 0 1\n# textflame 1 1\n# textboxarrow 0 2\n# chara 600521\n# face 600521 \"normal\"\n@ケーリュケイオン\n一生、悪夢でも見てなさい…\n\n# imagealpha 0 1 0\n# imagepos 0 0 30\n# imageleftin 0 0.5\n# serif 0\n# textwindow \"close\"\n# serif 1\n# textwindow \"close\"\n# waitandnext 1\n\n# imagerightout 0 0.5\n# textwindow \"nomal\"\n# textflame 1 1\n# textboxarrow 0 2\n# chara 600521\n# face 600521 \"sad\"\n@ケーリュケイオン\nはぁ…はぁ…！\nあ～疲れた…\n\n# textflame 0 0\n@\n異族を討伐し終えて宿に戻ると\nマスターがみんなの手当てをしていた\n\n# textflame 1 1\n# textboxarrow 0 2\n# chara 600521\n# voice 6005 \"keryukeion_0022\"\n# face 600521 \"surprise\"\n@ケーリュケイオン\nちょっと、なにやってんの！？\nまだ傷ついてるじゃない…\n\n# textflame 0 0\n@\nずーっと協力してもらってるから\nこれくらいはしないとね\nと、答えるマスター\n\n# textflame 1 1\n# textboxarrow 0 2\n# chara 600521\n# face 600521 \"sad\"\n@ケーリュケイオン\nでもだからって…\n\n# select \"ケーリュケイオンもいつもありがとう\" \"select_label_01\" \"僕は助けられてばっかりだね\" \"select_label_02\" \"心配してくれてるの？優しいんだね\" \"select_label_03\"\nでもだからって…\n\n# label \"select_label_01\"\n# labeljump \"select_label_end\"\n# textflame 1 1\n# textboxarrow 0 2\n# chara 600521\n@ケーリュケイオン\nなに言ってんの、そんなのいらないって\n\n# label \"select_label_02\"\n# labeljump \"select_label_end\"\n# textflame 1 1\n# textboxarrow 0 2\n# chara 600521\n@ケーリュケイオン\nそう言われると…少し心が痛いけど\n\n# label \"select_label_03\"\n# labeljump \"select_label_end\"\n# textflame 1 1\n# textboxarrow 0 2\n# chara 600521\n@ケーリュケイオン\nや…優しくなんか…ないよ\n\n# label \"select_label_end\"\n# textflame 1 1\n# textboxarrow 0 2\n# chara 600521\n@ケーリュケイオン\n今までの私は…\n誰かのためになにかをしたら、\n対価をもらってたけど…\n\n# voice 6005 \"keryukeion_0028\"\n@ケーリュケイオン\nでも、今回は私のミスもあるし…\nそしてなにより…\n\n# face 600521 \"happy\"\n# voice 6005 \"keryukeion_0033\"\n@ケーリュケイオン\n困った時はお互い様でしょ？\n\n# face 600521 \"shy\"\n@ケーリュケイオン\nでも、ちょっと疲れちゃったな…\nマスター、悪いけど寝室まで運んで～\n\n# textflame 0 0\n@\nマスターに連れられ、\nふらふらと寝室まで\nやってくる彼女\n\n@\n『バフッ！』\n到着するなり、\nマスターとベッドに倒れ込む\n\n# textflame 1 1\n# textboxarrow 0 2\n# chara 600521\n# voice 6005 \"keryukeion_0004\"\n# face 600521 \"happy\"\n@ケーリュケイオン\nえへへ、作戦成功～♪\n\n@ケーリュケイオン\n私が誰だか忘れたの？\n智謀策略が得意な\nケーリュケイオンちゃんだよ？\n\n# face 600521 \"shy\"\n@ケーリュケイオン\nやっと２人きりになれたね？\n\n# textflame 0 0\n@\n潤んだ瞳でマスターを覗き込む\nゴクリ…と緊張するマスター\n…しかし\n\n# textflame 1 1\n# textboxarrow 0 2\n# chara 600521\n# face 600521 \"sad\"\n@ケーリュケイオン\nぅ～ん…本当に眠い\n\n# voice 6005 \"keryukeion_0028\"\n@ケーリュケイオン\nせっかく２人きりになれたのに～\n作戦通りだったのに～\n新奥義…がんばりすぎた～\n\n# textflame 0 0\n@\nうとうとし始める彼女\nおやすみと、優しく\n語りかけるマスター\n\n# textflame 1 1\n# textboxarrow 0 2\n# chara 600521\n# face 600521 \"happy\"\n@ケーリュケイオン\nふわぁ～…\nま、いっか…\nおやすみ…♪\n\n# imageset 0 \"c600521\"\n# imagealpha 0 0 0\n# imagepos 0 0 0\n# textflame 0 0\n@\nまだまだあどけなさが残る\n彼女の寝顔は、\n憎めない可愛らしさがあった\n\n;;一枚絵音声：keryukeion_unit_0006.wav\n;;ケーリュケイオン「「あはは♪　ここまで計算通りだと笑いがとまらないね～♪」\n# voice 6005 \"keryukeion_unit_0006\"\n# imagealpha 0 1 0\n# imagepos 0 0 0\n# fadein \"white\" 3\n# textwindow \"close\""
	}
]