[
	{
		"ID": 6007053,
		"script": ";;５話//戦闘後\n;;【指定】bgm004\n# script \"lisp\"\n# background \"arts_gym_daytime\"\n# bgm \"bgm004\" 0\n# body 302021\n# body 500331\n# alpha 302021 0 0\n# alpha 500331 0 0\n# body 102511\n# alpha 102511 0 0\n# body 102531\n# alpha 102531 0 0\n# body 100\n# pos 100 2\n# scale 100 0.8 0\n# body 98\n# pos 98 4\n# scale 98 0.8 0\n# body 99\n# pos 99 3\n# scale 99 0.8 0\n# layer 99 4\n# alpha 99 0 0\n# textflame 1 1\n# textboxarrow 0 3\n# chara 500331\n# voice 5003 \"yatanokagami_0003\"\n@八咫鏡\nどうじゃ\nまだやるか？\n\n# textboxarrow 0 1\n# chara 102511\n@ムラマサ\nいえ…\nお手合わせ…\nありがとうございました…\n\n# textboxarrow 0 1\n# chara 102511\n# voice 10253 \"muramasa_1016\"\n@ムラマサ\n拙者が…姉上に勝てない理由…\nわかりました…\n\n# textboxarrow 0 1\n# chara 102511\n# face 100 \"sad\"\n@ムラマサ\nわかってしまいました…\n\n# textboxarrow 0 3\n# chara 500331\n# face 98 \"angry\"\n@八咫鏡\nおちこみすぎじゃー！！\n\n# textboxarrow 0 3\n# chara 500331\n# face 98 \"sad\"\n# voice 5003 \"yatanokagami_0028\"\n@八咫鏡\nだから順を追いたかったのじゃがな…\nまだ気付いておらんこともあるし…\n\n# textboxarrow 0 1\n# chara 102511\n@ムラマサ\nこのままでは…\n絶対に姉上には勝てない…\n\n# textboxarrow 0 1\n# chara 102511\n# voice 1025 \"muramasa_0019\"\n@ムラマサ\n拙者は…どうすれば…\n\n;;【指定】bgm102\n# bgm \"bgm102\" 0\n# move 100 1 0.5\n# move 98 5 0.5\n# alpha 99 1 0.5\n# textboxarrow 0 2\n# chara 302021\n# face 99 \"surprise\"\n# voice 3020 \"pisear_0014\"\n@ピサール\nえ～？\nなんでわからないの？\n\n# textboxarrow 0 2\n# chara 302021\n@ピサール\nマネするの、やめればいいでしょ～？\n\n# emotionbody 5000 1 100 10 270\n# effectpattern 5000 1 0\n# effectstart 5000\n# face 100 \"surprise\"\n# textflame 0 0\n@\nムラマサの目が点になる\n\n# effectskip 5000\n# emotionbody 5200 3 98 0 220\n# effectpattern 5200 1 3\n# effectstart 5200\n# textflame 1 1\n# textboxarrow 0 3\n# chara 500331\n# face 98 \"normal\"\n@八咫鏡\nふふ…\nこれぞ青天の霹靂…じゃな！\n"
	}
]