[
	{
		"ID": 60081201,
		"script": "# script \"lisp\"\n# background \"town\"\n# bgm \"bgm002\" 0\n# body 600811\n# mask 600811 off\n# pos 600811 3\n# textboxarrow 0 2\n# voice 6008 \"guridavoru_kyara_1005\"\n# chara 600811\n@グリダヴォル\n…あ、おはよう！\nもう起きてたの？\n私が起こしてあげたのに\n\n# textflame 0 0\n@\nお節介が売りのグリダヴォルが、\nマスターを起こそうと\n寝室に顔を出した\n\n# textflame 1 1\n# voice 6008 \"guridavoru_0008\"\n# face 600811 \"usual\"\n# chara 600811\n@グリダヴォル\n朝ごはん？\nそれは…\n作ってません！！\n\n# chara 600811\n@グリダヴォル\nサボったわけじゃないよ！\n君を連れて行きたい\n場所があってね\n\n# voice 6008 \"guridavoru_0002\"\n# face 600811 \"shy\"\n# chara 600811\n@グリダヴォル\n今日は戦闘は休みでしょ？\n慌てて食べなくていいし、\n前から一緒に行きたかったんだ\n\n# voice 6008 \"guridavoru_0028\"\n# face 600811 \"normal\"\n# chara 600811\n@グリダヴォル\nどこって？\nそれは行ってみてのお楽しみ！\nとびっきりの朝食になるはずだよ！\n\n# textflame 0 0\n@\n意気揚々と出かける彼女に\n手を引かれ、\nマスターは後に続いた\n\n# textflame 1 1\n# voice 6008 \"guridavoru_0004\"\n# face 600811 \"happy\"\n# chara 600811\n@グリダヴォル\nう〜ん！\nやっぱりおいしい！\nどう？マスター！？\n\n# voice 6008 \"guridavoru_0002\"\n# chara 600811\n@グリダヴォル\nここのパンは最高でしょ！？\n\n# textflame 0 0\n@\n確かにおいしい！\n何個でも食べられそう！\n…ってなにしてんの？\n\n# textflame 0 0\n@\n尋ねるマスター\n\n# textflame 1 1\n# voice 6008 \"guridavoru_kyara_1006\"\n# face 600811 \"angry\"\n# chara 600811\n@グリダヴォル\nあ、買い溜めしたパンの袋に\n名前書いてんの\n食べちゃダメだよ、マスター\n\n# chara 600811\n@グリダヴォル\nでも…\n\n# voice 6008 \"guridavoru_0027\"\n# face 600811 \"sad\"\n# chara 600811\n@グリダヴォル\n今日は出てるパン少ないな…\nいつもはもっとたくさん\n並ぶんだけど…\n\n# voice 6008 \"guridavoru_0028\"\n# chara 600811\n@グリダヴォル\nそれに、いつも店番をしている\n店長の奥さんもいないし…\n\n# textflame 0 0\n@\nお節介な彼女は、\n店長にその理由を尋ねようと\n厨房を覗いた\n\n# textflame 1 1\n# face 600811 \"usual\"\n# chara 600811\n@グリダヴォル\n…え？\n風邪…？\n\n# textflame 0 0\n@\nどうやら奥さんが風邪を引いたらしい\n売り子がいないので、パンの数を\n少なめに焼いていると店長\n\n# textflame 1 1\n# voice 6008 \"guridavoru_0019\"\n# face 600811 \"sad\"\n# chara 600811\n@グリダヴォル\nそっか…大変だね\n\n# voice 6008 \"guridavoru_0020\"\n# face 600811 \"normal\"\n# chara 600811\n@グリダヴォル\nよ〜し…\n\n# textflame 0 0\n@\nグリダヴォルの目が光った\n\n;;吹き出し大きく\n# voice 6008 \"guridavoru_0004\"\n# textflame 1 1\n# textsize 30\n# chara 600811\n@グリダヴォル\n私達が…\n手伝ってあげる！！\n\n# textsize 24\n# textflame 0 0\n@\nどうやらお節介好きの彼女に、\n火が点いてしまったようだ"
	}
]