[
	{
		"ID": 6008021,
		"script": ";;//２章 //背景　渡り廊下　昼//ムラマサ登場\n# script \"lisp\"\n# background \"connecting_corridor_daytime\"\n# bgm \"bgm002\" 0\n# body 100\n# pos 100 3\n# scale 100 0.8 0\n# mask 100 off\n# body 102511\n# pos 102511 2\n# alpha 102511 0 0\n# textflame 0 0\n@\n翌日――\n\n# alpha 100 1 0.5\n# textflame 0 0\n@\n昼休みに待ち合わせをした\nムラマサとマスターは\n中庭の植え込みの中にいた\n\n# textflame 0 0\n@\nマサムネに関して\n気になることがある、と…\n\n# textflame 0 0\n@\nそう主張するムラマサに\n半ば強引に付き合わされ\n隠れて様子をうかがっているのだ\n\n# textflame 0 0\n@マスター\n…誰かを待ってるのかな？\n\n# textflame 0 0\n@\n二人の視線の先で、\nマサムネは重箱を抱えながら\n中庭のベンチに座っている\n\n# textflame 1 1\n# textboxarrow 0 2\n# chara 102511\n# voice 1025 \"muramasa_0032\"\n@ムラマサ\nええ、間違いなく\n\n# textboxarrow 0 2\n# chara 102511\n@ムラマサ\n…見えますか？\nお姉様の膝上の重箱…\n\n# textboxarrow 0 2\n# chara 102511\n# voice 1025 \"muramasa_0013\"\n@ムラマサ\n明らかに二段…\nお姉様は日頃節制をしております\nあれを一人で食べるわけがない\n\n# textboxarrow 0 2\n# chara 102511\n# voice 1025 \"muramasa_0032\"\n@ムラマサ\n恐らくは…その相手こそ\nお姉様がホワイトデーにお返しを\nしようと考えている方ではないかと！\n\n# textflame 0 0\n@マスター\n…でも、ホワイトデーのお返しって\n男がするもんだよね\n若干違和感があるんだけど\n\n# textflame 1 1\n# textboxarrow 0 2\n# chara 102511\n@ムラマサ\n些末なことは、\n相手がわかれば\nすべてはっきりするはずです\n\n# emotionbody 5000 1 100 10 280\n# effectpattern 5000 1 0\n# effectstart 5000\n# textboxarrow 0 2\n# chara 102511\n# face 100 \"surprise\"\n@ムラマサ\nほら…来ました！！\n\n# body 110\n# pos 110 2\n# scale 110 0.8 0\n# body 101\n# pos 101 5\n# scale 101 0.8 0\n# alpha 110 0 0\n# alpha 101 0 0\n# body 100111\n# pos 100111 2\n# alpha 100111 0 0\n# body 100171\n# pos 100171 2\n# alpha 100171 0 0\n# body 102821\n# pos 102821 2\n# alpha 102821 0 0\n# body 102811\n# pos 102811 2\n# alpha 102811 0 0\n# imageset 0 \"black\"\n# imagealpha 0 0 0\n# imagelayer 0 1\n# textflame 0 0\n@マスター\nあ…あの人は…「ダー様」！？\n\n;;//ムラマサ退場;;//ダーインスレイヴ、マサムネ登場\n;;――場面転換――\n;;【中庭　昼】\n# imagealpha 0 1 0\n# imagepos 0 0 30\n# imageleftin 0 0.5\n# serif 0\n# textwindow \"close\"\n# serif 1\n# textwindow \"close\"\n# waitandnext 1\n\n# alpha 100 0 0\n# alpha 110 1 0\n# alpha 101 1 0\n# layer 110 1\n# layer 101 2\n# background \"courtyard\"\n# imagealpha 0 0 0.5\n# imagerightout 0 0.5\n# serif 0\n# textwindow \"nomal\"\n# textflame 1 1\n# textboxarrow 0 1\n# chara 102811\n# voice 1028 \"dainsleif_0004\"\n@ダー様\nやぁ、マサムネ\n…待たせてしまったか？\n\n# textboxarrow 0 3\n# chara 100111\n@マサムネ\n否、１５分前集合が\n拙者の流儀というだけだ\nそなたの落ち度ではござらん\n\n# textboxarrow 0 1\n# chara 102811\n@ダー様\nその相手を立てる気遣い…\n奥ゆかしさもあり、素晴らしい\n\n# textboxarrow 0 1\n# chara 102811\n@ダー様\n後は…\n乙女らしい振る舞いが\nできているかどうか、だけども…\n\n# se \"SE_5565\"\n# envbody 200 14 0 0\n# effectpattern 200 1\n# effectstart 200\n# envbody 2001 11 0\n# effectpattern 2001 2 11\n# effectstart 2001\n# face 101 \"shy\"\n# se \"SE_0675\"\n# move 110 3 0.8\n# textflame 0 0\n@\nダー様が、\nマサムネの美しい黒髪を\nそっと手に取る…\n\n# textflame 1 1\n# textboxarrow 0 2\n# chara 102811\n# voice 1028 \"dainsleif_0003\"\n# face 110 \"shy\"\n@ダー様\nわたしがプレゼントした\nシャンプーとトリートメントも\nきちんと使っているようだね\n\n# textboxarrow 0 2\n# chara 102811\n@ダー様\nいい香りだよ、レディ\n春に咲く花、そのものだ…\n\n# emotionbody 5805 9 101 80 220\n# effectpattern 5805 5 0\n# effectstart 5805\n# textboxarrow 0 3\n# chara 100111\n# voice 1001 \"masamune_0017\"\n# face 101 \"surprise\"\n@マサムネ\nそんなに香っているのか！？\nむ、ムラマサに気づかれて\nいないだろうか…\n\n# textboxarrow 0 2\n# chara 102811\n# face 110 \"normal\"\n@ダー様\nいいのだ、気づいてもらって…\n今のおぬしは乙女なのだから\n素直に喜べばいい\n\n# effectskip 5805\n# textboxarrow 0 3\n# chara 100111\n# voice 1001 \"masamune_0028\"\n# face 101 \"shy\"\n@マサムネ\nそ、そうは言うが…\nムラマサがどう思っているか\nとても気になってしまってだな…\n\n# textflame 0 0\n@\nこれでもかというほど\nマサムネの顔が真っ赤になる…！\n\n# textflame 1 1\n# textboxarrow 0 2\n# chara 102811\n# voice 1028 \"dainsleif_0003\"\n@ダー様\nそうだ、レディ…今の気持ちを\n大切にするんだ\n\n# textboxarrow 0 2\n# chara 102811\n# face 110 \"shy\"\n@ダー様\n恥じらい…\nそれこそ乙女心の本質だ\n\n# emotionbody 5700 8 101 -70 260\n# effectpattern 5700 1 0\n# effectstart 5700\n# textboxarrow 0 3\n# chara 100111\n# voice 1001 \"masamune_0042\"\n@マサムネ\nうぅぅぅぅ…\nこんなことで…本当に拙者は\n乙女心を学べているのか…？\n\n# textboxarrow 0 2\n# chara 102811\n# voice 1028 \"dainsleif_0005\"\n# face 110 \"happy\"\n@ダー様\nふふっ、今は、わたしを\n信じてもらうしかないな\n\n# effectskip 200\n# effectskip 2001\n# effectskip 5700\n# move 110 2 0.8\n# textboxarrow 0 1\n# chara 102811\n@ダー様\n…さて、では、\n次のレクチャーと行こうか\nそうだな…\n\n# textboxarrow 0 1\n# chara 102811\n# voice 1028 \"dainsleif_0001\"\n# face 110 \"normal\"\n@ダー様\nおぬしの口調だ…\nもっと全体的に柔らかく…\nそして語尾はナ行を意識するんだ\n\n# textboxarrow 0 3\n# chara 100111\n@マサムネ\n乙女心を学べているのか…な？\n\n# textboxarrow 0 3\n# chara 100111\n@マサムネ\nムラマサには…\n秘密にしておきたかった…のに\n\n# textboxarrow 0 1\n# chara 102811\n# voice 1028 \"dainsleif_0040\"\n# face 110 \"happy\"\n@ダー様\n…うん、よいな\n\n# textboxarrow 0 3\n# chara 100111\n@マサムネ\nと、とりあえず\nお弁当を食べよ…ぬ\n\n# emotionbody 5801 9 110 70 205\n# effectpattern 5801 1 0\n# effectstart 5801\n# textboxarrow 0 1\n# chara 102811\n# face 110 \"normal\"\n@ダー様\n失礼、ヌ、は使わない方向で…\n\n;;//ダーインスレイヴ、マサムネ退場//画面ワイプ（視点変更）//ムラマサ登場\n;;――場面転換――\n;;【渡り廊下　昼】\n# effectskip 5801\n# imagealpha 0 1 0\n# imagepos 0 0 30\n# imageleftin 0 0.5\n# serif 0\n# textwindow \"close\"\n# serif 1\n# textwindow \"close\"\n# waitandnext 1\n# face 100 \"normal\"\n\n# alpha 100 1 0\n# alpha 110 0 0\n# alpha 101 0 0\n# background \"connecting_corridor_daytime\"\n# imagerightout 0 0.5\n# serif 0\n# textwindow \"nomal\"\n# textflame 0 0\n@マスター\nマサムネが…なんだか…\nすごく女の子っぽい！\nねぇムラマ…ムラマサ！？\n\n# emotionbody 5301 4 100 10 230\n# effectpattern 5301 2 12\n# effectstart 5301\n# textflame 1 1\n# textboxarrow 0 0\n# chara 102511\n# voice 1025 \"muramasa_0041\"\n# face 100 \"surprise\"\n@ムラマサ\nはぁぁぁぁぁぁぁ！！\nなにそれおねえちゃん！！\nうちでもやってぇぇぇぇ！！\n\n# se \"SE_3001\"\n# se \"SE_9347\"\n# shakeloop 0\n# move 100 5 0.3\n# waitandnext 0.3\n\n# se \"SE_3001\"\n# move 100 2 0.3\n# waitandnext 0.3\n\n# se \"SE_3001\"\n# move 100 3 0.3\n# textflame 0 0\n@\nムラマサは顔面を両手でおおい\n悶絶しながら転がっている…！！\n\n# shakestop\n# textflame 0 0\n@\nそうこうしているうちに…\n二段の重箱が開かれて\nマサムネ達は昼食を始めた\n\n;;//画面ワイプ（視点変更）//背景　中庭　昼//ムラマサ退場//ダーインスレイヴ、マサムネ登場\n# effectskip 5301\n# imagealpha 0 1 0\n# imagepos 0 0 30\n# imageleftin 0 0.5\n# serif 0\n# textwindow \"close\"\n# serif 1\n# textwindow \"close\"\n# waitandnext 1\n\n# se \"SE_5565\"\n# envbody 211 14 0 0\n# effectpattern 211 1\n# effectstart 211\n# envbody 2011 11 0\n# effectpattern 2011 2 11\n# effectstart 2011\n# alpha 100 0 0\n# move 100 1 0\n# mask 100 on\n# alpha 110 1 0\n# alpha 101 1 0\n# background \"courtyard\"\n# imagealpha 0 0 0.5\n# imagerightout 0 0.5\n# serif 0\n# textwindow \"nomal\"\n# textflame 1 1\n# textboxarrow 0 1\n# chara 102811\n# voice 1028 \"dainsleif_0004\"\n@ダー様\nではレディ、あれを…\nやってもらおうか\n\n# textflame 0 0\n@\nマサムネは…恥ずかしそうに\nうなづくと、卵焼きをきれいに\n箸でつまみ、そして…\n\n# move 101 4 1.3\n# textflame 1 1\n# textboxarrow 0 3\n# chara 100111\n# voice 1001 \"masamune_0042\"\n@マサムネ\n…あーーーん\n\n;;//SE ガサガサという葉が揺れる音;;//ムラマサ登場　気合い顔\n# se \"SE_5602\"\n# waitandnext 0.3\n\n# fadein \"white\" 0.5\n# effectskip 211\n# effectskip 2011\n# se \"SE_5575\"\n# mask 100 on\n# alpha 100 1 0\n# leftin 100 0.5\n# move 110 3 0.5\n# move 101 5 0.5\n# layer 110 3\n# layer 100 2\n# layer 101 1\n# textwindow \"toge\"\n# textboxarrow 0 1\n# textsize 28\n# chara 102511\n# voice 1025 \"muramasa_0009\"\n# face 101 \"surprise\"\n# face 110 \"surprise\"\n# face 100 \"angry\"\n@ムラマサ\nたのもぉぉぉぉぉぉう！！！！\n\n# textsize 24\n# textwindow \"nomal\"\n# textflame 0 0\n@\nマスターが止める間もなく\n普段の１０倍くらい声を張って\nムラマサが植え込みから飛び出す！\n\n# textflame 0 0\n@\n仕方なく、マスターも\nその後を追った…\n\n# emotionbody 6101 11 101 90 270\n# effectpattern 6101 1 0\n# effectstart 6101\n# textflame 1 1\n# textboxarrow 0 3\n# chara 100111\n# voice 1001 \"masamune_0022\"\n@マサムネ\nむ、ムラマサ！？\nそれにマスター\nどうしてこんなところに！！\n\n# effectskip 6101\n# textboxarrow 0 1\n# chara 102511\n# face 100 \"normal\"\n@ムラマサ\nあなたは…\nダーインスレイヴ殿と\nお見受けしますがっ！\n\n# textboxarrow 0 2\n# chara 102811\n# voice 1028 \"dainsleif_0003\"\n# face 110 \"normal\"\n@ダーインスレイヴ\nその通り\nわたしはダーインスレイヴ…\n全ての女性を愛する者だ\n\n# textflame 0 0\n@\nだから「ダー様」なのか、と\nマスターは小さく頷く\n\n# textflame 1 1\n# textboxarrow 0 1\n# chara 102511\n# face 100 \"angry\"\n@ムラマサ\nお伺いしたいことが！\n少々！！\n\n# textboxarrow 0 1\n# chara 102511\n# voice 1025 \"muramasa_0002\"\n# face 100 \"normal\"\n@ムラマサ\nダーインスレイヴ殿と姉上は\nご学友、のようですが…\n\n# textboxarrow 0 1\n# chara 102511\n# face 100 \"angry\"\n@ムラマサ\nこれは一体どういうことでしょうか！\n先ほどの「あーーーん」は\n単なる学友の域を超えております！！\n\n# emotionbody 5815 9 101 80 220\n# effectpattern 5815 5 0\n# effectstart 5815\n# textboxarrow 0 3\n# chara 100111\n@マサムネ\nむ、ムラマサ！\n拙者から説明する…ね？\n彼女は…\n\n# effectskip 5815\n# textboxarrow 0 2\n# chara 102811\n@ダーインスレイヴ\n…待ちたまえ、レディ\n彼女が質問しているのは\nわたしに、だ\n\n# textboxarrow 0 2\n# chara 102811\n@ダーインスレイヴ\n紳士としては、乙女の疑問に\n自らの声で答えなくてはね\n…失礼というものだろう？\n\n# textboxarrow 0 2\n# chara 102811\n@ダーインスレイヴ\nいかにも、レディ・マサムネとは\n共に学び切磋琢磨し合う友だ\n今は乙女学の臨時教師でもある\n\n# textboxarrow 0 2\n# chara 102811\n# voice 1028 \"dainsleif_0005\"\n# face 110 \"happy\"\n@ダーインスレイヴ\nふふっ…\nしかしながら…\n最近はもう少し親密でね？\n\n# textboxarrow 0 1\n# chara 102511\n# voice 1025 \"muramasa_0022\"\n# face 100 \"surprise\"\n@ムラマサ\n親…密！\n\n# textboxarrow 0 2\n# chara 102811\n# face 110 \"normal\"\n@ダーインスレイヴ\nこんなふうに昼休みに\n人目を忍んで逢引し…\n\n# jump 100\n# emotionbody 5020 1 100 10 280\n# effectpattern 5020 2 0\n# effectstart 5020\n# textboxarrow 0 1\n# chara 102511\n# voice 1025 \"muramasa_0023\"\n@ムラマサ\n逢引！？\n\n# effectskip 5020\n# textboxarrow 0 2\n# chara 102811\n@ダーインスレイヴ\nレディ手作りのランチを\n頬張りながら逢瀬を重ね…\n\n# textboxarrow 0 1\n# chara 102511\n@ムラマサ\n手作り…？\n逢瀬！？\n\n# textboxarrow 0 1\n# chara 102511\n# face 100 \"angry\"\n@ムラマサ\n姉上…\nそのお重は母上に発注したのでは\nなかったのですか！？\n\n# textboxarrow 0 3\n# chara 100111\n# face 101 \"shy\"\n@マサムネ\n最近練習している…の\n\n# textboxarrow 0 3\n# chara 100111\n# voice 1001 \"masamune_0012\"\n# face 101 \"angry\"\n@マサムネ\nではなくて！！\n待つのだ…ムラマサ違うのだ！！\n\n# textboxarrow 0 2\n# chara 102811\n# voice 1028 \"dainsleif_0004\"\n@ダーインスレイヴ\nなにが違うのだ、レディ…\n\n# textboxarrow 0 2\n# chara 102811\n# face 110 \"happy\"\n@ダーインスレイヴ\nさあ、続きをしよう\nその甘くとろける卵焼きを\nわたしの口に運んでくれるかい…？\n\n# emotionbody 6002 11 100 -105 230\n# effectpattern 6002 2 0\n# effectstart 6002\n# textboxarrow 0 1\n# chara 102511\n# voice 1025 \"muramasa_0041\"\n# face 100 \"surprise\"\n@ムラマサ\nはわぁぁぁぁぁぁああああ！！！！\n\n# effectskip 6002\n# textflame 0 0\n@マスター\nむ、ムラマサ！？\n\n# textflame 1 1\n# textboxarrow 0 1\n# chara 102511\n@ムラマサ\nあ、あねうえ…\nあねうえがのぞむのならば…\n\n# textboxarrow 0 1\n# chara 102511\n@ムラマサ\nこの、むらまさ…\nおとめはいたしません…\n\n;;//ムラマサ退場\n# textboxarrow 0 0\n# shake 0 0.5\n# alpha 100 0 0.5\n# waitandnext 1\n# se \"SE_5617\"\n# sedelay \"SE_3001\" 0.3\n\n# textflame 0 0\n@\nムラマサは蒸気機関車のように\n煙を上げ真っ赤になり\n卒倒した…\n\n# textflame 0 0\n@マスター\nムラマサーーー！！\n\n;;//モヤモヤ吹き出し\n# textwindow \"moya\"\n# textflame 0 0\n@マスター\n無理もない…ショックだよね…\n\n;;//モヤモヤ吹き出し\n# textflame 0 0\n@マスター\nでも気絶してくれたお陰で…\n異族化は免れたか…\n\n# move 110 1 0.8\n# textwindow \"nomal\"\n# textflame 1 1\n# textboxarrow 0 1\n# chara 102811\n# voice 1028 \"dainsleif_0031\"\n# face 110 \"surprise\"\n@ダーインスレイヴ\nおや…少し冗談が過ぎたようだ\nこれは悪いことをしてしまった…\n\n# body 300351\n# pos 300351 3\n# scale 300351 0.8 0\n# alpha 300351 0 0\n# body 300331\n# pos 300331 3\n# scale 300331 0.8 0\n# alpha 300331 0 0\n# face 300331 \"mad\"\n# eye 300331 \"mad\"\n# brightness 300331 0.6 0\n# textboxarrow 0 3\n# chara 100111\n# voice 1001 \"masamune_0017\"\n# face 101 \"shy\"\n@マサムネ\nまったくだ！…ね\nムラマサになんということを\nしてくれた…んですの\n\n;;//方天画戟登場//下記は「方天画戟」です\n# serif 1\n# voice 3003 \"hotengageki_0009\"\n@？？？？\nああ、ホントなに言ってやがる…\n\n# serif 1\n# textwindow \"close\"\n# serif 0\n# textwindow \"nomal\"\n# textflame 1 1\n# textboxarrow 0 1\n# chara 102811\n# voice 1028 \"dainsleif_0022\"\n# face 110 \"angry\"\n@ダーインスレイヴ\nん、おぬしは…\nむぅ、困ったな\n\n# textboxarrow 0 1\n# chara 102811\n@ダーインスレイヴ\nしばらくの間は\n温かく見守っていてほしいと\n先日、頼んだつもりだったんだが…\n\n;;//下記は「方天画戟」です\n# se \"SE_5200\"\n# layer 300351 2\n# layer 101 3\n# layer 110 1\n# alpha 300351 1 0.5\n# textboxarrow 0 2\n# chara 300351\n# voice 3003 \"hotengageki_0012\"\n# face 300351 \"angry\"\n# face 101 \"surprise\"\n@？？？？\nだまれ紳士かぶれ！\n\n# textboxarrow 0 2\n# chara 300351\n@？？？？\n実はすげぇ特訓でもしてんのかと\n思ったら、マサムネの野郎を\nなよっちくしてしまいやがって…\n\n# emotionbody 5500 6 300351 50 230\n# effectpattern 5500 1 1\n# effectstart 5500\n# textboxarrow 0 2\n# chara 300351\n# voice 3003 \"hotengageki_0010\"\n@方天画戟\nマサムネの野郎は\nこの方天画戟サマのライバルなんだよ\n妙ちくりんなことにされてたまるか！\n\n# effectskip 5500\n# textboxarrow 0 1\n# chara 102811\n# face 110 \"surprise\"\n@ダーインスレイヴ\n…待ってくれ\nマサムネ君は\nおぬしと同じくレディなのだ\n\n# textboxarrow 0 1\n# chara 102811\n# face 110 \"normal\"\n@ダーインスレイヴ\nなら「マサムネの野郎」ではなく\n「マサムネの乙女」と\n呼ぶべきではないか？\n\n# textboxarrow 0 2\n# chara 300351\n# voice 3003 \"hotengageki_0010\"\n@方天画戟\nうるせぇ！\nそんな話をしてるんじゃねぇ！\n\n# textboxarrow 0 2\n# chara 300351\n@方天画戟\nのらりくらりと\nふざけたことばっかり言いやがって！\n\n# fillrect \"black\" 1 0 0.2\n# brightness 300351 0.6 1\n# face 300351 \"mad\"\n# eye 300351 \"mad\"\n# waitandnext 1\n\n# se \"SE_0677\"\n# henshinbody 300 1 300351 300331\n# waitandnext 1.3\n\n# sestop \"SE_0677\"\n# waitandnext 0.03\n\n# layer 110 1\n# layer 101 2\n# layer 300331 3\n# se \"SE_0678\"\n# shakeloop 0\n# henshin 300\n# alpha 300331 1 0\n# waitandnext 1.3\n\n;;//モヤモヤ吹き出し\n# textflame 0 0\n# textwindow \"moya\"\n@マスター\nあの子…黒い霧をまとってる！？"
	}
]