[
	{
		"ID": 6010201,
		"script": ";;Chapter1\n;;寮の自室 無いので黒にしました\n# script \"lisp\"\n# background \"black\"\n# bgm \"bgm000\" 0\n# body 31\n# pos 31 3\n# face 31 \"sad\"\n# mask 31 off\n# scale 31 0.8 0\n# alpha 31 0 0\n# imageset 0 \"black\"\n# imagelayer 0 1\n# imagealpha 0 1 0\n# imagepos 0 0 30\n# imageleftin 0 0.5\n# textflame 0 0\n@\n今日から本格的に始まる学院生活\nまずはラグナロク女学院からだ\n\n;;森の中\n# textwindow \"close\"\n# imagerightout 0 0.5\n# background \"forest\"\n\n# textflame 0 0\n# textwindow \"nomal\"\n# textboxarrow 0 0\n@マスター\n…迷った\n\n# textboxarrow 0 0\n@マスター\nおかしい、\nちゃんと進んでたはずなのに！\n\n# textwindow \"close\"\n# imagealpha 0 1 0\n# imagepos 0 0 30\n# imageleftin 0 0.5\n\n;;広場 中庭\n# imagerightout 0 0.5\n# background \"courtyard\"\n\n# serif 0\n# textflame 0 0\n# textwindow \"nomal\"\n# textboxarrow 0 0\n@マスター\nよ、ようやく森を抜けられた…\nえっと、ラグナロク女学院は…\n\n# serif 1\n# textboxarrow 1 0\n@？？？\n…はぁ\n\n# serif 0\n# textboxarrow 0 0\n@マスター\nため息？\n…あの子かな\n\n;;ヤグルシ表示\n# serif 0\n# alpha 31 1 0.5\n# textboxarrow 0 0\n@マスター\n大丈夫ですか？\nなんだか落ち込んでいるように\n見えたけど…\n\n# serif 1\n# textboxarrow 1 2\n# chara 31\n@少女\n…別に落ち込んでないし\nヤグのことは放っておいて\n\n# serif 0\n# textboxarrow 0 0\n@マスター\n余計なお節介だったみたいだね\nでも…\n\n# serif 1\n# textboxarrow 1 2\n@少女\nでも？　なに？\n\n# serif 0\n# textboxarrow 0 0\n@マスター\nそんなふうになっている人を\n放っておくことなんて、\n僕にはできないんだ\n\n# serif 0\n# textboxarrow 0 0\n@マスター\n力になるのは\n難しいかもしれないけど、\n\n# serif 0\n# textboxarrow 0 0\n@マスター\nそばにいて、\n話を聞くだけでも\n助けになることもあると思うから\n\n;;指定BGMをフェードインさせてください\n# bgm \"bgm000\" 0.3\n# bgmfile \"bgm069\" \"BgmHalloween001\" 0.3\n# serif 1\n# textboxarrow 1 2\n# body 201711\n# pos 201711 3\n# face 31 \"angry\"\n# scale 201711 0.8 0\n# alpha 201711 0 0\n# mask 201711 off\n# brightness 201711 0.2 0\n@少女\nうるさい、うるさい、うるさーい！\n\n# fadeout \"black\" 1\n\n;;天上編での姿\n# fadein \"black\" 0.5\n# alpha 31 0 0\n# alpha 201711 1 0\n# face 201711 \"cry\"\n# serif 0\n# textwindow \"close\"\n# serif 1\n# textwindow \"close\"\n# shakeloop 0\n# fillrect \"black\" 0 0 0.2\n\n# textwindow \"nomal\"\n# textflame 0 0\n@\n少女から黒い霧が噴き出し、\n異形の姿…異族となる\n\n# textflame 0 0\n@\nだが、前回と異なり、\n元になった少女の面差しが残っている\n\n# textflame 0 0\n@\nその感じは、\n武器を持って助けに現れた\n少女たちに似ている気がした\n\n# bgm \"stop\"\n# fadeout \"white\" 1\n# se \"SE_0533\"\n\n;;バトル空間\n# fadein \"white\" 0.5\n# background \"walpurgis\"\n# bgm \"bgm021\" 0\n# textwindow \"close\"\n\n# serif 1\n# textwindow \"nomal\"\n# textboxarrow 1 2\n@少女の影\n君にヤグのなにがわかるのー！？\n"
	}
]