[
	{
		"ID": 6010053,
		"script": ";;【EP5】自軍配置後\n# script \"lisp\"\n# body 300351\n# pos 300351 4\n# scale 300351 0.8 0\n# body 120\n# pos 120 2\n# scale 120 0.8 0\n# body 300331\n# pos 300331 4\n# scale 300331 0.8 0\n# alpha 300331 0 0\n# body 502011\n# pos 502011 2\n# scale 502011 0.8 0\n# alpha 502011 0 0\n# textflame 0 0\n@マスター\nタスラム、方天画戟、準備はいい？\n風紀委員達を乗り越えて\nゴールの生徒会室まで突っ走って！\n\n# textflame 1 1\n# textboxarrow 0 3\n# chara 300351\n# voice 30035 \"hotengageki_0033\"\n@方天画戟\nはっ、任せときなぁ！\n腑抜けの聖ユグ生なんかに\n負けるわけねぇだろ…！\n\n# textboxarrow 0 1\n# chara 120\n# voice 50202 \"tasuramu_0007\"\n@タスラム\nあたしもだ！\nこんなのろまに捕まるわけないっ！\n\n# fillrect \"black\" 1 0 0.2\n# eye 120 \"angry\"\n# eye 300351 \"mad\"\n# se \"SE_0677\"\n# henshinbody 200 1 120 502011\n# henshinbody 300 1 300351 300331\n# waitandnext 2\n\n# sestop \"SE_0677\"\n# waitandnext 0.03\n\n# se \"SE_0678\"\n# shakeloop 0\n# henshin 200\n# henshin 300\n# face 502011 \"happy\"\n# eye 300331 \"mad\"\n# alpha 502011 1 0\n# alpha 300331 1 0\n"
	}
]