[
	{
		"ID": 60172203,
		"script": ";;【EP3】\n# script \"lisp\"\n# background \"town\"\n# bgm \"bgm002\" 0\n# textboxarrow 0 2\n# body 601721\n# mask 601721 off\n# pos 601721 3\n# textflame 1 1\n# textboxarrow 0 2\n# chara 601721\n# voice 6017 \"akua_battle_0002\"\n# face 601721 \"angry\"\n@アクア\nとりゃーっ！！\n\n# textflame 0 0\n@\n大量の異族に向かって、\n特攻をかけるアクア\n\n# textflame 1 1\n# textboxarrow 0 2\n# chara 601721\n# voice 6017 \"akua_0004\"\n@アクア\nもう大丈夫よ、僕！\n女神様に任せて！\n\n# textflame 1 1\n# textboxarrow 0 2\n# chara 601721\n@アクア\nいくわよ、異族ども！\n地獄で後悔しながら懺悔なさい！\nゴッドブロオオォ！\n\n# textflame 0 0\n@\n敵に向かって手をかざす彼女\nようやく女神特有の\nミラクルな力が…！\n\n# textflame 1 1\n# textboxarrow 0 2\n# chara 601721\n# voice 6017 \"akua_0022\"\n# face 601721 \"surprise\"\n@アクア\nなんで出ないのよー！？\n\n# textflame 0 0\n@\n出ないのか…\n\n\n# textflame 1 1\n# textboxarrow 0 2\n# chara 601721\n# face 601721 \"angry\"\n@アクア\nもう、この世界嫌い！！\n\n# textflame 0 0\n@\nがんばって！女神様！！\n\n# textflame 1 1\n# textboxarrow 0 2\n# chara 601721\n# voice 6017 \"akua_0022\"\n# face 601721 \"surprise\"\n@アクア\n！！\n\n# textflame 0 0\n@\n見ると、男の子が\n一生懸命アクアに声援を送っている\n\n# textflame 1 1\n# textboxarrow 0 2\n# chara 601721\n@アクア\n…あ！\n\n# textflame 0 0\n@\nその声に反応するように、\n男の子に攻撃を加える一体の異族\n\n# textflame 1 1\n# textboxarrow 0 2\n# chara 601721\n@アクア\n！！\n\n# textflame 0 0\n@\nアクアは男の子に駆け寄り、\nその手をかざした\n\n# textflame 1 1\n# textboxarrow 0 2\n# chara 601721\n# voice 6017 \"akua_0004\"\n# face 601721 \"angry\"\n@アクア\n大丈夫よ！\n女神様が治してあげるから！\n\n# textflame 0 0\n@\n彼女の手から不思議な光が放たれる\nその光を受けると、男の子の傷は\nみるみる塞がるのだった\n\n# se \"SE_0602\"\n# textflame 1 1\n# textboxarrow 0 2\n# chara 601721\n@アクア\n新スキル！\n『ゴッデスセラピー』！！\n\n# textflame 0 0\n@\nしかし、その隙に\n異族の群れに\n囲まれてしまった２人\n\n# textflame 1 1\n# textboxarrow 0 2\n# chara 601721\n# face 601721 \"usual\"\n@アクア\nこ、こうなったら…\n\n# textflame 0 0\n@\n意を決したように彼女が立ち上がる\nとうとう戦う決意を…\n\n# textflame 1 1\n# textboxarrow 0 2\n# chara 601721\n# voice 6017 \"akua_0029\"\n# face 601721 \"angry\"\n@アクア\nはあぁぁぁぁーーーっ！！\n\n# textflame 0 0\n@\n少年を担ぎ、\nものすごい勢いで\n逃げ出すアクア\n\n# serif 1\n# textboxarrow 0 0\n@異族\n…ギ…ギギ…\n\n# serif 1\n# textwindow \"close\"\n# serif 0\n# textwindow \"nomal\"\n# textflame 0 0\n@\n追いつけないと判断したのか、\n馬鹿らしいと思ったのか…とにかく\n異族達は退散していったのだった\n\n# textflame 0 0\n@\nすると男の子も「ありがとう」と\n伝えた後に、残念そうな顔で\nぼそっと一言つぶやき去っていった\n\n# textflame 1 1\n# textboxarrow 0 2\n# chara 601721\n# voice 6017 \"akua_0022\"\n# face 601721 \"irregular\"\n@アクア\nなんだろう、この虚無感…\n私…一生懸命\n頑張ったんですけど…\n\n# textflame 1 1\n# textboxarrow 0 2\n# chara 601721\n@アクア\nなのに、助けた男の子に\n「駄女神」って\n言われたんですけど…\n\n# textflame 0 0\n@\n涙を流しながら放心状態の彼女\n\n# select \"でも、ま…子供は助けられたんだし\" \"select_label_01\" \"こ…子供の傷を治してあげたんだし\" \"select_label_02\" \"取りあえず…結果オーライって事で…\" \"select_label_03\"\n涙を流しながら放心状態の彼女\n\n# label \"select_label_01\"\n# labeljump \"select_label_end\"\n# textflame 1 1\n# textboxarrow 0 2\n# chara 601721\n# face 601721 \"surprise\"\n@アクア\n…そ！そうよ！そうよね！？\n\n# label \"select_label_02\"\n# labeljump \"select_label_end\"\n# textflame 1 1\n# textboxarrow 0 2\n# chara 601721\n# face 601721 \"surprise\"\n@アクア\n…だよね！？すごかったわよね！？\n\n# label \"select_label_03\"\n# labeljump \"select_label_end\"\n# textflame 1 1\n# textboxarrow 0 2\n# chara 601721\n# face 601721 \"surprise\"\n@アクア\n…子供を…救ったんだもんね！？\n\n# label \"select_label_end\"\n# textflame 0 0\n@\n単純なのか、強がりなのか…\nとにかく元気を取り戻したようだ\n\n# textflame 1 1\n# textboxarrow 0 2\n# chara 601721\n# face 601721 \"happy1\"\n@アクア\nどう！？これで私が\n女神だって信じる！？\n\n# textflame 0 0\n@\n信じるよ\n\n# textflame 1 1\n# textboxarrow 0 2\n# chara 601721\n# voice 6017 \"akua_0022\"\n# face 601721 \"surprise\"\n@アクア\nえ？ほ、本当に…？\n\n# textflame 0 0\n@\nスキルもすごかったけど、\n子供を助けた勇気とその優しさは、\nまさに女神様だね\n\n# textflame 1 1\n# textboxarrow 0 2\n# chara 601721\n@アクア\n…！\n\n# textflame 1 1\n# textboxarrow 0 2\n# chara 601721\n# voice 6017 \"akua_0004\"\n# face 601721 \"angry\"\n@アクア\nな、ななななによ！\n急に素直になって…！\n\n# textflame 0 0\n@\n初めて褒められて\n柄にもなく照れるアクアだった\n\n# textflame 1 1\n# textboxarrow 0 2\n# chara 601721\n# voice 6017 \"akua_0009\"\n@アクア\nなによ、もう～！\nほんとは…\n超怖かったんだから～！！\n\n# imageset 0 \"c601721\"\n# imagealpha 0 0 0\n# textflame 1 1\n# textboxarrow 0 2\n# chara 601721\n@アクア\nあんた、助けなさいよ！\nこのダメマスター！！\n\n# imagealpha 0 1 0\n# imagepos 0 0 0 \n# fadein \"white\" 3\n# voice 6017 \"akua_kyara_ex_1002\"\n# textwindow \"close\"\n;;一枚絵ボイス：アクア「あっ、冗談だから！　そんな冷たい目で見ないでー！」」\n"
	}
]