[
	{
		"ID": 60211202,
		"script": ";;【EP2】\n# script \"lisp\"\n# background \"highland\"\n# bgm \"bgm002\" 0\n# body 602111\n# pos 602111 3\n# mask 602111 off\n# alpha 602111 0 0\n# textflame 0 0\n@\n湖のほとりでは、\n隊の姫たちが\n楽しそうに遊んでいる\n\n@\nしかし、リズベットは…\n\n# alpha 602111 1 0.5\n# textflame 1 1\n# textboxarrow 0 2\n# chara 602111\n# voice 6021 \"lizbeth_0002\"\n# face 602111 \"surprise\"\n@リズベット\nねぇ、マスター\nどの国でも、どの世界でも…\n人って分かり合えないものなのかな？\n\n# textflame 0 0\n@\nキラープリンセスが抱く\n悲しき宿命にぶち当たっていた\n\n# textflame 1 1\n# textboxarrow 0 2\n# chara 602111\n# voice 6021 \"lizbeth_0027\"\n# face 602111 \"sad\"\n@リズベット\n分かり合えないのに戦うって…\nキラープリンセスって…\nなんだか虚しいよ\n\n# textflame 0 0\n@\nそんな彼女にマスターが言う\n\n# select \"僕は…君たちを尊敬してるよ\" \"select_label_01\" \"僕は…君たちを仲間だと思ってる\" \"select_label_02\" \"僕は…君たちが大好きだ\" \"select_label_03\"\nそんな彼女にマスターが言う\n\n# face 602111 \"happy\"\n# label \"select_label_01\"\n# labeljump \"select_label_end\"\n# textflame 1 1\n# textboxarrow 0 2\n# chara 602111\n@リズベット\n…そっか、マスターも人間だったね\nあは、忘れてた\n\n# face 602111 \"surprise\"\n# label \"select_label_02\"\n# labeljump \"select_label_end\"\n# textflame 1 1\n# textboxarrow 0 2\n# chara 602111\n@リズベット\n…あ、マスターは人間か\nなのに…仲間だって言ってくれるの？\n\n# face 602111 \"happy\"\n# label \"select_label_03\"\n# labeljump \"select_label_end\"\n# textflame 1 1\n# textboxarrow 0 2\n# chara 602111\n@リズベット\nえ？突然の愛の告白！？\n…あ、マスターは人間じゃん！あは\n\n# face 602111 \"happy\"\n# label \"select_label_end\"\n# textflame 1 1\n# textboxarrow 0 2\n# chara 602111\n# voice 6021 \"lizbeth_0004\"\n@リズベット\nそう思うと…\nマスターって変わってるよね？\n人間なのに♪\n\n# textflame 0 0\n@\nなんだよ、それ\nと、マスターがツッコむ\n\n# textflame 1 1\n# textboxarrow 0 2\n# chara 602111\n# voice 6021 \"lizbeth_0032\"\n@リズベット\nうん…\n分かり合える人もいるってことか\n変わり者だけど♪\n\n@リズベット\n何だかちょっと…\n気が晴れたかも！\n\n# textflame 0 0\n@\nそう言って、\n姫達のもとに駆けていく彼女\n\n@\nみんなとビーチボールバレーに興じる\n\n;;モヤモヤ吹き出し\n# serif 0\n# textwindow \"close\"\n# serif 1\n# textwindow \"moya\"\n# textflame 1 1\n# textboxarrow 0 2\n# chara 602111\n@リズベット\nそうだよね、\nマスターみたいな人も…\n\n# face 602111 \"surprise\"\n# serif 1\n# textwindow \"close\"\n# serif 0\n# textwindow \"nomal\"\n@リズベット\n…あ！\n\n# face 602111 \"happy\"\n# voice 6021 \"lizbeth_0031\"\n@リズベット\nごめ～ん\n\n# textflame 0 0\n@\n飛んで行ったビーチボールを\n取りに行く彼女\n\n@\nそこで…\n\n# face 602111 \"surprise\"\n# textflame 1 1\n# textboxarrow 0 2\n# chara 602111\n# voice 6021 \"lizbeth_0004\"\n@リズベット\nあれ？\nボク、どうしたの？\n\n# face 602111 \"happy\"\n@リズベット\nあ、帽子が湖に飛んじゃったんだ\n待っててね\n\n# textflame 0 0\n@\n魔法で帽子を引き寄せる彼女\n\n# textflame 1 1\n# textboxarrow 0 2\n# chara 602111\n# voice 6021 \"lizbeth_0032\"\n@リズベット\nはい、どうぞ\n\n# textflame 0 0\n@\nすご～い！\nと男の子が喜ぶ\n\n@\nだが…\n\n@\nあなた…\nキラープリンセスなの！？\n\n# face 602111 \"surprise\"\n# textflame 1 1\n# textboxarrow 0 2\n# chara 602111\n# voice 6021 \"lizbeth_0015\"\n@リズベット\n！！\n\n# textflame 0 0\n@\nその様子を見ていた彼の両親が、\n彼女に詰め寄るのだった\n"
	}
]