[
	{
		"ID": 60231201,
		"script": ";;さくら（月初魔法服）【EP1】\n# script \"lisp\"\n# background \"infirmary\"\n# bgm \"bgm002\" 0\n# body 143\n# pos 143 3\n# mask 143 off\n# alpha 143 0 0\n# body 144\n# pos 144 4\n# mask 144 off\n# alpha 144 0 0\n# layer 143 1\n# layer 144 2\n;;さくらボイス用\n# body 602311 0 0\n# alpha 602311 0 0\n# textflame 0 0\n@\nそれは学園で起こる事件を\n解決して回っていた\nある日のこと…\n\n# face 143 \"surprise\"\n# alpha 143 1 0.5\n# textflame 1 1\n# textboxarrow 0 2\n# chara 143\n@さくら\nあ……あれ？\n\n# alpha 144 1 0.5\n# textflame 1 1\n# textboxarrow 0 3\n# chara 144\n@ケロちゃん\nやっと目ぇ覚ましたか\n\n# textflame 1 1\n# textboxarrow 0 3\n# chara 144\n@ケロちゃん\n浄化が終わって\n一件落着かと思ったら\nいきなり倒れたんやで\n\n# face 143 \"sad\"\n# textflame 1 1\n# textboxarrow 0 2\n# chara 143\n@さくら\nケロちゃん…\n\n# textflame 1 1\n# textboxarrow 0 3\n# chara 144\n# voice 9966 \"cckero_g_0015\"\n@ケロちゃん\n何時間も寝たままやから、\n心配したで、ほんま\n\n# textflame 1 1\n# textboxarrow 0 2\n# chara 143\n@さくら\nケロちゃんがここまで\n運んでくれたの…？\n\n# textflame 1 1\n# textboxarrow 0 3\n# chara 144\n@ケロちゃん\nいや、それは…\n\n# textflame 0 0\n@\n大丈夫だった？\n\n# face 143 \"surprise\"\n# textflame 1 1\n# textboxarrow 0 2\n# chara 143\n@さくら\nマ、マスターさん！\n\n# textflame 1 1\n# textboxarrow 0 2\n# chara 143\n@さくら\nマスターさんがここまで\n運んでくれたんだ…？\n\n# textflame 0 0\n@\nビックリしたよ、\n急に倒れたから\n\n# textflame 0 0\n@\nと、マスターが答える\n\n# face 143 \"sad\"\n# textflame 1 1\n# textboxarrow 0 2\n# chara 143\n# voice 60231 \"ccsakura_g_0031\"\n@さくら\nご、ごめんなさい…！\nみんなに迷惑かけちゃって…\n\n# textflame 0 0\n@\n迷惑だなんて思ってないけど…\n相当、疲れてるみたいだね？\n\n# textflame 0 0\n@\n心配そうに尋ねるマスター\n\n# face 143 \"surprise\"\n# textflame 1 1\n# textboxarrow 0 2\n# chara 143\n@さくら\nそ、そんなことないよ！\n\n# textflame 0 0\n@\nと、ベッドから\n起き上がろうとするが、\nすぐさまふらついてしまう\n\n# face 143 \"sad\"\n# textflame 1 1\n# textboxarrow 0 2\n# chara 143\n# voice 60231 \"ccsakura_g_0028\"\n@さくら\nうー、そうかも…\n\n# textflame 1 1\n# textboxarrow 0 3\n# chara 144\n@ケロちゃん\nほら？無理すんなや、さくら\n\n# textflame 1 1\n# textboxarrow 0 3\n# chara 144\n@ケロちゃん\n慣れへん世界でのできごとに\n体力的にも精神的にも相当\n疲れとるはずやろ\n\n# textflame 1 1\n# textboxarrow 0 2\n# chara 143\n# voice 60231 \"ccsakura_g_0027\"\n@さくら\nうぅ～、情けない…\n\n# textflame 0 0\n@\nうぅん、\nがんばってくれてるよ\n\n# textflame 0 0\n@\nマスターが彼女に\n励ましの言葉をかける\n\n# textflame 1 1\n# textboxarrow 0 2\n# chara 143\n@さくら\n………\n\n# textflame 0 0\n@\n…が、マスターの声にも無言のさくら\n\n# textflame 0 0\n@\nどうしたの？\nマスターが尋ねると…\n\n# textflame 1 1\n# textboxarrow 0 2\n# chara 143\n@さくら\nわたし…\nもっと成長したい\n\n# textflame 1 1\n# textboxarrow 0 3\n# chara 144\n@ケロちゃん\nどないしたんや、さくら…？\n\n# textflame 1 1\n# textboxarrow 0 2\n# chara 143\n@さくら\n今のままじゃダメ…\n学園のみんなを守るためには…\n\n# face 143 \"angry\"\n# textflame 1 1\n# textboxarrow 0 2\n# chara 143\n@さくら\nもっと成長しないと…！\n\n# textflame 0 0\n@\n布団を握り締める手に\n力が入るさくらだった"
	}
]