[
	{
		"ID": 60291212,
		"script": ";;-----------------------------------------\n;;エンメル2-1\n;;-----------------------------------------\n# script \"lisp\"\n# background \"forest\"\n# bgmfile \"bgm270\" \"BgmLostRagnarokEvent\" 0\n;;-----------------------------------------\n;;エンメル\n# body 207\n# pos 207 3\n# scale 207 0.8 0\n# layer 207 2\n# alpha 207 1 0\n# mask 207 off\n# body 810004\n# pos 810004 1\n# scale 810004 0.8 0\n# layer 810004 3\n# alpha 810004 0 0\n# reversal 810004 0\n# entry 810099 810004\n# pos 810099 5\n# scale 810099 0.8 0\n# layer 810099 3\n# alpha 810099 0 0\n# entry 810098 810004\n# pos 810098 3\n# scale 810098 0.8 0\n# layer 810098 3\n# alpha 810098 0 0\n;;-----------------------------------------\n;;背景：森の中を進むエンメル\n;;モヤモヤ吹き出し\n# move 207 3 0\n# textboxarrow 0 0\n# textwindow \"moya\"\n# mask 207 off\n# face 207 \"sad\"\n# voice 6029 \"emmer_0027\"\n@エンメル\n…焦っている…か\n\n;;モヤモヤ吹き出し\n# move 207 3 0\n# textboxarrow 0 0\n# textwindow \"moya\"\n# mask 207 off\n@エンメル\n…そうなのかもしれない\n今、私がやるべきことはわかってる\n\n;;モヤモヤ吹き出し\n# move 207 3 0\n# textboxarrow 0 0\n# textwindow \"moya\"\n# mask 207 off\n@エンメル\nマスターを守ること\nその為に戦うこと\n…頭ではわかってる…けど…\n\n;;モヤモヤ吹き出し\n# move 207 3 0\n# textboxarrow 0 0\n# textwindow \"moya\"\n# mask 207 off\n@エンメル\n…どうしても…まだ元の世界の\nことを思い出してしまう…\n…だから…\n\n;;モヤモヤ吹き出し\n# move 207 3 0\n# textboxarrow 0 0\n# textwindow \"moya\"\n# mask 207 off\n@エンメル\nこの世界に馴染めない…\n特定の誰かの為に戦うことに\n抵抗があるのかもしれない\n\n;;モヤモヤ吹き出し\n# move 207 3 0\n# textboxarrow 0 0\n# textwindow \"moya\"\n# mask 207 off\n@エンメル\n…あの世界には…兄さんがいた\nううん、兄さんだけじゃない\n\n;;モヤモヤ吹き出し\n# move 207 3 0\n# textboxarrow 0 0\n# textwindow \"moya\"\n# mask 207 off\n@エンメル\n大切な、人たちが\n\n;;モヤモヤ吹き出し\n# move 207 3 0\n# textboxarrow 0 0\n# textwindow \"moya\"\n# mask 207 off\n@エンメル\n…そして、世界を救うために\n戦っていた\n\n;;モヤモヤ吹き出し\n# move 207 3 0\n# textboxarrow 0 0\n# textwindow \"moya\"\n# mask 207 off\n@エンメル\nでも…今は…\n\n# textwindow \"nomal\"\n# textflame 0 0\n@\n危ない！\nマスターの鋭い声が\nエンメルの耳に届く\n\n# textflame 0 0\n@\n自らの考えに集中していたせいで、\n異族が現れたことに\n気がつかなかったエンメル\n\n# textflame 1 1\n# textboxarrow 0 2\n# face 207 \"angry\"\n@エンメル\n！？\n\n# textflame 0 0\n@\nエンメルが術の詠唱に入るよりも早く\n異族の刃がエンメルを襲う\n\n# fadein \"red\" 0.5\n# textflame 1 1\n# textboxarrow 0 2\n# voice 6029 \"emmer_battle_0005\"\n@エンメル\nくっ！！\n\n# textflame 0 0\n@\n異族の攻撃がエンメルに届こうとする\nその瞬間、体に強い衝撃を感じ…\n気がつくとエンメルは倒れていた\n\n# textflame 0 0\n@\n体を慌てて起こし、振り向くと\nマスターが異族の攻撃を\nその身でギリギリ受け止めている\n\n# textflame 1 1\n# textboxarrow 0 2\n# face 207 \"surprise\"\n# voice 6029 \"emmer_0022\"\n@エンメル\n…！？\nマスター！？\n\n# textflame 0 0\n@\nエンメルは術で異族を倒す\nそして、崩れ落ちるマスターの\n体を受け止めた\n\n# textflame 1 1\n# textboxarrow 0 2\n# face 207 \"angry\"\n@エンメル\nマスター…怪我を…！！\nどうして…！！\n\n# textflame 0 0\n@\nマスターは痛みに顔を歪めながら、\n無理やり笑顔を作り、エンメルに\n語りかけた\n\n# textflame 0 0\n@\n言ったでしょ\n怪我をしたエンメルを守るのは\n自分の役割だ、と\n\n# textflame 1 1\n# textboxarrow 0 2\n# face 207 \"surprise\"\n@エンメル\n……！！\n\n# textflame 0 0\n@\n自分には戦う力はない\nだけど、守られてばかりは嫌だ\n\n# textflame 0 0\n@\n自分はエンメルの\n仲間、なのだから\nと言葉を紡ぐマスター\n\n# textflame 1 1\n# textboxarrow 0 2\n# face 207 \"sad\"\n@エンメル\n…仲間…\n\n# textflame 0 0\n@\n傷の深さからマスターは、\n気を失ってしまう\n\n# textflame 1 1\n# textboxarrow 0 2\n# face 207 \"surprise\"\n# voice 6029 \"emmer_0022\"\n@エンメル\n…！！\nマスター！！！\n\n# textflame 1 1\n# textboxarrow 0 2\n# face 207 \"angry\"\n@エンメル\n…大丈夫\n傷自体はそこまで深くない\n\n;;エンメルの前に現れる異族\n;;更に、異族が現れエンメルとマスターを取り囲む\n# alpha 207 0 0.5\n# alpha 810004 1 0.5\n# alpha 810099 1 0.5\n# alpha 810098 1 0.5\n# textwindow \"close\"\n# waitandnext 1.3\n\n# alpha 207 1 0.5\n# alpha 810004 0 0.5\n# alpha 810099 0 0.5\n# alpha 810098 0 0.5\n# textwindow \"nomal\"\n# textflame 1 1\n# textboxarrow 0 2\n@エンメル\n…ありがとう、マスター\nすぐ、終わらせるわ\n\n# textflame 1 1\n# textboxarrow 0 2\n@エンメル\nキル姫とマスターだからじゃない\n身を呈してまで私を守ってくれた\n…そんなあなただからこそ…\n\n# textflame 1 1\n# textboxarrow 0 2\n@エンメル\n私は、守りたい\n…だから、大丈夫\n\n;;エンメルの体が光り出す\n# fadein \"white\" 1\n# waitandnext 1\n\n# textflame 1 1\n# textboxarrow 0 2\n@エンメル\nあなたは、私が守り抜くから…！！\n\n;;印象的に暗転\n;;バトル\n# fadeout \"black\" 2\n# waitandnext 2"
	}
]