[
	{
		"ID": 6040105,
		"script": ";;【EP3】戦闘前/背景:森\n# script \"lisp\"\n# background \"forest\"\n# bgmfile \"bgm166\" \"BgmPJZero001\" 0\n# body 400151\n# pos 400151 5\n# scale 400151 0.8 0\n# body 100281\n# pos 100281 1\n# scale 100281 0.8 0\n# body 101471\n# pos 101471 3\n# scale 101471 0.8 0\n# body 100161\n# pos 100161 1\n# scale 100161 0.8 0\n# body 500261\n# pos 500261 5\n# scale 500261 0.8 0\n# alpha 400151 0 0\n# alpha 100281 0 0\n# alpha 101471 0 0\n# alpha 100161 0 0\n# alpha 500261 0 0\n# textflame 0 0\n@\nグラトニーとエンヴィが黒奏官の\n下に戻る少し前――\n\n# alpha 400151 1 0.5\n# alpha 101471 1 0.5\n# alpha 100281 1 0.5\n# layer 101471 5\n# voice 40015 \"arutemisu_k_0023\"\n# chara 400151\n# textboxarrow 0 3\n# textflame 1 1\n# face 400151 \"angry\"\n@ラスト\n正気なの、グリード？\n彼らをユグドラシルまで\n向かわせるだなんて\n\n# chara 100281\n# textboxarrow 0 1\n# voice 10028 \"revatein_k_0027\"\n# face 100281 \"sad\"\n@スロウス\n意味わかんない…\n\n# chara 101471\n# textboxarrow 0 2\n# face 101471 \"angry\"\n@グリード\n私は本気よ\nアナタ達も感じたはず…懐かしい\nような怖いような感覚を…\n\n# alpha 100161 1 0.5\n# alpha 100281 0 0.5\n# voice 10016 \"masamune_k_0013\"\n# chara 100161\n# textboxarrow 0 1\n# face 100161 \"sad\"\n@ラース\n確かに拙者も、あの者達の主君から\n何か形容しがたい感覚を覚えた\nしかし、だからといって…\n\n# chara 101471\n# textboxarrow 0 2\n# face 101471 \"normal\"\n@グリード\nこれはマスターのためでもあるわ\n\n# alpha 500261 1 0.5\n# alpha 400151 0 0.5\n# voice 50026 \"furaikugeru_k_0014\"\n# chara 500261\n# textboxarrow 0 3\n# face 500261 \"angry\"\n@プライド\nホワット！？\nそこまで言い切るとか、\nそんな傲慢ノーノーだよ！\n\n# chara 101471\n# textboxarrow 0 2\n# face 101471 \"sad\"\n@グリード\nマスターは何かに縛られている\n私は、ずっとそんな気がしていた…\nアナタ達はどう？\n\n# chara 100161\n# textboxarrow 0 1\n# face 100161 \"sad\"\n@ラース\n…主君が時折、お辛そうな表情を\nされるのには勘づいていた\n\n# chara 500261\n# textboxarrow 0 3\n# voice 50026 \"furaikugeru_k_0013\"\n@プライド\nわたしも…マスターがサァッドな\n顔するのは全然、気持ち良くない…\n\n# alpha 400151 1 0.5\n# alpha 500261 0 0.5\n# textboxarrow 0 3\n# chara 400151\n# face 400151 \"angry\"\n@ラスト\nあのマスターになら、どうにか\nできるって言うの？\n\n# chara 101471\n# textboxarrow 0 2\n# face 101471 \"normal\"\n@グリード\nその可能性はあるわ\nだから、賭けてみたいの\n…無理に協力しろとは言わない\n\n# alpha 100281 1 0.5\n# alpha 100161 0 0.5\n# textboxarrow 0 1\n# chara 100281\n# voice 10028 \"revatein_k_0013\"\n# face 100281 \"sad\"\n@スロウス\nハア…めんどくさい…\nマスターのためじゃなかったら\nやらないんだけど\n\n# textboxarrow 0 3\n# chara 400151\n# 400151 \"sad\"\n@ラスト\n…問題はグラトニーとエンヴィね\nあの二人は力尽くで止めるしか\nなさそう\n\n# chara 101471\n# textboxarrow 0 2\n# voice 10147 \"tyrufing_k_0030\"\n# face 101471 \"happy1\"\n@グリード\nみんな、ありがとう\n５対２なら大丈夫でしょう\n"
	}
]