[
	{
		"ID": 6040108,
		"script": ";;【EP4】戦闘後\n# script \"lisp\"\n# background \"forest\"\n# bgmfile \"bgm162\" \"BgmPJZero001\" 0\n# body 24\n# pos 24 3\n# scale 24 0.8 0\n# body 100221\n# pos 100221 5\n# scale 100221 0.8 0\n# body 100111\n# pos 100111 1\n# scale 100111 0.8 0\n# textflame 1 1\n# textboxarrow 0 2\n# chara 24\n# face 24 \"angry\"\n# face 100111 \"nutual\"\n# layer 24 3\n# layer 100111 2\n# layer 100221 1\n@ティルフィング\nくっ…攻撃が全く届かない…\n\n# textboxarrow 0 3\n# chara 100221\n# voice 1002 \"revatein_0019\"\n# face 100221 \"angry\"\n@レーヴァテイン\nどうなってんの…？\nこっちは三人がかりなのに…\n\n# body 300181\n# pos 300181 3\n# scale 300181 0.8 0\n# alpha 300181 0 0\n# mask 300181 off\n# alpha 100111 1 0.5\n# textboxarrow 0 1\n# chara 100111\n# voice 1001 \"masamune_0017\"\n# face 100111 \"unhappy\"\n@マサムネ\nこれほど力の差があろうとはっ…\n\n# body 300111\n# pos 300111 1\n# scale 300111 0.8 0\n# alpha 300111 0 0\n# body 500211\n# pos 500211 5\n# scale 500211 0.8 0\n# alpha 500211 0 0\n# alpha 300181 1 0.5\n# alpha 24 0 0.5\n# alpha 100221 0 0.5\n# alpha 100111 0 0.5\n# textboxarrow 0 2\n# chara 300181\n# face 300181 \"sad\"\n@エンヴィ\nごめんなさい…あなた達の攻撃を\n簡単に捌いてしまって…\n\n# body 200471\n# pos 200471 1\n# scale 200471 0.8 0\n# alpha 200471 0 0\n# alpha 500211 1 0.5\n# alpha 300111 1 0.5\n# alpha 300181 0 0.5\n# textboxarrow 0 3\n# chara 500211\n# voice 5002 \"furaikugeru_0018\"\n# face 500211 \"surprise\"\n@フライクーゲル\nホワイ！\nこっちは４人がかりなんだよ！？\nこんなのアメイジィング！\n\n# move 300111 3 0.3\n# leftin 200471 0.5\n# layer 500211 1\n# layer 300111 2\n# layer 200471 3\n# alpha 200471 1 0.5\n# textboxarrow 0 2\n# chara 300111\n# voice 3001 \"ronginusu_0016\"\n# face 300111 \"surprise\"\n@ロンギヌス\nキャアアアア！\n\n# body 200411\n# pos 200411 4\n# scale 200411 0.8 0\n# alpha 200411 0 0\n# textboxarrow 0 1\n# chara 200471\n# face 200471 \"surprise\"\n@グラトニー\nまるで手応えがない\nこんなの平らげても\nボクの糧にはならないな\n\n# layer 200411 1\n# alpha 200411 1 0.5\n# alpha 300111 0 0.5\n# alpha 500211 0 0.5\n# textboxarrow 0 3\n# chara 200411\n# voice 2004 \"parashu_0024\"\n# face 200411 \"angry02\"\n@パラシュ\n随分と余裕なんだね！\n\n# body 400131\n# pos 400131 5\n# scale 400131 0.8 0\n# body 300111\n# pos 300111 4\n# scale 300111 0.8 0\n# textboxarrow 0 1\n# chara 200471\n# alpha 400131 0 0\n# face 200471 \"usual\"\n@グラトニー\n君達とは\n目指している高みが違うからね\n\n# move 200471 2 0.3\n# se \"SE_4810\"\n# fadein \"white\" 0.5\n# waitandnext 1\n# textboxarrow 0 1\n# chara 200471\n# face 200471 \"surprise\"\n@グラトニー\n…おっと\n\n# move 200471 1 0.5\n# textboxarrow 0 3\n# chara 400111\n# voice 4001 \"arutemisu_0037\"\n# alpha 200411 0 0.5\n# alpha 400131 1 0.5\n# face 400131 \"angry\"\n@アルテミス\n躱された！\n…いけないっ\n\n# effectbody 100 1 100 10\n# effectstart 100\n# textboxarrow 0 0\n# move 200471 3 0.3\n# shake 0 0.3\n# fadein \"red\" 0.3\n# waitandnext 1\n# face 200471 \"angry\"\n# se \"SE_9019\"\n\n# effectskip 100\n# textboxarrow 0 2\n# chara 200471\n@グラトニー\n遅いよ\n弓は接近されるとオシマイ\nなんだから\n\n# textboxarrow 0 3\n# chara 400131\n# voice 4001 \"arutemisu_0015\"\n# face 400131 \"sad\"\n@アルテミス\nあぐっ…そんな…\n\n# textboxarrow 0 2\n# chara 24\n# voice 1014 \"tyrufing_0049\"\n# mask 24 off\n# alpha 24 1 0.5\n# alpha 400131 0 0.5\n# alpha 200471 0 0.5\n# face 24 \"sad\"\n@ティルフィング\nこのままでは…でも、一体、\nどうしたら…？\n\n# select \"武具の相性を考えるんだ！\" \"select_label_01\" \"戦っている相手をよく見ろ！\" \"select_label_02\" \"君達の持っている武具は何！？\" \"select_label_03\"\nこのままでは…でも、一体、\nどうしたら…？\n\n# label \"select_label_01\"\n# labeljump \"select_label_end\"\n# textflame 1 1\n# textboxarrow 0 2\n# chara 24\n# face 24 \"surprise\"\n@ティルフィング\n相性…そういえば、これって…\n\n# label \"select_label_02\"\n# labeljump \"select_label_end\"\n# textflame 1 1\n# textboxarrow 0 2\n# chara 24\n# face 24 \"surprise\"\n@ティルフィング\n相手を…あ！\n私達、いつの間にか…\n\n# label \"select_label_03\"\n# labeljump \"select_label_end\"\n# textflame 1 1\n# textboxarrow 0 2\n# chara 24\n# face 24 \"surprise\"\n@ティルフィング\n私は剣…ロンギヌスは槍…\nパラシュは…あ！\n\n# textboxarrow 0 2\n# chara 24\n# label \"select_label_end\"\n# face 24 \"mad2\"\n@ティルフィング\nみんな！\nこのままではダメ！\nマスターの指示に従って！"
	}
]