[
	{
		"ID": 610110353,
		"script": ";;-----------------------------------------\n;;第４話「焦燥」戦闘後\n;;-----------------------------------------\n# script \"lisp\"\n# bgm \"bgm004\" 0\n# background \"courtyard\"\n;;-----------------------------------------\n;;MAI\n# body 601911\n# pos 601911 3\n# scale 601911 0.8 0\n# layer 601911 6\n# alpha 601911 0 0\n# mask 601911 off\n;;ティルフィング\n# body 101491\n# pos 101491 3\n# scale 101491 0.8 0\n# layer 101491 3\n# alpha 101491 1 0\n# mask 101491 off\n;;グラム\n# body 116\n# pos 116 2\n# scale 116 0.8 0\n# layer 116 3\n# alpha 116 0 0\n# body 100821\n# pos 100821 3\n# scale 100821 0.8 0\n# layer 100821 3\n# alpha 100821 0 0\n;;アロンダイト\n# body 100751\n# pos 100751 4\n# scale 100751 0.8 0\n# layer 100751 5\n# alpha 100751 0 0\n# body 100711\n# pos 100711 3\n# scale 100711 0.8 0\n# layer 100711 3\n# alpha 100711 0 0\n;;-----------------------------------------\n# subfillrect 0 \"black\" 0 0 0.5\n# brightness 101491 0.5 0\n# textflame 0 0\n@マスター\n…ティルフィング、\n僕の声は、聞こえてる？\n\n# face 101491 \"sad\"\n# voice 10149 \"tyrufing_0025\"\n# textflame 1 1\n# textboxarrow 0 2\n@ティルフィング\nうっ…私は…？\n\n# textflame 0 0\n@マスター\nMAIの黒い霧によって\n異族化しつつある\n\n# textflame 1 1\n# textboxarrow 0 2\n@ティルフィング\nそ、そんな…！\n\n# textflame 0 0\n@マスター\nいや、君は負の感情に、\n自分への怒りに、\n飲まれてしまったんだ\n\n# emotionbody 1001 8 101491 80 250\n# effectpattern 1001 1 0\n# effectstart 1001\n# voice 10149 \"tyrufing_0015\"\n# textflame 1 1\n# textboxarrow 0 2\n@ティルフィング\nウソ…\nみんなを救うどころか\n霧に飲まれるなんて…\n\n# effectskip 1001\n# textflame 0 0\n@マスター\n起きてしまったことは\n変えられない\n\n# bgmfile \"bgm183_story\" \"BgmGakuen003\" 0\n# textflame 0 0\n@マスター\nけれど、未来は違う\n自分を憎むくらいなら、\n誰かの助けを借りればいい\n\n# textflame 0 0\n@マスター\n今の君には仲間がいるんだ\n\n# brightness 101491 0.6 0.5\n# textflame 1 1\n# textboxarrow 0 2\n@ティルフィング\nマスター…\n\n# brightness 101491 0.7 0.5\n# face 101491 \"normal\"\n# textflame 1 1\n# textboxarrow 0 2\n@ティルフィング\n…そうですね、\nその通り…\n今の私には仲間がいる…\n\n# brightness 101491 0.8 0.5\n# face 101491 \"angry\"\n# textflame 1 1\n# textboxarrow 0 2\n@ティルフィング\nありがとうございます\n私は…\n背負いすぎていたようです！\n\n# brightness 101491 0.9 0.5\n# textflame 1 1\n# textboxarrow 0 2\n@ティルフィング\n私一人じゃ勝てない\nでも…\n\n# brightness 101491 1 0.5\n# textflame 1 1\n# textboxarrow 0 2\n@ティルフィング\n今の私は一人じゃない！\nもう負けません！\n\n;;画面が砕ける演出\n# se \"SE_10391\"\n# subfillrect 0 \"black\" 0 0 0\n# fadein \"white\" 1\n# waitandnext 1.2\n\n# emotionbody 1002 1 601911 10 310\n# effectpattern 1002 2 0\n# effectstart 1002\n# alpha 101491 0 0.5\n# alpha 601911 1 0.5\n# face 601911 \"surprise\"\n# voice 6019 \"mai_0023\"\n# textflame 1 1\n# textboxarrow 0 2\n@MAI\nなんか復活してるー！？\nもう一回、闇堕ちして！\n\n# textflame 0 0\n@\nMAIの黒い霧が\nティルフィングを包む\nしかし――\n\n# textflame 0 0\n@\nティルフィングは\n何事もなかったように、\n黒い霧をすり抜けた\n\n# move 101491 4 0\n# alpha 101491 1 0.5\n# move 601911 2 0.5\n# textflame 1 1\n# textboxarrow 0 3\n@ティルフィング\n無駄です…！\nもう二度と、こんな霧に\n飲まれることはありません！\n\n# face 601911 \"angry\"\n# voice 6019 \"mai_0027\"\n# textflame 1 1\n# textboxarrow 0 1\n@MAI\nそうくるわけね…\n\n# se \"SE_6504\"\n# emotionbody 1003 3 601911 10 290\n# effectpattern 1003 1 3\n# effectstart 1003\n# face 601911 \"normal\"\n# textflame 1 1\n# textboxarrow 0 1\n@MAI\nだったら逃げるよ♪\nMAIちゃんは何処にでも\n逃げられるんだし――\n\n# textflame 1 1\n# textboxarrow 0 3\n@ティルフィング\nご自由にどうぞ！\n\n# emotionbody 1004 2 601911 10 290\n# effectpattern 1004 1 1\n# effectstart 1004\n# face 601911 \"surprise\"\n# voice 6019 \"mai_0022\"\n# textflame 1 1\n# textboxarrow 0 1\n@MAI\nへ？\n\n# textflame 1 1\n# textboxarrow 0 3\n@ティルフィング\nどこへ逃げても探します！\n来るなら戦います！\n\n# textflame 1 1\n# textboxarrow 0 3\n@ティルフィング\nあなたが私たちに\n敵意を持つ限り、\nずっと戦い続けます…！\n\n# alpha 101491 0 0.5\n# alpha 601911 0 0.5\n# alpha 100751 1 0.5\n# alpha 116 1 0.5\n# face 100751 \"angry\"\n# voice 1007 \"Arondaito_0003\"\n# textflame 1 1\n# textboxarrow 0 3\n@アロンダイト\n…私もです\nやっと覚悟が決まりました\n\n# face 116 \"usual\"\n# voice 1008 \"guramu_0004\"\n# textflame 1 1\n# textboxarrow 0 1\n@グラム\nもう焦らない\nたとえ永遠にだって、\n戦い続けるよ…！\n\n# alpha 101491 1 0.5\n# alpha 601911 1 0.5\n# alpha 100751 0 0.5\n# alpha 116 0 0.5\n# textflame 1 1\n# textboxarrow 0 3\n@ティルフィング\n私は…いいえ！\n私たちは、\nあなたに決して屈さない！\n\n# textflame 1 1\n# textboxarrow 0 1\n@MAI\n揃いも揃って、\n開き直った目をしてるね\n…時は来たか\n\n# bgmfile \"bgm185\" \"BgmGakuen003\" 0\n# emotionbody 1005 10 601911 60 235\n# effectpattern 1005 3 3\n# effectstart 1005\n# face 601911 \"normal\"\n# textflame 1 1\n# textboxarrow 0 1\n@MAI\nオッケー、追いかけっこは終了！\nもう小細工なし！\n正々堂々と決着つけよう！\n\n# effectskip 1005\n# textflame 1 1\n# textboxarrow 0 1\n@MAI\n場所も時間も指定する！\n私は仲間の異族を全て集めて\nあなた達と戦う！\n\n# textflame 1 1\n# textboxarrow 0 1\n@MAI\n負けたら、能力を封印して、\n地面のずっと奥の方で\n静かに暮らすよ\n\n# se \"SE_6504\"\n# emotionbody 1006 3 601911 10 290\n# effectpattern 1006 1 3\n# effectstart 1006\n# voice 6019 \"mai_0004\"\n# textflame 1 1\n# textboxarrow 0 1\n@MAI\nそれじゃ、またね♪\n\n# textwindow \"close\"\n# alpha 601911 0 0.5\n# se \"SE_0809\"\n# waitandnext 0.8\n\n# alpha 101491 0 0.5\n# textwindow \"nomal\"\n# textflame 0 0\n@\nMAIはいつも通り姿を消した\nそして、その数日後――\n\n# textflame 0 0\n@\n三校それぞれに\nMAI直筆の決闘状が届いた"
	}
]