[
	{
		"ID": 7010025,
		"script": ";;-------------------------------------\n;;塔シナリオ　トライエル　遭遇\n;;-------------------------------------\n# script \"lisp\"\n;;ラファエル\n# body 960031\n# pos 960031 3\n# scale 960031 0.8 0\n# layer 960031 5\n# mask 960031 off\n# alpha 960031 1 0\n;;ミカエル\n# body 960029\n# pos 960029 2\n# scale 960029 0.8 0\n# layer 960029 2\n# mask 960029 on\n# alpha 960029 0 0\n;;ガブリエル\n# body 960030\n# pos 960030 4\n# scale 960030 0.8 0\n# layer 960030 1\n# mask 960030 on\n# alpha 960030 0 0\n;;トライエル（音声なし）\n# body 960032\n# pos 960032 3\n# layer 960030 3\n# mask 960032 off\n# alpha 960032 0 0\n;;◆背景はそのまま-----------------------------------------------\n;;最初だけラファエル、ガブリエル、ミカエルの３人の立ち絵を表示\n# textflame 1 1\n# textboxarrow 0 2\n# voice 9975 \"raphael_battle_0005\"\n# chara 960031\n@ラファエル\n…光をともに\n\n# alpha 960031 0 0.5\n# alpha 960030 1 0.5\n# alpha 960029 1 0.5\n# textflame 1 1\n# textboxarrow 0 0\n# voice 9971 \"gabriel_battle_0005\"\n# voice 9972 \"michael_battle_0005\"\n@ガブリエル、ミカエル\n…光をともに\n\n# textwindow \"close\"\n# mask 960031 on\n# alpha 960031 1 0.5\n# move 960029 1 0.5\n# move 960030 5 0.5\n# waitandnext 0.8\n\n;;３人は消え、トライエルが立ち絵として表示\n# se \"SE_5523\"\n# alpha 960029 0 1.0\n# alpha 960030 0 1.0\n# alpha 960031 0 1.0\n# fadeout \"white\" 1.0\n# waitandnext 1.2\n\n# alpha 960032 1 0\n# fadein \"white\" 1.0\n# waitandnext 1.3\n\n# textwindow \"normal\"\n# se \"SE_5776\"\n# shake 0 0.8\n# subfillrect 1 \"red\" 0.8 0.3 0\n# textflame 1 1\n# textboxarrow 0 2\n# chara 960032\n@トライエル\nここまでたどり着いた\nその恐るべし執念…\n称賛に値します\n\n# textflame 1 1\n# textboxarrow 0 2\n# chara 960032\n@トライエル\n見事です\n\n# textflame 1 1\n# textboxarrow 0 2\n# chara 960032\n@トライエル\nですが…\nそれもこれで終わりです\n\n# textflame 1 1\n# textboxarrow 0 2\n# chara 960032\n@トライエル\nアナタを支えてきた強い心…\nその心に、\n絶対的な絶望を与えましょう\n\n# textflame 1 1\n# textboxarrow 0 2\n# chara 960032\n@トライエル\nそこにいる混ざり者達の最期を\nアナタに突きつける…\n\n# textflame 1 1\n# textboxarrow 0 2\n# chara 960032\n@トライエル\nそれこそが\n最良だと判断しました\n\n;;「%(userName)s」にはユーザー名が入ります\n# se \"SE_5777\"\n# shake 0 0.6\n# subfillrect 1 \"red\" 0.8 0.3 0\n# textflame 1 1\n# textboxarrow 0 2\n# chara 960032\n@トライエル\nさぁ、%(userName)s…\nあなたの旅もこれで終わりです！"
	}
]