[
	{
		"ID": 7010031,
		"script": ";;-------------------------------------\n;;塔シナリオ　ミカエル　遭遇\n;;-------------------------------------\n# script \"lisp\"\n;;-------------------------------------\n;;ミカエル\n# body 3810008\n# pos 3810008 3\n# scale 3810008 0.8 0\n# alpha 3810008 1 0\n# mask 3810008 off\n;;-------------------------------------\n# textflame 1 1\n# textboxarrow 0 2\n@ミカエル\n理想郷へと至る道…\nまだ諦めるわけにはいかない\n\n@ミカエル\n怨嗟の力により舞い戻りし、\n我が身は依然とは比べ物にならない\n力を得ている\n\n@ミカエル\n無駄な足掻きは止め\n投降するのだ\n\n@ミカエル\n…なるほど\n大人しく我が白羽を\n受け入れる気はないようだな\n\n@ミカエ\n…いいだろう\n貴方たちの命は\n我が理想への生贄としよう\n\n@ミカエル\n――これが\n終焉の始まり\n\n# textwindow \"toge\"\n@ミカエル\n矮小なる者たちよ\n永遠に絶望の淵で\n彷徨うがいい！"
	}
]