[
	{
		"ID": 717020101,
		"script": "# script \"lisp\"\n# background \"makabe_gate\"\n# bgmfile \"bgm173\" \"BgmPJZero003\" 0\n# envbody 1501 6 0\n# effectpattern 1501 1 0\n# effectstart 1501\n# body 200471\n# pos 200471 3\n# mask 200471 off\n# body 300181\n# pos 300181 3\n# mask 300181 off\n# alpha 300181 0 0\n# alpha 200471 0 0\n# scale 300181 1.05 0\n# textflame 0 0\n# textsize 34\n# textalign \"center\"\n@\n ついに会した、\n黒き七つの大罪\n\n# fadein \"black\" 0.5\n# se \"SE_5776\"\n# alpha 300181 1 0\n# textsize 24\n# textflame 0 0\n# textalign \"center\"\n# voicedelay 30018 \"ronginusu_k_kyara_0014\" 0.3\n@\n底見えぬ“嫉妬”\n「ロンギヌス」\n[FF0000]大ダメージ+移動不能スキル[-]が強力\n\n# fadein \"black\" 0.5\n# se \"SE_5776\"\n# alpha 300181 0 0\n# alpha 200471 1 0\n# textflame 0 0\n# textalign \"center\"\n# voicedelay 20047 \"parashu_k_unit_0005\" 0.7\n@\n果てなき“暴食”\n「パラシュ」\n[FF0000]連撃+行動不能スキル[-]で喰い尽くす\n\n# fadein \"black\" 1.5\n# se \"SE_9598\"\n# se \"SE_0621\"\n# pos 300181 4\n# move 200471 2 0\n# mask 200471 on\n# mask 300181 on\n# layer 200471 1\n# layer 300181 2\n# alpha 300181 1 0\n# scale 300181 0.85 0\n# scale 200471 0.85 0\n# textflame 0 0\n# textalign \"center\"\n@\n新たなブラックキラーズが\nガチャに登場！\n新たな“黒”の力をその手に！\n\n# fadeout \"black\" 4\n# imageset 1 \"e170201_6\"\n# imagealpha 1 0 0\n# textalign \"center\"\n# waitandnext 4.5\n@\n新たなブラックキラーズが\nガチャに登場！\n新たな“黒”の力をその手に！\n\n# bgm \"stop\"\n# waitandnext 0.1\n\n# effectskip 1501\n# fadein \"white\" 1\n# envbody 1701 8 0\n# effectpattern 1701 1 0\n# effectstart 1701\n# se \"SE_0075\"\n# bgmfile \"bgm193\" \"Bgm3Tcollabo002\" 3\n# background \"mypage_heaven\"\n# imagealpha 1 1 0\n# imagepos 1 0 -35\n# imageset 5 \"e170201_2\"\n# imagealpha 5 0 0\n# imagescale 5 0.35 0\n# imageset 6 \"e170201_1\"\n# imagealpha 6 0 0\n# imagescale 6 0.55 0\n# alpha 200471 0 0\n# alpha 300181 0 0\n# pos 103311 3\n# body 103311\n# mask 103311 off\n# alpha 103311 0 0\n# scale 103311 0.8 0\n# pos 103211 2\n# body 103211\n# alpha 103211 0 0\n# scale 103211 0.8 0\n# pos 401511 4\n# body 401511\n# alpha 401511 0 0\n# scale 401511 0.8 0\n# pos 302311 2\n# body 302311\n# alpha 302311 0 0\n# scale 302311 0.8 0\n# pos 502311 4\n# body 502311\n# alpha 502311 0 0\n# scale 502311 0.8 0\n# textwindow \"nomal\"\n# textflame 0 0\n# textalign \"center\"\n@\nFgG 3タイトルコラボ\n\"誰ガ為に姫は哭く\"\nイベント開催！\n\n# effectskip 1701\n# envbody 2001 11 0\n# effectpattern 2001 2 0\n# effectstart 2001\n# se \"SE_5594\"\n# fadein \"white\" 0.5\n# imagealpha 1 0 0\n# imagealpha 6 1 0\n# imagepos 6 -30 -30\n# alpha 103311 1 0\n# layer 103311 4\n# textflame 0 0\n# textalign \"center\"\n# voicedelay 1033 \"chloe_0029\" 0.5\n@\n[1E90FF]「誰ガ為のアルケミスト」から\n聖剣士「クロエ」[-]が登場！\n[FF0000]守りに秀でた新ジョブ！！[-]\n\n# se \"SE_5594\"\n# fadein \"white\" 0.5\n# imagealpha 6 0 0\n# imagealpha 5 1 0\n# imagepos 5 -10 30\n# alpha 103311 0 0\n# alpha 103211 1 0\n# alpha 401511 1 0\n# rightin 103211 0.5\n# leftin 401511 0.5\n# layer 103211 5\n# layer 401511 4\n# textflame 0 0\n# textsize 32\n# textalign \"center\"\n# voicedelay 4015 \"yuri_0005\" 1.7\n# voice 1032 \"sakura_unit_0008\"\n@\n[FF4500]「シノビナイトメア」[-]からは\n4人のクノイチが参戦！\n\n# se \"SE_5594\"\n# fadein \"white\" 0.5\n# alpha 302311 1 0\n# alpha 502311 1 0\n# alpha 103211 0 0\n# alpha 401511 0 0\n# leftin 502311 0.5\n# rightin 302311 0.5\n# layer 302311 5\n# layer 502311 4\n# textflame 0 0\n# textsize 32\n# textalign \"center\"\n# voicedelay 5023 \"hiiragi_unit_0005\" 0.8\n# voice 3023 \"kikyo_0010\"\n@\n[FF0000]対弓ユニットで活躍！！[-]\n\n# se \"SE_0602\"\n# fadein \"white\" 0.5\n# imagealpha 5 0 0\n# alpha 302311 0 0\n# alpha 502311 0 0\n# move 103311 2 0\n# mask 103311 on\n# move 103211 4 0\n# mask 103211 on\n# alpha 103211 1 0\n# alpha 103311 1 0\n# face 103311 \"angry\"\n# textflame 0 0\n# textsize 24\n# textalign \"center\"\n@\n[FF0000]コラボユニットはガチャ[-]に登場中！\n[FF0000]イベントでは武具を獲得[-]可能！！\nコラボユニットが更に強力に！\n\n# effectskip 2001\n# se \"SE_4780\"\n# fadein \"white\" 0.5\n# pos 24 3\n# body 24\n# scale 24 0.8 0\n# move 103311 1 0\n# alpha 103211 0 0\n# pos 95 5\n# body 95\n# scale 95 0.8 0\n# layer 24 6\n# layer 95 5\n# face 103311 \"smile2\"\n# textflame 0 0\n# textalign \"center\"\n@\n[FF00FF]3タイトル全て[-]の\nコラボイベントクリアで\n挑戦できる新たなクエストが発生\n\n# emotionbody 5000 1 103311 10 310\n# effectpattern 5000 1 0\n# effectstart 5000\n# emotionbody 5001 1 95 10 310\n# effectpattern 5001 1 0\n# effectstart 5001\n# emotionbody 5002 1 24 10 310\n# effectpattern 5002 1 0\n# effectstart 5002\n# textflame 0 0\n# textsize 34\n# face 95 \"surprise\"\n# face 24 \"surprise\"\n# face 103311 \"surprise2\"\n# textalign \"center\"\n# voice 1014 \"tyrufing_0022\"\n# voice 1032 \"sakura_0023\"\n# voice 1033 \"chloe_0022\"\n@\nクリアで…\n\n# effectskip 5000\n# effectskip 5001\n# effectskip 5002\n# se \"SE_4779\"\n# fadein \"black\" 1.5\n# background \"dimensions\"\n# pos 601611 3\n# body 601611\n# mask 601611 off\n# scale 601611 0.9 0\n# layer 601611 5\n# alpha 95 0 0\n# alpha 24 0 0\n# alpha 103311 0 0\n# textsize 30\n# textflame 0 0\n# textalign \"center\"\n@\n[FF0000]限定ユニット[-]が手に入る！\nお見逃しなく！！\n\n"
	}
]