[
	{
		"ID": 717071302,
		"script": "# script \"lisp\"\n# background \"sea_resort_day\"\n# bgmfile \"bgm255\" \"BgmSeaDate\" 0\n# body 2400111\n# pos 2400111 3\n# scale 2400111 0.8 0\n# body 2300311\n# pos 2300311 5\n# scale 2300311 0.8 0\n# body 2101111\n# pos 2101111 1\n# scale 2101111 0.8 0\n# layer 2400111 4\n# layer 2300311 3\n# layer 2101111 2\n# alpha 2400111 0 0\n# alpha 2300311 0 0\n# alpha 2101111 0 0\n# envbody 1000 8 0\n# effectpattern 1000 1 0\n# effectstart 1000\n# fadein \"white\" 3\n# textflame 0 0\n# textalign \"center\"\n# textsize 36\n# se \"SE_4706\"\n@\n海上編ユニット\n今回は13体が\n新登場！\n\n# wait 3\n# body 2300111\n# pos 2300111 3\n# scale 2300111 0.8 0\n# body 2200511\n# pos 2200511 5\n# scale 2200511 0.8 0\n# body 2101211\n# pos 2101211 1\n# scale 2101211 0.8 0\n# layer 2300111 4\n# layer 2200511 2\n# layer 2101211 3\n# alpha 2300111 0 0\n# alpha 2200511 0 0\n# alpha 2101211 0 0\n# se \"SE_0009\"\n# fadein \"white\" 3\n# alpha 2400111 1 0\n# alpha 2300311 1 0\n# alpha 2101111 1 0\n# textalign \"center\"\n@\n光・風・雷属性ガチャ\n\n# wait 3\n# se \"SE_0009\"\n# fadein \"white\" 3\n# move 2101111 4 0\n# alpha 2300111 1 0\n# alpha 2200511 1 0\n# alpha 2101211 1 0\n# alpha 2400111 0 0\n# alpha 2300311 0 0\n# alpha 2101111 0 0\n# textalign \"center\"\n@\n闇・氷・炎属性ガチャ\n2つのガチャでGET!\n\n# imageset 1 \"113002\"\n# imagealpha 1 0 0\n# se \"SE_0016\"\n# fadein \"white\" 1\n# move 2200511 2 0\n# alpha 2101111 1 0\n# alpha 2300111 0 0\n# alpha 2101211 0 0\n# face 2200511 \"smile\"\n# face 2101111 \"smile\"\n# voice 2005 \"mitwumu_0021\"\n# voicedelay 1011 \"excalibur_0021\" 1\n# textalign \"center\"\n# textsize 24\n@\n[FF0000]STEP9まで毎ステップ\n海上編ユニット1体確定！\nおまけも充実！[-]\n\n# se \"SE_2703\"\n# imagepos 1 0 -100\n# imagealpha 1 1 0.5\n# textalign \"center\"\n@\nSTEP10から\nプレゼントが毎ステップ\nおまけでついてくる！\n\n# se \"SE_5677\"\n# textalign \"center\"\n# fadeout \"white\" 2\n# waitandnext 3\n@\nSTEP10から\nプレゼントが毎ステップ\nおまけでついてくる！\n\n# imagealpha 1 0 0\n# bgmfile \"bgm240\" \"BgmSeaEventBattle\" 0\n# body 2100411\n# pos 2100411 5\n# scale 2100411 0.8 0\n# body 2102711\n# pos 2102711 3\n# scale 2102711 0.8 0\n# body 2500111\n# pos 2500111 1\n# scale 2500111 0.8 0\n# layer 2100411 3\n# layer 2102711 4\n# layer 2500111 2\n# alpha 2100411 0 0\n# alpha 2102711 0 0\n# alpha 2500111 0 0\n# alpha 2101111 0 0\n# se \"SE_0624\"\n# background \"sea_resort_night\"\n# fadein \"white\" 3\n# textsize 32\n# textalign \"center\"\n# alpha 2300111 0 0\n# alpha 2200511 0 0\n# alpha 2101211 0 0\n@\n７月プール編\n後半ストーリーも追加！\n\n# wait 3\n# se \"SE_0605\"\n# fadein \"white\" 3\n# background \"sea_fireworks\"\n# alpha 2100411 1 0\n# alpha 2102711 1 0\n# alpha 2500111 1 0\n# face 2100411 \"smile\"\n# face 2102711 \"smile\"\n# face 2500111 \"smile\"\n# voicedelay 1004 \"kusanagi_0021\" 1\n# voice 1027 \"solais_0021\"\n# voicedelay 5001 \"keraunosu_0021\" 2\n# textsize 30\n# textalign \"center\"\n@\nキャンペーン盛りだくさん！\n詳細はお知らせをチェック！\n"
	}
]