[
	{
		"ID": 717071303,
		"script": "# script \"lisp\"\n# background \"sea_beach_day\"\n# bgmfile \"bgm227\" \"BgmSeaEvent\" 0\n# body 2301811\n# pos 2301811 1\n# scale 2301811 0.8 0\n# alpha 2301811 0 0\n# body 2600111\n# pos 2600111 3\n# scale 2600111 0.8 0\n# alpha 2600111 0 0\n# body 2302111\n# pos 2302111 5\n# scale 2302111 0.8 0\n# alpha 2302111 0 0\n# envbody 1000 8 0\n# layer 2600111 4\n# layer 2301811 3\n# layer 2302111 2\n# effectpattern 1000 1 0\n# effectstart 1000\n# fadein \"white\" 3\n# textflame 0 0\n# textalign \"center\"\n# textsize 36\n# se \"SE_4706\"\n@\n海上編ユニット\n一挙に14体が新登場！\n\n# body 2400711\n# pos 2400711 1\n# scale 2400711 0.8 0\n# alpha 2400711 0 0\n# body 2201711\n# pos 2201711 3\n# body 2200411\n# pos 2200411 5\n# scale 2200411 0.8 0\n# alpha 2200411 0 0\n# scale 2201711 0.8 0\n# alpha 2201711 0 0\n# alpha 2600111 1 0\n# alpha 2301811 1 0\n# alpha 2302111 1 0\n# wait 3\n# se \"SE_0009\"\n# fadein \"white\" 3\n# textalign \"center\"\n@\n氷・光・闇属性ガチャ\n\n# body 2102811\n# pos 2102811 4\n# scale 2102811 0.8 0\n# alpha 2102811 0 0\n# alpha 2600111 0 0\n# alpha 2301811 0 0\n# alpha 2302111 0 0\n# alpha 2400711 1 0\n# alpha 2201711 1 0\n# alpha 2200411 1 0\n# layer 2201711 4\n# layer 2400711 3\n# layer 2200411 2\n# wait 3\n# se \"SE_0009\"\n# fadein \"white\" 3\n# textalign \"center\"\n@\n炎・雷・風属性ガチャ\n2つのガチャでGET!\n\n# face 2301811 \"smile\"\n# alpha 2400711 0 0\n# alpha 2201711 0 0\n# alpha 2200411 0 0\n# alpha 2102811 1 0\n# move 2301811 2 0\n# alpha 2301811 1 0\n# se \"SE_0016\"\n# fadein \"white\" 1\n# textalign \"center\"\n# voice 3018 \"forcas_0005\"\n# voicedelay 1028 \"dainsleif_0007\" 1\n@\nSTEP2は[FF0000]2体！[-]\nSTEP8は[FF0000]8体！[-]\n海上編ユニットをGET！\n\n# body 2200311\n# pos 2200311 1\n# scale 2200311 0.8 0\n# alpha 2200311 0 0\n# body 2501711\n# pos 2501711 3\n# scale 2501711 0.8 0\n# alpha 2501711 0 0\n# body 2300611\n# pos 2300611 5\n# scale 2300611 0.8 0\n# alpha 2300611 0 0\n# se \"SE_5677\"\n# textalign \"center\"\n# fadeout \"white\" 2\n# waitandnext 3\n@\nSTEP2は[FF0000]2体！[-]\nSTEP8は[FF0000]8体！[-]\n海上編ユニットをGET！\n\n# fadein \"white\" 1\n# bgmfile \"bgm228\" \"BgmSeaEvent\" 0\n# alpha 2300611 1 0\n# alpha 2200311 1 0\n# alpha 2501711 1 0\n# layer 2501711 4\n# layer 2200311 3\n# layer 2300611 2\n# alpha 2301811 0 0\n# alpha 2102811 0 0\n# se \"SE_0605\"\n# background \"sea_fireworks\"\n# fadein \"white\" 0.5\n# wait3\n# textalign \"center\"\n# voicedelay 2003 \"loveryus_kyara_1005\" 1\n# voice 5017 \"grimoire_0020\"\n@\n新ストーリービーチ編も追加！\nCPも続々登場！\nこの夏もファンキルで遊ぼう！\n"
	}
]