[
	{
		"ID": 718032801,
		"script": "# script \"lisp\"\n# background \"ancient_back\"\n# bgm \"bgm036\" 0\n# buttonsout 0 0\n# textwindow \"nomal\"\n# body 100241\n# pos 100241 3\n# scale 100241 0.8 0\n# mask 100241 off\n# body 100244\n# pos 100244 4\n# scale 100244 1.8 0\n# alpha 100244 0 0\n# mask 100244 off\n# body 3103811\n# pos 3103811 2\n# scale 3103811 0.8 0\n# alpha 3103811 0 0\n# mask 3103811 off\n# body 139\n# pos 139 4\n# scale 139 0.8 0\n# alpha 139 0 0\n# mask 139 off\n# textalign \"center\"\n# textsize 30\n# imageset 1 \"bg_white_circle\"\n# imagealpha 1 0 0\n# imagelayer 1 4\n# imagescale 1 1.2 0\n# imageset 2 \"bg_white_circle\"\n# imagealpha 2 0 0\n# imagelayer 2 5\n# imagescale 2 1.4 0\n# imageset 3 \"bg_white\"\n# imagealpha 3 0 0\n# imagelayer 3 6\n# imagescale 3 1.2 0\n# textflame 0 0\n@\nレーヴァテイン[FF0000]覚醒！[-]\n\n# se \"SE_0539\"\n# textwindow \"close\"\n# imagealpha 3 1 1\n# imagepos 3 0 0\n# waitandnext 1\n\n# alpha 100241 0 0\n# alpha 100244 0.7 0\n# imagealpha 1 1 0\n# imagepos 1 0 0\n# imagealpha 2 1 0\n# imagepos 2 0 0\n# waitandnext 0.1\n\n# imagealpha 3 0 1\n# imagepos 3 0 0\n# move 100244 2 12\n# waitandnext 0.3\n\n# voice 1002 \"revatein_kyara_0020\"\n# waitandnext 2\n\n# imagealpha 3 1 1\n# imagepos 3 0 0\n# waitandnext 1\n\n# alpha 100244 1 0\n# move 100244 3 0\n# scale 100244 0.8 0\n# envbody 1001 11 0\n# effectpattern 1001 2 0\n# effectstart 1001\n# imagealpha 1 0 0\n# imagealpha 2 0 0\n# waitandnext 0.5\n\n# se \"SE_0548\"\n# imagealpha 3 0 1\n# imagepos 3 0 0\n# waitandnext 0.7\n\n# textwindow \"nomal\"\n# textalign \"center\"\n# textsize 27\n@\nイベントクエスト\n「淘汰の彼方に」開催！\n\n# textsize 27\n# textalign \"center\"\n@\n覚醒素材と\nレーヴァテインが最大10体手に入る！\n\n# textsize 27\n# voice 1002 \"revatein_unit_0008\"\n# textflame 1 1\n# textboxarrow 0 2\n@レーヴァテイン\n…私の本気、\n見せてあげよっか…！\n\n# textwindow \"close\"\n# fadeout \"black\" 1\n# waitandnext 1\n\n"
	}
]