[
	{
		"ID": 718052501,
		"script": "# script \"lisp\"\n# background \"ancient_back\"\n# bgm \"bgm036\" 0\n# buttonsout 0 0\n# textwindow \"nomal\"\n# body 200641\n# pos 200641 3\n# scale 200641 0.8 0\n# mask 200641 off\n# body 200644\n# pos 200644 4\n# scale 200644 1.8 0\n# alpha 200644 0 0\n# mask 200644 off\n# body 602411\n# mask 602411 off\n# pos 602411 3\n# scale 602411 0.8 0\n# alpha 602411 0 0\n# textalign \"center\"\n# textsize 30\n# imageset 1 \"bg_white_circle\"\n# imagealpha 1 0 0\n# imagelayer 1 4\n# imagescale 1 1.2 0\n# imageset 2 \"bg_white_circle\"\n# imagealpha 2 0 0\n# imagelayer 2 5\n# imagescale 2 1.4 0\n# imageset 3 \"bg_white\"\n# imagealpha 3 0 0\n# imagelayer 3 6\n# imagescale 3 1.2 0\n# textflame 0 0\n@\n　\nダグダ[FF0000]覚醒！[-]\n\n# se \"SE_0539\"\n# textwindow \"close\"\n# imagealpha 3 1 1\n# imagepos 3 0 0\n# waitandnext 1\n\n# alpha 200641 0 0\n# alpha 200644 0.7 0\n# imagealpha 1 1 0\n# imagepos 1 0 0\n# imagealpha 2 1 0\n# imagepos 2 0 0\n# waitandnext 0.1\n\n# imagealpha 3 0 1\n# imagepos 3 0 0\n# move 200644 2 12\n# waitandnext 0.3\n\n# voice 2006 \"daguda_unit_0008\"\n# waitandnext 2\n\n# imagealpha 3 1 1\n# imagepos 3 0 0\n# waitandnext 1\n\n# alpha 200644 1 0\n# move 200644 3 0\n# scale 200644 0.8 0\n# envbody 1001 11 0\n# effectpattern 1001 2 0\n# effectstart 1001\n# imagealpha 1 0 0\n# imagealpha 2 0 0\n# waitandnext 0.5\n\n# imagealpha 3 0 1\n# imagepos 3 0 0\n# waitandnext 0.4\n\n# se \"SE_0548\"\n# waitandnext 0.3\n\n# textwindow \"nomal\"\n# textalign \"center\"\n# textsize 27\n@\nイベントクエスト\n「淘汰の彼方に」開催！\n\n# textsize 24\n# voice 2006 \"daguda_kyara_0015\"\n# textflame 1 1\n# textboxarrow 0 2\n@ダグダ\nあらあら…また胸が\nおっきくなっちゃうかしら…\n\n# textwindow \"close\"\n# fadeout \"black\" 1\n# waitandnext 1\n\n# bgmfile \"bgm297_298\" \"BgmCUcollabo001\" 0\n# alpha 200644 0 0\n# alpha 602411 1 0\n# effectskip 1001\n# background \"crystal_castle\"\n# waitandnext 0.5\n\n# fadein \"black\" 0.5\n# waitandnext 0.5\n\n# textalign \"center\"\n# textwindow \"nomal\"\n# textflame 0 0\n@\n『Phantom of RE:UNION』\nハイスコアチャレンジ開催\n\n# face 602411 \"smile\"\n# textalign \"center\"\n@\nハイスコア報酬はなんと\n[FF0000]「運のラキドルル」35個！！[-]\n是非手に入れよう！"
	}
]