[
	{
		"ID": 718061401,
		"script": "# background \"ancient_back\"\n# body 3503111\n# buttonsout 0 0\n# bgmfile \"bgm291\" \"BgmLostRagnarokSideStory\" 0\n# pos 3503111 3\n# mask 3503111 off\n# brightness 3503111 0 0\n# scale 3503111 0.8 0\n# alpha 3503111 0 0\n# body 3301011\n# pos 3301011 3\n# mask 3301011 off\n# scale 3301011 0.8 0\n# brightness 3301011 0 0\n# alpha 3301011 0 0\n# textwindow \"close\"\n# fadeout \"white\" 0.1\n# imageset 0 \"kiri_02\"\n# imagelayer 0 3\n# imagealpha 0 0 0\n# imageset 1 \"kiri_02\"\n# imagelayer 1 3\n# imagealpha 1 0 0\n# imageset 2 \"kiri_02\"\n# imagelayer 2 3\n# imagealpha 2 0 0\n# imageset 3 \"kiri_02\"\n# imagelayer 3 3\n# imagealpha 3 0 0\n# imageset 4 \"bg_white\"\n# imagelayer 4 5\n# imagealpha 4 1 0\n# textwindow \"close\"\n# waitandnext 0.1\n\n# se \"SE_9022\"\n# imagealpha 0 1 0\n# imagealpha 1 1 0\n# imagealpha 2 1 0\n# imagealpha 3 1 0\n# imagepos 0 130 -100\n# imagepos 1 130 100\n# imagepos 2 -170 0\n# imagepos 3 -170 200\n# imagepos 4 0 0\n# fadein \"white\" 0.1\n# waitandnext 0.1\n\n# imagemoveto 0 400 0 2\n# imagemoveto 1 400 0 2\n# imagemoveto 2 -400 0 2\n# imagemoveto 3 -400 0 2\n# imagescale 0 3 2\n# imagescale 1 3 2\n# imagescale 2 3 2\n# imagescale 3 3 2\n# imagealpha 0 0 2\n# imagealpha 1 0 2\n# imagealpha 2 0 2\n# imagealpha 3 0 2\n# imagealpha 4 0 2\n# waitandnext 2\n\n# alpha 3503111 1 0.7\n# waitandnext 1.7\n\n# alpha 3503111 0 0.7\n# alpha 3301011 1 0.7\n# waitandnext 1.7\n\n# fadeout \"black\" 0.5\n# waitandnext 0.5\n\n# background \"angel_world\"\n# alpha 3301011 0 0\n# waitandnext 0.5\n\n# fadein \"black\" 0.5\n# waitandnext 0.5\n\n# alpha 3503111 1 0.5\n# textalign \"center\"\n# textwindow \"nomal\"\n# textflame 0 0\n@\nディスラプターズ随一？\n真面目系フロントガンナー\n\n# brightness 3503111 1.0 0.7\n# textalign \"center\"\n# textwindow \"nomal\"\n# textflame 0 0\n@\n[00BFFF]ディスラプターズ[-]\nソロモン・[00BFFF]聖鎖[-]・アテナ\n\n# textflame 1 1\n# textboxarrow 0 2\n# voice 5031 \"solomon_t_unit_0005\"\n# face 3503111 \"happy\"\n@ソロモン\n準備は良い？\nさぁ、答え合わせにいこう\n\n# textwindow \"close\"\n# fadeout \"black\" 0.5\n# waitandnext 0.5\n\n# background \"devil_world\"\n# alpha 3503111 0 0.5\n# waitandnext 0.5\n\n# fadein \"black\" 0.5\n# waitandnext 0.5\n\n# alpha 3301011 1 0.5\n# textalign \"center\"\n# textwindow \"nomal\"\n# textflame 0 0\n@\n血を求め\n戦場で暴れまわる\n血に狂いし殲滅者\n\n# brightness 3301011 1 0.7\n# textalign \"center\"\n# textwindow \"nomal\"\n# textflame 0 0\n@\n[FF0000]＜ドミネイトプラグ＞[-]\nロンゴミアント・\n[FF0000]D. Plug[-]・グラシャラボラス\n\n# voice 330101 \"rhongomiant_a_kyara_0020\"\n# textflame 1 1\n# textboxarrow 0 2\n@ロンゴミアント\nああぁ…\n血が滾ってしまいますっ…\n\n# textwindow \"close\"\n# fadeout \"black\" 0.8\n# waitandnext 0.8\n\n# move 3301011 2 0\n# mask 3301011 on\n# alpha 3503111 1 0\n# move 3503111 4 0\n# mask 3503111 on\n# waitandnext 0.5\n\n# fadein \"black\" 0.8\n# waitandnext 0.8\n\n# textalign \"center\"\n# textwindow \"nomal\"\n# textflame 0 0\n# textsize 21\n@\n７STEP ガチャ登場！\nSTEP1は\n[FF0000]ソロモン、ロンゴミアントどちらか確定！[-]\n"
	}
]