[
	{
		"ID": 719082201,
		"script": ";;-----------------------------------------\n# script \"lisp\"\n# background \"profound\"\n# bgmfile \"bgm314\" \"BgmLostRagnarokBattle005\" 0\n;;-----------------------------------------\n;;nub\n# body 3300411\n# pos 3300411 3\n# scale 3300411 0.8 0\n# layer 3300411 5\n# mask 3300411 off\n# alpha 3300411 0 0\n# brightness 3300411 0 0\n;;yag\n# body 3201711\n# pos 3201711 3\n# scale 3201711 0.8 0\n# layer 3201711 3\n# mask 3201711 off\n# alpha 3201711 0 0\n# brightness 3201711 0 0\n;;miss\n# body 3600611\n# pos 3600611 3\n# scale 3600611 0.8 0\n# layer 3600611 3\n# mask 3600611 off\n# alpha 3600611 0 0\n# brightness 3600611 0 0\n;;masam\n# body 3100111\n# pos 3100111 3\n# scale 3100111 0.8 0\n# layer 3100111 3\n# mask 3100111 off\n# alpha 3100111 0 0\n# brightness 3100111 0 0\n;;miss\n# body 600621\n# pos 600621 3\n# scale 600621 0.8 0\n# layer 600621 3\n# mask 600621 off\n# alpha 600621 0 0\n# body 600625\n# pos 600625 3\n# scale 600625 0.8 0\n# layer 600625 3\n# mask 600625 off\n# alpha 600625 0 0\n;;gurid\n# body 600811\n# pos 600811 3\n# scale 600811 0.8 0\n# layer 600811 3\n# mask 600811 off\n# alpha 600811 0 0\n# body 600814\n# pos 600814 3\n# scale 600814 0.8 0\n# layer 600814 3\n# mask 600814 off\n# alpha 600814 0 0\n;;turr\n# body 600325\n# pos 600325 3\n# scale 600325 0.8 0\n# layer 600325 3\n# mask 600325 off\n# alpha 600325 0 0\n;;-----------------------------------------\n# imageset 0 \"black\"\n# imagealpha 0 0 0\n# imagelayer 0 1\n# imageset 1 \"bg_white_circle\"\n# imagealpha 1 0 0\n# imagepos 1 0 0\n# imagelayer 1 4\n# imagescale 1 1.4 0\n# imageset 2 \"bg_white_circle\"\n# imagealpha 2 0 0\n# imagepos 2 0 0\n# imagelayer 2 5\n# imagescale 2 1.5 0\n;;-----------------------------------------\n# envbody 11111 8 0\n# effectpattern 11111 1 0\n;;-----------------------------------------\n# fadein \"black\" 2\n# textwindow \"close\"\n# waitandnext 3\n\n# move 3201711 2 0\n# mask 3201711 on\n# alpha 3201711 1 0.5\n# move 3300411 4 0\n# mask 3300411 on\n# alpha 3300411 1 0.5\n# se \"SE_1051\"\n# textwindow \"nomal\"\n# textflame 0 0\n# textalign \"center\"\n# textsize 32\n@\nクラスチェンジ開放ユニット\n4体追加！\n\n# alpha 3201711 0 0.5\n# alpha 3300411 0 0.5\n# move 3600611 2 0\n# mask 3600611 on\n# alpha 3600611 1 0.5\n# move 3100111 4 0\n# mask 3100111 on\n# alpha 3100111 1 0.5\n# se \"SE_1051\"\n# textwindow \"nomal\"\n# textflame 0 0\n# textalign \"center\"\n# textsize 32\n@\nクラスチェンジ開放ユニット\n4体追加！\n\n# alpha 3600611 0 0.8\n# alpha 3100111 0 0.8\n# waitandnext 0.8\n# textwindow \"nomal\"\n# textflame 0 0\n# textalign \"center\"\n# textsize 32\n@\nクラスチェンジ開放ユニット\n4体追加！\n\n# brightness 3201711 1 0\n# brightness 3300411 1 0\n# brightness 3600611 1 0\n# brightness 3100111 1 0\n# waitandnext 0.2\n# textwindow \"nomal\"\n# textflame 0 0\n# textalign \"center\"\n# textsize 32\n@\nクラスチェンジ開放ユニット\n4体追加！\n\n# imagealpha 1 1 0.2\n# imagepos 1 0 0\n# move 3300411 3 0\n# mask 3300411 off\n# alpha 3300411 1 0.5\n# face 3300411 \"normal\"\n# effectstart 11111\n# se \"SE_0517\"\n# textwindow \"nomal\"\n# textflame 0 0\n# textalign \"center\"\n# textsize 24\n@\n　\n天沼矛・聖鎖・サハクィエル\n\n# imagealpha 1 0 0\n# imagepos 1 0 0\n# voice 330041 \"amenonuboko_t_kyara_0014\"\n# fadein \"white\" 0.7\n# se \"SE_9040\"\n# textwindow \"nomal\"\n# textflame 0 0\n# textalign \"center\"\n@\nVertex3 開放！\n【 ワルキューレ 】\n\n# imagealpha 1 1 0.2\n# imagepos 1 0 0\n# alpha 3300411 0 0.5\n# move 3201711 3 0\n# mask 3201711 off\n# alpha 3201711 1 0.5\n# face 3201711 \"angry\"\n# se \"SE_0517\"\n# textwindow \"nomal\"\n# textflame 0 0\n# textalign \"center\"\n# textsize 24\n@\n　\nヤグルシ・D. plug・バエル\n\n# imagealpha 1 0 0\n# imagepos 1 0 0\n# voice 320171 \"yagurushi_a_unit_0009\"\n# fadein \"white\" 0.7\n# se \"SE_9040\"\n# textwindow \"nomal\"\n# textflame 0 0\n# textalign \"center\"\n@\nVertex3 開放！\n【 ブラックスミス 】\n\n# imagealpha 1 1 0.2\n# imagepos 1 0 0\n# alpha 3201711 0 0.5\n# move 3600611 3 0\n# mask 3600611 off\n# alpha 3600611 1 0.5\n# se \"SE_0517\"\n# textwindow \"nomal\"\n# textflame 0 0\n# textalign \"center\"\n@\n　\nミストルティン・獣刻・ドリュアス\n\n# imagealpha 1 0 0\n# imagepos 1 0 0\n# face 3600611 \"angry\"\n# voice 360061 \"misutoru_ge_unit_0008\"\n# fadein \"white\" 0.7\n# se \"SE_9040\"\n# textwindow \"nomal\"\n# textflame 0 0\n# textalign \"center\"\n@\n【 ブラストマスター 】\n【 ジェスター 】\n【 グランドセイジ 】\n\n# imagealpha 1 1 0.2\n# imagepos 1 0 0\n# alpha 3600611 0 0.5\n# move 3100111 3 0\n# mask 3100111 off\n# alpha 3100111 1 0.5\n# se \"SE_0517\"\n# textwindow \"nomal\"\n# textflame 0 0\n# textalign \"center\"\n@\n　\nマサムネ・獣刻・ヨルムンガンド\n\n# imagealpha 1 0 0\n# imagepos 1 0 0\n# face 3100111 \"angry\"\n# voice 310011 \"masamune_ge_unit_0009\"\n# fadein \"white\" 0.7\n# se \"SE_9040\"\n# textwindow \"nomal\"\n# textflame 0 0\n# textalign \"center\"\n@\n【 フローズンマスター 】\n【 ホーリーメシア 】\n【 妖刀剣鬼 】\n\n# se \"SE_5535\"\n# fadein \"white\" 0.7\n# face 3600611 \"happy\"\n# face 3300411 \"happy\"\n# face 3100111 \"happy\"\n# face 3201711 \"happy\"\n# voice 330041 \"amenonuboko_t_0005\"\n# voice 310011 \"masamune_ge_0005\"\n# alpha 3100111 0 0\n# move 3300411 4 0\n# mask 3300411 on\n# alpha 3300411 1 0\n# move 3100111 2 0\n# mask 3100111 on\n# alpha 3100111 1 0\n# textwindow \"nomal\"\n# textflame 0 0\n# textalign \"center\"\n# textsize 30\n@\nVertex 3開放ユニットは\n5STEPガチャで\nピックアップ！\n\n# alpha 3100111 0 0\n# alpha 3300411 0 0\n# se \"SE_5535\"\n# fadein \"white\" 0.7\n# voice 320171 \"yagurushi_a_0005\"\n# voice 360061 \"misutoru_ge_0020\"\n# move 3600611 2 0\n# mask 3600611 on\n# alpha 3600611 1 0\n# move 3201711 4 0\n# mask 3201711 on\n# alpha 3201711 1 0\n# textwindow \"nomal\"\n# textflame 0 0\n# textalign \"center\"\n# textsize 30\n@\nおまけでクラスチェンジ素材を\n大量ゲット！\n\n;;暗転大きめ\n# bgm \"stop\"\n# se \"SE_0619\"\n# fadeout \"black\" 1.5\n# waitandnext 1.3\n# textalign \"center\"\n# textsize 30\n@\nおまけでクラスチェンジ素材を\n大量ゲット！\n\n# alpha 3201711 0 0\n# alpha 3600611 0 0\n# effectskip 11111\n# textwindow \"close\"\n# background \"aerial_shoot\"\n# bgm \"bgm036\" 0\n# waitandnext 0.2\n\n# fadein \"black\" 1\n# waitandnext 1.5\n\n# textwindow \"nomal\"\n# textflame 0 0\n# textalign \"center\"\n# textsize 38\n@\n[FF0000]覚醒ユニット[-]\n2体登場！\n\n# imagealpha 1 1 0.5\n# imagepos 1 0 0\n# imagealpha 2 1 0.5\n# imagepos 2 0 0\n# se \"SE_2520\"\n# alpha 600621 1 0.5\n# textflame 0 0\n# textalign \"center\"\n# textsize 36\n@\nミストルティン\n[FF0000]覚醒！[-]\n\n# se \"SE_9182\"\n# fadein \"white\" 0.7\n# alpha 600621 0 0\n# alpha 600625 1 0\n# envbody 1002 11 0\n# effectpattern 1002 2 0\n# effectstart 1002\n# imagealpha 1 0 0\n# imagealpha 2 0 0\n# textalign \"center\"\n# textsize 36\n@\nミストルティン\n[FF0000]覚醒！[-]\n\n# imageset 0 \"black\"\n# imagealpha 0 0 0\n# imagelayer 0 1\n# voice 6006 \"misutoru_unit_0009\"\n# textflame 1 1\n# textsize 24\n# textboxarrow 0 2\n@ミストルティン\n私だって\nこのくらいやれるはず…！\n\n;;暗転挟む\n# imagealpha 0 1 0\n# imagepos 0 0 30\n# imageleftin 0 0.3\n# textwindow \"close\"\n# waitandnext 0.3\n\n# effectskip 1002\n# alpha 600625 0 0\n# waitandnext 0.2\n\n# imagealpha 0 0 0.3\n# imagerightout 0 0.3\n# waitandnext 0.3\n\n# imagealpha 1 1 0.5\n# imagepos 1 0 0\n# imagealpha 2 1 0.5\n# imagepos 2 0 0\n# se \"SE_2520\"\n# alpha 600811 1 0.5\n# textwindow \"nomal\"\n# textflame 0 0\n# textalign \"center\"\n# textsize 36\n@\nグリダヴォル\n[FF0000]覚醒！[-]\n\n# se \"SE_9182\"\n# fadein \"white\" 0.7\n# alpha 600811 0 0\n# alpha 600814 1 0\n# envbody 1002 11 0\n# effectpattern 1002 2 0\n# effectstart 1002\n# imagealpha 1 0 0\n# imagealpha 2 0 0\n# textalign \"center\"\n# textsize 36\n@\nグリダヴォル\n[FF0000]覚醒！[-]\n\n# voice 6008 \"guridavoru_unit_0010\"\n# textflame 1 1\n# textsize 24\n# textboxarrow 0 2\n@グリダヴォル\n油断すると\n痛い目見るわよ！\n\n;;暗転挟む\n# imagealpha 0 1 0\n# imagepos 0 0 30\n# imageleftin 0 0.3\n# textwindow \"close\"\n# waitandnext 0.3\n\n# effectskip 1002\n# alpha 600814 0 0\n# waitandnext 0.2\n\n# imagealpha 0 0 0.3\n# imagerightout 0 0.3\n# waitandnext 0.3\n\n# textwindow \"nomal\"\n# textflame 0 0\n# textalign \"center\"\n# textsize 32\n@\nイベントクエスト\n「淘汰の彼方に」開催！\nさらに…\n\n# se \"SE_2520\"\n# fadein \"white\" 0.7\n# alpha 600325 1 0\n# textflame 0 0\n# textalign \"center\"\n# textsize 36\n@\nテュルソス\n神器登場！\n\n# fadein \"white\" 0.5\n# voice 6003 \"tyurusosu_unit_0008\"\n# textflame 0 0\n# textalign \"center\"\n# textsize 32\n@\n神器探求\n「豊穣杖・テュルソス」開催！\n\n# fadein \"white\" 0.5\n# alpha 600325 0 0\n# textflame 0 0\n# textalign \"center\"\n# textsize 32\n@\n詳しくは\nお知らせをチェック！\n\n;;暗転(大)\n# bgm \"stop\"\n# fadeout \"black\" 2\n# se \"SE_0050\"\n# textwindow \"nomal\"\n# textalign \"center\"\n# textsize 32\n# waitandnext 2\n@\n詳しくは\nお知らせをチェック！"
	}
]