[
	{
		"ID": 780090012,
		"script": "# body 602611\n# pos 602611 3\n# scale 602611 0.8 0\n# alpha 602611 1 0\n# mask 602611 off\n# textflame 1 1\n# textboxarrow 0 2\n# face 602611 \"smile\"\n# voice 6026 \"vier_unit_0012\"\n@フィーア\nさぁいくわよ"
	}
]