[
	{
		"ID": 780100022,
		"script": ";;ロフィア編_決心_戦闘突入時\n# body 602811\n# pos 602811 3\n# scale 602811 0.8 0\n# alpha 602811 1 0\n# mask 602811 off\n# textflame 1 1\n# textboxarrow 0 2\n# face 602811 \"normal\"\n# voice 6028 \"rofia_kyara_0021\"\n@ロフィア\n一流の魔導士は道具を選ばない…知ってた？"
	}
]