[
	{
		"ID": 82019109,
		"script": "# script \"lisp\"\n# background \"Manga_back\"\n# bgm \"stop\"\n# bottonsout 0 0\n# frameout 0 0\n# textwindow \"close\"\n# imageset 0 \"Manga_logo\"\n# imagealpha 0 0 0\n# imagelayer 0 8\n# imageset 1 \"Manga_08_1_0\"\n# imagealpha 1 0 0\n# imagelayer 1 8\n# imagescale 1 0.9 0\n# imageset 2 \"Manga_08_1_1\"\n# imagealpha 2 0 0\n# imagelayer 2 10\n# imagescale 2 0.9 0\n# imageset 3 \"Manga_08_1_2\"\n# imagealpha 3 0 0\n# imagelayer 3 10\n# imagescale 3 0.9 0\n# imageset 4 \"Manga_08_2_0\"\n# imagealpha 4 0 0\n# imagelayer 4 8\n# imagescale 4 0.9 0\n# imageset 5 \"Manga_08_2_1\"\n# imagealpha 5 0 0\n# imagelayer 5 10\n# imagescale 5 0.9 0\n# imageset 6 \"Manga_08_2_2\"\n# imagealpha 6 0 0\n# imagelayer 6 10\n# imagescale 6 0.9 0\n# imageset 7 \"Manga_08_3_0\"\n# imagealpha 7 0 0\n# imagelayer 7 8\n# imagescale 7 0.9 0\n# imageset 8 \"Manga_08_4_0\"\n# imagealpha 8 0 0\n# imagelayer 8 8\n# imagescale 8 0.9 0\n# waitandnext 0.5\n\n;;タイトル\n# se \"SE_0819\"\n# imagealpha 0 1 1\n# imagepos 0 0 0\n\n# imagealpha 0 0 1\n# waitandnext 1.5\n\n;;1コマ\n# bgm \"bgm002\" 0\n# imagealpha 1 1 0.8\n# imagepos 1 0 0\n# waitandnext 1.5\n\n;;セリフ\n# voice 1038 \"yonkoma_4_0001\"\n# waitandnext 0.5\n\n# imagealpha 2 1 0.5\n# imagepos 2 100 0\n# imagemoveto 2 0 0 0.5\n\n;;セリフ\n# voice 1038 \"yonkoma_4_0002\"\n# waitandnext 0.5\n\n# imagealpha 3 1 0.5\n# imagepos 3 -100 0\n# imagemoveto 3 0 0 0.5\n\n;;進む\n# imagealpha 1 0 0.5\n# imagemoveto 1 0 500 0.4\n# imagealpha 2 0 0.5\n# imagemoveto 2 0 500 0.4\n# imagealpha 3 0 0.5\n# imagemoveto 3 0 500 0.4\n# waitandnext 0.4\n\n;;2コマ\n# imagealpha 4 1 0.6\n# imagepos 4 0 -500\n# imagemoveto 4 0 0 0.4\n# waitandnext 0.8\n\n# se \"SE_0825\"\n# waitandnext 0.2\n\n;;セリフ\n# voice 1038 \"yonkoma_4_0003\"\n# waitandnext 0.2\n\n# imagealpha 5 1 0.2\n# imagepos 5 0 0\n\n;;セリフ\n# se \"SE_6500\"\n# voice 1038 \"yonkoma_4_0004\"\n# waitandnext 0.5\n\n# imagealpha 6 1 0.2\n# imagepos 6 0 0\n# imagescale 6 1.1 0\n\n;;進む\n# imagealpha 4 0 0.5\n# imagemoveto 4 0 500 0.4\n# imagealpha 5 0 0.5\n# imagemoveto 5 0 500 0.4\n# imagealpha 6 0 0.5\n# imagemoveto 6 0 500 0.4\n# waitandnext 0.4\n\n;;3コマ\n# bgm \"bgm006\" 0\n# imagealpha 7 1 0.6\n# imagepos 7 0 -500\n# imagemoveto 7 0 0 0.4\n# waitandnext 0.8\n\n;;上書き\n# imageset 1 \"Manga_08_3_1\"\n# imagealpha 1 0 0\n# imagelayer 1 8\n# imagescale 1 0.9 0\n# imageset 2 \"Manga_08_3_2\"\n# imagealpha 2 0 0\n# imagelayer 2 10\n# imagescale 2 0.9 0\n# imageset 3 \"Manga_08_3_3\"\n# imagealpha 3 0 0\n# imagelayer 3 10\n# imagescale 3 0.9 0\n# imageset 4 \"Manga_08_3_4\"\n# imagealpha 4 0 0\n# imagelayer 4 10\n# imagescale 4 0.9 0\n# imageset 5 \"Manga_08_3_5\"\n# imagealpha 5 0 0\n# imagelayer 5 10\n# imagescale 5 0.9 0\n# imageset 6 \"Manga_08_3_6\"\n# imagealpha 6 0 0\n# imagelayer 6 10\n# imagescale 6 0.9 0\n;;セリフ\n# se \"SE_6509\"\n# voice 1038 \"yonkoma_4_0005\"\n# waitandnext 0.5\n\n# imagealpha 1 1 0.2\n# imagepos 1 0 100\n# imagemoveto 1 0 0 0.2\n# waitandnext 2\n\n;;セリフ\n# se \"SE_6509\"\n# voice 1038 \"yonkoma_4_0006\"\n# waitandnext 0.5\n\n# imagealpha 2 1 0.2\n# imagepos 2 0 100\n# imagemoveto 2 0 0 0.2\n\n;;セリフ\n# se \"SE_6509\"\n# voice 1038 \"yonkoma_4_0007\"\n# waitandnext 0.5\n\n# imagealpha 3 1 0.2\n# imagepos 3 0 -100\n# imagemoveto 3 0 0 0.2\n# waitandnext 1.9\n\n;;セリフ\n# se \"SE_6509\"\n# voice 1038 \"yonkoma_4_0008\"\n# waitandnext 0.5\n\n# imagealpha 4 1 0.2\n# imagepos 4 0 -100\n# imagemoveto 4 0 0 0.2\n\n;;セリフ\n# se \"SE_6509\"\n# voice 1038 \"yonkoma_4_0009\"\n# waitandnext 0.5\n\n# imagealpha 5 1 0.2\n# imagepos 5 0 0\n# waitandnext 1.5\n\n;;セリフ\n# se \"SE_6509\"\n# voice 1038 \"yonkoma_4_0010\"\n# waitandnext 0.5\n\n# imagealpha 6 1 0.2\n# imagepos 6 0 0\n\n;;進む\n# imagealpha 7 0 0.5\n# imagemoveto 7 0 500 0.4\n# imagealpha 1 0 0.5\n# imagemoveto 1 0 500 0.4\n# imagealpha 2 0 0.5\n# imagemoveto 2 0 500 0.4\n# imagealpha 3 0 0.5\n# imagemoveto 3 0 500 0.4\n# imagealpha 4 0 0.5\n# imagemoveto 4 0 500 0.4\n# imagealpha 5 0 0.5\n# imagemoveto 5 0 500 0.4\n# imagealpha 6 0 0.5\n# imagemoveto 6 0 500 0.4\n# waitandnext 0.4\n\n;;4コマ\n# imagealpha 8 1 0.6\n# imagepos 8 0 -500\n# imagemoveto 8 0 0 0.4\n# waitandnext 0.8\n\n# imageset 2 \"Manga_08_4_1\"\n# imagealpha 2 0 0\n# imagelayer 2 10\n# imagescale 2 0.9 0\n# imageset 3 \"Manga_08_4_2\"\n# imagealpha 3 0 0\n# imagelayer 3 10\n# imagescale 3 0.9 0\n;;セリフ\n# se \"SE_0826\"\n# voice 1038 \"yonkoma_4_0011\"\n# waitandnext 0.5\n\n# imagealpha 2 1 0.7\n# imagepos 2 0 0\n\n;;セリフ\n# voice 1038 \"yonkoma_4_0012\"\n# waitandnext 0.5\n\n# imagealpha 3 1 0.5\n# imagepos 3 0 100\n# imagemoveto 3 0 0 0.5\n\n# fadeout \"black\" 2\n# waitandnext 2.5"
	}
]