[
	{
		"ID": 900030002,
		"script": "# script \"lisp\"\n# body 960017\n# scale 960017 0.8 0\n# pos 960017 5\n# body 23\n# scale 23 0.8 0\n# pos 23 3\n# face 23 \"angry_2\"\n# body 18\n# scale 18 0.8 0\n# pos 18 1\n# face 18 \"normal_1\"\n# textboxarrow 0 2\n# chara 23\n@ゼロ\nてめえ、何者だ！？\n\n# serif 1\n# textboxarrow 1 3\n# chara 960017\n# voice 8031 \"belphegor_0003\"\n@？？？\n威勢が良いわねぇ、坊や\n私は地上世界を治める悪魔、\nベルフェゴールよ\n\n# body 24\n# scale 24 0.8 0\n# alpha 24 0 0\n# pos 24 1\n# serif 0\n# textboxarrow 0 1\n# chara 18\n# face 18 \"surprise\"\n# voice 9993 \"valyn_prolo_2020\"\n@ヴァリン\nベルフェゴール！？\n嘘でしょっ…七魔王の！？\n\n# alpha 24 1 0.5\n# alpha 18 0 0.5\n# serif 0\n# textboxarrow 0 1\n# chara 24\n# face 24 \"angry\"\n# voice 1014 \"tyrufing_0024\"\n@ティルフィング\nヴァリン、下がって！\n\n# serif 0\n# textboxarrow 0 1\n# chara 24\n# voice 1014 \"tyrufing_0049\"\n@ティルフィング\n彼女は間違いなく、\n地上世界に君臨する七大勢力の\nベルフェゴールです！\n\n# serif 1\n# textboxarrow 1 3\n# chara 960017\n@ベルフェゴール\nあらぁ、そこの女…\n\n# serif 1\n# textboxarrow 1 3\n# chara 960017\n# face 960017 \"smile\"\n# voice 8031 \"belphegor_0033\"\n@ベルフェゴール\n木偶（でく）の制作現場を\n見に来ただけだったけど\n…少し遊んであげるわねぇ"
	}
]