[
	{
		"ID": 90003,
		"script": "# body 3808811\n# pos 3808811 3\n# scale 3808811 1.5 0\n# alpha 3808811 1 0\n# mask 3808811 off\n# textflame 0 0\n@\n深い霧を放ちながら\n魔獣『白鯨』が咆哮をあげる\n\n# se \"SE_7019\"\n# textflame 1 1\n@白鯨\nギィアアアアアアァァー\n\n# textflame 0 0\n@\n怒りのためか\nその瞳は深紅に染まっている\n\n@\n轟きは衝撃を発生させ\nその場にいるもの全ての\n身体を震わせた\n\n@\n分身を生み出す本体\nその巨躯が迫りくる"
	}
]