[
	{
		"ID": 900100305,
		"script": ";;背景：（ビーチ）\n# script \"lisp\"\n# background \"sea_beach_day\"\n# bgmfile \"bgm227\" \"BgmSeaEvent\" 0\n# body 2500811\n# pos 2500811 3\n# scale 2500811 0.8 0\n# alpha 2500811 0 0\n# body 2400111\n# pos 2400111 4\n# scale 2400111 0.8 0\n# alpha 2400111 0 0\n# body 2400711\n# pos 2400711 1\n# scale 2400711 0.8 0\n# alpha 2400711 0 0\n# textflame 0 0\n@\n隊の姫達は海に入り\nビーチバレーや遊泳を楽しむ中、\n一人砂浜で待機しているマスター\n\n# textflame 0 0\n@\nたまの一人はなにをしようか\nそうマスターが考えていた時…\n\n# alpha 2500811 1 0.5\n# voice 5008 \"bashosen_0004\"\n# textflame 1 1\n# alpha 2500811 1 0.5\n# textboxarrow 0 2\n@芭蕉扇\nやっと二人きりになったわね\nあ・な・たっ\n\n# textflame 0 0\n@\nその横にはいつの間にか\n芭蕉扇がいた\n\n# textflame 1 1\n# textboxarrow 0 2\n# face 2500811 \"usual\"\n@芭蕉扇\nみんな海くらいで無邪気なものねー\nじゃあ、私達は\nゆっくり大人の時間を…\n\n# move 2500811 2 0.5\n# alpha 2400111 1 0.5\n# voice 4001 \"arutemisu_0003\"\n# textflame 1 1\n# textboxarrow 0 3\n# face 2400111 \"angry\"\n@アルテミス\nやっぱり、ここにいましたね\n\n# voice 5008 \"bashosen_0007\"\n# textflame 1 1\n# textboxarrow 0 1\n# eye 2500811 \"close\"\n@芭蕉扇\nなーに？\n邪魔しないでもらえる？\n\n# textflame 1 1\n# textboxarrow 0 3\n# face 2400111 \"normal\"\n@アルテミス\nそうはいきません\nあなたがマスターと２人では\nなにをすることやら…\n\n# voice 4001 \"arutemisu_0001\"\n# textflame 1 1\n@アルテミス\nさぁ、マスター\nこちらに来て\n皆とビーチバレーをしましょう\n\n# voice 5008 \"bashosen_0022\"\n# textflame 1 1\n# textboxarrow 0 1\n# face 2500811 \"angry\"\n# eye 2500811 \"normal\"\n@芭蕉扇\nあっ、ちょっと！！\n\n# textflame 0 0\n@\nそう言いながら\nアルテミスが\nマスターの腕を引っ張ると…\n\n# alpha 2400711 1 0.5\n# move 2500811 3 0.5\n# move 2400111 5 0.5\n# textflame 1 1\n# textboxarrow 0 1\n# face 2400711 \"angry\"\n@シェキナー\nまさか…\n芭蕉扇ならともかく\nあなたまで…\n\n# voice 4007 \"shekina_kyara_1002\"\n# textflame 1 1\n@シェキナー\nこれは規則違反です\n許すわけにはいきません！\n\n# voice 4001 \"arutemisu_0022\"\n# textflame 1 1\n# textboxarrow 0 3\n# face 2400111 \"sad\"\n@アルテミス\nシェキナー！？\nち、違います！\nこれは…\n\n# textflame 1 1\n# textboxarrow 0 2\n@芭蕉扇\nその前に、\n私ならともかくって\nどういう意味よ！\n\n# voice 4007 \"shekina_0001\"\n# textflame 1 1\n# textboxarrow 0 1\n@シェキナー\n２人共、言い訳は\nあとで聞かせてもらいます\nではマスター、こちらへ\n\n# voice 5008 \"bashosen_0009\"\n# textflame 1 1\n# textboxarrow 0 2\n@芭蕉扇\nちょっと！\nもしかしてそう言いながら\n抜け駆けするんじゃないでしょうね？\n\n# textflame 1 1\n# textboxarrow 0 3\n@アルテミス\n！！\nもしや、シェキナー…\n\n# voice 4007 \"shekina_0026\"\n# textflame 1 1\n# textboxarrow 0 1\n@シェキナー\n違います！\nそんなわけありません！\n\n# textflame 0 0\n@\n三つ巴の争いになりそうになった時、\n異族がひょこっと現れる\n\n# serif 1\n# textwindow \"toge\"\n# textboxarrow 1 0\n# face 2400111 \"angry\"\n@芭蕉扇・シェキナー・アルテミス\n邪魔しないで！！！\n"
	}
]