[
	{
		"ID": 901090002,
		"script": "# script \"lisp\"\n# background \"park_area\"\n# bgm \"stop\"\n# scale 300111 0.8 0\n# body 300111\n# pos 300111 5\n# scale 1300151 0.8 0\n# body 1300151\n# pos 1300151 1\n# serif 0\n# textflame 1 1\n# textboxarrow 0 3\n# chara 300111\n# face 300111 \"angry\"\n# voice 3001 \"ronginusu_unit_1007\"\n@ロンギヌス\nどうか…安らかな眠りを！\n\n;;ロンギヌス♀が魔獣化ロンギヌス♂を突き刺す。\n# se \"SE_4815\"\n# serif 0\n# textwindow \"close\"\n# fadein \"red\" 1\n# scale 23 0.8 0\n# body 23\n# pos 23 1\n# alpha 23 0 0\n# scale 20 0.8 0\n# body 20\n# pos 20 3\n# alpha 20 0 0\n# scale 18 0.8 0\n# body 18\n# pos 18 5\n# alpha 18 0 0\n\n# alpha 1300151 0 0.5\n\n# serif 1\n# textboxarrow 1 1\n# textboxarrow 0 0\n# rightin 23 0.5\n# rightin 20 0.5\n# rightin 18 0.5\n# alpha 23 1 0.5\n# alpha 20 1 0.5\n# alpha 18 1 0.5\n# alpha 1300151 0 0.5\n# alpha 300111 0 0.5\n# chara 23\n# face 18 \"normal_1\"\n# voice 11002 \"laevateinm_0019\"\n@ゼロ\nやったか…\n\n# bgm \"bgm103\" 0.5\n# serif 0\n# textwindow \"nomal\"\n# textboxarrow 0 2\n# textboxarrow 1 0\n# chara 20\n# voice 9992 \"aska_prolo_1012\"\n@アスカ\nお兄ちゃん…\nどうしてあんな風になっちゃったの…\n\n# serif 1\n# textboxarrow 1 3\n# chara 18\n# face 18 \"sad\"\n# voice 9993 \"valyn_0015\"\n@ヴァリン\n…アスカ…これが、\n獣血を暴走させた\nキラーメイルの末路よ\n\n# serif 1\n# textboxarrow 1 3\n# chara 18\n@ヴァリン\n人類を守るために\n自分を犠牲にした戦士…\n\n# serif 1\n# textboxarrow 1 3\n# chara 18\n@ヴァリン\n彼はアスカを守ることで\n彼の使命を果たしたのよ…\n\n# serif 0\n# textboxarrow 0 2\n# chara 20\n# voice 9992 \"aska_0030\"\n@アスカ\nお兄ちゃん…ありがとう…\n\n# serif 1\n# textboxarrow 1 1\n# scale 2 0.8 0\n# body 2\n# pos 2 5\n# alpha 2 0 0\n# chara 23\n# face 23 \"angry_1\"\n# voice 11002 \"laevateinm_0013\"\n@ゼロ\nどうやら、\n感傷に浸ってる場合でもなさそうだぜ\n\n# bgmfile \"bgm164\" \"BgmPJZero001\" 0\n# serif 0\n# textboxarrow 0 3\n# rightin 2 0.5\n# move 23 1 0.5\n# move 20 3 0.5\n# alpha 2 1 0.5\n# alpha 18 0 0.5\n# chara 2\n# face 2 \"angry\"\n@男２\n…あんた達、ラグナロクだよな？\nさっきのアレはなんだったんだ？\n\n# serif 1\n# textboxarrow 1 0\n@女１\n人間が、人間が魔獣化したわよ！\nなんで！？どうなってるの！？\n\n# serif 0\n# textboxarrow 0 3\n# chara 2\n@男２\nお、お前らも\n魔獣の仲間だったのか！？\n俺達を騙していたのかよ！？\n\n# serif 1\n# textboxarrow 1 2\n# chara 20\n# face 20 \"sad\"\n# voice 9992 \"aska_0024\"\n@アスカ\nひ、ひどい！\nお兄ちゃん達は\n私達を助けてくれたのに…\n\n# serif 0\n# textboxarrow 0 3\n# chara 2\n# face 2 \"sad\"\n@男２\nに…逃げろっ！\n殺されるぞぉっ！\n\n# serif 1\n# textboxarrow 1 0\n@女１\nヒイイイイイッ…\n\n;;人間達が逃げていく。\n# serif 1\n# textwindow \"close\"\n# serif 0\n# textboxarrow 0 3\n# alpha 2 0 0.5\n# move 20 4 0.5\n# move 23 2 0.5\n# chara 20\n# voice 9992 \"aska_0018\"\n@アスカ\n…なんで、なんでなの\n\n# serif 0\n# textboxarrow 0 3\n# chara 20\n# voice 9992 \"aska_0015\"\n@アスカ\n…キラーメイルは私達人類を\n守ってくれる戦士なんでしょ…！？\nなんで…\n\n# serif 1\n# textwindow \"nomal\"\n# textboxarrow 1 1\n# scale 1200641 0.8 0\n# body 1200641\n# pos 1200641 5\n# alpha 1200641 0 0\n# chara 23\n# face 23 \"sad\"\n# voice 11002 \"laevateinm_0007\"\n@ゼロ\nいいんだ、アスカ\nとっくに覚悟していたことだ\n\n# serif 0\n# textboxarrow 0 3\n# move 20 3 0.5\n# move 23 1 0.5\n# rightin 1200641 0.5\n# alpha 1200641 1 0.5\n# chara 1200641\n# face 1200641 \"trouble\"\n# voice 12006 \"dagdam_0028\"\n@ダグダ\nしかし…\nアスカを避難所に\n帰し難くなってしまったな\n\n# serif 1\n# textboxarrow 1 2\n# chara 20\n# face 20 \"normal\"\n# voice 9992 \"aska_prolo_0014\"\n@アスカ\nわたし、みんなといっしょに行く！\n\n;;アスカがダグダにしがみつく。\n# serif 0\n# textboxarrow 0 3\n# textboxarrow 1 0\n# scale 19 0.8 0\n# body 19\n# pos 19 1\n# alpha 19 0 0\n# alpha 18 1 0.5\n# alpha 23 0 0.5\n# move 20 2 0.5\n# move 1200641 3 0.5\n# chara 18\n# face 18 \"surprise\"\n# voice 9993 \"valyn_prolo_1018\"\n@ヴァリン\nちょっと！\nアスカ、なんてこと言ってんの！\n\n# serif 1\n# textboxarrow 1 1\n# alpha 19 1 0.5\n# alpha 20 0 0.5\n# chara 19\n# voice 9992 \"aska_prolo_1017\"\n@アルン\n…そうですね\nお父さんを助け出すまで、\n一緒に行動した方が良さそうです\n\n# serif 0\n# textboxarrow 0 3\n# chara 18\n# voice 9993 \"valyn_0084\"\n@ヴァリン\nアンタまで！？\n\n# serif 1\n# textboxarrow 1 2\n# chara 1200641\n# face 1200641 \"normal_1\"\n# voice 12006 \"dagdam_0013\"\n@ダグダ\nうむ。俺がこの子を守る\nそれでどうだろうか？\n\n# serif 0\n# textboxarrow 0 1\n# textboxarrow 1 0\n# leftin 23 0.5\n# alpha 23 1 0.5\n# alpha 1200641 0 0.5\n# move 19 3 0.5\n# chara 23\n# face 23 \"normal\"\n# voice 11002 \"laevateinm_0004\"\n@ゼロ\n好きにすればいい\nマスターも了承してるんだ\nいいだろ、ヴァリン？\n\n# serif 1\n# textboxarrow 1 3\n# body 24\n# scale 24 0.8 0\n# pos 24 5\n# alpha 24 0 0\n# chara 18\n# face 18 \"angry_1\"\n# voice 9993 \"valyn_0081\"\n@ヴァリン\nちょっと！\nアンタ達は――\n\n# alpha 18 0 0.5\n# textboxarrow 1 0\n\n# serif 0\n# textboxarrow 0 3\n# textboxarrow 1 0\n# alpha 24 1 0.5\n# chara 24\n# voice 1014 \"tyrufing_0046\"\n@ティルフィング\nはい、ヴァリン。チョコレートよ\n\n# alpha 24 0 0.5\n# textboxarrow 0 0\n\n# serif 1\n# textboxarrow 1 3\n# alpha 18 1 0.5\n# chara 18\n# face 18 \"shy\"\n# voice 9993 \"valyn_0052\"\n@ヴァリン\nそんなんで騙されたり…\nふうむ、これはなかなか♪\n…って、もう！\n\n# serif 0\n# textboxarrow 0 2\n# face 19 \"angry\"\n# chara 19\n# face 18 \"trouble\"\n@アルン\nベルフェゴールを倒さずして、\n本当の解決はありません\n\n# serif 0\n# textboxarrow 0 2\n# chara 19\n# voice 9991 \"arun_prolo_1029\"\n@アルン\n皆さん、行きましょう…\nこれ以上、\n悲劇を繰り返させぬために…！\n"
	}
]