[
	{
		"ID": 902060003,
		"script": ";;【戦闘後】\n# script \"lisp\"\n# background \"laboratory_area\"\n# bgm \"bgm031\" 0\n# body 18\n# pos 18 5\n# face 18 \"normal_1\"\n# scale 18 0.8 0\n# body 19\n# pos 19 1\n# alpha 19 0 0\n# scale 19 0.8 0\n# body 960017\n# pos 960017 3\n# face 960017 \"angry\"\n# scale 960017 0.8 0\n# body 23\n# pos 23 1\n# face 23 \"angry_2\"\n# scale 23 0.8 0\n# textflame 1 1\n# textboxarrow 0 1\n# voice 11002 \"laevateinm_ww_movie1_1023\"\n# chara 23\n@ゼロ\nウオオオオッ！ベルフェゴール、\nどうやら『夢の国』との\n接続が切れたようだな\n\n# serif 0\n# textboxarrow 0 1\n# chara 23\n@ゼロ\n回復速度が落ちているじゃねぇか！\n\n# serif 1\n# textboxarrow 1 3\n# face 18 \"angry_1\"\n# voice 9993 \"valyn_0065\"\n# chara 18\n@ヴァリン\nいいわよ、ゼロ！\n一気に倒しなさい！\n\n# serif 0\n# textboxarrow 0 1\n# voice 11002 \"laevateinm_0007\"\n# chara 23\n@ゼロ\n言われるまでもねぇっ！\n\n# alpha 960017 1 0.5\n# serif 1\n# textboxarrow 1 2\n# voice 8031 \"belphegor_0013\"\n# chara 960017\n@ベルフェゴール\nチィッ…\n図に乗るのもいい加減にしなさいよぉ木偶（でく）ぅっ\n\n# voice 11002 \"laevateinm_battle_0001\"\n# serif 0\n# textboxarrow 0 1\n# chara 23\n@ゼロ\nこれで、終わりだあっ！\n\n# serif 1\n# textboxarrow 1 2\n# imageset 0 \"P0_004\"\n# imagealpha 0 0 0\n# imagelayer 0 1\n# face 960017 \"smile\"\n# voice 8031 \"belphegor_0004\"\n# chara 960017\n@ベルフェゴール\n…さあ、それはどうかしらねぇ？\n\n# se \"SE_0632\"\n# fadein \"black\" 1\n# serif 1\n# textwindow \"close\"\n# serif 0\n# textwindow \"close\"\n# imagealpha 0 1 0.5\n# imagepos 0 0 30\n\n# imagealpha 0 0 0.3\n# voice 11002 \"laevateinm_0022\"\n# face 23 \"surprise\"\n# serif 0\n# textwindow \"nomal\"\n# textboxarrow 0 1\n# chara 23\n@ゼロ\nなにっ…？\n\n# textboxarrow 0 0\n# se \"SE_3001\"\n# alpha 23 0 0.3\n\n# voice 9991 \"arun_0044\"\n# leftin 19 0.5\n# alpha 19 1 0.5\n# serif 0\n# face 19 \"angry\"\n# textboxarrow 0 1\n# chara 19\n@アルン\nゼロ！？\nゼロが急に…\n倒れてしまいましたっ…\n\n# serif 1\n# textwindow \"nomal\"\n# textboxarrow 1 3\n# chara 18\n# voice 9993 \"valyn_0084\"\n@ヴァリン\nベルフェゴール…\nアンタ、なにをしたのよっ？\n\n# voice 8031 \"belphegor_0020\"\n# serif 0\n# textboxarrow 0 2\n# chara 960017\n@ベルフェゴール\nアハハハハハハハ！\n大したことじゃないわぁ\n\n# serif 0\n# textboxarrow 0 2\n# chara 960017\n@ベルフェゴール\nこの木偶（でく）も『夢の国』に\n招待してあげたのぉ\n\n# serif 0\n# textboxarrow 0 2\n# chara 960017\n# face 960017 \"amazed\"\n@ベルフェゴール\nあなた達、さっきは随分と\n威勢の良いことを言っていたわねぇ\n\n# serif 0\n# textboxarrow 0 2\n# chara 960017\n@ベルフェゴール\nそれじゃあ\n証明してみせてちょうだいよぉ\n\n# serif 0\n# textboxarrow 0 2\n# chara 960017\n@ベルフェゴール\n怠惰で甘美な夢の中から、\n本当に自力で脱出できるのかぁ\nあなた達には可能なんでしょう？\n\n# serif 0\n# textboxarrow 0 2\n# chara 960017\n# voice 8031 \"belphegor_0004\"\n# face 960017 \"smile\"\n@ベルフェゴール\nウフフフフ…\nどうせ無理でしょうけどねぇ\n\n# serif 0\n# textboxarrow 0 2\n# chara 960017\n# voice 8031 \"belphegor_0005\"\n@ベルフェゴール\n所詮、人間は堕落したがる\n生き物なのだからぁ\n\n# voice 9993 \"valyn_prolo_0012\"\n# voicedelay 9993 \"valyn_ww_movie2_0010\" 0.5\n# face 18 \"surprise\"\n# serif 1\n# textboxarrow 1 3\n# chara 18\n@ヴァリン\nそんなっ…ゼロ！？\nゼローーーっ！\n"
	}
]