[
	{
		"ID": 902100001,
		"script": ";;【魔壁付近】【世田谷美術館付近】\n# script \"lisp\"\n# popupstoryeffect \"Title_All\"\n# background \"makabe_gate\"\n# bgm \"bgm101\" 0\n# body 23\n# pos 23 1\n# scale 23 0.8 0\n# body 19\n# pos 19 3\n# scale 19 0.8 0\n# body 18\n# pos 18 5\n# scale 18 0.8 0\n# face 18 \"normal_1\"\n# textflame 1 1\n# textboxarrow 0 1\n# chara 23\n# face 23 \"angry_1\"\n@ゼロ\n魔壁の一部が扉になった…？\nここを通れば魔壁を\n越えられるってことか\n\n# serif 1\n# textboxarrow 1 2\n# chara 19\n# voice 9991 \"arun_0032\"\n@アルン\n扉の周辺からは\n魔獣が湧き出てきませんね\nこれなら行けそうです\n\n# serif 0\n# textboxarrow 0 1\n# chara 23\n# face 23 \"angry_2\"\n@ゼロ\nよし！\nさっさと先に進むぞっ\n\n# serif 1\n# textboxarrow 1 3\n# chara 18\n# voice 9993 \"valyn_0065\"\n# face 18 \"normal_2\"\n@ヴァリン\nちょっと待って、ゼロ！\n\n# serif 1\n# textboxarrow 1 3\n# chara 18\n@ヴァリン\nティルフィングと一緒に\n調べたいことがあるの\n美術館の中を探索させて\n\n# serif 0\n# textboxarrow 0 1\n# body 24\n# pos 24 5\n# alpha 24 0 0\n# scale 24 0.8 0\n# chara 23\n# voice 11002 \"laevateinm_0023\"\n# face 23 \"angry_1\"\n@ゼロ\nなんだよ、面倒臭ぇな…\n残党狩りか？\n\n# serif 1\n# textboxarrow 1 3\n# rightin 24 0.5\n# alpha 24 1 0.5\n# alpha 18 0 0.5\n# chara 24\n# face 24 \"angry\"\n@ティルフィング\nセフィロト・システムについて、\n考えていたことがあるんです\n\n# serif 1\n# textboxarrow 1 3\n# chara 24\n@ティルフィング\nそれをここで\n試すことができるかもしれません\n\n# serif 0\n# textboxarrow 0 2\n# imageset 0 \"black\"\n# imagealpha 0 0 0\n# imagelayer 0 1\n# chara 19\n# voice 9991 \"arun_0023\"\n# face 19 \"angry\"\n@アルン\nええっ！？\n本当ですかっ？\n\n;;【世田谷美術館地下】\n# serif 0\n# textwindow \"close\"\n# serif 1\n# textwindow \"close\"\n# imagealpha 0 1 0\n# imagepos 0 0 30\n# imageleftin 0 0.5\n\n# imagerightout 0 0.5\n# background \"laboratory_area\"\n# move 24 3 0\n# alpha 19 0 0\n# alpha 18 1 0\n# face 18 \"normal_1\"\n\n# serif 0\n# textwindow \"nomal\"\n# textboxarrow 0 2\n# chara 24\n@ティルフィング\n…やっぱり、ありました\nここだけマナが異常に集中しています\n\n# serif 0\n# textboxarrow 0 2\n# chara 24\n@ティルフィング\nこの特異点を利用すれば一時的に\nセフィロト・システムを稼働できます\n\n# serif 1\n# textwindow \"nomal\"\n# textboxarrow 1 3\n# chara 18\n# voice 9993 \"valyn_0028\"\n# face 18 \"normal_2\"\n@ヴァリン\n天上世界に送り込める人数は、\nどのくらい？\n\n# serif 0\n# textboxarrow 0 2\n# chara 24\n# face 24 \"sad\"\n@ティルフィング\n残念ながら、一人で精一杯です…\n\n# serif 1\n# textboxarrow 1 1\n# chara 23\n# voice 11002 \"laevateinm_0009\"\n# face 23 \"angry_2\"\n@ゼロ\nおい！\n一体、どういうことだっ？\n\n# serif 1\n# textboxarrow 1 1\n# chara 23\n@ゼロ\nセフィロト・システムは\nユグドラシルの根元まで行かないと\n起動できないんじゃなかったのか！？\n\n# serif 0\n# textboxarrow 0 3\n# chara 18\n# face 18 \"normal_1\"\n@ヴァリン\n特異点を見つけたのよ\nユグドラシルは地中深くまで\n広く複雑に根を張っているわ。\n\n# serif 0\n# textboxarrow 0 3\n# chara 18\n@ヴァリン\nその根から漏れるマナが\nたまたま集中して湧き出ている\nポイントが地表に幾つかあるの\n\n# serif 0\n# textboxarrow 0 3\n# chara 18\n# voice 9993 \"valyn_0004\"\n# face 18 \"normal_2\"\n@ヴァリン\nその一つがここってわけ\n\n# serif 0\n# textboxarrow 0 3\n# chara 18\n@ヴァリン\nここからならセフィロト・システムを\n一時的に稼働させるだけの\nマナを得ることができるわ\n\n# serif 0\n# textboxarrow 0 3\n# chara 18\n# face 18 \"trouble\"\n@ヴァリン\nさっきティルが言った通り、\n一人が限界みたいだけど\n\n# serif 1\n# textboxarrow 1 1\n# pos 19 1\n# alpha 23 0 0.5\n# alpha 19 1 0.5\n# chara 19\n# voice 9991 \"arun_0040\"\n@アルン\nそれなら、\nこの先も特異点を探して進めば…\n\n# serif 1\n# textboxarrow 1 1\n# chara 19\n@アルン\nその都度、誰かを天上世界に\n送れるってことですね\n\n# serif 0\n# textboxarrow 0 3\n# chara 18\n# voice 9993 \"valyn_0046\"\n# face 18 \"normal\"\n@ヴァリン\nそういうこと！\nただ、\nキラープリンセスに限られるわ\n\n# serif 0\n# textboxarrow 0 3\n# chara 18\n# face 18 \"trouble\"\n@ヴァリン\nキラーメイルには\n魔獣の血が混じってるから\n天上世界に上がれないの\n\n# serif 0\n# textboxarrow 0 3\n# body 300111\n# pos 300111 3\n# scale 300111 0.8 0\n# alpha 300111 0 0\n# chara 18\n# voice 9993 \"valyn_0028\"\n@ヴァリン\nそれで、誰を送るかなんだけど…\n\n# serif 1\n# textboxarrow 1 2\n# alpha 24 0 0.5\n# alpha 300111 1 0.5\n# chara 300111\n@ロンギヌス♀\n私が…行きますっ…\n\n# serif 0\n# textboxarrow 0 3\n# chara 18\n# voice 9993 \"valyn_0001\"\n# face 18 \"normal_1\"\n@ヴァリン\nヤクモ…\nアンタ、覚悟はできてるのよね？\n\n# serif 1\n# textboxarrow 1 2\n# chara 300111\n# face 300111 \"angry\"\n@ロンギヌス♀\nはい…自信はありませんけど…\nそれで皆さんの\nお役に立てるのならっ…\n\n# serif 0\n# textboxarrow 0 1\n# alpha 19 0 0.5\n# alpha 23 1 0.5\n# chara 23\n# voice 11002 \"laevateinm_0007\"\n# face 23 \"normal\"\n@ゼロ\n決まりだな\n\n# serif 0\n# textboxarrow 0 1\n# chara 23\n# voice 11002 \"laevateinm_prolo_1033\"\n# face 23 \"angry_1\"\n@ゼロ\nヴァリン、\nティルフィング準備は任せた\n俺達は残党を片付ける！"
	}
]