[
	{
		"ID": 905070003,
		"script": ";;7話【戦闘後】\n;;【指定】bgm103\n# script \"lisp\"\n# background \"red_corridor\"\n# bgm \"bgm103\" 0\n# body 44\n# pos 44 5\n# scale 44 0.8 0\n# alpha 44 0 0\n# body 18\n# pos 18 5\n# scale 18 0.8 0\n# face 18 \"normal_1\"\n# body 23\n# pos 23 1\n# scale 23 0.8 0\n# body 24\n# pos 24 3\n# scale 24 0.8 0\n# face 24 \"angry\"\n# textflame 1 1\n# textboxarrow 0 1\n# chara 23\n# face 23 \"angry_1\"\n@ゼロ\n天上世界は神々が支配し、\n地上は悪魔が支配する…\n\n# serif 0\n# textboxarrow 0 1\n# chara 23\n# voice 11002 \"laevateinm_0013\"\n# face 23 \"angry_2\"\n@ゼロ\n勝手なこと決めやがって！\n人間をなんだと思ってやがるんだ！\n\n# serif 1\n# textboxarrow 1 2\n# chara 101411\n@ティルフィング\n神は天上世界で\n理想郷を造り上げようとしています\n神に従う従順な人間だけの理想郷\n\n# serif 1\n# textboxarrow 1 2\n# chara 101411\n# face 24 \"sad\"\n@ティルフィング\nそこに私という存在は\nあってはならない異物でした\n\n# serif 1\n# textboxarrow 1 2\n# chara 101411\n@ティルフィング\nそれでも両親は、\n私を密かに育ててくれました\nただ、それも限界があって…\n\n# serif 1\n# textboxarrow 1 2\n# chara 101411\n@ティルフィング\n私は神の手の届かない場所\n地上世界へと\n逃がされることになったんです\n\n# serif 1\n# textboxarrow 1 2\n# chara 101411\n@ティルフィング\n地上は悪魔が支配しています\n\n# serif 1\n# textboxarrow 1 2\n# chara 101411\n@ティルフィング\n両親は地上に降りる私の身を案じて\nティルフィングのキラーズを\n体内に埋め込んでくれました\n\n# serif 1\n# textboxarrow 1 2\n# chara 101411\n# face 24 \"angry\"\n@ティルフィング\nそのとき父から聞いたんです\n\n# serif 1\n# textboxarrow 1 2\n# chara 101411\n@ティルフィング\n“未来”から来た\n“レーヴァテインの\nキラーズを持つ者”のことを\n\n# serif 1\n# textboxarrow 1 2\n# chara 101411\n@ティルフィング\nその人は私が生まれた直後、\n両親の前に現れて“未来”の\n話をしていったそうです\n\n# serif 1\n# textboxarrow 1 2\n# chara 101411\n# face 24 \"sad\"\n@ティルフィング\n父はその“未来”について\n多くを語りませんでしたが…\n\n# serif 1\n# textboxarrow 1 2\n# chara 101411\n@ティルフィング\n私に宿したこのキラーズは\n私自身だけでなく地上を、\nそしていつか…\n\n# serif 1\n# textboxarrow 1 2\n# chara 101411\n@ティルフィング\n天上世界をも\n救うことになるはずだから\n大切にするよう言いました\n\n# serif 1\n# textboxarrow 1 2\n# chara 101411\n# voice 1014 \"tyrufing_0049\"\n@ティルフィング\n地上に降りた私は、\n魔獣によって酷い目に遭わされている\n人々を何人も見ました\n\n# serif 1\n# textboxarrow 1 2\n# chara 101411\n@ティルフィング\n私一人では魔獣と戦うのも\n限界があって…\n\n# serif 1\n# textboxarrow 1 2\n# chara 101411\n# face 24 \"normal\"\n@ティルフィング\nこれからどうすべきか\n悩んでいたとき、\nヴァリンに出会ったんです\n\n# serif 0\n# textboxarrow 0 3\n# chara 18\n# face 18 \"normal_2\"\n@ヴァリン\nアンタのキラーズを分析することで\nキラーメイルへの、そして\nキラープリンセスへの道が拓けた\n\n# serif 0\n# textboxarrow 0 3\n# chara 18\n# face 18 \"trouble\"\n@ヴァリン\nラグナロクに協力的だったから、\nあえて正体を追及することは\nなかったけど…\n\n# serif 0\n# textboxarrow 0 3\n# chara 18\n# face 18 \"sad\"\n# voice 9993 \"valyn_0027\"\n@ヴァリン\nアンタも色々大変だったのね\n\n# serif 1\n# textboxarrow 1 2\n# chara 101411\n@ティルフィング\nヴァリンが私のキラーズを解析して、\nゼロの実験が成功しました\nそこで私は決意したんです\n\n# serif 1\n# textboxarrow 1 2\n# chara 101411\n# face 24 \"happy2\"\n@ティルフィング\nこれから生まれてくる\n“キラーズを持つ者”を\n守る存在になろうって\n\n# serif 1\n# textboxarrow 1 2\n# chara 101411\n# voice 1014 \"tyrufing_0004\"\n@ティルフィング\nきっとそれが、\n地上だけでなく天上世界を\n救うことにも繋がるはずだから！\n\n# serif 0\n# textboxarrow 0 1\n# chara 23\n# face 23 \"normal\"\n@ゼロ\nそれであんたは、\nヴァリンや俺達を守ってたわけか\n\n# serif 0\n# textboxarrow 0 1\n# chara 23\n# voice 11002 \"laevateinm_0007\"\n@ゼロ\nあんたの親父も、\nもっと詳しく“未来”について\n教えといてくれりゃ良かったのにな\n\n# serif 1\n# textboxarrow 1 2\n# chara 101411\n# face 24 \"sad\"\n@ティルフィング\nなにか理由があったんだと思います…\n\n# serif 1\n# textboxarrow 1 2\n# chara 101411\n# face 24 \"normal\"\n@ティルフィング\nそれに、私は\n多くを語らなかった父に\n感謝しています\n\n# serif 1\n# textboxarrow 1 2\n# chara 101411\n@ティルフィング\n与えられた“使命”ではなく、\n自分の“意思”で皆さんと\n行動を共に出来ているんですから\n\n# serif 0\n# textboxarrow 0 1\n# chara 23\n# voice 11002 \"laevateinm_0013\"\n# face 23 \"sad\"\n@ゼロ\n簡単に言ってくれるぜっ\nおかげで散々、苦労してるってのによ\n\n# serif 1\n# textboxarrow 1 2\n# chara 101411\n@ティルフィング\nゼロ。私は地上で、\n人の持つ“意思”の強さを知りました\n\n# serif 1\n# textboxarrow 1 2\n# chara 101411\n@ティルフィング\n絶望に抗う強い力\nきっと、それこそが\n未来を切り拓く希望なんです！\n\n# serif 0\n# textboxarrow 0 3\n# chara 18\n# face 18 \"normal_2\"\n@ヴァリン\nアタシも誰かの指図通りに\n生きるなんてご免だわ\n\n# serif 0\n# textboxarrow 0 3\n# chara 18\n# voice 9993 \"valyn_0004\"\n# face 18 \"angry_1\"\n@ヴァリン\nエルライトに伝えたっていう\n“未来”もアタシ達が\n自分自身で決めるべきよ！\n\n# serif 0\n# textboxarrow 0 1\n# chara 23\n# voice 11002 \"laevateinm_0027\"\n@ゼロ\n分かった、分かった\nったく、俺だって\n誰かの言いなりになる気はねえよ\n\n# serif 0\n# textboxarrow 0 1\n# chara 23\n# face 23 \"normal\"\n@ゼロ\nで、ヴァリン\nこれからどうする気だ？\n\n# serif 0\n# textboxarrow 0 3\n# chara 18\n# face 18 \"normal_2\"\n@ヴァリン\nまずは、もう一度\nリベリオンに\n天上世界に上がってもらうわ\n\n# serif 1\n# textboxarrow 1 3\n# textboxarrow 0 0\n# alpha 18 0 0.5\n# alpha 44 1 0.5\n# chara 44\n# voice 9979 \"rebellion_0028\"\n@リベリオン\nあれからラグナロク教会が\nどうなってんのか気になるしな\n\n# serif 1\n# textboxarrow 1 3\n# chara 44\n# face 44 \"angry\"\n@リベリオン\nそれに“蝕”のタイミングを\n狙わねえと、俺でも神の監視を\nすり抜けられねえ。時間がねえんだ\n\n# serif 0\n# textboxarrow 0 3\n# textboxarrow 1 0\n# alpha 44 0 0.5\n# alpha 18 1 0.5\n# chara 18\n# voice 9993 \"valyn_0006\"\n# face 18 \"angry_1\"\n@ヴァリン\nそれまでに情報を整理して、\n対策を練るわよ！\n\n# serif 1\n# textboxarrow 1 2\n# chara 101411\n# voice 1014 \"tyrufing_0002\"\n# face 24 \"sad\"\n@ティルフィング\nあのっ…その前に\nアルンのことなんですけど…"
	}
]