[
	{
		"ID": 906020003,
		"script": ";;※戦闘②　攻めてきた魔獣から拠点を防衛\n;;【戦闘後】【研究施設内】\n# script \"lisp\"\n# background \"red_corridor\"\n# bgm \"bgm005\" 0\n# body 44\n# pos 44 5\n# scale 44 0.8 0\n# body 19\n# pos 19 3\n# scale 19 0.8 0\n# body 24\n# pos 24 4\n# scale 24 0.8 0\n# alpha 24 0 0\n# body 23\n# pos 23 2\n# scale 23 0.8 0\n# body 18\n# pos 18 5\n# scale 18 0.8 0\n# alpha 44 0 0\n# alpha 19 0 0\n# alpha 18 0 0\n# serif 0\n# textflame 1 1\n# textboxarrow 0 1\n# chara 23\n# face 23 \"angry_2\"\n# voice 11002 \"laevateinm_ww_movie1_1015\"\n@ゼロ\nおい！みんな無事かっ？\n\n# serif 1\n# textboxarrow 1 3\n# rightin 24 0.5\n# alpha 24 1 0\n# chara 24\n# face 24 \"mad2\"\n@ティルフィング\nゼロ！\n魔獣は追い返せたんですか？\n\n# serif 0\n# textboxarrow 0 1\n# chara 23\n# face 23 \"angry_1\"\n# voice 11002 \"laevateinm_0032\"\n@ゼロ\nひとまずはな\nだが、あいつらどうも\n動きがおかしい…\n\n# voice 11002 \"laevateinm_0028\"\n@ゼロ\nなにかを\n待ってるような気がするんだ\n\n# serif 1\n# textboxarrow 1 2\n# chara 19\n# alpha 19 1 0.5\n# move 23 1 0.5\n# move 24 5 0.5\n# face 19 \"angry\"\n# voice 9991 \"arun_prolo_1005\"\n@アルン\nそれはボクも感じました\n\n# serif 1\n# textboxarrow 1 2\n# chara 19\n# face 19 \"normal\"\n# voice 9991 \"arun_0001\"\n@アルン\nヴァリンさん、\nセフィロト・システムの改良は\nどのくらいで完成しますか？\n\n# serif 0\n# textboxarrow 0 3\n# alpha 18 1 0.5\n# alpha 24 0 0.3\n# chara 18\n# face 18 \"angry_1\"\n@ヴァリン\nもう少しよ！\nアンタ達が魔獣と戦ってる間、\nアタシだって頑張ってたんだから\n\n@ヴァリン\nこれで上手く起動してくれればっ…\n\n# alpha 18 0 0.3\n# alpha 24 1 0.5\n# serif 1\n# textboxarrow 1 3\n# textboxarrow 0 0\n# chara 24\n# face 24 \"sad\"\n# voice 1014 \"tyrufing_0002\"\n@ティルフィング\n…あの、ゼロ\nリベリオンのことなのですけど\n\n# serif 0\n# textboxarrow 0 1\n# chara 23\n# voice 11002 \"laevateinm_kyara_1009\"\n@ゼロ\nあん？ああ、聞いたのか…\nこいつは俺より過酷な\n作戦の実験体になったんだ\n\n@ゼロ\n自分の生命をエネルギーにして、\n意識データをどこにあるかも\n分からねえ天上世界に向けて発信する\n\n# face 23 \"sad\"\n# voice 11002 \"laevateinm_0037\"\n@ゼロ\nっていう無茶苦茶な作戦の、な…\n\n# alpha 24 0 0.3\n# alpha 44 1 0.5\n# serif 1\n# textboxarrow 1 3\n# chara 44\n# face 44 \"irregular\"\n# voice 9979 \"rebellion_0004\"\n@リベリオン\n無茶苦茶なのはお互い様だろ\n\n# serif 1\n# textboxarrow 1 3\n# chara 44\n# voice 9979 \"rebellion_0026\"\n@リベリオン\n魔獣の血肉を埋め込んで\n強化するなんて、\nいつ暴走するかも分からねえのに…\n\n# serif 0\n# textboxarrow 0 2\n# chara 19\n# 9991 \"arun_0022\"\n@アルン\nあれ？\nリベリオンには魔獣の血肉が\n埋め込まれていないんですか？\n\n# serif 1\n# textboxarrow 1 3\n# chara 44\n# face 44 \"normal\"\n# voice 9979 \"rebellion_0003\"\n@リベリオン\nああ、そうだ\n\n# serif 1\n# textboxarrow 1 3\n# chara 44\n@リベリオン\n俺はレーヴァテインの\nキラーズを持ってはいるが、\nここじゃ生身の人間と大差ねえんだよ\n\n# serif 1\n# textboxarrow 1 3\n# face 44 \"irregular\"\n# chara 44\n@リベリオン\nその代わり…天上世界に潜り込める\n…俺だけが\n\n# alpha 44 0 0.3\n# alpha 18 1 0.5\n# serif 0\n# textboxarrow 0 3\n# textboxarrow 1 0\n# face 18 \"normal_1\"\n# chara 18\n@ヴァリン\n天上世界に上がるには\n天上世界のなにかを持っていて\n\n# face 18 \"normal_2\"\n@ヴァリン\nなおかつ魔獣の血肉を\n埋め込まれていない存在\nじゃないといけないのよ\n\n# serif 1\n# textboxarrow 1 2\n# chara 19\n# voice 9991 \"arun_0028\"\n@アルン\n天上世界の…\nキラーズがそれにあたるんですねっ\n\n# serif 1\n# textboxarrow 1 2\n# chara 19\n# face 19 \"angry\"\n# voice 9991 \"arun_0040\"\n@アルン\nだから\nキラープリンセスは上がれるけれど、\nキラーメイルは上がれない…\n\n# serif 1\n# textboxarrow 1 2\n# chara 19\n@アルン\nその例外が\nリベリオンだったということですか\n\n# pos 24 1\n# alpha 23 0 0.3\n# alpha 24 1 0.5\n# serif 0\n# textboxarrow 0 1\n# chara 24\n# voice 1014 \"tyrufing_0015\"\n@ティルフィング\nそんな…彼一人で\n命を削る実験を\n繰り返していただなんてっ…\n\n# alpha 44 1 0.5\n# alpha 18 0 0.3\n# serif 1\n# textboxarrow 1 3\n# chara 44\n# face 44 \"smile\"\n# voice 9979 \"rebellion_0028\"\n@リベリオン\n正直、俺も生きてるのが\n不思議なくらいだぜ…\n\n;;文字小さく\n# serif 1\n# textboxarrow 1 3\n# chara 44\n# face 44 \"sad\"\n# textsize 18\n@リベリオン\nまあ、それもあと少しだ\n\n# alpha 24 0 0.3\n# alpha 23 1 0.5\n# serif 0\n# textboxarrow 0 1\n# chara 23\n# face 23 \"angry_1\"\n# voice 11002 \"laevateinm_0009\"\n@ゼロ\nなにか言ったか？\n\n# pos 18 3\n# alpha 19 0 0.3\n# alpha 18 1 0.5\n# serif 1\n# textboxarrow 1 2\n# textsize 24\n# chara 18\n# face 18 \"smile_2\"\n# voice 9993 \"valyn_0045\"\n@ヴァリン\n出来た！出来たわ！\nちゃんと起動した！\nついに完成よ！\n\n# serif 1\n# textboxarrow 1 2\n# chara 18\n# face 18 \"smile_1\"\n# voice 9993 \"valyn_0006\"\n@ヴァリン\nこれで、\n天上世界の座標だけじゃなく\n時間軸も固定できるわ！"
	}
]