[
	{
		"ID": 91020301,
		"script": ";;●10章2_3戦闘前　背景：泉のほとり、上空\n;;【指定】bgm005\n;;【指定】SE_0637\n;;※エイレーネ像付近。凄まじい轟音とともに、激しい振動に見舞われる大地。\n# script \"lisp\"\n# background \"fountain\"\n# bgm \"bgm005\" 0\n# body 24\n# pos 24 3\n# scale 24 0.8 0\n# body 4\n# pos 4 1\n# scale 4 0.8 0\n# body 0\n# pos 0 2\n# scale 0 0.8 0\n# body 132\n# pos 132 5\n# scale 132 0.8 0\n;;ティルフィングボイス用\n# body 101411\n# alpha 101411 0 0\n# layer 4 1\n# layer 132 2\n# layer 24 4\n# layer 0 5\n# serif 0\n# textwindow \"close\"\n# serif 1\n# textwindow \"close\"\n# face 4 \"angry\"\n# face 24 \"angry\"\n# face 0 \"worry\"\n# face 132 \"usual\"\n# waitandnext 0.1\n\n# se \"SE_0637\"\n# shake 0 0.5\n# voice 9998 \"toto_0025\"\n# serif 0\n# textwindow \"normal\"\n# textflame 1 1\n# textboxarrow 0 1\n@トト\nうわっ！！！\nな、なに…！？\n\n# textboxarrow 0 2\n@ティルフィング\n！！\nあれは…\n\n# textboxarrow 0 1\n@デュリン\nユグドラシルから煙が…っ！！\n\n# textboxarrow 0 1\n@デュリン\nラファエルが、\n破壊にかかってるんだわ！！\n\n# textboxarrow 0 3\n@エイレーネ\n『…大丈夫\n…心配いりません』\n\n# textboxarrow 0 1\n@トト\nで、でも…\n世界の初期化が\n始まっちゃうんでしょ…！？\n\n# face 132 \"normal\"\n# textboxarrow 0 3\n@エイレーネ\n『いいえ…\nあのユグドラシルを破壊しても…\nなにも起きはしません…』\n\n# face 0 \"serious\"\n# textboxarrow 0 1\n@デュリン\n…？\nどういうこと…？\n\n# face 132 \"usual\"\n# face 0 \"serious2\"\n# textboxarrow 0 3\n@エイレーネ\n『あそこにそびえているのは…\n巨大な世界樹…』\n\n# imageset 1 \"yggdrasill\"\n# imagealpha 1 0 0\n# imagelayer 1 2\n# imageset 2 \"yggdrasill\"\n# imagealpha 2 0 0\n# imagelayer 2 3\n# body 960031\n# pos 960031 3\n# scale 960031 0.8 0\n# alpha 960031 0 0\n# layer 960031 25\n# mask 960031 off\n# face 960031 \"surprise\"\n# textboxarrow 0 3\n@エイレーネ\n『それ以上でも以下でも\nありませんから…』\n\n# imagepos 1 0 -600\n# imagescale 1 1.2 0\n# imagescale 2 2 0\n# imagepos 2 -200 -1000\n# face 24 \"surprise\"\n# voice 1014 \"tyrufing_0022\"\n# textboxarrow 0 2\n@ティルフィング\nえ…？\n\n;;※再び、ユグドラシル。煙を上げるユグドラシルを前にしているラファエル。\n# fadeout \"black\" 1.5\n# waitandnext 2\n\n# alpha 0 0 0\n# alpha 24 0 0\n# alpha 4 0 0\n# alpha 132 0 0\n# imagealpha 1 1 0\n# waitandnext 0.1\n\n# fadein \"black\" 1\n# textflame 0 0\n@\nその頃…\n世界樹ユグドラシル\n\n# imagealpha 2 1 0.5\n# alpha 960031 1 0.5\n# textflame 1 1\n# textboxarrow 0 2\n@ラファエル\n『これは…\nただの大樹…！？』\n\n# voice 9975 \"raphael_0023\"\n# textboxarrow 0 2\n@ラファエル\n『まさか…\nいったい、どういうことです…！？』\n\n;;※煙を上げながら、ザワザワと葉を揺らすユグドラシルを見つめるラファエル。\n# face 960031 \"worry\"\n# textboxarrow 0 2\n@ラファエル\n『ユグドラシルが…この世界を\n制御する巨大頭脳であることに、\n間違いはない…』\n\n# textboxarrow 0 2\n@ラファエル\n『事実…\nその化身も、\n存在しているのですから…』\n\n;;※ハッとした表情を浮かべるラファエル。\n# face 960031 \"surprise\"\n# voice 9975 \"raphael_0022\"\n# textboxarrow 0 2\n@ラファエル\n『化身…？\n！！』\n\n# textboxarrow 0 2\n@ラファエル\n『…そうか\n…そういうことですか！』\n\n;;※ザワザワと葉を揺らすユグドラシルを見つめるラファエル。\n# textboxarrow 0 2\n@ラファエル\n『まさか、\nこのような策が\n施してあろうとは…』\n\n# face 960031 \"angry\"\n# textboxarrow 0 2\n@ラファエル\n『ユグドラシル…\nアナタは、\nなんと狡猾なのでしょう…』\n\n# textboxarrow 0 2\n@ラファエル\n『世に散らばる、アナタの化身…\nその者達に…』\n\n# textboxarrow 0 2\n@ラファエル\n『アナタの頭脳…\nそしてその意志が、\n分散されているのですね！』\n\n;;※再び…エイレーネ像付近。\n# fadeout \"black\" 1.5\n# waitandnext 2\n\n# imagealpha 1 0 0\n# imagealpha 2 0 0\n# alpha 960031 0 0\n# face 4 \"normal\"\n# face 24 \"normal\"\n# face 0 \"serious\"\n# waitandnext 0.1\n\n# fadein \"black\" 1\n# textflame 0 0\n@\nエルフレストの泉\n\n# alpha 0 1 0.5\n# alpha 24 1 0.5\n# alpha 4 1 0.5\n# alpha 132 1 0.5\n# textflame 1 1\n# textboxarrow 0 1\n@デュリン\n巨大頭脳としてのユグドラシルの\n意志が…世のマスター達に\n分散されている…！？\n\n# face 0 \"serious2\"\n# textboxarrow 0 3\n@エイレーネ\n『その通りです…』\n\n# textboxarrow 0 3\n@エイレーネ\n『ゆえに…\nあの大樹を破壊したところで…\nなにも起きはしないのです…』\n\n# select \"ユグドラシルの意志が…俺の中に…\" \"select_label_01\" \"俺は…分散したユグドラシルの一人…\" \"select_label_01\"\n『ゆえに…\nあの大樹を破壊したところで…\nなにも起きはしないのです…』\n\n# label \"select_label_01\"\n# face 4 \"smile01\"\n# textboxarrow 0 1\n@トト\nそうか！\n\n# textboxarrow 0 1\n@トト\nだから、%(userName)sの\n周りには結界が\n張られていたんだ！！\n\n# face 132 \"sad\"\n# face 4 \"normal\"\n# textboxarrow 0 3\n@エイレーネ\n『ですが…\nそれも一時の猶予でしか\nありません…』\n\n# textboxarrow 0 3\n@エイレーネ\n『ラファエル達はすぐに気付き…\n彼らを捜しに来ることでしょう…』\n\n# face 132 \"usual\"\n# textboxarrow 0 3\n@エイレーネ\n『その時は…\nわかりますね…？』\n\n# face 24 \"angry\"\n# textboxarrow 0 2\n@ティルフィング\n…私が、\nマスターを守ります\n\n# textboxarrow 0 3\n@エイレーネ\n『ええ…\n…愛しき娘よ』\n\n# textboxarrow 0 3\n@エイレーネ\n『…アナタなら、必ずや大事な人を…\nアナタを必要とする二つの世界を、\n守り抜くことができるはず』\n\n# textboxarrow 0 3\n@エイレーネ\n『エルライトは、それを願い…』\n\n# textboxarrow 0 3\n@エイレーネ\n『幼きアナタに、\n“聖剣ティルフィング”のキラーズを\n埋め込んだのですから…』\n\n# face 24 \"surprise\"\n# face 0 \"worry\"\n# voice 1014 \"tyrufing_0022\"\n# textboxarrow 0 2\n@ティルフィング\nえ…！？\n\n# textboxarrow 0 1\n@デュリン\nエルライトが、\nキラーズを埋め込んだ…！？\nどうして…！？\n\n# textboxarrow 0 3\n@エイレーネ\n『…“聖剣ティルフィング”は、\n持ち主を勝利へ導く剣と\n言われています』\n\n# textboxarrow 0 3\n@エイレーネ\n『そのキラーズこそ…\n愛しき娘に与えるにふさわしいと、\nエルライトは考えたのです』\n\n# textboxarrow 0 1\n@デュリン\nで、でも、待って！\n\n# textboxarrow 0 1\n@デュリン\n“聖剣ティルフィング”には、\n怖ろしい呪いが\n込められているはずじゃ…！？\n\n# face 4 \"angry\"\n# face 24 \"sad\"\n# textboxarrow 0 1\n@トト\n呪い…！？\nなんだよ、それ！？\n\n# face 0 \"serious\"\n# textboxarrow 0 1\n@デュリン\n確かに“聖剣ティルフィング”は、\n持ち主に勝利をもたらすと\n言われている…\n\n# textboxarrow 0 1\n@デュリン\nでも、その反面…\n\n# textboxarrow 0 1\n@デュリン\n土の精の呪いが剣に込められていて、\n三度願いをえると持ち主に\n死をもたらすと言われているのよ…！\n\n# face 0 \"serious2\"\n# textboxarrow 0 1\n@トト\nそんな…！？\n\n# face 132 \"normal\"\n# textboxarrow 0 3\n@エイレーネ\n『その通りです…』\n\n# face 132 \"usual\"\n# textboxarrow 0 3\n@エイレーネ\n『その呪いの怖ろしさを\n理解した上で、我々は娘に\nそのキラーズを託したのです』\n\n# face 0 \"worry\"\n# textboxarrow 0 1\n@デュリン\nそんな…\nどうして！？\n\n# face 4 \"normal\"\n# textboxarrow 0 3\n@エイレーネ\n『それは…\n言うなれば、我々の覚悟…』\n\n# textboxarrow 0 3\n@エイレーネ\n『まだ見ぬ未来への、\n我々の決意の表れに\n他なりません』\n\n# face 0 \"serious2\"\n# textboxarrow 0 2\n@ティルフィング\n決意…？\n\n# textboxarrow 0 3\n@エイレーネ\n『“地上世界”と“天上世界”…\n二つの世界を救うという、\n二つの願い…』\n\n# textboxarrow 0 3\n@エイレーネ\n『その願いが叶えられた暁には…\n決して、\n同じ過ちを繰り返させはしない…』\n\n# textboxarrow 0 3\n@エイレーネ\n『三度目の悲劇を導くことは、\n決してあってはならないという決意が\nそこに込められているのです』\n\n# face 24 \"normal\"\n# textboxarrow 0 2\n@ティルフィング\n！！\nお母さん…\n\n# imageset 3 \"bg_white\"\n# imagealpha 3 0 0\n# imagelayer 3 4\n# textboxarrow 0 3\n@エイレーネ\n『だからこそ…私は自信をもって、\nアナタに告げることが\nできるのです…』\n\n# imagepos 3 0 30\n# face 132 \"normal\"\n# textboxarrow 0 3\n@エイレーネ\n『愛しき娘よ…アナタなら…\n必ずや大事な人を…\n守り抜くことができる…はず…と…』\n\n;;※おぼろげになってゆくエイレーネの姿。\n# alpha 132 0.8 0.5\n# face 24 \"sad\"\n# face 0 \"worry\"\n# face 4 \"angry\"\n# textboxarrow 0 1\n@デュリン\n！？\nエ、エイレーネ様…！？\n身体が…っ！！\n\n# textboxarrow 0 1\n@トト\nき、消えかかってるよ！？\n\n# textboxarrow 0 2\n@ティルフィング\nお母さんっ…\n\n;;【指定】Bgm3Tcollabo002 bgm198\n;;※ティルフィングに穏やかに微笑みかけるエイレーネ。\n# bgmfile \"bgm198\" \"Bgm3Tcollabo002\" 0\n# textboxarrow 0 3\n@エイレーネ\n『こうして、\nアナタと再会することができて…\n私は、幸せです…』\n\n# textboxarrow 0 3\n@エイレーネ\n『本当に…\n立派になりましたね…』\n\n# textboxarrow 0 2\n@ティルフィング\nお、お母さん！\n;;※ティルフィングの瞳に涙が滲む。その姿を見つめていたエイレーネがボソリと呟く。\n\n# imageset 4 \"mov2_1\"\n# imagealpha 4 0 0\n# imagelayer 4 5\n# imagescale 4 1.2 0\n# textboxarrow 0 3\n@エイレーネ\n『ごめんなさい…』\n\n# imagepos 4 0 200\n# textboxarrow 0 2\n@ティルフィング\nえ…？\n\n;;【指定】SE_9115 1.5秒後　SE_5517\n;;【指定】BGM　停止\n;;※エイレーネを包んでいた柔らかな光が、その頭上に集まり…やがて光の球体に変化。\n# se \"SE_9115\"\n# sedelay \"SE_5517\" 1.5\n# bgm \"stop\"\n# imagealpha 3 0.3 1.5\n# face 4 \"normal\"\n# textboxarrow 0 1\n@トト\nなに、あれ…？\n光の玉が…\n\n;;【指定】bgm000\n# bgm \"bgm000\" 0\n# textboxarrow 0 3\n@エイレーネ\n『私は…\n最後の最後まで、\n世の理に反し続け…』\n\n# textboxarrow 0 3\n@エイレーネ\n『とても、顔向けのできる\n生き方ではありません…』\n\n# textboxarrow 0 3\n@エイレーネ\n『ですが…\nこの選んできた道筋に…』\n\n# textboxarrow 0 3\n@エイレーネ\n『ただの一片の曇りもないと、\n私は断言できるのです…』\n\n;;【指定】SE_9173\n;;※みるみる巨大化してゆく光の球体。\n# imagealpha 3 0.5 1\n# se \"SE_9173\"\n# textboxarrow 0 3\n@エイレーネ\n『世の神々よ…\n子を想う母親の身勝手と…\nどうか、お許しください…』\n\n;;※突如…ドンッと天高く突きぬけてゆく光の玉。\n# face 0 \"normal\"\n# imagealpha 3 0 0.5\n# textboxarrow 0 1\n@デュリン\nわっ…！？\nな、なに…！？\n\n;;【指定】SE_9127\n;;※空高く消えた光の玉…やがて、一瞬、空全体がカッとまたたく。\n# serif 0\n# textwindow \"close\"\n# imagealpha 4 1 0.2\n# imagealpha 3 1 0.3\n# imagemoveto 4 0 -200 0.3\n# waitandnext 0.3\n\n# se \"SE_9127\"\n# fadein \"white\" 0.5\n# imagealpha 3 0 0\n# shake 1 0.5\n# alpha 0 0 0\n# alpha 4 0 0\n# move 24 2 0\n# move 132 4 0\n# face 24 \"surprise\"\n# waitandnext 1.2\n\n# imagealpha 4 0 0.5\n# serif 0\n# textwindow \"normal\"\n# textboxarrow 0 1\n@ティルフィング\n！？\nこれは…？\n\n# textboxarrow 0 3\n@エイレーネ\n『アナタが大事な仲間を守れるよう…\nささやかな“魔法”をかけました…』\n\n# face 24 \"normal\"\n# textboxarrow 0 1\n@ティルフィング\n魔法…？\n\n# textboxarrow 0 3\n@エイレーネ\n『アナタの力が無ければ、\nすべて叶うことはありませんでした』\n\n# textboxarrow 0 3\n@エイレーネ\n『感謝のしようも\nありません』\n\n# select \"は…！？\" \"select_label_02\" \"お、俺は、なにも…！？\" \"select_label_02\"\n『感謝のしようも\nありません』\n\n# label \"select_label_02\"\n# voice 9976 \"eirene_0005\"\n# textboxarrow 0 3\n@エイレーネ\n『ふふ…』\n\n;;※ティルフィングに優しく語りかけるエイレーネ。\n# textboxarrow 0 3\n@エイレーネ\n『娘よ…\n心配いりません…』\n\n# textboxarrow 0 3\n@エイレーネ\n『分散されたままのアナタの記憶も…\nやがて、必ず一つになる時が\n来ます…』\n\n# face 0 \"serious2\"\n# face 24 \"surprise\"\n# textboxarrow 0 1\n@ティルフィング\nえ…？\n\n# move 0 2 0\n# move 4 4 0\n# alpha 24 0 0.5\n# alpha 132 0 0.5\n# alpha 0 1 0.5\n# alpha 4 1 0.5\n# textboxarrow 0 1\n@デュリン\n…？\n統合はまだ、\n完全に果たされていないってこと…？\n\n# alpha 24 1 0.5\n# alpha 132 0.8 0.5\n# alpha 0 0 0.5\n# alpha 4 0 0.5\n# textboxarrow 0 3\n@エイレーネ\n『ええ…それがなされれば…\nこの者のココロの声に、完全に\n呼応することができましょう…』\n\n# textboxarrow 0 3\n@エイレーネ\n『その暁には…逸話通り、\n完全なる勝利が\nもたらされるはずです』\n\n# alpha 24 0 0.5\n# alpha 132 0 0.5\n# alpha 0 1 0.5\n# alpha 4 1 0.5\n# textboxarrow 0 3\n@トト\nココロの声…？\n\n# face 0 \"serious\"\n# textboxarrow 0 1\n@デュリン\n！！\nバイブス…？\n\n# textboxarrow 0 1\n@デュリン\nマスターのバイブスと、\n完全に共鳴できるようになるって\n言ってるの…？\n\n# alpha 24 1 0.5\n# alpha 132 0.8 0.5\n# alpha 0 0 0.5\n# alpha 4 0 0.5\n# textboxarrow 0 3\n@エイレーネ\n『はい…\nこの者…ひいては…世を繋ぐ、\n雄大なる世界樹と…』\n\n# textboxarrow 0 1\n@ティルフィング\nな…！？\n\n# alpha 24 0 0.5\n# alpha 132 0 0.5\n# alpha 0 1 0.5\n# alpha 4 1 0.5\n# textboxarrow 0 1\n@デュリン\n！？\nユグドラシルのバイブスと共鳴…！？\nまさか、そんなことが…\n\n# alpha 24 1 0.5\n# alpha 132 0.8 0.5\n# alpha 0 0 0.5\n# alpha 4 0 0.5\n# textboxarrow 0 3\n@エイレーネ\n『世界樹ユグドラシルは、\nこの世のあまたの存在を繋ぐ大樹…』\n\n# textboxarrow 0 3\n@エイレーネ\n『つまり…\n世界樹のココロの声に、\n完全に呼応することができたなら…』\n\n# textboxarrow 0 3\n@エイレーネ\n『この私の封じられた力にも、\n繋がることができるはずなのです…』\n\n# face 4 \"smile01\"\n# textboxarrow 0 1\n@ティルフィング\n！！\nお母さんとも…！？\n\n# alpha 24 0 0.5\n# alpha 132 0 0.5\n# alpha 0 1 0.5\n# alpha 4 1 0.5\n# textboxarrow 0 3\n@トト\nそっか！\n\n# textboxarrow 0 3\n@トト\nティルフィングとユグドラシルの\nココロを繋ぐのが、\nエイレーネ様の魔法なんだね！\n\n# face 24 \"normal\"\n# alpha 24 1 0.5\n# alpha 132 0.8 0.5\n# alpha 0 0 0.5\n# alpha 4 0 0.5\n# voice 9976 \"eirene_0042\"\n# textboxarrow 0 3\n@エイレーネ\n『ふふ…\nさぁ…ゆくのです、\n愛しき娘よ…』\n\n# textboxarrow 0 3\n@エイレーネ\n『今、この瞬間も…\nこの世界は、\n危機に瀕しているのです…』\n\n# face 24 \"sad\"\n# textboxarrow 0 1\n@ティルフィング\n！！\nはい…\n\n;;※寂し気な表情を見せるティルフィング。\n# textboxarrow 0 3\n@エイレーネ\n『安心するのです…\n私は、いつでもアナタとともにいる…寂しく思うことはありません…』\n\n# face 24 \"normal\"\n# textboxarrow 0 1\n@ティルフィング\nええ…\n私は…お父さんとお母さんの愛情に、\n包まれているのだから…\n\n# textboxarrow 0 3\n@エイレーネ\n『その通りです…』\n\n# face 24 \"sad\"\n# textboxarrow 0 1\n@ティルフィング\nでも…\n一度だけ…\n\n# textboxarrow 0 3\n@エイレーネ\n『…？』\n\n# textboxarrow 0 1\n@ティルフィング\n一度だけ…\n私のことを…\n\n# voice 9976 \"eirene_0005\"\n# textboxarrow 0 3\n@エイレーネ\n『ふふ…\n“ナディア”…\n愛しき娘よ…』\n\n# textboxarrow 0 1\n@ティルフィング\n…？\n“ナディア”…？\n\n# textboxarrow 0 3\n@エイレーネ\n『“希望”という意味を\n持つ言葉です…』\n\n# textboxarrow 0 3\n@エイレーネ\n『それが…\nエルライトと二人で考えた…\nアナタの本当の名前なのです』\n\n# face 24 \"surprise\"\n# textboxarrow 0 1\n@ティルフィング\n！！\n\n;;※消え入りそうなエイレーネの光の身体が、ゆっくりとティルフィングを抱き締める。\n# serif 0\n# textwindow \"close\"\n# envbody 1000 8 0\n# effectpattern 1000 1 0\n# effectstart 1000\n# alpha 132 0.6 1\n# move 132 3 1\n# face 24 \"sad\"\n# waitandnext 1.5\n\n# serif 0\n# textwindow \"normal\"\n# textboxarrow 0 2\n@エイレーネ\n『ナディア…\n私達の可愛い娘よ…』\n\n# textboxarrow 0 2\n@エイレーネ\n『その慈しみに溢れたココロで、\n人々を導いてあげてください…』\n\n;;※ぶわっとティルフィングの瞳から、涙が溢れ出す。\n# face 24 \"sad2\"\n# voice 1014 \"tyrufing_0015\"\n# textboxarrow 0 1\n@ティルフィング\nお母さん…っ！！！\n\n# voice 9976 \"eirene_1070\"\n# textboxarrow 0 2\n@エイレーネ\n『…私はまた、深い眠りに\nつきましょう…』\n\n# face 4 \"sad\"\n# face 0 \"sad\"\n# textboxarrow 0 2\n@エイレーネ\n『アナタの行く道を…\n見守りながら…』\n\n;;【指定】SE_9148\n;;※ティルフィングを抱き締めたまま、ゆっくりと消えてゆくエイレーネ。\n# alpha 132 0.5 0.5\n# textboxarrow 0 1\n@ティルフィング\nお母さん！\n\n;;※やがて、消え失せるエイレーネ。\n# serif 0\n# textwindow \"close\"\n# se \"SE_9148\"\n# imagealpha 3 1 1.5\n# waitandnext 2\n\n# alpha 132 0 0\n# effectskip 1000\n# waitandnext 0.1\n\n# imagealpha 3 0 2\n# waitandnext 3\n\n# alpha 24 0 0.5\n# alpha 132 0 0.5\n# alpha 0 1 0.5\n# alpha 4 1 0.5\n# voice 9998 \"toto_0016\"\n# serif 0\n# textwindow \"normal\"\n# textboxarrow 0 3\n@トト\nう…\n\n# textboxarrow 0 1\n@デュリン\nアンタが、もらい泣きして\nどうすんのよ…\n\n# face 24 \"sad\"\n# face 0 \"serious2\"\n# textboxarrow 0 1\n@デュリン\nティルフィング…\n\n# move 24 3 0\n# alpha 24 1 0.5\n# alpha 0 0 0.5\n# alpha 4 0 0.5\n# textboxarrow 0 2\n@ティルフィング\n…うん\n\n;;※グイッと涙を拭うティルフィング。\n# face 24 \"angry\"\n# textboxarrow 0 2\n@ティルフィング\n大丈夫…\n行きましょう！\n\n# textboxarrow 0 2\n@ティルフィング\n安心してください、マスター\n\n# textboxarrow 0 2\n@ティルフィング\n…ラファエルは、\n私が必ず止めてみせます！\n"
	}
]