[
	{
		"ID": 91030402,
		"script": ";;【指定】bgm002\n;;●エピローグ・2　背景：修理中の王都\n;;※教会の外…まだ、遠くグランエクスペリの空には、黒い煙がいく筋も立ち昇っている。\n# script \"lisp\"\n# background \"imperial_city_reconstruction\"\n# bgm \"bgm002\" 0\n# body 6\n# pos 6 1\n# scale 6 0.8 0\n# body 101415\n# pos 101415 3\n# scale 101415 0.8 0\n# body 4\n# pos 4 5\n# scale 4 0.8 0\n# body 0\n# pos 0 2\n# scale 0 0.8 0\n# layer 0 5\n# textflame 1 1\n# face 6 \"sad\"\n# textboxarrow 0 1\n@ディーン\n“天上世界”と“地上世界”を、\nコイツが繋いでる…\nエイレーネ様が、そう言ったのか？\n\n# textboxarrow 0 2\n# voice 10141 \"tyrufing_0003\"\n@ティルフィング\nええ\n\n# textboxarrow 0 1\n# voice 9997 \"deen_0026\"\n@ディーン\nマジかよ…\nコイツが、そんな大それたことを？\n\n@ディーン\nそもそも…\nお前ホントに、\nあのユグドラシルの化身なのかよ？\n\n# select \"…自覚はないけど\" \"select_label_01\" \"そうらしいな…\" \"select_label_01\"\nそもそも…\nお前ホントに、\nあのユグドラシルの化身なのかよ？\n\n# label \"select_label_01\"\n# textboxarrow 0 1\n@ディーン\nってことは…\nお前、木なわけ？\n\n@ディーン\n俺は、木と一緒に\n旅してたってこと？\n\n# voice 9997 \"deen_0028\"\n@ディーン\nつーか…\n化身様って呼んだ方が\nいいのか？\n\n# face 101415 \"angry\"\n# textboxarrow 0 2\n# voice 10141 \"tyrufing_0015\"\n@ティルフィング\n！！\nそんな言い方！\n\n# face 4 \"angry\"\n# textboxarrow 0 3\n# voice 9998 \"toto_0011\"\n@トト\nなに、イラついてんだよ、\nディーン！\n\n# face 0 \"worry\"\n# textboxarrow 0 1\n@デュリン\nったく…\n別に比較する必要もないでしょ？\n\n@デュリン\n大聖堂の修復だって\n立派な作業じゃない？\n\n# face 6 \"angry\"\n# textboxarrow 0 1\n# voice 9997 \"deen_0011\"\n@ディーン\nバッ…バカ！\n別に、ひがんでるわけじゃねぇ！！\n\n# face 4 \"smile02\"\n# face 101415 \"normal\"\n# textboxarrow 0 3\n# voice 9998 \"toto_0004\"\n@トト\nなーんだ\n気にすることなんてないよ…\n\n@トト\nディーンの働きはすごいって、\nフレンネル大公も褒めてたよ？\n\n# textboxarrow 0 1\n# voice 9997 \"deen_0049\"\n@ディーン\nうるせぇ、クソガキっ！\n\n# face 6 \"sad\"\n@ディーン\nんで…\n結局のところ、\nどうするつもりなんだよ…？\n\n# textboxarrow 0 2\n@ティルフィング\nキラープリンセス達は、\n地上世界へ戻ることが使命…\nすぐに旅立ちます\n\n# face 0 \"usual\"\n# textboxarrow 0 1\n@デュリン\nもちろん、アタシもね…\n…アンタはどうすんの？\n\n# face 6 \"happy\"\n# textboxarrow 0 1\n# voice 9997 \"deen_0004\"\n@ディーン\nお、俺…？\n俺は…ここに残るに\n決まってんだろ…\n\n# face 101415 \"surprise\"\n# face 4 \"normal\"\n# textboxarrow 0 1\n# voice 9998 \"toto_0023\"\n@トト\nあれ…？\n地上世界に興味が\nあるのかと思ってた\n\n# face 6 \"sad\"\n# textboxarrow 0 1\n@ディーン\nそりゃあ…\n下の世界も、\nちょっとは見てみたいけどよ…\n\n@ディーン\n異族がいなくなったとはいえ…\n誰もいなくなっちゃ\nマズいだろ？\n\n# textboxarrow 0 3\n@トト\nどういう意味？\n\n# face 101415 \"normal\"\n# face 6 \"angry\"\n# textboxarrow 0 1\n# voice 9997 \"deen_0008\"\n@ディーン\nお前、バカか？\n俺までいなくなっちまったら、\n誰がこの天上世界を守るんだよ？\n\n# face 4 \"smile02\"\n# textboxarrow 0 3\n@トト\nアルン\n\n# body 128\n# pos 128 3\n# scale 128 0.8 0\n# alpha 128 0 0\n# body 127\n# pos 127 5\n# scale 127 0.8 0\n# alpha 127 0 0\n# textboxarrow 0 1\n# voice 9997 \"deen_0011\"\n@ディーン\n…アルン\n…ハァ！？\n\n# alpha 101415 0 0.5\n# alpha 4 0 0.5\n# alpha 127 1 0.5\n# alpha 128 1 0.5\n# textboxarrow 0 2\n# layer 127 1\n@ノーブル\nアルン君…\n君が、キラープリンセス達を\n導いてゆくのではないのか？\n\n# textboxarrow 0 3\n@アルン\nいえ…\n地上世界には、彼が…\n\n@アルン\nティルフィングのマスターは彼です\n\n@アルン\n一行を導くのは、\n誰より彼が適任ですから\n\n# face 6 \"sad\"\n# textboxarrow 0 1\n@ディーン\nちょちょ、ちょっと待て！？\nお前は、どうすんだよ？\n\n# textboxarrow 0 3\n@アルン\n私は、\nこの天上世界の守護を\n託された\n\n@アルン\n彼らが戻ってくるまで、\n私がこの世界を\n守り通さなければならない\n\n# face 6 \"angry\"\n# textboxarrow 0 1\n# voice 9997 \"deen_0011\"\n@ディーン\nああん！？\nなんでコイツに、\nそんな重要な役目を託してんだよ！？\n\n@ディーン\n守護を任せるなら、\n俺だろ！？\n\n# face 0 \"angry\"\n# textboxarrow 0 1\n# voice 9999 \"durin_0010\"\n@デュリン\nうっさいわね！\n\n@デュリン\n万一、地上から\n悪魔が入り込んできたら、\n\n# voice 9999 \"durin_0009\"\n@デュリン\nその生態を知るアルンしか\n対処できないでしょ！？\n\n# face 6 \"sad\"\n# textboxarrow 0 1\n# voice 9997 \"deen_0027\"\n@ディーン\nうっ…\n調子に乗りやがって…\n\n@ディーン\nともかく後で、\nゆっくり話をつけさせて\nもらうからな！\n\n# textboxarrow 0 3\n@アルン\nまったく…\n\n# textboxarrow 0 1\n@デュリン\nそれより…\n\n@デュリン\nやっぱり、\nユグドラシルのルートは\n機能していないわけ？\n\n# textboxarrow 0 3\n@アルン\n…ラファエルに破壊された損傷が\n大きかったようだ\n\n@アルン\nやはり…\n地上へ向かうには、\nあそこから行くしかない\n\n# alpha 128 0 0.5\n# alpha 101415 1 0.5\n# layer 101415 2\n# textboxarrow 0 2\n@ティルフィング\n“海”…\n\n# textboxarrow 0 3\n@アルン\nああ…\n\n@アルン\n次元が繋がった今…\n海から地上世界へと、\n直接繋がっている\n\n# textboxarrow 0 2\n@ティルフィング\n…その先に\n…私達の帰りを待つ人達が\nいるんですね\n\n# textboxarrow 0 3\n# voice 9983 \"kokusohkan_0003\"\n@アルン\n…そうだ\nなんにせよ、\n急がねばならない\n\n# body 7\n# pos 7 5\n# scale 7 0.8 0\n# alpha 7 0 0\n# face 101415 \"sad\"\n# textboxarrow 0 2\n# voice 10141 \"tyrufing_0003\"\n@ティルフィング\nはい…\n\n# bgm \"stop\"\n# serif 1\n@？？？\nあらよっと\n\n# serif 1\n# textwindow \"close\"\n# serif 0\n# face 101415 \"surprise\"\n# textboxarrow 0 2\n# voice 10141 \"tyrufing_0022\"\n@ティルフィング\nキャッ…！？\n\n# bgm \"bgm006\" 0\n# pos 4 3\n# alpha 0 0 0.5\n# alpha 127 0 0.5\n# alpha 7 1 0.5\n# textboxarrow 0 3\n# face 7 \"happy\"\n# layer 7 2\n@学者さま\nホッホッホ！\nなんじゃい、\n可愛らしい声で鳴く異族じゃの！\n\n# alpha 127 0 0.5\n# alpha 101415 0 0.5\n# alpha 4 1 0.5\n# alpha 6 1 0.5\n# textboxarrow 0 2\n# voice 9998 \"toto_0023\"\n# layer 4 1\n@トト\nえ…！？\n爺ちゃん…！？\n\n# face 6 \"angry\"\n# textboxarrow 0 1\n# voice 9997 \"deen_0015\"\n@ディーン\nじ、じ、じ、爺ぃ！！\nテメェ！！\n\n@ディーン\nティルフィングの…\nその…\nヒップを！！\n\n# body 13\n# pos 13 3\n# scale 13 0.8 0\n# alpha 13 0 0\n# textboxarrow 0 3\n@学者さま\n湿布…？\n\n# pos 101415 1\n# alpha 4 0 0.5\n# alpha 13 1 0.5\n# face 13 \"angry\"\n# textboxarrow 0 2\n@オルト\n父さん…！！\n\n# alpha 6 0 0.5\n# alpha 101415 1 0.5\n# textboxarrow 0 1\n@ティルフィング\n！！\nオルトさん！\n\n# textboxarrow 0 2\n@オルト\nすまない、オヤジが…\n\n@オルト\n…まったく、\nなにをやってるんだ！！\n\n# textboxarrow 0 3\n@学者さま\nむ…！？\nむむむ…？\n\n# bgm \"bgm002\" 0\n# face 101415 \"smile\"\n# textboxarrow 0 1\n@ティルフィング\n…あ\n…お、お久しぶりです\n\n# textboxarrow 0 2\n@オルト\n父さん！\n\n# textboxarrow 0 3\n@学者さま\nおお！\n思い出したぞい！\n\n@学者さま\nおぬし、\nいつぞやの\nスラッとした異族ではないか！\n\n# textboxarrow 0 2\n# face 4 \"angry\"\n# alpha 13 0 0.5\n# alpha 4 1 0.5\n@トト\nもう！\n今、思い出したの…！？\n\n@トト\nまさか、\n僕のことも忘れてるってことは…\n\n# textboxarrow 0 3\n@学者さま\nなんじゃい、豆粒！\n引っ込んどれ！！\n\n@学者さま\n…むむむ\nやはり、おぬし…\n相変わらずスラッとしとるのう\n\n# textboxarrow 0 1\n# voice 10141 \"tyrufing_0008\"\n@ティルフィング\nあ…あは…\n\n# pos 128 3\n# body 129\n# pos 129 1\n# scale 129 0.8 0\n# alpha 129 0 0\n# textboxarrow 0 2\n@トト\nもう！\nなんだよ、それ！？\n\n# alpha 101415 0 0.5\n# alpha 4 0 0.5\n# alpha 129 1 0.5\n# alpha 128 1 0.5\n# textboxarrow 0 1\n# layer 128 1\n# layer 129 2\n@フレンネル\nまったく…\n相変わらずだな、\nルステンシュタインは\n\n# pos 13 5\n# reversal 13 1\n# textboxarrow 0 2\n@ノーブル\nええ…\n\n# face 13 \"happy2\"\n# alpha 7 0 0.5\n# alpha 13 1 0.5\n# textboxarrow 0 3\n# layer 13 1\n@オルト\nこれは、大公！\nご無事でなによりです…\n安心いたしました\n\n# textboxarrow 0 1\n@フレンネル\n呼び立ててすまない\n\n@フレンネル\n復興作業に追われていて、\n王都を離れることができんのだ\n\n# face 13 \"happy1\"\n# textboxarrow 0 3\n@オルト\nいえ…\nこの被害状況じゃ、\n仕方ありません\n\n@オルト\n…すみません、ノーブル教授\n\n@オルト\nついでに眼科の先生に\n挨拶だけでもと、\n父を連れてきてしまいました\n\n# textboxarrow 0 2\n@ノーブル\nなに、構わんよ\n話は通してある…\n\n@ノーブル\nすぐにでも、診てもらった方がいい\n私が案内しよう\n\n# textboxarrow 0 3\n@オルト\nありがとうございます\nでは、お言葉に甘えて…\nティバルト団長がお待ちですので\n\n# textboxarrow 0 1\n@フレンネル\nティバルトが…？\n\n# textboxarrow 0 3\n@オルト\nええ\n第1師団が、ともに“海”まで\n送り届けると…\n\n# textboxarrow 0 2\n@ノーブル\n確かに…\n道のりは長いので、心強い\n\n# body 28\n# pos 28 3\n# scale 28 0.8 0\n# alpha 28 0 0\n# textboxarrow 0 1\n@フレンネル\nフッ…\n彼なりの感謝の形\nというわけだな\n\n# mask 28 off\n# alpha 128 0 0.5\n# alpha 129 0 0.5\n# alpha 13 0 0.5\n# alpha 28 1 0.5\n# face 28 \"angry\"\n# textboxarrow 0 2\n@レン\nちょっと！\nいつまで、のんびりやってんのよ？\n\n# pos 101415 3\n@レン\nエドガーも門のところで、\n一時間も前から待機してんのよ？\n\n# select \"そうだな…急いで行こう…\" \"select_label_02\" \"日が暮れる前に出るべきだ…行こう\" \"select_label_02\"\nエドガーも門のところで、\n一時間も前から待機してんのよ？\n\n# label \"select_label_02\"\n# alpha 28 0 0.5\n# alpha 101415 1 0.5\n# alpha 127 1 0.5\n# alpha 0 1 0.5\n# face 101415 \"sad\"\n# textboxarrow 0 2\n# voice 10141 \"tyrufing_0001\"\n@ティルフィング\nマスター！\n大丈夫ですか…！？\n\n# mask 28 on\n# face 0 \"angry\"\n# textboxarrow 0 1\n@デュリン\nちょっと…\nフラついてるじゃない！？\n\n# textboxarrow 0 3\n@アルン\n…ユグドラシルの化身である\n君がいるからこそ、\n我々は地上へと行き来できる\n\n@アルン\nだが…それは裏を返せば、\nそれだけの負担が\n君にかかっているということなんだ\n\n# select \"心配ない…行くぞ、ティルフィング\" \"select_label_03\" \"時間がないんだ…さぁ、行こう\" \"select_label_03\"\nだが…それは裏を返せば、\nそれだけの負担が\n君にかかっているということなんだ\n\n# label \"select_label_03\"\n# face 101415 \"angry\"\n# textboxarrow 0 2\n@ティルフィング\nは、はい！！\n\n# face 0 \"usual\"\n# pos 28 1\n# textboxarrow 0 1\n@デュリン\nもう…\nじゃあ、行くとしますか\n\n# face 28 \"worry\"\n# alpha 28 1 0.5\n@レン\nアンタ達…\nまた、新たな闘いが始まるのね…\n\n@レン\nまったく…\nヘマして、\n死ぬんじゃないわよ？\n\n# voice 9999 \"durin_0010\"\n@デュリン\nなに言ってるのよ？\n\n@デュリン\nこっちの世界だって…\nまた新たな秩序を、\n一から築かなきゃいけないんだもの\n\n# pos 128 5\n@デュリン\n大変なのはどっちも同じよ\n\n# alpha 127 0 0.5\n# alpha 128 1 0.5\n# textboxarrow 0 3\n@ノーブル\n大丈夫だ\n我々が、新たな体制を\nしっかりと築き上げる\n\n@ノーブル\nなに…\nフレンネル大公がいらっしゃるんだ、\n心配はいらんよ\n\n# face 101415 \"smile\"\n# textboxarrow 0 2\n@ティルフィング\nええ…\nフレンネル大公…\n\n# alpha 28 0 0.5\n# alpha 129 1 0.5\n# textboxarrow 0 1\n@フレンネル\n…よそよそしい挨拶は\n抜きにしよう\n\n@フレンネル\nいつでも安心して\n帰って来るのだぞ？\n\n@フレンネル\n大丈夫…いつだってエイレーネと\nエルライトが、君のことを\n見守っているのだから\n\n# pos 6 5\n# textboxarrow 0 2\n@ティルフィング\nはい！\n必ず、無事に戻ってきます！\n\n# alpha 129 0 0.5\n# alpha 128 0 0.5\n# alpha 6 1 0.5\n# textboxarrow 0 3\n# voice 9997 \"deen_0010\"\n@ディーン\nチッ、仕方ねぇな…\nその…心配だから、\n海まで送って行ってやるよ\n\n# textboxarrow 0 1\n# pos 129 2\n# pos 4 4\n# face 0 \"occur\"\n# voice 9999 \"durin_0008\"\n@デュリン\nホント素直じゃないわね、\nアンタ…\n\n# alpha 101415 0 0.5\n# alpha 6 0 0.5\n# alpha 128 0 0.5\n# alpha 0 0 0.5\n# alpha 4 1 0.5\n# alpha 129 1 0.5\n# face 4 \"normal\"\n# textboxarrow 0 3\n# voice 9998 \"toto_0002\"\n@トト\nあ、あの…\n\n# textboxarrow 0 1\n@フレンネル\n…遠慮せず、\n物を言えと言っているだろう？\n\n@フレンネル\n長きにわたり、\nともに旅してきた仲間だ…\nちゃんと見送ってきなさい\n\n# face 4 \"happy\"\n# textboxarrow 0 3\n# voice 9998 \"toto_0003\"\n@トト\n…うん！！\n"
	}
]