[
	{
		"ID": 91030203,
		"script": ";;【指定】bgm101\n;;●３－９＜戦闘画面＞　背景：祭壇\n# script \"lisp\"\n# background \"altar\"\n# bgm \"bgm101\" 0\n# body 101471\n# pos 101471 2\n# scale 101471 0.8 0\n# body 127\n# pos 127 4\n# scale 127 0.8 0\n# body 101411\n# pos 101411 3\n# scale 101411 0.8 0\n# alpha 101411 0 0\n# textflame 1 1\n# face 127 \"surprise\"\n# textboxarrow 0 3\n@アルン\nグ、グリード…！？\n…お、お前…\n\n# face 101471 \"sad\"\n# textboxarrow 0 1\n# voice 10147 \"tyrufing_k_0002\"\n@グリード\n…喋らないでください\n魔の血をもってしても…\nこの傷では、さすがに命に関わります\n\n# textboxarrow 0 3\n@アルン\n…お前\n…どうして…？\n\n# textboxarrow 0 1\n@グリード\n…大天使ガブリエルが\n戦闘を放棄し逃亡したので\n…後を追ってきたのです\n\n# voice 10147 \"tyrufing_k_0019\"\n@グリード\nまさか…\nあのような姿になっているとは、\n夢にも思いませんでしたが…\n\n# textboxarrow 0 3\n@アルン\nガ、ガブリエルと戦闘…！？\nどうして…？\n\n# voice 10147 \"tyrufing_k_0027\"\n# face 101471 \"normal\"\n# textboxarrow 0 1\n@グリード\n仲間を想う気持ちが、\n力を呼ぶ…\n\n@グリード\n彼女達が言う、\nその言葉の意味を探るためです\n\n# face 101471 \"sad\"\n@グリード\n…勝手な真似をして、\n申し訳ありません\n\n# textboxarrow 0 3\n@アルン\n…！？\nせ、洗脳が解けたのか…！？\nお前も…かつての記憶を…！？\n\n# textboxarrow 0 1\n@グリード\n地上での記憶に、\n衝き動かされているわけでは\nありません…\n\n@グリード\nただ…\n\n# face 127 \"normal\"\n# textboxarrow 0 3\n@アルン\n…？\n\n# face 101471 \"happy1\"\n# textboxarrow 0 1\n# voice 10147 \"tyrufing_k_0004\"\n@グリード\n記憶を呼び起こせずとも…\n今から、知ればいい…\n\n@グリード\n…ラースやグラトニーが\n…そう、教えてくれたのです\n\n# textboxarrow 0 3\n@アルン\n！！\nグリード…\n\n# face 101471 \"sad\"\n# textboxarrow 0 1\n@グリード\nですが…\nあれほどまでに強大な力に…\nとても太刀打ちできるとは…\n\n# face 127 \"surprise\"\n# textboxarrow 0 3\n@アルン\n！！\nそ、そうか…\n\n@アルン\n…グリード\n\n# voice 10147 \"tyrufing_k_0003\"\n# face 101471 \"angry\"\n# textboxarrow 0 1\n@グリード\n…はい\n\n# face 127 \"angry\"\n# textboxarrow 0 3\n@アルン\nお前は…\nまだ、私の命に従う気はあるか…？\n\n# textboxarrow 0 1\n@グリード\n…はい\nそのために\n私は、ここにいるのです\n\n# textboxarrow 0 3\n@アルン\nそうか…\n…ひとつ策がある\n\n# face 101471 \"surprise\"\n# textboxarrow 0 1\n@グリード\nえ…？\n\n# textboxarrow 0 3\n@アルン\nこの“天上世界”へ来た時と、\n同じ任務だ…\n\n@アルン\n…お前の力で\n…人類を救ってくれ\n\n# body 24\n# pos 24 3\n# scale 24 0.8 0\n# alpha 24 0 0\n# imageset 3 \"black\"\n# imagealpha 3 0 0\n# imagelayer 3 1\n# textboxarrow 0 1\n@グリード\n…！？\n\n# imagealpha 3 1 0\n# imagepos 3 0 30\n# imageleftin 3 0.5\n# serif 0\n# textwindow \"close\"\n# waitandnext 1\n\n# imagealpha 3 0 0.5\n# bgm \"bgm005\" 0\n# alpha 24 1 0\n# face 24 \"sad\"\n# alpha 127 0 0\n# alpha 101471 0 0\n# imagerightout 3 0.5\n# waitandnext 0.5\n\n# move 24 5 0.3\n# shake 0 0.5\n# se \"SE_4830\"\n# fadein \"red\" 0.5\n# waitandnext 0.5\n\n# body 0\n# pos 0 1\n# scale 0 0.8 0\n# alpha 0 0 0\n# textboxarrow 0 3\n# voice 1014 \"tyrufing_0037\"\n# serif 0\n# textwindow \"nomal\"\n@ティルフィング\nガッ…！！！！\n\n# body 960032\n# pos 960032 3\n# face 0 \"worry\"\n# mask 960032 off\n# scale 960032 0.8 0\n# alpha 960032 0 0\n# textboxarrow 0 1\n# alpha 0 1 0.5\n@デュリン\nティルフィング！！！\n\n# textboxarrow 0 3\n@ティルフィング\nグ…グハッ…！！！！\n\n# alpha 0 0 0.5\n# alpha 24 0 0.5\n# alpha 960032 1 0.5\n# textboxarrow 0 2\n@トライエル\n『賞賛に値するほどのしぶとさ…\n見事です』\n\n@トライエル\n『ですが…\nさすがに、\n力が尽きてきたようですね』\n\n# alpha 960032 0 0.5\n# alpha 24 1 0.5\n# textboxarrow 0 3\n@ティルフィング\nう…うぐっ…\n\n# alpha 24 0 0.5\n# alpha 960032 1 0.5\n# textboxarrow 0 2\n@トライエル\n『アナタを\n立ち上がらせているのは、\n精神…』\n\n# pos 0 3\n@トライエル\n『その精神に、\n絶対的な絶望を与えれば…\n力を生み出せぬことでしょう…』\n\n# alpha 960032 0 0.5\n# alpha 0 1 0.5\n# textboxarrow 0 2\n@デュリン\n絶望…！？\n\n# textboxarrow 0 2\n# alpha 0 0 0.5\n# alpha 960032 1 0.5\n@トライエル\n『この者の目の前で、\n守るべきものの最期を突き付ける…』\n\n@トライエル\n『それこそが、\n最良の手順と\n判断しました…』\n\n# textboxarrow 0 0\n# alpha 960032 0 0.2\n# waitandnext 0.5\n\n# textboxarrow 0 2\n# alpha 0 1 0.5\n@デュリン\n！？\n消えた…！？\n\n# alpha 0 0 0.5\n# alpha 960032 1 0.3\n# se \"SE_9467\"\n# waitandnext 0.5\n\n@トライエル\n『やはり、\nアナタを最初に\n処しておくべきでした…』\n\n@トライエル\n『早々に消し去っておけば、\n異物が記憶を取り戻すことも…』\n\n@トライエル\n『この世界の崩落を\n止められることも\nなかったのですから』\n\n# alpha 960032 0 0.5\n# alpha 0 1 0.5\n@デュリン\n…！？\nなに言ってるの…\n\n@デュリン\nそれは、\nエイレーネ様が\nなされたこと…\n\n# alpha 0 0 0.5\n# alpha 960032 1 0.5\n@トライエル\n『いいえ…\nエイレーネは呼びかけただけに\n過ぎません、この者の眠れる力に』\n\n# alpha 960032 0 0.5\n# alpha 0 1 0.5\n@デュリン\nは…？\n\n# alpha 0 0 0.5\n# alpha 960032 1 0.5\n@トライエル\n『我らが怖れていたのは、\n彼女自身の力ではありません』\n\n@トライエル\n『彼女に脅威を感じていたのは…\n眠れる力に呼びかける、\nそのココロの声…』\n\n@トライエル\n『我らが最も脅威し、\n万に一つの敗北の一因となり得ると\n考えていたのは…』\n\n@トライエル\n『この者に他なりません』\n\n# select \"お、俺…！？\" \"select_label_01\" \"俺の…眠れる力…！？\" \"select_label_01\"\n『この者に他なりません』\n\n# label \"select_label_01\"\n@トライエル\n『エイレーネはこの者を通じ、\n世界樹ユグドラシルの眠れる力に\n呼びかけたのです』\n\n@トライエル\n『すべては、\nこの化身が無意識になした所業…\nまだ気付いていないのですか？』\n\n# alpha 960032 0 0.5\n# alpha 0 1 0.5\n@デュリン\nな…！？\n\n# select \"すべては…この俺がしたこと…！？\" \"select_label_02\" \"俺が無意識に…眠れる力を…！？\" \"select_label_02\"\nな…！？\n\n# label \"select_label_02\"\n# alpha 0 0 0.5\n# alpha 960032 1 0.5\n@トライエル\n『ですが…\nそれも、これで終わりです！』\n\n@トライエル\n『…消えなさい、\nユグドラシル！！！！』\n\n# pos 24 3\n# alpha 960032 0 0.5\n# alpha 0 1 0.5\n# face 0 \"angry\"\n@デュリン\n！！！\n…逃げて！！！\n\n# fadein \"white\" 1\n# se \"SE_5767\"\n# move 0 1 0\n# face 24 \"angry\"\n# alpha 24 1 0\n# waitandnext 1\n\n# fadein \"red\" 0.5\n# se \"SE_4815\"\n# waitandnext 0.5\n\n# face 24 \"sad\"\n@ティルフィング\nガッ！！！！！\n\n# textboxarrow 0 1\n@デュリン\n！！！！\n\n# select \"ティルフィング！！！！\" \"select_label_03\" \"俺の…盾に…！！！！\" \"select_label_03\"\nな…！？\n\n;;※攻撃を受けたティルフィングを見下ろし、口を開く融合天使。\n# label \"select_label_03\"\n# alpha 0 0 0.5\n# alpha 24 0 0.5\n# alpha 960032 1 0.5\n# textboxarrow 0 2\n@トライエル\n『自らの肉体を盾に…\nなんという強い意志なのでしょう…』\n\n@トライエル\n『これが、\n女神エイレーネの娘なのですね』\n\n# pos 0 3\n@トライエル\n『ですが…\nこれで、邪魔者は\n消え去りました…』\n\n# alpha 960032 0 0.5\n# alpha 0 1 0.5\n# face 0 \"worry\"\n# textboxarrow 0 2\n@デュリン\nそん…な…\n\n# alpha 0 0 0.5\n# alpha 960032 1 0.5\n# textboxarrow 0 2\n@トライエル\n『…これで\n諦めがついたはずです』\n\n@トライエル\n『ユグドラシルよ…\n終焉の刻です』\n\n# pos 101471 5\n# bgm \"stop\"\n# serif 1\n@？？？\n…まだよ！！！\n\n# pos 0 1\n# serif 1\n# textwindow \"close\"\n# serif 0\n# textwindow \"nomal\"\n# textboxarrow 0 2\n@トライエル\n『…？』\n\n# bgmfile \"bgm150\" \"BgmPJZero001\" 0\n# serif 1\n# textwindow \"close\"\n# serif 0\n# alpha 960032 0 0.5\n# alpha 101471 1 0.5\n# face 101471 \"angry\"\n# waitandnext 0.5\n\n# alpha 0 1 0.5\n# textboxarrow 0 1\n@デュリン\nグリード！\n\n# textboxarrow 0 3\n@グリード\nまだ終わりじゃないわ！！\n\n# textboxarrow 0 2\n# alpha 24 1 0.5\n# face 24 \"sad\"\n@ティルフィング\nグッ…\n\n# voice 10147 \"tyrufing_k_0007\"\n# textboxarrow 0 3\n@グリード\n考えがある！\n息のあるうちに、\n聖剣ティルフィングをこちらに！\n\n# textboxarrow 0 1\n@デュリン\n！？\n…なにを…？\n\n# voice 1014 \"tyrufing_0037\"\n# textboxarrow 0 2\n@ティルフィング\nグ…\nグフッ…\n\n# alpha 0 0 0.5\n# alpha 24 0 0.5\n# alpha 101471 0 0.5\n# alpha 960032 1 0.5\n# textboxarrow 0 2\n@トライエル\n『…なにをしようと、\n結局は同じことです』\n\n@トライエル\n『アナタも…\n斬り刻まれて、\n召されたいのですか…？』\n\n# alpha 960032 0 0.5\n# alpha 101471 1 0.5\n# alpha 24 1 0.5\n# alpha 0 1 0.5\n# textboxarrow 0 3\n@グリード\n仲間を想う気持ちが、\n力を生むんでしょ…！？\n\n# textboxarrow 0 2\n@ティルフィング\n！！\n\n# textboxarrow 0 3\n@グリード\n私を仲間と思えるのなら…\n最後の力を振り絞って！\n\n# face 24 \"angry\"\n# textboxarrow 0 2\n@ティルフィング\n…う\n…うぐっ！！！\n\n# se \"SE_4201\"\n# waitandnext 0.5\n\n# voice 10147 \"tyrufing_k_0004\"\n# face 101471 \"happy1\"\n# textboxarrow 0 3\n@グリード\n上出来だわ…\n\n# se \"SE_4815\"\n# fadein \"red\" 0.5\n# waitandnext 0.5\n\n# voice 10147 \"tyrufing_k_0026\"\n# face 101471 \"sad\"\n@グリード\nグッ…！！！\n\n# face 24 \"surprise\"\n# textboxarrow 0 2\n@ティルフィング\n…！？\n\n# face 0 \"angry\"\n# textboxarrow 0 1\n@デュリン\nな…！？\n\n# alpha 0 0 0.5\n# alpha 24 0 0.5\n# alpha 101471 0 0.5\n# alpha 960032 1 0.5\n# textboxarrow 0 2\n@トライエル\n『剣を…\n自らの身体で受け止めた…！？\n…どういうつもりですか…！？』\n\n# alpha 960032 0 0.5\n# alpha 101471 1 0.5\n# alpha 24 1 0.5\n# alpha 0 1 0.5\n# face 101471 \"sad\"\n# textboxarrow 0 3\n@グリード\nど…どういう…？\n…アナタ達と…お、同じことよ\n\n# textboxarrow 0 1\n@デュリン\n！？\nまさか…！？\n\n# textboxarrow 0 3\n# voice 10147 \"tyrufing_k_0005\"\n# face 101471 \"happy1\"\n@グリード\n…ティ…ティルフィング\n…ア、アナタに託すわ\n…私の力…を\n\n# textboxarrow 0 2\n@ティルフィング\n！！"
	}
]