[
	{
		"ID": 91030403,
		"script": ";;【指定】bgm003\n;;●エピローグ・３　背景：王都\n# script \"lisp\"\n# background \"imperial_city_reconstruction\"\n# bgm \"bgm003\" 0\n# body 42\n# pos 42 3\n# scale 42 0.8 0\n# layer 42 2\n# body 6\n# pos 6 5\n# scale 6 0.8 0\n# body 40\n# pos 40 1\n# scale 40 0.8 0\n# textflame 1 1\n# textboxarrow 0 2\n@ティバルト\n結局…\n自分がユグドラシルである\n自覚はないと…？\n\n# select \"自覚もなにも…\" \"select_label_01\" \"突然、世界樹の化身だと言われても…\" \"select_label_01\"\n結局…\n自分がユグドラシルである\n自覚はないと…？\n\n# label \"select_label_01\"\n# face 40 \"smile\"\n# textboxarrow 0 1\n@エドガー\nまぁ…突然、そう言われても…\n実感がなければ、\n戸惑うほかないか…\n\n# face 6 \"sad\"\n# textboxarrow 0 3\n@ディーン\nいきなり…\n“お前は、あの樹だ”って\n言われてもな…\n\n# body 101415\n# pos 101415 3\n# scale 101415 0.8 0\n# alpha 101415 0 0\n# layer 101415 1\n# mask 101415 off\n# textboxarrow 0 2\n@ティバルト\n…あてが外れたな\n\n# face 101415 \"surprise\"\n# alpha 6 0 0.5\n# alpha 42 0 0.5\n# alpha 40 0 0.5\n# alpha 101415 1 0.5\n# textboxarrow 0 2\n@ティルフィング\nえ…？\n\n# alpha 6 1 0.5\n# alpha 42 1 0.5\n# alpha 40 1 0.5\n# alpha 101415 0 0.5\n# textboxarrow 0 3\n@ディーン\nなんだよ、あてって…？\n\n# textboxarrow 0 2\n@ティバルト\nこの“人神大戦”で…\n政府はもちろんだが、\n軍の指揮系統もほぼ壊滅状態だ\n\n@ティバルト\n異族の脅威は去ったものの、\n復興支援に\n人手が駆り出されている今…\n\n@ティバルト\nやはり、主要ポストの人員補充が\n急務であることに変わりはない\n\n# textboxarrow 0 3\n@ディーン\n軍の主要ポスト…？\nまさか…\n\n# textboxarrow 0 2\n@ティバルト\nお前達を当てようと思っている\n\n@ティバルト\nラグナロク教会という\n組織は壊滅し…\nキル姫達も、向こうの世界へ行くんだ\n\n@ティバルト\n…どうせ暇なんだろう？\n\n# textboxarrow 0 1\n@エドガー\nそ、それは、\nそうですけど…\n\n# face 6 \"smile\"\n# textboxarrow 0 3\n@ディーン\nマジ…！？\n\n# textboxarrow 0 2\n@ティバルト\nその取りまとめ役として、\nお前を考えていたんだが…\nまさか、地上世界へ向かうとはな\n\n@ティバルト\nしかも、ユグドラシルとしての\n自覚もないときている…\n\n# select \"あ、新たな軍の、主要ポストに…！？\" \"select_label_02\" \"す、すいません…\" \"select_label_02\"\nしかも、ユグドラシルとしての\n自覚もないときている…\n\n# label \"select_label_02\"\n# textboxarrow 0 2\n@ティバルト\n世界を見据えるユグドラシル…\nその化身が中心に座れば、\n人々も安心するのでは\n\n@ティバルト\n…とフレンネル大公と\n話していたんだ\nだがな…\n\n# body 0\n# pos 0 2\n# scale 0 0.8 0\n# alpha 0 0 0\n# layer 0 5\n# textboxarrow 0 3\n@ディーン\nゴ、ゴホン！\nその…あれだったら…\n\n# face 0 \"angry\"\n# alpha 0 1 0.5\n# textboxarrow 0 1\n@デュリン\nよしときなさいよ、どバカ\nアンタは器じゃないわよ\n\n# face 6 \"angry\"\n# textboxarrow 0 3\n@ディーン\nああん！？\nまだティバルトは、\nなにも言ってねぇだろ！？\n\n# textboxarrow 0 2\n@ティバルト\nまぁ、仕方ない…\n地上世界も、\nお前達の助けを待っているんだ\n\n@ティバルト\n…代わりに残る、\nアルンに打診してみるか\n\n# textboxarrow 0 3\n@ディーン\nなんで、アイツなんだよっ！？\n\n# textboxarrow 0 2\n@ティバルト\nお前達のことだ\n心配は無用だろうが…\n\n# mask 101415 on\n# pos 101415 5\n@ティバルト\n慢心して命を落とすような\nヘマはするんじゃないぞ？\n\n# alpha 6 0 0.5\n# alpha 101415 1 0.5\n# textboxarrow 0 3\n@ティルフィング\nえ…？\nどちらへ？\n\n# textboxarrow 0 2\n@ティバルト\n耕民区の村々にも、\n甚大な被害が出ている…\n\n@ティバルト\n俺は、その状況を調査しに行く\n…エドガー\n\n# face 101415 \"normal\"\n# textboxarrow 0 1\n@エドガー\nええ…\nお供します\n\n# face 0 \"usual\"\n@デュリン\nそう…\n…二人とも\n…本当に助けられたわ\n\n# face 101415 \"smile\"\n# textboxarrow 0 3\n@ティルフィング\nお二人がいなかったら、\n今頃は…\n\n# textboxarrow 0 1\n@エドガー\nバカを言うな\n一番の立役者が…\n\n# textboxarrow 0 2\n@ティバルト\nさぁ、行くぞ\n\n# body 4\n# pos 4 1\n# scale 4 0.8 0\n# alpha 4 0 0\n# face 40 \"irregular\"\n# textboxarrow 0 1\n@エドガー\nはい\n\n# se \"SE_0719\"\n# textboxarrow 0 0\n# alpha 42 0 0.5\n# alpha 40 0 0.5\n# waitandnext 0.5\n\n# textboxarrow 0 1\n# alpha 4 1 0.5\n@トト\n…行っちゃった\n\n@デュリン\nまったく、素直じゃないわね…\n\n# face 0 \"serious\"\n@デュリン\n…さぁ、急がなければ\nティルフィング…\n他のキラープリンセス達は…？\n\n# body 127\n# pos 127 3\n# scale 127 0.8 0\n# alpha 127 0 0\n# layer 127 3\n# face 101415 \"normal\"\n# textboxarrow 0 3\n@ティルフィング\n…うん\nみんな、海へと向かっているみたい…\n\n# alpha 127 1 0.5\n# textboxarrow 0 2\n@アルン\nこっちだ！\n…日が暮れる前に、辿り着きたい\n…急ぐぞ！\n\n# alpha 101415 0 0.5\n# alpha 6 1 0.5\n# face 6 \"angry\"\n# textboxarrow 0 3\n@ディーン\nクッ…\n偉そうに先導するんじゃねぇっ！！！"
	}
]