[
	{
		"ID": 56,
		"period_id": 9,
		"floor": 20,
		"lotteryRatio": 66,
		"unit_UnitUnit": 820004,
		"magicBullet_BattleskillSkill": 0,
		"hp": 477,
		"strength": 578,
		"vitality": 372,
		"intelligence": 0,
		"mind": 0,
		"agility": 0,
		"dexterity": 0,
		"lucky": 0,
		"weakPoint_element": "8.0",
		"weakPoint_weapon": "1.0",
		"weakPoint_unitType": "2.0",
		"zeny": 27,
		"trust_rate": 0.0,
		"player_exp": 28,
		"unit_exp": 13,
		"drop_ratio": 1100,
		"drop_deck_id": 77
	},
	{
		"ID": 57,
		"period_id": 9,
		"floor": 20,
		"lotteryRatio": 30,
		"unit_UnitUnit": 830004,
		"magicBullet_BattleskillSkill": 0,
		"hp": 432,
		"strength": 526,
		"vitality": 338,
		"intelligence": 0,
		"mind": 0,
		"agility": 0,
		"dexterity": 0,
		"lucky": 0,
		"weakPoint_element": "8.0",
		"weakPoint_weapon": "2.0",
		"weakPoint_unitType": "1.0",
		"zeny": 33,
		"trust_rate": 0.0,
		"player_exp": 36,
		"unit_exp": 18,
		"drop_ratio": 1100,
		"drop_deck_id": 78
	},
	{
		"ID": 58,
		"period_id": 9,
		"floor": 20,
		"lotteryRatio": 4,
		"unit_UnitUnit": 820008,
		"magicBullet_BattleskillSkill": 0,
		"hp": 495,
		"strength": 604,
		"vitality": 390,
		"intelligence": 0,
		"mind": 0,
		"agility": 0,
		"dexterity": 0,
		"lucky": 0,
		"weakPoint_element": "8.0",
		"weakPoint_weapon": "1.0",
		"weakPoint_unitType": "1.0",
		"zeny": 48,
		"trust_rate": 0.009999999776482582,
		"player_exp": 72,
		"unit_exp": 36,
		"drop_ratio": 600,
		"drop_deck_id": 79
	},
	{
		"ID": 159,
		"period_id": 10,
		"floor": 20,
		"lotteryRatio": 66,
		"unit_UnitUnit": 820004,
		"magicBullet_BattleskillSkill": 0,
		"hp": 485,
		"strength": 574,
		"vitality": 353,
		"intelligence": 0,
		"mind": 0,
		"agility": 0,
		"dexterity": 0,
		"lucky": 0,
		"weakPoint_element": "8.0",
		"weakPoint_weapon": "1.0",
		"weakPoint_unitType": "2.0",
		"zeny": 27,
		"trust_rate": 0.0,
		"player_exp": 28,
		"unit_exp": 13,
		"drop_ratio": 1100,
		"drop_deck_id": 249
	},
	{
		"ID": 160,
		"period_id": 10,
		"floor": 20,
		"lotteryRatio": 30,
		"unit_UnitUnit": 830004,
		"magicBullet_BattleskillSkill": 0,
		"hp": 507,
		"strength": 618,
		"vitality": 397,
		"intelligence": 0,
		"mind": 0,
		"agility": 0,
		"dexterity": 0,
		"lucky": 0,
		"weakPoint_element": "8.0",
		"weakPoint_weapon": "2.0",
		"weakPoint_unitType": "1.0",
		"zeny": 33,
		"trust_rate": 0.0,
		"player_exp": 36,
		"unit_exp": 18,
		"drop_ratio": 1100,
		"drop_deck_id": 250
	},
	{
		"ID": 161,
		"period_id": 10,
		"floor": 20,
		"lotteryRatio": 4,
		"unit_UnitUnit": 820008,
		"magicBullet_BattleskillSkill": 0,
		"hp": 507,
		"strength": 618,
		"vitality": 397,
		"intelligence": 0,
		"mind": 0,
		"agility": 0,
		"dexterity": 0,
		"lucky": 0,
		"weakPoint_element": "8.0",
		"weakPoint_weapon": "1.0",
		"weakPoint_unitType": "1.0",
		"zeny": 48,
		"trust_rate": 0.009999999776482582,
		"player_exp": 72,
		"unit_exp": 36,
		"drop_ratio": 600,
		"drop_deck_id": 251
	}
]