[
	{
		"ID": 71,
		"period_id": 9,
		"floor": 25,
		"lotteryRatio": 65,
		"unit_UnitUnit": 860006,
		"magicBullet_BattleskillSkill": 500000101,
		"hp": 638,
		"strength": 598,
		"vitality": 319,
		"intelligence": 0,
		"mind": 0,
		"agility": 0,
		"dexterity": 0,
		"lucky": 0,
		"weakPoint_element": "3.0",
		"weakPoint_weapon": "6.0",
		"weakPoint_unitType": "6.0",
		"zeny": 29,
		"trust_rate": 0.0,
		"player_exp": 34,
		"unit_exp": 15,
		"drop_ratio": 1200,
		"drop_deck_id": 97
	},
	{
		"ID": 72,
		"period_id": 9,
		"floor": 25,
		"lotteryRatio": 30,
		"unit_UnitUnit": 820008,
		"magicBullet_BattleskillSkill": 0,
		"hp": 677,
		"strength": 518,
		"vitality": 279,
		"intelligence": 0,
		"mind": 0,
		"agility": 0,
		"dexterity": 0,
		"lucky": 0,
		"weakPoint_element": "3.0",
		"weakPoint_weapon": "1.0",
		"weakPoint_unitType": "6.0",
		"zeny": 35,
		"trust_rate": 0.0,
		"player_exp": 44,
		"unit_exp": 19,
		"drop_ratio": 1200,
		"drop_deck_id": 98
	},
	{
		"ID": 73,
		"period_id": 9,
		"floor": 25,
		"lotteryRatio": 5,
		"unit_UnitUnit": 820008,
		"magicBullet_BattleskillSkill": 0,
		"hp": 677,
		"strength": 518,
		"vitality": 279,
		"intelligence": 0,
		"mind": 0,
		"agility": 0,
		"dexterity": 0,
		"lucky": 0,
		"weakPoint_element": "3.0",
		"weakPoint_weapon": "1.0",
		"weakPoint_unitType": "5.0",
		"zeny": 51,
		"trust_rate": 0.009999999776482582,
		"player_exp": 87,
		"unit_exp": 39,
		"drop_ratio": 650,
		"drop_deck_id": 99
	},
	{
		"ID": 174,
		"period_id": 10,
		"floor": 25,
		"lotteryRatio": 65,
		"unit_UnitUnit": 860006,
		"magicBullet_BattleskillSkill": 500000101,
		"hp": 554,
		"strength": 655,
		"vitality": 374,
		"intelligence": 0,
		"mind": 0,
		"agility": 0,
		"dexterity": 0,
		"lucky": 0,
		"weakPoint_element": "3.0",
		"weakPoint_weapon": "6.0",
		"weakPoint_unitType": "6.0",
		"zeny": 29,
		"trust_rate": 0.0,
		"player_exp": 34,
		"unit_exp": 15,
		"drop_ratio": 1200,
		"drop_deck_id": 285
	},
	{
		"ID": 175,
		"period_id": 10,
		"floor": 25,
		"lotteryRatio": 30,
		"unit_UnitUnit": 820008,
		"magicBullet_BattleskillSkill": 0,
		"hp": 580,
		"strength": 706,
		"vitality": 454,
		"intelligence": 0,
		"mind": 0,
		"agility": 0,
		"dexterity": 0,
		"lucky": 0,
		"weakPoint_element": "3.0",
		"weakPoint_weapon": "1.0",
		"weakPoint_unitType": "6.0",
		"zeny": 35,
		"trust_rate": 0.0,
		"player_exp": 44,
		"unit_exp": 19,
		"drop_ratio": 1200,
		"drop_deck_id": 286
	},
	{
		"ID": 176,
		"period_id": 10,
		"floor": 25,
		"lotteryRatio": 5,
		"unit_UnitUnit": 820008,
		"magicBullet_BattleskillSkill": 0,
		"hp": 580,
		"strength": 706,
		"vitality": 454,
		"intelligence": 0,
		"mind": 0,
		"agility": 0,
		"dexterity": 0,
		"lucky": 0,
		"weakPoint_element": "3.0",
		"weakPoint_weapon": "1.0",
		"weakPoint_unitType": "5.0",
		"zeny": 51,
		"trust_rate": 0.009999999776482582,
		"player_exp": 87,
		"unit_exp": 39,
		"drop_ratio": 650,
		"drop_deck_id": 287
	}
]