[
	{
		"ID": 20,
		"period_id": 9,
		"floor": 8,
		"lotteryRatio": 50,
		"unit_UnitUnit": 810004,
		"magicBullet_BattleskillSkill": 0,
		"hp": 328,
		"strength": 388,
		"vitality": 239,
		"intelligence": 0,
		"mind": 0,
		"agility": 0,
		"dexterity": 0,
		"lucky": 0,
		"weakPoint_element": "3.0",
		"weakPoint_weapon": "3.0",
		"weakPoint_unitType": "5.0",
		"zeny": 22,
		"trust_rate": 0.0,
		"player_exp": 18,
		"unit_exp": 11,
		"drop_ratio": 1000,
		"drop_deck_id": 29
	},
	{
		"ID": 21,
		"period_id": 9,
		"floor": 8,
		"lotteryRatio": 47,
		"unit_UnitUnit": 860006,
		"magicBullet_BattleskillSkill": 500000101,
		"hp": 343,
		"strength": 418,
		"vitality": 269,
		"intelligence": 0,
		"mind": 0,
		"agility": 0,
		"dexterity": 0,
		"lucky": 0,
		"weakPoint_element": "3.0",
		"weakPoint_weapon": "5.0",
		"weakPoint_unitType": "3.0",
		"zeny": 27,
		"trust_rate": 0.0,
		"player_exp": 22,
		"unit_exp": 15,
		"drop_ratio": 1000,
		"drop_deck_id": 30
	},
	{
		"ID": 22,
		"period_id": 9,
		"floor": 8,
		"lotteryRatio": 3,
		"unit_UnitUnit": 810008,
		"magicBullet_BattleskillSkill": 0,
		"hp": 343,
		"strength": 418,
		"vitality": 269,
		"intelligence": 0,
		"mind": 0,
		"agility": 0,
		"dexterity": 0,
		"lucky": 0,
		"weakPoint_element": "3.0",
		"weakPoint_weapon": "5.0",
		"weakPoint_unitType": "3.0",
		"zeny": 39,
		"trust_rate": 0.009999999776482582,
		"player_exp": 45,
		"unit_exp": 30,
		"drop_ratio": 550,
		"drop_deck_id": 31
	},
	{
		"ID": 123,
		"period_id": 10,
		"floor": 8,
		"lotteryRatio": 50,
		"unit_UnitUnit": 810004,
		"magicBullet_BattleskillSkill": 0,
		"hp": 379,
		"strength": 460,
		"vitality": 296,
		"intelligence": 0,
		"mind": 0,
		"agility": 0,
		"dexterity": 0,
		"lucky": 0,
		"weakPoint_element": "3.0",
		"weakPoint_weapon": "3.0",
		"weakPoint_unitType": "5.0",
		"zeny": 22,
		"trust_rate": 0.0,
		"player_exp": 18,
		"unit_exp": 11,
		"drop_ratio": 1000,
		"drop_deck_id": 201
	},
	{
		"ID": 124,
		"period_id": 10,
		"floor": 8,
		"lotteryRatio": 47,
		"unit_UnitUnit": 860006,
		"magicBullet_BattleskillSkill": 500000101,
		"hp": 343,
		"strength": 418,
		"vitality": 269,
		"intelligence": 0,
		"mind": 0,
		"agility": 0,
		"dexterity": 0,
		"lucky": 0,
		"weakPoint_element": "3.0",
		"weakPoint_weapon": "5.0",
		"weakPoint_unitType": "3.0",
		"zeny": 27,
		"trust_rate": 0.0,
		"player_exp": 22,
		"unit_exp": 15,
		"drop_ratio": 1000,
		"drop_deck_id": 202
	},
	{
		"ID": 125,
		"period_id": 10,
		"floor": 8,
		"lotteryRatio": 3,
		"unit_UnitUnit": 810008,
		"magicBullet_BattleskillSkill": 0,
		"hp": 394,
		"strength": 481,
		"vitality": 311,
		"intelligence": 0,
		"mind": 0,
		"agility": 0,
		"dexterity": 0,
		"lucky": 0,
		"weakPoint_element": "3.0",
		"weakPoint_weapon": "5.0",
		"weakPoint_unitType": "3.0",
		"zeny": 39,
		"trust_rate": 0.009999999776482582,
		"player_exp": 45,
		"unit_exp": 30,
		"drop_ratio": 550,
		"drop_deck_id": 203
	}
]