[
	{
		"ID": 81,
		"stage_BattleStage": 991009024,
		"deck_position": 1,
		"money": 100,
		"initial_coordinate_x": 2,
		"initial_coordinate_y": 13,
		"reinforcement_BattleReinforcement": 0,
		"initial_direction": 180.0,
		"ai_move_group": 0,
		"ai_attack": "",
		"ai_move": "",
		"ai_heal": ""
	},
	{
		"ID": 82,
		"stage_BattleStage": 991009024,
		"deck_position": 2,
		"money": 100,
		"initial_coordinate_x": 4,
		"initial_coordinate_y": 12,
		"reinforcement_BattleReinforcement": 0,
		"initial_direction": 180.0,
		"ai_move_group": 0,
		"ai_attack": "",
		"ai_move": "",
		"ai_heal": ""
	},
	{
		"ID": 83,
		"stage_BattleStage": 991009024,
		"deck_position": 3,
		"money": 100,
		"initial_coordinate_x": 6,
		"initial_coordinate_y": 13,
		"reinforcement_BattleReinforcement": 0,
		"initial_direction": 180.0,
		"ai_move_group": 0,
		"ai_attack": "",
		"ai_move": "",
		"ai_heal": ""
	},
	{
		"ID": 84,
		"stage_BattleStage": 991009024,
		"deck_position": 4,
		"money": 100,
		"initial_coordinate_x": 3,
		"initial_coordinate_y": 11,
		"reinforcement_BattleReinforcement": 0,
		"initial_direction": 180.0,
		"ai_move_group": 0,
		"ai_attack": "",
		"ai_move": "",
		"ai_heal": ""
	},
	{
		"ID": 85,
		"stage_BattleStage": 991009024,
		"deck_position": 5,
		"money": 100,
		"initial_coordinate_x": 5,
		"initial_coordinate_y": 11,
		"reinforcement_BattleReinforcement": 0,
		"initial_direction": 180.0,
		"ai_move_group": 0,
		"ai_attack": "",
		"ai_move": "",
		"ai_heal": ""
	}
]