[
	{
		"ID": 11,
		"stage_BattleStage": 991009003,
		"deck_position": 1,
		"money": 100,
		"initial_coordinate_x": 4,
		"initial_coordinate_y": 5,
		"reinforcement_BattleReinforcement": 0,
		"initial_direction": 90.0,
		"ai_move_group": 0,
		"ai_attack": "",
		"ai_move": "",
		"ai_heal": ""
	},
	{
		"ID": 12,
		"stage_BattleStage": 991009003,
		"deck_position": 2,
		"money": 100,
		"initial_coordinate_x": 2,
		"initial_coordinate_y": 3,
		"reinforcement_BattleReinforcement": 0,
		"initial_direction": 90.0,
		"ai_move_group": 0,
		"ai_attack": "",
		"ai_move": "",
		"ai_heal": ""
	},
	{
		"ID": 13,
		"stage_BattleStage": 991009003,
		"deck_position": 3,
		"money": 100,
		"initial_coordinate_x": 5,
		"initial_coordinate_y": 8,
		"reinforcement_BattleReinforcement": 0,
		"initial_direction": 90.0,
		"ai_move_group": 0,
		"ai_attack": "",
		"ai_move": "",
		"ai_heal": ""
	},
	{
		"ID": 14,
		"stage_BattleStage": 991009003,
		"deck_position": 4,
		"money": 100,
		"initial_coordinate_x": 4,
		"initial_coordinate_y": 2,
		"reinforcement_BattleReinforcement": 0,
		"initial_direction": 90.0,
		"ai_move_group": 0,
		"ai_attack": "",
		"ai_move": "",
		"ai_heal": ""
	},
	{
		"ID": 15,
		"stage_BattleStage": 991009003,
		"deck_position": 5,
		"money": 100,
		"initial_coordinate_x": 6,
		"initial_coordinate_y": 1,
		"reinforcement_BattleReinforcement": 0,
		"initial_direction": 90.0,
		"ai_move_group": 0,
		"ai_attack": "",
		"ai_move": "",
		"ai_heal": ""
	}
]