[
	{
		"ID": 1,
		"duel_animator_name": "Animators/special/Ryusei_1001_unit",
		"duel_vehicle_animator_name": "",
		"duel_camera_animator_name": "Animators/special/Ryusei_1001_cam",
		"duel_koyu_wait_time": 9.199999809265137,
		"duel_koyu_enemy_pos_x": 1.0,
		"duel_koyu_enemy_pos_y": 0.0,
		"duel_koyu_enemy_pos_z": 0.0,
		"duel_effect_name": "",
		"vehicle_link_off": 0
	},
	{
		"ID": 2,
		"duel_animator_name": "Animators/special/Ryusei_3005_unit",
		"duel_vehicle_animator_name": "Animators/special/Ryusei_3005_equip",
		"duel_camera_animator_name": "Animators/special/Ryusei_3005_cam",
		"duel_koyu_wait_time": 11.14009952545166,
		"duel_koyu_enemy_pos_x": 1.0,
		"duel_koyu_enemy_pos_y": 0.0,
		"duel_koyu_enemy_pos_z": 0.0,
		"duel_effect_name": "",
		"vehicle_link_off": 0
	},
	{
		"ID": 3,
		"duel_animator_name": "Animators/special/Gekkou_2004_unit",
		"duel_vehicle_animator_name": "",
		"duel_camera_animator_name": "Animators/special/Gekkou_2004_cam",
		"duel_koyu_wait_time": 9.0,
		"duel_koyu_enemy_pos_x": 0.0,
		"duel_koyu_enemy_pos_y": 0.0,
		"duel_koyu_enemy_pos_z": 0.0,
		"duel_effect_name": "",
		"vehicle_link_off": 0
	},
	{
		"ID": 4,
		"duel_animator_name": "Animators/special/Gekkou_3001_unit",
		"duel_vehicle_animator_name": "",
		"duel_camera_animator_name": "Animators/special/Gekkou_3001_cam",
		"duel_koyu_wait_time": 10.5,
		"duel_koyu_enemy_pos_x": 0.0,
		"duel_koyu_enemy_pos_y": 0.0,
		"duel_koyu_enemy_pos_z": 0.0,
		"duel_effect_name": "",
		"vehicle_link_off": 0
	},
	{
		"ID": 5,
		"duel_animator_name": "Animators/special/Taiyou_1002_unit",
		"duel_vehicle_animator_name": "",
		"duel_camera_animator_name": "Animators/special/Taiyou_1002_cam",
		"duel_koyu_wait_time": 9.0,
		"duel_koyu_enemy_pos_x": 0.0,
		"duel_koyu_enemy_pos_y": 0.0,
		"duel_koyu_enemy_pos_z": 0.0,
		"duel_effect_name": "",
		"vehicle_link_off": 0
	},
	{
		"ID": 6,
		"duel_animator_name": "Animators/special/Taiyou_2001_unit",
		"duel_vehicle_animator_name": "",
		"duel_camera_animator_name": "Animators/special/Taiyou_2001_cam",
		"duel_koyu_wait_time": 9.800000190734863,
		"duel_koyu_enemy_pos_x": 0.0,
		"duel_koyu_enemy_pos_y": 0.0,
		"duel_koyu_enemy_pos_z": 0.0,
		"duel_effect_name": "",
		"vehicle_link_off": 0
	},
	{
		"ID": 7,
		"duel_animator_name": "Animators/special/GreatShield_2003_unit",
		"duel_vehicle_animator_name": "",
		"duel_camera_animator_name": "Animators/special/GreatShield_2003_cam",
		"duel_koyu_wait_time": 6.400000095367432,
		"duel_koyu_enemy_pos_x": 0.0,
		"duel_koyu_enemy_pos_y": 0.0,
		"duel_koyu_enemy_pos_z": 0.0,
		"duel_effect_name": "ef703_duel_holysheeld",
		"vehicle_link_off": 0
	},
	{
		"ID": 8,
		"duel_animator_name": "Animators/special/HolyShield_5006_unit",
		"duel_vehicle_animator_name": "",
		"duel_camera_animator_name": "Animators/special/HolyShield_5006_cam",
		"duel_koyu_wait_time": 6.400000095367432,
		"duel_koyu_enemy_pos_x": 0.0,
		"duel_koyu_enemy_pos_y": 0.0,
		"duel_koyu_enemy_pos_z": 0.0,
		"duel_effect_name": "ef704_duel_holysheeld",
		"vehicle_link_off": 0
	},
	{
		"ID": 9,
		"duel_animator_name": "Animators/special/Valentain_2008_unit",
		"duel_vehicle_animator_name": "",
		"duel_camera_animator_name": "Animators/special/Valentain_2008_cam",
		"duel_koyu_wait_time": 13.0,
		"duel_koyu_enemy_pos_x": 0.0,
		"duel_koyu_enemy_pos_y": 0.0,
		"duel_koyu_enemy_pos_z": 0.0,
		"duel_effect_name": "",
		"vehicle_link_off": 0
	},
	{
		"ID": 10,
		"duel_animator_name": "Animators/special/Denpa_1015mirin_unit",
		"duel_vehicle_animator_name": "",
		"duel_camera_animator_name": "Animators/special/Denpa_1015mirin_cam",
		"duel_koyu_wait_time": 12.399999618530273,
		"duel_koyu_enemy_pos_x": 0.0,
		"duel_koyu_enemy_pos_y": 0.0,
		"duel_koyu_enemy_pos_z": 0.0,
		"duel_effect_name": "",
		"vehicle_link_off": 0
	},
	{
		"ID": 11,
		"duel_animator_name": "Animators/special/Denpa_3011pinky_unit",
		"duel_vehicle_animator_name": "",
		"duel_camera_animator_name": "Animators/special/Denpa_3011pinky_cam",
		"duel_koyu_wait_time": 12.800000190734863,
		"duel_koyu_enemy_pos_x": 0.0,
		"duel_koyu_enemy_pos_y": 0.0,
		"duel_koyu_enemy_pos_z": 0.0,
		"duel_effect_name": "",
		"vehicle_link_off": 0
	},
	{
		"ID": 12,
		"duel_animator_name": "Animators/special/Denpa_5009moga_unit",
		"duel_vehicle_animator_name": "",
		"duel_camera_animator_name": "Animators/special/Denpa_5009moga_cam",
		"duel_koyu_wait_time": 13.0,
		"duel_koyu_enemy_pos_x": 0.0,
		"duel_koyu_enemy_pos_y": 0.0,
		"duel_koyu_enemy_pos_z": 0.0,
		"duel_effect_name": "",
		"vehicle_link_off": 0
	},
	{
		"ID": 13,
		"duel_animator_name": "Animators/special/Denpa_2009nemu_unit",
		"duel_vehicle_animator_name": "",
		"duel_camera_animator_name": "Animators/special/Denpa_2009nemu_cam",
		"duel_koyu_wait_time": 15.670000076293945,
		"duel_koyu_enemy_pos_x": 0.0,
		"duel_koyu_enemy_pos_y": 0.0,
		"duel_koyu_enemy_pos_z": 0.0,
		"duel_effect_name": "",
		"vehicle_link_off": 0
	},
	{
		"ID": 14,
		"duel_animator_name": "Animators/special/Denpa_4009eitaso_unit",
		"duel_vehicle_animator_name": "",
		"duel_camera_animator_name": "Animators/special/Denpa_4009eitaso_cam",
		"duel_koyu_wait_time": 11.0,
		"duel_koyu_enemy_pos_x": 0.0,
		"duel_koyu_enemy_pos_y": 0.0,
		"duel_koyu_enemy_pos_z": 0.0,
		"duel_effect_name": "",
		"vehicle_link_off": 0
	},
	{
		"ID": 15,
		"duel_animator_name": "Animators/special/Denpa_6007risa_unit",
		"duel_vehicle_animator_name": "",
		"duel_camera_animator_name": "Animators/special/Denpa_6007risa_cam",
		"duel_koyu_wait_time": 13.300000190734863,
		"duel_koyu_enemy_pos_x": 0.0,
		"duel_koyu_enemy_pos_y": 0.0,
		"duel_koyu_enemy_pos_z": 0.0,
		"duel_effect_name": "",
		"vehicle_link_off": 0
	},
	{
		"ID": 16,
		"duel_animator_name": "Animators/special/Brafro_1017selena_unit",
		"duel_vehicle_animator_name": "",
		"duel_camera_animator_name": "Animators/special/Brafro_1017selena_cam",
		"duel_koyu_wait_time": 14.0,
		"duel_koyu_enemy_pos_x": 0.0,
		"duel_koyu_enemy_pos_y": 0.0,
		"duel_koyu_enemy_pos_z": 0.0,
		"duel_effect_name": "",
		"vehicle_link_off": 0
	},
	{
		"ID": 17,
		"duel_animator_name": "Animators/special/Brafro_3012lunaris_unit",
		"duel_vehicle_animator_name": "",
		"duel_camera_animator_name": "Animators/special/Brafro_3012lunaris_cam",
		"duel_koyu_wait_time": 15.300000190734863,
		"duel_koyu_enemy_pos_x": 0.0,
		"duel_koyu_enemy_pos_y": 0.0,
		"duel_koyu_enemy_pos_z": 0.0,
		"duel_effect_name": "",
		"vehicle_link_off": 0
	},
	{
		"ID": 18,
		"duel_animator_name": "Animators/special/1011exculibur_unit",
		"duel_vehicle_animator_name": "",
		"duel_camera_animator_name": "Animators/special/1011exculibur_cam",
		"duel_koyu_wait_time": 20.0,
		"duel_koyu_enemy_pos_x": 0.0,
		"duel_koyu_enemy_pos_y": 0.0,
		"duel_koyu_enemy_pos_z": 0.0,
		"duel_effect_name": "",
		"vehicle_link_off": 0
	},
	{
		"ID": 19,
		"duel_animator_name": "Animators/special/DG_kanon_1019_unit",
		"duel_vehicle_animator_name": "",
		"duel_camera_animator_name": "Animators/special/DG_kanon_1019_cam",
		"duel_koyu_wait_time": 17.0,
		"duel_koyu_enemy_pos_x": 1.0,
		"duel_koyu_enemy_pos_y": 0.0,
		"duel_koyu_enemy_pos_z": 0.0,
		"duel_effect_name": "",
		"vehicle_link_off": 0
	},
	{
		"ID": 20,
		"duel_animator_name": "Animators/special/Taiyou_eros_4004_unit",
		"duel_vehicle_animator_name": "",
		"duel_camera_animator_name": "Animators/special/Taiyou_eros_4004_cam",
		"duel_koyu_wait_time": 19.33300018310547,
		"duel_koyu_enemy_pos_x": 0.0,
		"duel_koyu_enemy_pos_y": 0.0,
		"duel_koyu_enemy_pos_z": 0.0,
		"duel_effect_name": "",
		"vehicle_link_off": 0
	},
	{
		"ID": 21,
		"duel_animator_name": "",
		"duel_vehicle_animator_name": "",
		"duel_camera_animator_name": "",
		"duel_koyu_wait_time": 0.0,
		"duel_koyu_enemy_pos_x": 0.0,
		"duel_koyu_enemy_pos_y": 0.0,
		"duel_koyu_enemy_pos_z": 0.0,
		"duel_effect_name": "ef112_holy_shield",
		"vehicle_link_off": 0
	},
	{
		"ID": 22,
		"duel_animator_name": "",
		"duel_vehicle_animator_name": "",
		"duel_camera_animator_name": "",
		"duel_koyu_wait_time": 0.0,
		"duel_koyu_enemy_pos_x": 0.0,
		"duel_koyu_enemy_pos_y": 0.0,
		"duel_koyu_enemy_pos_z": 0.0,
		"duel_effect_name": "ef109_sun_s",
		"vehicle_link_off": 0
	},
	{
		"ID": 23,
		"duel_animator_name": "Animators/special/2010ukon_unit",
		"duel_vehicle_animator_name": "",
		"duel_camera_animator_name": "Animators/special/2010ukon_cam",
		"duel_koyu_wait_time": 13.5,
		"duel_koyu_enemy_pos_x": 0.0,
		"duel_koyu_enemy_pos_y": 0.0,
		"duel_koyu_enemy_pos_z": 0.0,
		"duel_effect_name": "",
		"vehicle_link_off": 0
	},
	{
		"ID": 24,
		"duel_animator_name": "Animators/special/3014Ithuriel_unit",
		"duel_vehicle_animator_name": "Animators/special/3014Ithuriel_equip",
		"duel_camera_animator_name": "Animators/special/3014Ithuriel_cam",
		"duel_koyu_wait_time": 15.399999618530273,
		"duel_koyu_enemy_pos_x": 0.25,
		"duel_koyu_enemy_pos_y": 0.0,
		"duel_koyu_enemy_pos_z": 0.0,
		"duel_effect_name": "",
		"vehicle_link_off": 0
	},
	{
		"ID": 25,
		"duel_animator_name": "Animators/special/Wed_Ryusei_1001_unit",
		"duel_vehicle_animator_name": "",
		"duel_camera_animator_name": "Animators/special/Wed_Ryusei_1001_cam",
		"duel_koyu_wait_time": 9.199999809265137,
		"duel_koyu_enemy_pos_x": 1.0,
		"duel_koyu_enemy_pos_y": 0.0,
		"duel_koyu_enemy_pos_z": 0.0,
		"duel_effect_name": "",
		"vehicle_link_off": 0
	},
	{
		"ID": 26,
		"duel_animator_name": "Animators/special/Wed_Gekkou_2004_unit",
		"duel_vehicle_animator_name": "",
		"duel_camera_animator_name": "Animators/special/Wed_Gekkou_2004_cam",
		"duel_koyu_wait_time": 14.0,
		"duel_koyu_enemy_pos_x": 0.0,
		"duel_koyu_enemy_pos_y": 0.0,
		"duel_koyu_enemy_pos_z": 0.0,
		"duel_effect_name": "",
		"vehicle_link_off": 0
	},
	{
		"ID": 27,
		"duel_animator_name": "Animators/special/300151ronginusu_unit",
		"duel_vehicle_animator_name": "",
		"duel_camera_animator_name": "Animators/special/300151ronginusu_cam",
		"duel_koyu_wait_time": 16.0,
		"duel_koyu_enemy_pos_x": 0.0,
		"duel_koyu_enemy_pos_y": 0.0,
		"duel_koyu_enemy_pos_z": 0.0,
		"duel_effect_name": "",
		"vehicle_link_off": 0
	},
	{
		"ID": 28,
		"duel_animator_name": "Animators/special/501011akane_unit",
		"duel_vehicle_animator_name": "",
		"duel_camera_animator_name": "Animators/special/501011akane_cam",
		"duel_koyu_wait_time": 18.5,
		"duel_koyu_enemy_pos_x": 0.0,
		"duel_koyu_enemy_pos_y": 0.0,
		"duel_koyu_enemy_pos_z": 0.0,
		"duel_effect_name": "",
		"vehicle_link_off": 0
	},
	{
		"ID": 29,
		"duel_animator_name": "Animators/special/501111yayoi_unit",
		"duel_vehicle_animator_name": "",
		"duel_camera_animator_name": "Animators/special/501111yayoi_cam",
		"duel_koyu_wait_time": 18.5,
		"duel_koyu_enemy_pos_x": 0.0,
		"duel_koyu_enemy_pos_y": 0.0,
		"duel_koyu_enemy_pos_z": 0.0,
		"duel_effect_name": "",
		"vehicle_link_off": 0
	},
	{
		"ID": 30,
		"duel_animator_name": "Animators/special/100261_laevateinn_unit",
		"duel_vehicle_animator_name": "",
		"duel_camera_animator_name": "Animators/special/100261_laevateinn_cam",
		"duel_koyu_wait_time": 15.0,
		"duel_koyu_enemy_pos_x": 0.0,
		"duel_koyu_enemy_pos_y": 0.0,
		"duel_koyu_enemy_pos_z": 0.0,
		"duel_effect_name": "",
		"vehicle_link_off": 0
	},
	{
		"ID": 31,
		"duel_animator_name": "Animators/special/401111_madoka_unit",
		"duel_vehicle_animator_name": "",
		"duel_camera_animator_name": "Animators/special/401111_madoka_cam",
		"duel_koyu_wait_time": 18.0,
		"duel_koyu_enemy_pos_x": 0.0,
		"duel_koyu_enemy_pos_y": 0.0,
		"duel_koyu_enemy_pos_z": 0.0,
		"duel_effect_name": "",
		"vehicle_link_off": 0
	},
	{
		"ID": 32,
		"duel_animator_name": "Animators/special/Denpa_1015mirin_unit",
		"duel_vehicle_animator_name": "",
		"duel_camera_animator_name": "Animators/special/Denpa_1015mirin_cam",
		"duel_koyu_wait_time": 12.399999618530273,
		"duel_koyu_enemy_pos_x": 0.0,
		"duel_koyu_enemy_pos_y": 0.0,
		"duel_koyu_enemy_pos_z": 0.0,
		"duel_effect_name": "",
		"vehicle_link_off": 0
	},
	{
		"ID": 33,
		"duel_animator_name": "Animators/special/DenpaY_3011pinkyY_unit",
		"duel_vehicle_animator_name": "",
		"duel_camera_animator_name": "Animators/special/Denpa_3011pinky_cam",
		"duel_koyu_wait_time": 12.800000190734863,
		"duel_koyu_enemy_pos_x": 0.0,
		"duel_koyu_enemy_pos_y": 0.0,
		"duel_koyu_enemy_pos_z": 0.0,
		"duel_effect_name": "",
		"vehicle_link_off": 0
	},
	{
		"ID": 34,
		"duel_animator_name": "Animators/special/DenpaY_5009mogaY_unit",
		"duel_vehicle_animator_name": "",
		"duel_camera_animator_name": "Animators/special/Denpa_5009moga_cam",
		"duel_koyu_wait_time": 13.0,
		"duel_koyu_enemy_pos_x": 0.0,
		"duel_koyu_enemy_pos_y": 0.0,
		"duel_koyu_enemy_pos_z": 0.0,
		"duel_effect_name": "",
		"vehicle_link_off": 0
	},
	{
		"ID": 35,
		"duel_animator_name": "Animators/special/DenpaY_2009nemuY_unit",
		"duel_vehicle_animator_name": "",
		"duel_camera_animator_name": "Animators/special/Denpa_2009nemu_cam",
		"duel_koyu_wait_time": 15.670000076293945,
		"duel_koyu_enemy_pos_x": 0.0,
		"duel_koyu_enemy_pos_y": 0.0,
		"duel_koyu_enemy_pos_z": 0.0,
		"duel_effect_name": "",
		"vehicle_link_off": 0
	},
	{
		"ID": 36,
		"duel_animator_name": "Animators/special/Denpa_4009eitaso_unit",
		"duel_vehicle_animator_name": "",
		"duel_camera_animator_name": "Animators/special/Denpa_4009eitaso_cam",
		"duel_koyu_wait_time": 11.0,
		"duel_koyu_enemy_pos_x": 0.0,
		"duel_koyu_enemy_pos_y": 0.0,
		"duel_koyu_enemy_pos_z": 0.0,
		"duel_effect_name": "",
		"vehicle_link_off": 0
	},
	{
		"ID": 37,
		"duel_animator_name": "Animators/special/Denpa_6007risa_unit",
		"duel_vehicle_animator_name": "",
		"duel_camera_animator_name": "Animators/special/Denpa_6007risa_cam",
		"duel_koyu_wait_time": 13.300000190734863,
		"duel_koyu_enemy_pos_x": 0.0,
		"duel_koyu_enemy_pos_y": 0.0,
		"duel_koyu_enemy_pos_z": 0.0,
		"duel_effect_name": "",
		"vehicle_link_off": 0
	},
	{
		"ID": 38,
		"duel_animator_name": "Animators/special/401121_Amadoka_unit",
		"duel_vehicle_animator_name": "",
		"duel_camera_animator_name": "Animators/special/401121_Amadoka_cam",
		"duel_koyu_wait_time": 19.0,
		"duel_koyu_enemy_pos_x": 0.0,
		"duel_koyu_enemy_pos_y": 0.0,
		"duel_koyu_enemy_pos_z": 0.0,
		"duel_effect_name": "",
		"vehicle_link_off": 0
	},
	{
		"ID": 39,
		"duel_animator_name": "Animators/special/501411_mami_unit",
		"duel_vehicle_animator_name": "",
		"duel_camera_animator_name": "Animators/special/501411_mami_cam",
		"duel_koyu_wait_time": 13.633999824523926,
		"duel_koyu_enemy_pos_x": 0.0,
		"duel_koyu_enemy_pos_y": 0.0,
		"duel_koyu_enemy_pos_z": 0.0,
		"duel_effect_name": "",
		"vehicle_link_off": 0
	},
	{
		"ID": 40,
		"duel_animator_name": "Animators/special/501311_homura_unit",
		"duel_vehicle_animator_name": "",
		"duel_camera_animator_name": "Animators/special/501311_homura_cam",
		"duel_koyu_wait_time": 18.0,
		"duel_koyu_enemy_pos_x": 0.0,
		"duel_koyu_enemy_pos_y": 0.0,
		"duel_koyu_enemy_pos_z": 0.0,
		"duel_effect_name": "",
		"vehicle_link_off": 0
	},
	{
		"ID": 41,
		"duel_animator_name": "Animators/special/301511_kyoko_unit",
		"duel_vehicle_animator_name": "",
		"duel_camera_animator_name": "Animators/special/301511_kyoko_cam",
		"duel_koyu_wait_time": 17.5,
		"duel_koyu_enemy_pos_x": 0.0,
		"duel_koyu_enemy_pos_y": 0.0,
		"duel_koyu_enemy_pos_z": 0.0,
		"duel_effect_name": "",
		"vehicle_link_off": 0
	},
	{
		"ID": 42,
		"duel_animator_name": "Animators/special/102011_sayaka_unit",
		"duel_vehicle_animator_name": "",
		"duel_camera_animator_name": "Animators/special/102011_sayaka_cam",
		"duel_koyu_wait_time": 15.0,
		"duel_koyu_enemy_pos_x": 0.0,
		"duel_koyu_enemy_pos_y": 0.0,
		"duel_koyu_enemy_pos_z": 0.0,
		"duel_effect_name": "",
		"vehicle_link_off": 0
	},
	{
		"ID": 43,
		"duel_animator_name": "Animators/special/400000056_madoka_homura_unit",
		"duel_vehicle_animator_name": "",
		"duel_camera_animator_name": "Animators/special/400000056_madoka_homura_cam",
		"duel_koyu_wait_time": 18.0,
		"duel_koyu_enemy_pos_x": 0.0,
		"duel_koyu_enemy_pos_y": 0.0,
		"duel_koyu_enemy_pos_z": 0.0,
		"duel_effect_name": "",
		"vehicle_link_off": 0
	},
	{
		"ID": 44,
		"duel_animator_name": "Animators/special/102111_menma_unit",
		"duel_vehicle_animator_name": "",
		"duel_camera_animator_name": "Animators/special/102111_menma_cam",
		"duel_koyu_wait_time": 16.0,
		"duel_koyu_enemy_pos_x": 0.0,
		"duel_koyu_enemy_pos_y": 0.0,
		"duel_koyu_enemy_pos_z": 0.0,
		"duel_effect_name": "",
		"vehicle_link_off": 0
	},
	{
		"ID": 45,
		"duel_animator_name": "Animators/special/201411_anaru_unit",
		"duel_vehicle_animator_name": "",
		"duel_camera_animator_name": "Animators/special/201411_anaru_cam",
		"duel_koyu_wait_time": 13.0,
		"duel_koyu_enemy_pos_x": 0.0,
		"duel_koyu_enemy_pos_y": 0.0,
		"duel_koyu_enemy_pos_z": 0.0,
		"duel_effect_name": "",
		"vehicle_link_off": 0
	},
	{
		"ID": 46,
		"duel_animator_name": "Animators/special/301611_turuko_unit",
		"duel_vehicle_animator_name": "",
		"duel_camera_animator_name": "Animators/special/301611_turuko_cam",
		"duel_koyu_wait_time": 18.0,
		"duel_koyu_enemy_pos_x": 0.0,
		"duel_koyu_enemy_pos_y": 0.0,
		"duel_koyu_enemy_pos_z": 0.0,
		"duel_effect_name": "",
		"vehicle_link_off": 0
	},
	{
		"ID": 47,
		"duel_animator_name": "Animators/special/400000067_anohana_mix_unit",
		"duel_vehicle_animator_name": "",
		"duel_camera_animator_name": "Animators/special/400000067_anohana_mix_cam",
		"duel_koyu_wait_time": 18.0,
		"duel_koyu_enemy_pos_x": 0.0,
		"duel_koyu_enemy_pos_y": 0.0,
		"duel_koyu_enemy_pos_z": 0.0,
		"duel_effect_name": "",
		"vehicle_link_off": 0
	},
	{
		"ID": 48,
		"duel_animator_name": "Animators/special/200121hlwmjo_unit",
		"duel_vehicle_animator_name": "",
		"duel_camera_animator_name": "Animators/special/200121hlwmjo_cam",
		"duel_koyu_wait_time": 18.0,
		"duel_koyu_enemy_pos_x": 0.0,
		"duel_koyu_enemy_pos_y": 0.0,
		"duel_koyu_enemy_pos_z": 0.0,
		"duel_effect_name": "",
		"vehicle_link_off": 0
	},
	{
		"ID": 49,
		"duel_animator_name": "Animators/special/500830_halloween_basyou_unit",
		"duel_vehicle_animator_name": "",
		"duel_camera_animator_name": "Animators/special/500830_halloween_basyou_cam",
		"duel_koyu_wait_time": 18.0,
		"duel_koyu_enemy_pos_x": 0.0,
		"duel_koyu_enemy_pos_y": 0.0,
		"duel_koyu_enemy_pos_z": 0.0,
		"duel_effect_name": "",
		"vehicle_link_off": 0
	},
	{
		"ID": 50,
		"duel_animator_name": "Animators/special/102211_lucina_unit",
		"duel_vehicle_animator_name": "",
		"duel_camera_animator_name": "Animators/special/102211_lucina_cam",
		"duel_koyu_wait_time": 20.0,
		"duel_koyu_enemy_pos_x": 0.0,
		"duel_koyu_enemy_pos_y": 0.0,
		"duel_koyu_enemy_pos_z": 0.0,
		"duel_effect_name": "",
		"vehicle_link_off": 0
	},
	{
		"ID": 51,
		"duel_animator_name": "Animators/special/201411_michele_unit",
		"duel_vehicle_animator_name": "",
		"duel_camera_animator_name": "Animators/special/201511_michele_cam",
		"duel_koyu_wait_time": 19.0,
		"duel_koyu_enemy_pos_x": 0.0,
		"duel_koyu_enemy_pos_y": 0.0,
		"duel_koyu_enemy_pos_z": 0.0,
		"duel_effect_name": "",
		"vehicle_link_off": 0
	},
	{
		"ID": 52,
		"duel_animator_name": "Animators/special/Denpa_1015mirin_unit_v2",
		"duel_vehicle_animator_name": "",
		"duel_camera_animator_name": "Animators/special/Denpa_1015mirin_cam",
		"duel_koyu_wait_time": 12.399999618530273,
		"duel_koyu_enemy_pos_x": 0.0,
		"duel_koyu_enemy_pos_y": 0.0,
		"duel_koyu_enemy_pos_z": 0.0,
		"duel_effect_name": "",
		"vehicle_link_off": 0
	},
	{
		"ID": 53,
		"duel_animator_name": "Animators/special/101411_tirufingu_unit",
		"duel_vehicle_animator_name": "",
		"duel_camera_animator_name": "Animators/special/101414_tirufingu_cam",
		"duel_koyu_wait_time": 20.0,
		"duel_koyu_enemy_pos_x": 0.0,
		"duel_koyu_enemy_pos_y": 0.0,
		"duel_koyu_enemy_pos_z": 0.0,
		"duel_effect_name": "",
		"vehicle_link_off": 0
	},
	{
		"ID": 54,
		"duel_animator_name": "Animators/special/101414_tirufingu_unit",
		"duel_vehicle_animator_name": "",
		"duel_camera_animator_name": "Animators/special/101414_tirufingu_cam",
		"duel_koyu_wait_time": 20.0,
		"duel_koyu_enemy_pos_x": 0.0,
		"duel_koyu_enemy_pos_y": 0.0,
		"duel_koyu_enemy_pos_z": 0.0,
		"duel_effect_name": "",
		"vehicle_link_off": 0
	},
	{
		"ID": 55,
		"duel_animator_name": "Animators/special/201621_shita_unit",
		"duel_vehicle_animator_name": "",
		"duel_camera_animator_name": "Animators/special/201621_shita_cam",
		"duel_koyu_wait_time": 9.800000190734863,
		"duel_koyu_enemy_pos_x": 0.0,
		"duel_koyu_enemy_pos_y": 0.0,
		"duel_koyu_enemy_pos_z": 0.0,
		"duel_effect_name": "",
		"vehicle_link_off": 0
	},
	{
		"ID": 56,
		"duel_animator_name": "Animators/special/101113exculibur_unit",
		"duel_vehicle_animator_name": "",
		"duel_camera_animator_name": "Animators/special/1011exculibur_cam",
		"duel_koyu_wait_time": 20.0,
		"duel_koyu_enemy_pos_x": 0.0,
		"duel_koyu_enemy_pos_y": 0.0,
		"duel_koyu_enemy_pos_z": 0.0,
		"duel_effect_name": "",
		"vehicle_link_off": 0
	},
	{
		"ID": 57,
		"duel_animator_name": "Animators/special/201623_shita_unit",
		"duel_vehicle_animator_name": "",
		"duel_camera_animator_name": "Animators/special/201621_shita_cam",
		"duel_koyu_wait_time": 9.800000190734863,
		"duel_koyu_enemy_pos_x": 0.0,
		"duel_koyu_enemy_pos_y": 0.0,
		"duel_koyu_enemy_pos_z": 0.0,
		"duel_effect_name": "",
		"vehicle_link_off": 0
	},
	{
		"ID": 58,
		"duel_animator_name": "Animators/special/501611Flabellum_unit",
		"duel_vehicle_animator_name": "",
		"duel_camera_animator_name": "Animators/special/501611Flabellum_cam",
		"duel_koyu_wait_time": 19.0,
		"duel_koyu_enemy_pos_x": 0.0,
		"duel_koyu_enemy_pos_y": 0.0,
		"duel_koyu_enemy_pos_z": 0.0,
		"duel_effect_name": "",
		"vehicle_link_off": 0
	},
	{
		"ID": 59,
		"duel_animator_name": "Animators/special/501613Flabellum_unit",
		"duel_vehicle_animator_name": "",
		"duel_camera_animator_name": "Animators/special/501611Flabellum_cam",
		"duel_koyu_wait_time": 19.0,
		"duel_koyu_enemy_pos_x": 0.0,
		"duel_koyu_enemy_pos_y": 0.0,
		"duel_koyu_enemy_pos_z": 0.0,
		"duel_effect_name": "",
		"vehicle_link_off": 0
	},
	{
		"ID": 60,
		"duel_animator_name": "Animators/special/201711_yagurusi_unit",
		"duel_vehicle_animator_name": "",
		"duel_camera_animator_name": "Animators/special/201711_yagurusi_cam",
		"duel_koyu_wait_time": 18.0,
		"duel_koyu_enemy_pos_x": 0.0,
		"duel_koyu_enemy_pos_y": 0.0,
		"duel_koyu_enemy_pos_z": 0.0,
		"duel_effect_name": "",
		"vehicle_link_off": 0
	},
	{
		"ID": 61,
		"duel_animator_name": "Animators/special/201713_yagurusi_unit",
		"duel_vehicle_animator_name": "",
		"duel_camera_animator_name": "Animators/special/201711_yagurusi_cam",
		"duel_koyu_wait_time": 20.0,
		"duel_koyu_enemy_pos_x": 0.0,
		"duel_koyu_enemy_pos_y": 0.0,
		"duel_koyu_enemy_pos_z": 0.0,
		"duel_effect_name": "",
		"vehicle_link_off": 0
	},
	{
		"ID": 62,
		"duel_animator_name": "Animators/special/100841_guram_unit",
		"duel_vehicle_animator_name": "Animators/special/100841_guram_equip",
		"duel_camera_animator_name": "Animators/special/100841_guram_cam",
		"duel_koyu_wait_time": 17.5,
		"duel_koyu_enemy_pos_x": 0.0,
		"duel_koyu_enemy_pos_y": 0.0,
		"duel_koyu_enemy_pos_z": 0.0,
		"duel_effect_name": "",
		"vehicle_link_off": 0
	},
	{
		"ID": 63,
		"duel_animator_name": "Animators/special/100843_guram_unit",
		"duel_vehicle_animator_name": "Animators/special/100841_guram_equip",
		"duel_camera_animator_name": "Animators/special/100841_guram_cam",
		"duel_koyu_wait_time": 17.5,
		"duel_koyu_enemy_pos_x": 0.0,
		"duel_koyu_enemy_pos_y": 0.0,
		"duel_koyu_enemy_pos_z": 0.0,
		"duel_effect_name": "",
		"vehicle_link_off": 0
	},
	{
		"ID": 64,
		"duel_animator_name": "Animators/special/501712_grimoire_unit",
		"duel_vehicle_animator_name": "",
		"duel_camera_animator_name": "Animators/special/501712_grimoire_cam",
		"duel_koyu_wait_time": 18.899999618530273,
		"duel_koyu_enemy_pos_x": 0.0,
		"duel_koyu_enemy_pos_y": 0.0,
		"duel_koyu_enemy_pos_z": 0.0,
		"duel_effect_name": "",
		"vehicle_link_off": 0
	},
	{
		"ID": 65,
		"duel_animator_name": "Animators/special/501713_grimoire_unit",
		"duel_vehicle_animator_name": "",
		"duel_camera_animator_name": "Animators/special/501712_grimoire_cam",
		"duel_koyu_wait_time": 19.799999237060547,
		"duel_koyu_enemy_pos_x": 0.0,
		"duel_koyu_enemy_pos_y": 0.0,
		"duel_koyu_enemy_pos_z": 0.0,
		"duel_effect_name": "",
		"vehicle_link_off": 0
	},
	{
		"ID": 66,
		"duel_animator_name": "Animators/special/100241_levateinn_unit",
		"duel_vehicle_animator_name": "",
		"duel_camera_animator_name": "Animators/special/100241_levateinn_cam",
		"duel_koyu_wait_time": 15.199999809265137,
		"duel_koyu_enemy_pos_x": 0.0,
		"duel_koyu_enemy_pos_y": 0.0,
		"duel_koyu_enemy_pos_z": 0.0,
		"duel_effect_name": "",
		"vehicle_link_off": 0
	},
	{
		"ID": 67,
		"duel_animator_name": "Animators/special/100243_levateinn_unit",
		"duel_vehicle_animator_name": "",
		"duel_camera_animator_name": "Animators/special/100241_levateinn_cam",
		"duel_koyu_wait_time": 15.199999809265137,
		"duel_koyu_enemy_pos_x": 0.0,
		"duel_koyu_enemy_pos_y": 0.0,
		"duel_koyu_enemy_pos_z": 0.0,
		"duel_effect_name": "",
		"vehicle_link_off": 0
	},
	{
		"ID": 68,
		"duel_animator_name": "Animators/special/400333_apolon_unit",
		"duel_vehicle_animator_name": "Animators/special/400333_apolon_equip",
		"duel_camera_animator_name": "Animators/special/400333_apolon_cam",
		"duel_koyu_wait_time": 6.0,
		"duel_koyu_enemy_pos_x": -5.0,
		"duel_koyu_enemy_pos_y": 0.0,
		"duel_koyu_enemy_pos_z": 0.0,
		"duel_effect_name": "",
		"vehicle_link_off": 0
	},
	{
		"ID": 69,
		"duel_animator_name": "Animators/special/200113_myuruniru_unit",
		"duel_vehicle_animator_name": "",
		"duel_camera_animator_name": "Animators/special/200113_myuruniru_cam",
		"duel_koyu_wait_time": 10.670000076293945,
		"duel_koyu_enemy_pos_x": 0.0,
		"duel_koyu_enemy_pos_y": 0.0,
		"duel_koyu_enemy_pos_z": 0.0,
		"duel_effect_name": "",
		"vehicle_link_off": 0
	},
	{
		"ID": 70,
		"duel_animator_name": "Animators/special/Ryusei_3005_unit_6s",
		"duel_vehicle_animator_name": "Animators/special/Ryusei_3005_equip",
		"duel_camera_animator_name": "Animators/special/Ryusei_3005_cam",
		"duel_koyu_wait_time": 11.14009952545166,
		"duel_koyu_enemy_pos_x": 0.0,
		"duel_koyu_enemy_pos_y": 0.0,
		"duel_koyu_enemy_pos_z": 0.0,
		"duel_effect_name": "",
		"vehicle_link_off": 0
	},
	{
		"ID": 71,
		"duel_animator_name": "Animators/special/200251xmas2015_aimuru_unit",
		"duel_vehicle_animator_name": "",
		"duel_camera_animator_name": "Animators/special/200251xmas2015_aimuru_cam",
		"duel_koyu_wait_time": 18.0,
		"duel_koyu_enemy_pos_x": 0.0,
		"duel_koyu_enemy_pos_y": 0.0,
		"duel_koyu_enemy_pos_z": 0.0,
		"duel_effect_name": "",
		"vehicle_link_off": 0
	},
	{
		"ID": 72,
		"duel_animator_name": "Animators/special/200253xmas2015_aimuru_unit",
		"duel_vehicle_animator_name": "",
		"duel_camera_animator_name": "Animators/special/200251xmas2015_aimuru_cam",
		"duel_koyu_wait_time": 18.0,
		"duel_koyu_enemy_pos_x": 0.0,
		"duel_koyu_enemy_pos_y": 0.0,
		"duel_koyu_enemy_pos_z": 0.0,
		"duel_effect_name": "",
		"vehicle_link_off": 0
	},
	{
		"ID": 73,
		"duel_animator_name": "Animators/special/102311_ascalon_unit",
		"duel_vehicle_animator_name": "",
		"duel_camera_animator_name": "Animators/special/102311_ascalon_cam",
		"duel_koyu_wait_time": 18.0,
		"duel_koyu_enemy_pos_x": 0.0,
		"duel_koyu_enemy_pos_y": 0.0,
		"duel_koyu_enemy_pos_z": 0.0,
		"duel_effect_name": "",
		"vehicle_link_off": 0
	},
	{
		"ID": 74,
		"duel_animator_name": "Animators/special/102313_ascalon_unit",
		"duel_vehicle_animator_name": "",
		"duel_camera_animator_name": "Animators/special/102311_ascalon_cam",
		"duel_koyu_wait_time": 18.0,
		"duel_koyu_enemy_pos_x": 0.0,
		"duel_koyu_enemy_pos_y": 0.0,
		"duel_koyu_enemy_pos_z": 0.0,
		"duel_effect_name": "",
		"vehicle_link_off": 0
	},
	{
		"ID": 75,
		"duel_animator_name": "Animators/special/200251xmas2015_aimuru_unit",
		"duel_vehicle_animator_name": "",
		"duel_camera_animator_name": "Animators/special/200251xmas2015_aimuru_cam",
		"duel_koyu_wait_time": 17.0,
		"duel_koyu_enemy_pos_x": 0.0,
		"duel_koyu_enemy_pos_y": 0.0,
		"duel_koyu_enemy_pos_z": 0.0,
		"duel_effect_name": "",
		"vehicle_link_off": 0
	},
	{
		"ID": 76,
		"duel_animator_name": "Animators/special/200253xmas2015_aimuru_unit",
		"duel_vehicle_animator_name": "",
		"duel_camera_animator_name": "Animators/special/200251xmas2015_aimuru_cam",
		"duel_koyu_wait_time": 17.0,
		"duel_koyu_enemy_pos_x": 0.0,
		"duel_koyu_enemy_pos_y": 0.0,
		"duel_koyu_enemy_pos_z": 0.0,
		"duel_effect_name": "",
		"vehicle_link_off": 0
	},
	{
		"ID": 77,
		"duel_animator_name": "Animators/special/501811_A_homura_unit",
		"duel_vehicle_animator_name": "",
		"duel_camera_animator_name": "Animators/special/501811_A_homura_cam",
		"duel_koyu_wait_time": 16.5,
		"duel_koyu_enemy_pos_x": 0.0,
		"duel_koyu_enemy_pos_y": 0.0,
		"duel_koyu_enemy_pos_z": 0.0,
		"duel_effect_name": "",
		"vehicle_link_off": 0
	},
	{
		"ID": 78,
		"duel_animator_name": "Animators/special/400000120_AporonArtemis_unit",
		"duel_vehicle_animator_name": "",
		"duel_camera_animator_name": "Animators/special/400000120_AporonArtemis_cam",
		"duel_koyu_wait_time": 18.399999618530273,
		"duel_koyu_enemy_pos_x": 0.0,
		"duel_koyu_enemy_pos_y": 0.0,
		"duel_koyu_enemy_pos_z": 0.0,
		"duel_effect_name": "",
		"vehicle_link_off": 0
	},
	{
		"ID": 79,
		"duel_animator_name": "Animators/special/400000111_burahu_vajyura_unit",
		"duel_vehicle_animator_name": "",
		"duel_camera_animator_name": "Animators/special/400000111_burahu_vajyura_cam",
		"duel_koyu_wait_time": 14.5,
		"duel_koyu_enemy_pos_x": 0.0,
		"duel_koyu_enemy_pos_y": 0.0,
		"duel_koyu_enemy_pos_z": 0.0,
		"duel_effect_name": "",
		"vehicle_link_off": 0
	},
	{
		"ID": 80,
		"duel_animator_name": "Animators/special/201111_wazra_unit",
		"duel_vehicle_animator_name": "",
		"duel_camera_animator_name": "Animators/special/201111_wazra_cam",
		"duel_koyu_wait_time": 17.299999237060547,
		"duel_koyu_enemy_pos_x": 0.0,
		"duel_koyu_enemy_pos_y": 0.0,
		"duel_koyu_enemy_pos_z": 0.0,
		"duel_effect_name": "",
		"vehicle_link_off": 0
	},
	{
		"ID": 81,
		"duel_animator_name": "Animators/special/201113_wazra_unit",
		"duel_vehicle_animator_name": "",
		"duel_camera_animator_name": "Animators/special/201111_wazra_cam",
		"duel_koyu_wait_time": 17.299999237060547,
		"duel_koyu_enemy_pos_x": 0.0,
		"duel_koyu_enemy_pos_y": 0.0,
		"duel_koyu_enemy_pos_z": 0.0,
		"duel_effect_name": "",
		"vehicle_link_off": 0
	},
	{
		"ID": 82,
		"duel_animator_name": "Animators/special/401123_Amadoka_unit",
		"duel_vehicle_animator_name": "",
		"duel_camera_animator_name": "Animators/special/401121_Amadoka_cam",
		"duel_koyu_wait_time": 19.0,
		"duel_koyu_enemy_pos_x": 0.0,
		"duel_koyu_enemy_pos_y": 0.0,
		"duel_koyu_enemy_pos_z": 0.0,
		"duel_effect_name": "",
		"vehicle_link_off": 0
	},
	{
		"ID": 83,
		"duel_animator_name": "Animators/special/501813_A_homura_unit",
		"duel_vehicle_animator_name": "",
		"duel_camera_animator_name": "Animators/special/501811_A_homura_cam",
		"duel_koyu_wait_time": 16.5,
		"duel_koyu_enemy_pos_x": 0.0,
		"duel_koyu_enemy_pos_y": 0.0,
		"duel_koyu_enemy_pos_z": 0.0,
		"duel_effect_name": "",
		"vehicle_link_off": 0
	},
	{
		"ID": 84,
		"duel_animator_name": "Animators/special/400831_othinus_unit",
		"duel_vehicle_animator_name": "",
		"duel_camera_animator_name": "Animators/special/400831_othinus_cam",
		"duel_koyu_wait_time": 20.0,
		"duel_koyu_enemy_pos_x": 0.0,
		"duel_koyu_enemy_pos_y": 0.0,
		"duel_koyu_enemy_pos_z": 0.0,
		"duel_effect_name": "",
		"vehicle_link_off": 0
	},
	{
		"ID": 85,
		"duel_animator_name": "Animators/special/400833_othinus_unit",
		"duel_vehicle_animator_name": "",
		"duel_camera_animator_name": "Animators/special/400831_othinus_cam",
		"duel_koyu_wait_time": 20.0,
		"duel_koyu_enemy_pos_x": 0.0,
		"duel_koyu_enemy_pos_y": 0.0,
		"duel_koyu_enemy_pos_z": 0.0,
		"duel_effect_name": "",
		"vehicle_link_off": 0
	},
	{
		"ID": 86,
		"duel_animator_name": "Animators/special/101451_tirufingu_unit",
		"duel_vehicle_animator_name": "",
		"duel_camera_animator_name": "Animators/special/101451_tirufingu_cam",
		"duel_koyu_wait_time": 17.0,
		"duel_koyu_enemy_pos_x": 0.0,
		"duel_koyu_enemy_pos_y": 0.0,
		"duel_koyu_enemy_pos_z": 0.0,
		"duel_effect_name": "",
		"vehicle_link_off": 0
	},
	{
		"ID": 87,
		"duel_animator_name": "Animators/special/101453_tirufingu_unit",
		"duel_vehicle_animator_name": "",
		"duel_camera_animator_name": "Animators/special/101451_tirufingu_cam",
		"duel_koyu_wait_time": 17.0,
		"duel_koyu_enemy_pos_x": 0.0,
		"duel_koyu_enemy_pos_y": 0.0,
		"duel_koyu_enemy_pos_z": 0.0,
		"duel_effect_name": "",
		"vehicle_link_off": 0
	},
	{
		"ID": 88,
		"duel_animator_name": "Animators/special/102411_fate_saver_unit",
		"duel_vehicle_animator_name": "",
		"duel_camera_animator_name": "Animators/special/102411_fate_saver_cam",
		"duel_koyu_wait_time": 13.5,
		"duel_koyu_enemy_pos_x": 0.0,
		"duel_koyu_enemy_pos_y": 0.0,
		"duel_koyu_enemy_pos_z": 0.0,
		"duel_effect_name": "",
		"vehicle_link_off": 0
	},
	{
		"ID": 89,
		"duel_animator_name": "Animators/special/102413_fate_saver_unit",
		"duel_vehicle_animator_name": "",
		"duel_camera_animator_name": "Animators/special/102411_fate_saver_cam",
		"duel_koyu_wait_time": 13.5,
		"duel_koyu_enemy_pos_x": 0.0,
		"duel_koyu_enemy_pos_y": 0.0,
		"duel_koyu_enemy_pos_z": 0.0,
		"duel_effect_name": "",
		"vehicle_link_off": 0
	},
	{
		"ID": 90,
		"duel_animator_name": "Animators/special/301811_forcas_unit",
		"duel_vehicle_animator_name": "",
		"duel_camera_animator_name": "Animators/special/301811_forcas_cam",
		"duel_koyu_wait_time": 17.0,
		"duel_koyu_enemy_pos_x": 0.0,
		"duel_koyu_enemy_pos_y": 0.0,
		"duel_koyu_enemy_pos_z": 0.0,
		"duel_effect_name": "",
		"vehicle_link_off": 0
	},
	{
		"ID": 91,
		"duel_animator_name": "Animators/special/301813_forcas_unit",
		"duel_vehicle_animator_name": "",
		"duel_camera_animator_name": "Animators/special/301813_forcas_cam",
		"duel_koyu_wait_time": 18.0,
		"duel_koyu_enemy_pos_x": 0.0,
		"duel_koyu_enemy_pos_y": 0.0,
		"duel_koyu_enemy_pos_z": 0.0,
		"duel_effect_name": "",
		"vehicle_link_off": 0
	},
	{
		"ID": 92,
		"duel_animator_name": "Animators/special/301911_rider_unit",
		"duel_vehicle_animator_name": "",
		"duel_camera_animator_name": "Animators/special/301911_rider_cam",
		"duel_koyu_wait_time": 13.5,
		"duel_koyu_enemy_pos_x": 0.0,
		"duel_koyu_enemy_pos_y": 0.0,
		"duel_koyu_enemy_pos_z": 0.0,
		"duel_effect_name": "",
		"vehicle_link_off": 0
	},
	{
		"ID": 93,
		"duel_animator_name": "Animators/special/301913_rider_unit",
		"duel_vehicle_animator_name": "",
		"duel_camera_animator_name": "Animators/special/301911_rider_cam",
		"duel_koyu_wait_time": 13.5,
		"duel_koyu_enemy_pos_x": 0.0,
		"duel_koyu_enemy_pos_y": 0.0,
		"duel_koyu_enemy_pos_z": 0.0,
		"duel_effect_name": "",
		"vehicle_link_off": 0
	},
	{
		"ID": 94,
		"duel_animator_name": "Animators/special/400000156_izoku_unit",
		"duel_vehicle_animator_name": "",
		"duel_camera_animator_name": "Animators/special/1011exculibur_cam",
		"duel_koyu_wait_time": 20.0,
		"duel_koyu_enemy_pos_x": 0.0,
		"duel_koyu_enemy_pos_y": 0.0,
		"duel_koyu_enemy_pos_z": 0.0,
		"duel_effect_name": "",
		"vehicle_link_off": 0
	},
	{
		"ID": 95,
		"duel_animator_name": "Animators/special/401311_aporoditia_unit",
		"duel_vehicle_animator_name": "",
		"duel_camera_animator_name": "Animators/special/401311_aporoditia_cam",
		"duel_koyu_wait_time": 18.0,
		"duel_koyu_enemy_pos_x": 0.0,
		"duel_koyu_enemy_pos_y": 0.0,
		"duel_koyu_enemy_pos_z": 0.0,
		"duel_effect_name": "",
		"vehicle_link_off": 0
	},
	{
		"ID": 96,
		"duel_animator_name": "Animators/special/401313_aporoditia_unit",
		"duel_vehicle_animator_name": "",
		"duel_camera_animator_name": "Animators/special/401311_aporoditia_cam",
		"duel_koyu_wait_time": 18.0,
		"duel_koyu_enemy_pos_x": 0.0,
		"duel_koyu_enemy_pos_y": 0.0,
		"duel_koyu_enemy_pos_z": 0.0,
		"duel_effect_name": "",
		"vehicle_link_off": 0
	},
	{
		"ID": 97,
		"duel_animator_name": "Animators/special/1100211_lvatein_unit",
		"duel_vehicle_animator_name": "",
		"duel_camera_animator_name": "Animators/special/1100211_lvatein_cam",
		"duel_koyu_wait_time": 15.0,
		"duel_koyu_enemy_pos_x": 0.0,
		"duel_koyu_enemy_pos_y": 0.0,
		"duel_koyu_enemy_pos_z": 0.0,
		"duel_effect_name": "",
		"vehicle_link_off": 0
	},
	{
		"ID": 98,
		"duel_animator_name": "Animators/special/1200111_mjolnir_unit",
		"duel_vehicle_animator_name": "",
		"duel_camera_animator_name": "Animators/special/1200111_mjolnir_cam",
		"duel_koyu_wait_time": 15.0,
		"duel_koyu_enemy_pos_x": 0.0,
		"duel_koyu_enemy_pos_y": 0.0,
		"duel_koyu_enemy_pos_z": 0.0,
		"duel_effect_name": "",
		"vehicle_link_off": 0
	},
	{
		"ID": 99,
		"duel_animator_name": "Animators/special/1300111_longinus_unit",
		"duel_vehicle_animator_name": "",
		"duel_camera_animator_name": "Animators/special/1300111_longinus_cam",
		"duel_koyu_wait_time": 15.0,
		"duel_koyu_enemy_pos_x": 0.0,
		"duel_koyu_enemy_pos_y": 0.0,
		"duel_koyu_enemy_pos_z": 0.0,
		"duel_effect_name": "",
		"vehicle_link_off": 0
	},
	{
		"ID": 100,
		"duel_animator_name": "Animators/special/1400311_apollon_unit",
		"duel_vehicle_animator_name": "Animators/special/1400311_apollon_equip",
		"duel_camera_animator_name": "Animators/special/1400311_apollon_cam",
		"duel_koyu_wait_time": 15.0,
		"duel_koyu_enemy_pos_x": 0.0,
		"duel_koyu_enemy_pos_y": 0.0,
		"duel_koyu_enemy_pos_z": 0.0,
		"duel_effect_name": "",
		"vehicle_link_off": 0
	},
	{
		"ID": 101,
		"duel_animator_name": "Animators/special/1600221_Gambantein_unit",
		"duel_vehicle_animator_name": "",
		"duel_camera_animator_name": "Animators/special/1600221_Gambantein_cam",
		"duel_koyu_wait_time": 10.0,
		"duel_koyu_enemy_pos_x": 0.0,
		"duel_koyu_enemy_pos_y": 0.0,
		"duel_koyu_enemy_pos_z": 0.0,
		"duel_effect_name": "",
		"vehicle_link_off": 0
	},
	{
		"ID": 102,
		"duel_animator_name": "Animators/special/1200640_daguda_unit",
		"duel_vehicle_animator_name": "Animators/special/1200640_daguda_equip",
		"duel_camera_animator_name": "Animators/special/1200640_daguda_cam",
		"duel_koyu_wait_time": 15.0,
		"duel_koyu_enemy_pos_x": 0.0,
		"duel_koyu_enemy_pos_y": 0.0,
		"duel_koyu_enemy_pos_z": 0.0,
		"duel_effect_name": "",
		"vehicle_link_off": 0
	}
]