[
	{
		"ID": 1,
		"end_at": "2115-07-30 00:00:00",
		"complete_reward_group_ids": "1",
		"header_image_name": "PanelMissionHeader_59",
		"priority": 2
	},
	{
		"ID": 101,
		"end_at": "2018-08-12 23:59:59",
		"complete_reward_group_ids": "101",
		"header_image_name": "PanelMissionHeader_2",
		"priority": 99
	},
	{
		"ID": 2,
		"end_at": "2115-07-30 00:00:00",
		"complete_reward_group_ids": "201",
		"header_image_name": "PanelMissionHeader_60",
		"priority": 3
	},
	{
		"ID": 3,
		"end_at": "2115-07-30 00:00:00",
		"complete_reward_group_ids": "301",
		"header_image_name": "PanelMissionHeader_61",
		"priority": 4
	},
	{
		"ID": 4,
		"end_at": "2115-07-30 00:00:00",
		"complete_reward_group_ids": "401",
		"header_image_name": "PanelMissionHeader_62",
		"priority": 5
	},
	{
		"ID": 5,
		"end_at": "2115-07-30 00:00:00",
		"complete_reward_group_ids": "501",
		"header_image_name": "PanelMissionHeader_63",
		"priority": 6
	},
	{
		"ID": 102,
		"end_at": "2020-01-16 23:59:59",
		"complete_reward_group_ids": "102",
		"header_image_name": "PanelMissionHeader_7",
		"priority": 99
	},
	{
		"ID": 103,
		"end_at": "2020-01-16 23:59:59",
		"complete_reward_group_ids": "103",
		"header_image_name": "PanelMissionHeader_8",
		"priority": 99
	},
	{
		"ID": 104,
		"end_at": "2020-01-16 23:59:59",
		"complete_reward_group_ids": "104",
		"header_image_name": "PanelMissionHeader_9",
		"priority": 99
	},
	{
		"ID": 105,
		"end_at": "2020-01-16 23:59:59",
		"complete_reward_group_ids": "105",
		"header_image_name": "PanelMissionHeader_10",
		"priority": 99
	},
	{
		"ID": 106,
		"end_at": "2020-01-16 23:59:59",
		"complete_reward_group_ids": "106",
		"header_image_name": "PanelMissionHeader_11",
		"priority": 99
	},
	{
		"ID": 107,
		"end_at": "2020-01-16 23:59:59",
		"complete_reward_group_ids": "107",
		"header_image_name": "PanelMissionHeader_12",
		"priority": 99
	},
	{
		"ID": 108,
		"end_at": "2020-01-16 23:59:59",
		"complete_reward_group_ids": "108",
		"header_image_name": "PanelMissionHeader_13",
		"priority": 99
	},
	{
		"ID": 109,
		"end_at": "2017-11-30 23:59:59",
		"complete_reward_group_ids": "109",
		"header_image_name": "PanelMissionHeader_14",
		"priority": 99
	},
	{
		"ID": 110,
		"end_at": "2019-07-31 23:59:59",
		"complete_reward_group_ids": "110",
		"header_image_name": "PanelMissionHeader_20",
		"priority": 11
	},
	{
		"ID": 111,
		"end_at": "2018-02-28 23:59:59",
		"complete_reward_group_ids": "111",
		"header_image_name": "PanelMissionHeader_21",
		"priority": 99
	},
	{
		"ID": 112,
		"end_at": "2019-07-31 23:59:59",
		"complete_reward_group_ids": "112",
		"header_image_name": "PanelMissionHeader_22",
		"priority": 12
	},
	{
		"ID": 113,
		"end_at": "2018-09-13 14:59:00",
		"complete_reward_group_ids": "113",
		"header_image_name": "PanelMissionHeader_23",
		"priority": 99
	},
	{
		"ID": 114,
		"end_at": "2019-06-30 23:59:59",
		"complete_reward_group_ids": "114",
		"header_image_name": "PanelMissionHeader_24",
		"priority": 50
	},
	{
		"ID": 115,
		"end_at": "2019-07-31 23:59:59",
		"complete_reward_group_ids": "115",
		"header_image_name": "PanelMissionHeader_25",
		"priority": 13
	},
	{
		"ID": 116,
		"end_at": "2020-01-16 23:59:59",
		"complete_reward_group_ids": "116",
		"header_image_name": "PanelMissionHeader_26",
		"priority": 99
	},
	{
		"ID": 117,
		"end_at": "2018-08-14 15:00:00",
		"complete_reward_group_ids": "117",
		"header_image_name": "PanelMissionHeader_27",
		"priority": 99
	},
	{
		"ID": 118,
		"end_at": "2019-07-31 23:59:59",
		"complete_reward_group_ids": "118",
		"header_image_name": "PanelMissionHeader_28",
		"priority": 14
	},
	{
		"ID": 119,
		"end_at": "2018-08-12 23:59:59",
		"complete_reward_group_ids": "119",
		"header_image_name": "PanelMissionHeader_29",
		"priority": 99
	},
	{
		"ID": 120,
		"end_at": "2020-01-16 23:59:59",
		"complete_reward_group_ids": "120",
		"header_image_name": "PanelMissionHeader_30",
		"priority": 99
	},
	{
		"ID": 121,
		"end_at": "2019-07-31 23:59:59",
		"complete_reward_group_ids": "121",
		"header_image_name": "PanelMissionHeader_31",
		"priority": 15
	},
	{
		"ID": 122,
		"end_at": "2020-01-16 23:59:59",
		"complete_reward_group_ids": "122",
		"header_image_name": "PanelMissionHeader_32",
		"priority": 99
	},
	{
		"ID": 123,
		"end_at": "2019-07-31 23:59:59",
		"complete_reward_group_ids": "123",
		"header_image_name": "PanelMissionHeader_33",
		"priority": 16
	},
	{
		"ID": 124,
		"end_at": "2019-07-31 23:59:59",
		"complete_reward_group_ids": "124",
		"header_image_name": "PanelMissionHeader_34",
		"priority": 17
	},
	{
		"ID": 126,
		"end_at": "2019-07-31 23:59:59",
		"complete_reward_group_ids": "126",
		"header_image_name": "PanelMissionHeader_36",
		"priority": 18
	},
	{
		"ID": 127,
		"end_at": "2018-11-30 23:59:59",
		"complete_reward_group_ids": "127",
		"header_image_name": "PanelMissionHeader_37",
		"priority": 99
	},
	{
		"ID": 125,
		"end_at": "2018-12-17 23:59:59",
		"complete_reward_group_ids": "125",
		"header_image_name": "PanelMissionHeader_35",
		"priority": 99
	},
	{
		"ID": 128,
		"end_at": "2019-07-31 23:59:59",
		"complete_reward_group_ids": "128",
		"header_image_name": "PanelMissionHeader_38",
		"priority": 19
	},
	{
		"ID": 129,
		"end_at": "2019-07-31 23:59:59",
		"complete_reward_group_ids": "129",
		"header_image_name": "PanelMissionHeader_39",
		"priority": 20
	},
	{
		"ID": 130,
		"end_at": "2019-01-31 23:59:59",
		"complete_reward_group_ids": "130",
		"header_image_name": "PanelMissionHeader_43",
		"priority": 99
	},
	{
		"ID": 131,
		"end_at": "2019-01-31 23:59:59",
		"complete_reward_group_ids": "131",
		"header_image_name": "PanelMissionHeader_42",
		"priority": 99
	},
	{
		"ID": 132,
		"end_at": "2019-01-31 23:59:59",
		"complete_reward_group_ids": "132",
		"header_image_name": "PanelMissionHeader_41",
		"priority": 99
	},
	{
		"ID": 133,
		"end_at": "2019-01-31 23:59:59",
		"complete_reward_group_ids": "133",
		"header_image_name": "PanelMissionHeader_40",
		"priority": 99
	},
	{
		"ID": 134,
		"end_at": "2019-07-31 23:59:59",
		"complete_reward_group_ids": "134",
		"header_image_name": "PanelMissionHeader_44",
		"priority": 21
	},
	{
		"ID": 135,
		"end_at": "2019-07-31 23:59:59",
		"complete_reward_group_ids": "135",
		"header_image_name": "PanelMissionHeader_45",
		"priority": 22
	},
	{
		"ID": 136,
		"end_at": "2019-03-31 23:59:59",
		"complete_reward_group_ids": "136",
		"header_image_name": "PanelMissionHeader_21",
		"priority": 99
	},
	{
		"ID": 137,
		"end_at": "2019-07-31 23:59:59",
		"complete_reward_group_ids": "137",
		"header_image_name": "PanelMissionHeader_46",
		"priority": 23
	},
	{
		"ID": 139,
		"end_at": "2019-05-31 23:59:59",
		"complete_reward_group_ids": "139",
		"header_image_name": "PanelMissionHeader_49",
		"priority": 1
	},
	{
		"ID": 138,
		"end_at": "2019-07-31 23:59:59",
		"complete_reward_group_ids": "138",
		"header_image_name": "PanelMissionHeader_48",
		"priority": 24
	},
	{
		"ID": 140,
		"end_at": "2019-06-17 23:59:59",
		"complete_reward_group_ids": "140",
		"header_image_name": "PanelMissionHeader_35",
		"priority": 99
	},
	{
		"ID": 141,
		"end_at": "2019-05-17 23:59:59",
		"complete_reward_group_ids": "141",
		"header_image_name": "PanelMissionHeader_50",
		"priority": 99
	},
	{
		"ID": 142,
		"end_at": "2019-07-31 23:59:59",
		"complete_reward_group_ids": "142",
		"header_image_name": "PanelMissionHeader_51",
		"priority": 25
	},
	{
		"ID": 143,
		"end_at": "2019-06-17 23:59:59",
		"complete_reward_group_ids": "143",
		"header_image_name": "PanelMissionHeader_47",
		"priority": 99
	},
	{
		"ID": 144,
		"end_at": "2019-06-30 23:59:59",
		"complete_reward_group_ids": "144",
		"header_image_name": "PanelMissionHeader_52",
		"priority": 51
	},
	{
		"ID": 145,
		"end_at": "2019-07-31 23:59:59",
		"complete_reward_group_ids": "145",
		"header_image_name": "PanelMissionHeader_53",
		"priority": 2
	},
	{
		"ID": 146,
		"end_at": "2019-09-13 23:59:59",
		"complete_reward_group_ids": "146",
		"header_image_name": "PanelMissionHeader_2",
		"priority": 99
	},
	{
		"ID": 147,
		"end_at": "2019-09-13 23:59:59",
		"complete_reward_group_ids": "147",
		"header_image_name": "PanelMissionHeader_27",
		"priority": 99
	},
	{
		"ID": 148,
		"end_at": "2019-09-13 23:59:59",
		"complete_reward_group_ids": "148",
		"header_image_name": "PanelMissionHeader_29",
		"priority": 99
	},
	{
		"ID": 149,
		"end_at": "2019-09-13 23:59:59",
		"complete_reward_group_ids": "149",
		"header_image_name": "PanelMissionHeader_54",
		"priority": 1
	},
	{
		"ID": 150,
		"end_at": "2019-09-13 23:59:59",
		"complete_reward_group_ids": "150",
		"header_image_name": "PanelMissionHeader_55",
		"priority": 1
	},
	{
		"ID": 151,
		"end_at": "2019-09-13 23:59:59",
		"complete_reward_group_ids": "151",
		"header_image_name": "PanelMissionHeader_57",
		"priority": 1
	},
	{
		"ID": 152,
		"end_at": "2019-09-13 23:59:59",
		"complete_reward_group_ids": "152",
		"header_image_name": "PanelMissionHeader_56",
		"priority": 1
	},
	{
		"ID": 153,
		"end_at": "2020-01-16 23:59:59",
		"complete_reward_group_ids": "153",
		"header_image_name": "PanelMissionHeader_58",
		"priority": 99
	},
	{
		"ID": 154,
		"end_at": "2020-01-16 23:59:59",
		"complete_reward_group_ids": "154",
		"header_image_name": "PanelMissionHeader_65",
		"priority": 99
	},
	{
		"ID": 155,
		"end_at": "2019-11-30 23:59:59",
		"complete_reward_group_ids": "155",
		"header_image_name": "PanelMissionHeader_66",
		"priority": 99
	},
	{
		"ID": 156,
		"end_at": "2019-11-30 23:59:59",
		"complete_reward_group_ids": "156",
		"header_image_name": "PanelMissionHeader_67",
		"priority": 99
	},
	{
		"ID": 157,
		"end_at": "2019-11-30 23:59:59",
		"complete_reward_group_ids": "157",
		"header_image_name": "PanelMissionHeader_68",
		"priority": 99
	},
	{
		"ID": 158,
		"end_at": "2019-11-30 23:59:59",
		"complete_reward_group_ids": "158",
		"header_image_name": "PanelMissionHeader_69",
		"priority": 99
	},
	{
		"ID": 159,
		"end_at": "2019-12-31 23:59:59",
		"complete_reward_group_ids": "159",
		"header_image_name": "PanelMissionHeader_70",
		"priority": 99
	},
	{
		"ID": 160,
		"end_at": "2019-12-31 23:59:59",
		"complete_reward_group_ids": "160",
		"header_image_name": "PanelMissionHeader_71",
		"priority": 99
	},
	{
		"ID": 161,
		"end_at": "2019-12-31 23:59:59",
		"complete_reward_group_ids": "161",
		"header_image_name": "PanelMissionHeader_72",
		"priority": 99
	},
	{
		"ID": 162,
		"end_at": "2020-01-31 23:59:59",
		"complete_reward_group_ids": "162",
		"header_image_name": "PanelMissionHeader_73",
		"priority": 99
	},
	{
		"ID": 163,
		"end_at": "2020-01-16 23:59:59",
		"complete_reward_group_ids": "163",
		"header_image_name": "PanelMissionHeader_74",
		"priority": 99
	},
	{
		"ID": 164,
		"end_at": "2020-01-16 23:59:59",
		"complete_reward_group_ids": "164",
		"header_image_name": "PanelMissionHeader_75",
		"priority": 99
	},
	{
		"ID": 165,
		"end_at": "2020-01-16 23:59:59",
		"complete_reward_group_ids": "165",
		"header_image_name": "PanelMissionHeader_76",
		"priority": 99
	},
	{
		"ID": 166,
		"end_at": "2020-01-16 23:59:59",
		"complete_reward_group_ids": "166",
		"header_image_name": "PanelMissionHeader_77",
		"priority": 99
	},
	{
		"ID": 167,
		"end_at": "2020-01-16 23:59:59",
		"complete_reward_group_ids": "167",
		"header_image_name": "PanelMissionHeader_78",
		"priority": 99
	},
	{
		"ID": 168,
		"end_at": "2020-01-09 23:59:59",
		"complete_reward_group_ids": "168",
		"header_image_name": "PanelMissionHeader_79",
		"priority": 99
	},
	{
		"ID": 169,
		"end_at": "2020-02-29 23:59:59",
		"complete_reward_group_ids": "169.0",
		"header_image_name": "PanelMissionHeader_80",
		"priority": 99
	},
	{
		"ID": 170,
		"end_at": "2020-02-29 23:59:59",
		"complete_reward_group_ids": "170",
		"header_image_name": "PanelMissionHeader_81",
		"priority": 99
	},
	{
		"ID": 171,
		"end_at": "2020-02-14 23:59:59",
		"complete_reward_group_ids": "171",
		"header_image_name": "PanelMissionHeader_82",
		"priority": 99
	}
]