[
	{
		"ID": 1,
		"culled_value": 1,
		"material_group_id1_JobMaterialGroup": 11,
		"quantity1": 5,
		"material_group_id2_JobMaterialGroup": 10,
		"quantity2": 5,
		"material_group_id3_JobMaterialGroup": 0,
		"quantity3": 0,
		"material_group_id4_JobMaterialGroup": 0,
		"quantity4": 0,
		"material_group_id5_JobMaterialGroup": 0,
		"quantity5": 0,
		"amount": 375000
	},
	{
		"ID": 2,
		"culled_value": 2,
		"material_group_id1_JobMaterialGroup": 11,
		"quantity1": 5,
		"material_group_id2_JobMaterialGroup": 24,
		"quantity2": 10,
		"material_group_id3_JobMaterialGroup": 9,
		"quantity3": 15,
		"material_group_id4_JobMaterialGroup": 0,
		"quantity4": 0,
		"material_group_id5_JobMaterialGroup": 0,
		"quantity5": 0,
		"amount": 600000
	},
	{
		"ID": 3,
		"culled_value": 3,
		"material_group_id1_JobMaterialGroup": 11,
		"quantity1": 5,
		"material_group_id2_JobMaterialGroup": 24,
		"quantity2": 15,
		"material_group_id3_JobMaterialGroup": 10,
		"quantity3": 5,
		"material_group_id4_JobMaterialGroup": 0,
		"quantity4": 0,
		"material_group_id5_JobMaterialGroup": 0,
		"quantity5": 0,
		"amount": 1125000
	},
	{
		"ID": 4,
		"culled_value": 4,
		"material_group_id1_JobMaterialGroup": 11,
		"quantity1": 5,
		"material_group_id2_JobMaterialGroup": 24,
		"quantity2": 20,
		"material_group_id3_JobMaterialGroup": 5,
		"quantity3": 3,
		"material_group_id4_JobMaterialGroup": 2,
		"quantity4": 5,
		"material_group_id5_JobMaterialGroup": 0,
		"quantity5": 0,
		"amount": 2250000
	},
	{
		"ID": 5,
		"culled_value": 5,
		"material_group_id1_JobMaterialGroup": 11,
		"quantity1": 20,
		"material_group_id2_JobMaterialGroup": 24,
		"quantity2": 35,
		"material_group_id3_JobMaterialGroup": 5,
		"quantity3": 3,
		"material_group_id4_JobMaterialGroup": 10,
		"quantity4": 5,
		"material_group_id5_JobMaterialGroup": 23,
		"quantity5": 1,
		"amount": 7500000
	},
	{
		"ID": 6,
		"culled_value": 1,
		"material_group_id1_JobMaterialGroup": 17,
		"quantity1": 5,
		"material_group_id2_JobMaterialGroup": 1,
		"quantity2": 10,
		"material_group_id3_JobMaterialGroup": 0,
		"quantity3": 0,
		"material_group_id4_JobMaterialGroup": 0,
		"quantity4": 0,
		"material_group_id5_JobMaterialGroup": 0,
		"quantity5": 0,
		"amount": 375000
	},
	{
		"ID": 7,
		"culled_value": 2,
		"material_group_id1_JobMaterialGroup": 11,
		"quantity1": 5,
		"material_group_id2_JobMaterialGroup": 17,
		"quantity2": 10,
		"material_group_id3_JobMaterialGroup": 9,
		"quantity3": 15,
		"material_group_id4_JobMaterialGroup": 0,
		"quantity4": 0,
		"material_group_id5_JobMaterialGroup": 0,
		"quantity5": 0,
		"amount": 600000
	},
	{
		"ID": 8,
		"culled_value": 3,
		"material_group_id1_JobMaterialGroup": 11,
		"quantity1": 10,
		"material_group_id2_JobMaterialGroup": 17,
		"quantity2": 15,
		"material_group_id3_JobMaterialGroup": 10,
		"quantity3": 5,
		"material_group_id4_JobMaterialGroup": 0,
		"quantity4": 0,
		"material_group_id5_JobMaterialGroup": 0,
		"quantity5": 0,
		"amount": 1125000
	},
	{
		"ID": 9,
		"culled_value": 4,
		"material_group_id1_JobMaterialGroup": 11,
		"quantity1": 25,
		"material_group_id2_JobMaterialGroup": 17,
		"quantity2": 25,
		"material_group_id3_JobMaterialGroup": 4,
		"quantity3": 3,
		"material_group_id4_JobMaterialGroup": 1,
		"quantity4": 10,
		"material_group_id5_JobMaterialGroup": 0,
		"quantity5": 0,
		"amount": 2250000
	},
	{
		"ID": 10,
		"culled_value": 5,
		"material_group_id1_JobMaterialGroup": 11,
		"quantity1": 50,
		"material_group_id2_JobMaterialGroup": 17,
		"quantity2": 35,
		"material_group_id3_JobMaterialGroup": 2,
		"quantity3": 3,
		"material_group_id4_JobMaterialGroup": 10,
		"quantity4": 10,
		"material_group_id5_JobMaterialGroup": 23,
		"quantity5": 2,
		"amount": 15000000
	},
	{
		"ID": 11,
		"culled_value": 1,
		"material_group_id1_JobMaterialGroup": 13,
		"quantity1": 10,
		"material_group_id2_JobMaterialGroup": 1,
		"quantity2": 8,
		"material_group_id3_JobMaterialGroup": 0,
		"quantity3": 0,
		"material_group_id4_JobMaterialGroup": 0,
		"quantity4": 0,
		"material_group_id5_JobMaterialGroup": 0,
		"quantity5": 0,
		"amount": 375000
	},
	{
		"ID": 12,
		"culled_value": 2,
		"material_group_id1_JobMaterialGroup": 11,
		"quantity1": 10,
		"material_group_id2_JobMaterialGroup": 13,
		"quantity2": 15,
		"material_group_id3_JobMaterialGroup": 9,
		"quantity3": 15,
		"material_group_id4_JobMaterialGroup": 0,
		"quantity4": 0,
		"material_group_id5_JobMaterialGroup": 0,
		"quantity5": 0,
		"amount": 600000
	},
	{
		"ID": 13,
		"culled_value": 3,
		"material_group_id1_JobMaterialGroup": 11,
		"quantity1": 15,
		"material_group_id2_JobMaterialGroup": 13,
		"quantity2": 20,
		"material_group_id3_JobMaterialGroup": 10,
		"quantity3": 5,
		"material_group_id4_JobMaterialGroup": 0,
		"quantity4": 0,
		"material_group_id5_JobMaterialGroup": 0,
		"quantity5": 0,
		"amount": 1125000
	},
	{
		"ID": 14,
		"culled_value": 4,
		"material_group_id1_JobMaterialGroup": 11,
		"quantity1": 35,
		"material_group_id2_JobMaterialGroup": 13,
		"quantity2": 25,
		"material_group_id3_JobMaterialGroup": 4,
		"quantity3": 6,
		"material_group_id4_JobMaterialGroup": 1,
		"quantity4": 8,
		"material_group_id5_JobMaterialGroup": 0,
		"quantity5": 0,
		"amount": 2250000
	},
	{
		"ID": 15,
		"culled_value": 5,
		"material_group_id1_JobMaterialGroup": 11,
		"quantity1": 50,
		"material_group_id2_JobMaterialGroup": 13,
		"quantity2": 30,
		"material_group_id3_JobMaterialGroup": 2,
		"quantity3": 5,
		"material_group_id4_JobMaterialGroup": 10,
		"quantity4": 10,
		"material_group_id5_JobMaterialGroup": 23,
		"quantity5": 2,
		"amount": 15000000
	},
	{
		"ID": 16,
		"culled_value": 1,
		"material_group_id1_JobMaterialGroup": 18,
		"quantity1": 5,
		"material_group_id2_JobMaterialGroup": 1,
		"quantity2": 10,
		"material_group_id3_JobMaterialGroup": 0,
		"quantity3": 0,
		"material_group_id4_JobMaterialGroup": 0,
		"quantity4": 0,
		"material_group_id5_JobMaterialGroup": 0,
		"quantity5": 0,
		"amount": 375000
	},
	{
		"ID": 17,
		"culled_value": 2,
		"material_group_id1_JobMaterialGroup": 11,
		"quantity1": 5,
		"material_group_id2_JobMaterialGroup": 18,
		"quantity2": 10,
		"material_group_id3_JobMaterialGroup": 9,
		"quantity3": 15,
		"material_group_id4_JobMaterialGroup": 0,
		"quantity4": 0,
		"material_group_id5_JobMaterialGroup": 0,
		"quantity5": 0,
		"amount": 600000
	},
	{
		"ID": 18,
		"culled_value": 3,
		"material_group_id1_JobMaterialGroup": 11,
		"quantity1": 10,
		"material_group_id2_JobMaterialGroup": 18,
		"quantity2": 15,
		"material_group_id3_JobMaterialGroup": 10,
		"quantity3": 5,
		"material_group_id4_JobMaterialGroup": 0,
		"quantity4": 0,
		"material_group_id5_JobMaterialGroup": 0,
		"quantity5": 0,
		"amount": 1125000
	},
	{
		"ID": 19,
		"culled_value": 4,
		"material_group_id1_JobMaterialGroup": 11,
		"quantity1": 25,
		"material_group_id2_JobMaterialGroup": 18,
		"quantity2": 25,
		"material_group_id3_JobMaterialGroup": 4,
		"quantity3": 3,
		"material_group_id4_JobMaterialGroup": 1,
		"quantity4": 10,
		"material_group_id5_JobMaterialGroup": 0,
		"quantity5": 0,
		"amount": 2250000
	},
	{
		"ID": 20,
		"culled_value": 5,
		"material_group_id1_JobMaterialGroup": 11,
		"quantity1": 50,
		"material_group_id2_JobMaterialGroup": 18,
		"quantity2": 35,
		"material_group_id3_JobMaterialGroup": 2,
		"quantity3": 3,
		"material_group_id4_JobMaterialGroup": 10,
		"quantity4": 10,
		"material_group_id5_JobMaterialGroup": 23,
		"quantity5": 2,
		"amount": 15000000
	},
	{
		"ID": 21,
		"culled_value": 2,
		"material_group_id1_JobMaterialGroup": 11,
		"quantity1": 5,
		"material_group_id2_JobMaterialGroup": 26,
		"quantity2": 10,
		"material_group_id3_JobMaterialGroup": 9,
		"quantity3": 15,
		"material_group_id4_JobMaterialGroup": 0,
		"quantity4": 0,
		"material_group_id5_JobMaterialGroup": 0,
		"quantity5": 0,
		"amount": 600000
	},
	{
		"ID": 22,
		"culled_value": 3,
		"material_group_id1_JobMaterialGroup": 11,
		"quantity1": 5,
		"material_group_id2_JobMaterialGroup": 26,
		"quantity2": 15,
		"material_group_id3_JobMaterialGroup": 10,
		"quantity3": 5,
		"material_group_id4_JobMaterialGroup": 0,
		"quantity4": 0,
		"material_group_id5_JobMaterialGroup": 0,
		"quantity5": 0,
		"amount": 1125000
	},
	{
		"ID": 23,
		"culled_value": 4,
		"material_group_id1_JobMaterialGroup": 11,
		"quantity1": 5,
		"material_group_id2_JobMaterialGroup": 26,
		"quantity2": 20,
		"material_group_id3_JobMaterialGroup": 5,
		"quantity3": 3,
		"material_group_id4_JobMaterialGroup": 2,
		"quantity4": 5,
		"material_group_id5_JobMaterialGroup": 0,
		"quantity5": 0,
		"amount": 2250000
	},
	{
		"ID": 24,
		"culled_value": 5,
		"material_group_id1_JobMaterialGroup": 11,
		"quantity1": 20,
		"material_group_id2_JobMaterialGroup": 26,
		"quantity2": 35,
		"material_group_id3_JobMaterialGroup": 5,
		"quantity3": 3,
		"material_group_id4_JobMaterialGroup": 10,
		"quantity4": 5,
		"material_group_id5_JobMaterialGroup": 23,
		"quantity5": 1,
		"amount": 7500000
	},
	{
		"ID": 25,
		"culled_value": 1,
		"material_group_id1_JobMaterialGroup": 14,
		"quantity1": 5,
		"material_group_id2_JobMaterialGroup": 1,
		"quantity2": 10,
		"material_group_id3_JobMaterialGroup": 0,
		"quantity3": 0,
		"material_group_id4_JobMaterialGroup": 0,
		"quantity4": 0,
		"material_group_id5_JobMaterialGroup": 0,
		"quantity5": 0,
		"amount": 375000
	},
	{
		"ID": 26,
		"culled_value": 2,
		"material_group_id1_JobMaterialGroup": 11,
		"quantity1": 5,
		"material_group_id2_JobMaterialGroup": 14,
		"quantity2": 10,
		"material_group_id3_JobMaterialGroup": 9,
		"quantity3": 15,
		"material_group_id4_JobMaterialGroup": 0,
		"quantity4": 0,
		"material_group_id5_JobMaterialGroup": 0,
		"quantity5": 0,
		"amount": 600000
	},
	{
		"ID": 27,
		"culled_value": 3,
		"material_group_id1_JobMaterialGroup": 11,
		"quantity1": 10,
		"material_group_id2_JobMaterialGroup": 14,
		"quantity2": 15,
		"material_group_id3_JobMaterialGroup": 10,
		"quantity3": 5,
		"material_group_id4_JobMaterialGroup": 0,
		"quantity4": 0,
		"material_group_id5_JobMaterialGroup": 0,
		"quantity5": 0,
		"amount": 1125000
	},
	{
		"ID": 28,
		"culled_value": 4,
		"material_group_id1_JobMaterialGroup": 11,
		"quantity1": 25,
		"material_group_id2_JobMaterialGroup": 14,
		"quantity2": 25,
		"material_group_id3_JobMaterialGroup": 4,
		"quantity3": 3,
		"material_group_id4_JobMaterialGroup": 1,
		"quantity4": 10,
		"material_group_id5_JobMaterialGroup": 0,
		"quantity5": 0,
		"amount": 2250000
	},
	{
		"ID": 29,
		"culled_value": 5,
		"material_group_id1_JobMaterialGroup": 11,
		"quantity1": 50,
		"material_group_id2_JobMaterialGroup": 14,
		"quantity2": 35,
		"material_group_id3_JobMaterialGroup": 2,
		"quantity3": 3,
		"material_group_id4_JobMaterialGroup": 10,
		"quantity4": 10,
		"material_group_id5_JobMaterialGroup": 23,
		"quantity5": 2,
		"amount": 15000000
	},
	{
		"ID": 30,
		"culled_value": 1,
		"material_group_id1_JobMaterialGroup": 15,
		"quantity1": 5,
		"material_group_id2_JobMaterialGroup": 1,
		"quantity2": 10,
		"material_group_id3_JobMaterialGroup": 0,
		"quantity3": 0,
		"material_group_id4_JobMaterialGroup": 0,
		"quantity4": 0,
		"material_group_id5_JobMaterialGroup": 0,
		"quantity5": 0,
		"amount": 375000
	},
	{
		"ID": 31,
		"culled_value": 2,
		"material_group_id1_JobMaterialGroup": 11,
		"quantity1": 5,
		"material_group_id2_JobMaterialGroup": 15,
		"quantity2": 10,
		"material_group_id3_JobMaterialGroup": 9,
		"quantity3": 15,
		"material_group_id4_JobMaterialGroup": 0,
		"quantity4": 0,
		"material_group_id5_JobMaterialGroup": 0,
		"quantity5": 0,
		"amount": 600000
	},
	{
		"ID": 32,
		"culled_value": 3,
		"material_group_id1_JobMaterialGroup": 11,
		"quantity1": 10,
		"material_group_id2_JobMaterialGroup": 15,
		"quantity2": 15,
		"material_group_id3_JobMaterialGroup": 10,
		"quantity3": 5,
		"material_group_id4_JobMaterialGroup": 0,
		"quantity4": 0,
		"material_group_id5_JobMaterialGroup": 0,
		"quantity5": 0,
		"amount": 1125000
	},
	{
		"ID": 33,
		"culled_value": 4,
		"material_group_id1_JobMaterialGroup": 11,
		"quantity1": 25,
		"material_group_id2_JobMaterialGroup": 15,
		"quantity2": 25,
		"material_group_id3_JobMaterialGroup": 4,
		"quantity3": 3,
		"material_group_id4_JobMaterialGroup": 1,
		"quantity4": 10,
		"material_group_id5_JobMaterialGroup": 0,
		"quantity5": 0,
		"amount": 2250000
	},
	{
		"ID": 34,
		"culled_value": 5,
		"material_group_id1_JobMaterialGroup": 11,
		"quantity1": 50,
		"material_group_id2_JobMaterialGroup": 15,
		"quantity2": 35,
		"material_group_id3_JobMaterialGroup": 2,
		"quantity3": 3,
		"material_group_id4_JobMaterialGroup": 10,
		"quantity4": 10,
		"material_group_id5_JobMaterialGroup": 23,
		"quantity5": 2,
		"amount": 15000000
	},
	{
		"ID": 35,
		"culled_value": 11,
		"material_group_id1_JobMaterialGroup": 11,
		"quantity1": 5,
		"material_group_id2_JobMaterialGroup": 10,
		"quantity2": 15,
		"material_group_id3_JobMaterialGroup": 0,
		"quantity3": 0,
		"material_group_id4_JobMaterialGroup": 0,
		"quantity4": 0,
		"material_group_id5_JobMaterialGroup": 0,
		"quantity5": 0,
		"amount": 375000
	},
	{
		"ID": 36,
		"culled_value": 12,
		"material_group_id1_JobMaterialGroup": 11,
		"quantity1": 5,
		"material_group_id2_JobMaterialGroup": 26,
		"quantity2": 10,
		"material_group_id3_JobMaterialGroup": 9,
		"quantity3": 7,
		"material_group_id4_JobMaterialGroup": 0,
		"quantity4": 0,
		"material_group_id5_JobMaterialGroup": 0,
		"quantity5": 0,
		"amount": 600000
	},
	{
		"ID": 37,
		"culled_value": 13,
		"material_group_id1_JobMaterialGroup": 11,
		"quantity1": 5,
		"material_group_id2_JobMaterialGroup": 26,
		"quantity2": 15,
		"material_group_id3_JobMaterialGroup": 17,
		"quantity3": 5,
		"material_group_id4_JobMaterialGroup": 0,
		"quantity4": 0,
		"material_group_id5_JobMaterialGroup": 0,
		"quantity5": 0,
		"amount": 1125000
	},
	{
		"ID": 38,
		"culled_value": 14,
		"material_group_id1_JobMaterialGroup": 11,
		"quantity1": 5,
		"material_group_id2_JobMaterialGroup": 26,
		"quantity2": 20,
		"material_group_id3_JobMaterialGroup": 17,
		"quantity3": 10,
		"material_group_id4_JobMaterialGroup": 5,
		"quantity4": 3,
		"material_group_id5_JobMaterialGroup": 0,
		"quantity5": 0,
		"amount": 2250000
	},
	{
		"ID": 39,
		"culled_value": 15,
		"material_group_id1_JobMaterialGroup": 11,
		"quantity1": 20,
		"material_group_id2_JobMaterialGroup": 26,
		"quantity2": 30,
		"material_group_id3_JobMaterialGroup": 17,
		"quantity3": 20,
		"material_group_id4_JobMaterialGroup": 5,
		"quantity4": 3,
		"material_group_id5_JobMaterialGroup": 23,
		"quantity5": 2,
		"amount": 7500000
	},
	{
		"ID": 40,
		"culled_value": 11,
		"material_group_id1_JobMaterialGroup": 17,
		"quantity1": 5,
		"material_group_id2_JobMaterialGroup": 1,
		"quantity2": 5,
		"material_group_id3_JobMaterialGroup": 0,
		"quantity3": 0,
		"material_group_id4_JobMaterialGroup": 0,
		"quantity4": 0,
		"material_group_id5_JobMaterialGroup": 0,
		"quantity5": 0,
		"amount": 375000
	},
	{
		"ID": 41,
		"culled_value": 12,
		"material_group_id1_JobMaterialGroup": 11,
		"quantity1": 5,
		"material_group_id2_JobMaterialGroup": 17,
		"quantity2": 10,
		"material_group_id3_JobMaterialGroup": 9,
		"quantity3": 8,
		"material_group_id4_JobMaterialGroup": 0,
		"quantity4": 0,
		"material_group_id5_JobMaterialGroup": 0,
		"quantity5": 0,
		"amount": 600000
	},
	{
		"ID": 42,
		"culled_value": 13,
		"material_group_id1_JobMaterialGroup": 11,
		"quantity1": 10,
		"material_group_id2_JobMaterialGroup": 17,
		"quantity2": 15,
		"material_group_id3_JobMaterialGroup": 26,
		"quantity3": 15,
		"material_group_id4_JobMaterialGroup": 0,
		"quantity4": 0,
		"material_group_id5_JobMaterialGroup": 0,
		"quantity5": 0,
		"amount": 1125000
	},
	{
		"ID": 43,
		"culled_value": 14,
		"material_group_id1_JobMaterialGroup": 11,
		"quantity1": 15,
		"material_group_id2_JobMaterialGroup": 17,
		"quantity2": 20,
		"material_group_id3_JobMaterialGroup": 26,
		"quantity3": 25,
		"material_group_id4_JobMaterialGroup": 1,
		"quantity4": 5,
		"material_group_id5_JobMaterialGroup": 0,
		"quantity5": 0,
		"amount": 2250000
	},
	{
		"ID": 44,
		"culled_value": 15,
		"material_group_id1_JobMaterialGroup": 11,
		"quantity1": 50,
		"material_group_id2_JobMaterialGroup": 17,
		"quantity2": 30,
		"material_group_id3_JobMaterialGroup": 26,
		"quantity3": 40,
		"material_group_id4_JobMaterialGroup": 2,
		"quantity4": 10,
		"material_group_id5_JobMaterialGroup": 23,
		"quantity5": 2,
		"amount": 15000000
	},
	{
		"ID": 45,
		"culled_value": 1,
		"material_group_id1_JobMaterialGroup": 11,
		"quantity1": 5,
		"material_group_id2_JobMaterialGroup": 10,
		"quantity2": 5,
		"material_group_id3_JobMaterialGroup": 0,
		"quantity3": 0,
		"material_group_id4_JobMaterialGroup": 0,
		"quantity4": 0,
		"material_group_id5_JobMaterialGroup": 0,
		"quantity5": 0,
		"amount": 375000
	},
	{
		"ID": 46,
		"culled_value": 2,
		"material_group_id1_JobMaterialGroup": 11,
		"quantity1": 5,
		"material_group_id2_JobMaterialGroup": 24,
		"quantity2": 10,
		"material_group_id3_JobMaterialGroup": 9,
		"quantity3": 15,
		"material_group_id4_JobMaterialGroup": 0,
		"quantity4": 0,
		"material_group_id5_JobMaterialGroup": 0,
		"quantity5": 0,
		"amount": 600000
	},
	{
		"ID": 47,
		"culled_value": 3,
		"material_group_id1_JobMaterialGroup": 11,
		"quantity1": 10,
		"material_group_id2_JobMaterialGroup": 24,
		"quantity2": 20,
		"material_group_id3_JobMaterialGroup": 10,
		"quantity3": 5,
		"material_group_id4_JobMaterialGroup": 0,
		"quantity4": 0,
		"material_group_id5_JobMaterialGroup": 0,
		"quantity5": 0,
		"amount": 1125000
	},
	{
		"ID": 48,
		"culled_value": 4,
		"material_group_id1_JobMaterialGroup": 11,
		"quantity1": 20,
		"material_group_id2_JobMaterialGroup": 24,
		"quantity2": 25,
		"material_group_id3_JobMaterialGroup": 5,
		"quantity3": 3,
		"material_group_id4_JobMaterialGroup": 2,
		"quantity4": 5,
		"material_group_id5_JobMaterialGroup": 0,
		"quantity5": 0,
		"amount": 2250000
	},
	{
		"ID": 49,
		"culled_value": 5,
		"material_group_id1_JobMaterialGroup": 11,
		"quantity1": 20,
		"material_group_id2_JobMaterialGroup": 24,
		"quantity2": 30,
		"material_group_id3_JobMaterialGroup": 5,
		"quantity3": 3,
		"material_group_id4_JobMaterialGroup": 10,
		"quantity4": 5,
		"material_group_id5_JobMaterialGroup": 23,
		"quantity5": 1,
		"amount": 7500000
	},
	{
		"ID": 50,
		"culled_value": 1,
		"material_group_id1_JobMaterialGroup": 11,
		"quantity1": 5,
		"material_group_id2_JobMaterialGroup": 10,
		"quantity2": 5,
		"material_group_id3_JobMaterialGroup": 0,
		"quantity3": 0,
		"material_group_id4_JobMaterialGroup": 0,
		"quantity4": 0,
		"material_group_id5_JobMaterialGroup": 0,
		"quantity5": 0,
		"amount": 375000
	},
	{
		"ID": 51,
		"culled_value": 2,
		"material_group_id1_JobMaterialGroup": 11,
		"quantity1": 5,
		"material_group_id2_JobMaterialGroup": 26,
		"quantity2": 10,
		"material_group_id3_JobMaterialGroup": 9,
		"quantity3": 15,
		"material_group_id4_JobMaterialGroup": 0,
		"quantity4": 0,
		"material_group_id5_JobMaterialGroup": 0,
		"quantity5": 0,
		"amount": 600000
	},
	{
		"ID": 52,
		"culled_value": 3,
		"material_group_id1_JobMaterialGroup": 11,
		"quantity1": 10,
		"material_group_id2_JobMaterialGroup": 26,
		"quantity2": 20,
		"material_group_id3_JobMaterialGroup": 10,
		"quantity3": 5,
		"material_group_id4_JobMaterialGroup": 0,
		"quantity4": 0,
		"material_group_id5_JobMaterialGroup": 0,
		"quantity5": 0,
		"amount": 1125000
	},
	{
		"ID": 53,
		"culled_value": 4,
		"material_group_id1_JobMaterialGroup": 11,
		"quantity1": 20,
		"material_group_id2_JobMaterialGroup": 26,
		"quantity2": 25,
		"material_group_id3_JobMaterialGroup": 5,
		"quantity3": 3,
		"material_group_id4_JobMaterialGroup": 2,
		"quantity4": 5,
		"material_group_id5_JobMaterialGroup": 0,
		"quantity5": 0,
		"amount": 2250000
	},
	{
		"ID": 54,
		"culled_value": 5,
		"material_group_id1_JobMaterialGroup": 11,
		"quantity1": 20,
		"material_group_id2_JobMaterialGroup": 26,
		"quantity2": 30,
		"material_group_id3_JobMaterialGroup": 5,
		"quantity3": 3,
		"material_group_id4_JobMaterialGroup": 10,
		"quantity4": 5,
		"material_group_id5_JobMaterialGroup": 23,
		"quantity5": 1,
		"amount": 7500000
	},
	{
		"ID": 55,
		"culled_value": 11,
		"material_group_id1_JobMaterialGroup": 11,
		"quantity1": 5,
		"material_group_id2_JobMaterialGroup": 10,
		"quantity2": 15,
		"material_group_id3_JobMaterialGroup": 0,
		"quantity3": 0,
		"material_group_id4_JobMaterialGroup": 0,
		"quantity4": 0,
		"material_group_id5_JobMaterialGroup": 0,
		"quantity5": 0,
		"amount": 375000
	},
	{
		"ID": 56,
		"culled_value": 12,
		"material_group_id1_JobMaterialGroup": 11,
		"quantity1": 5,
		"material_group_id2_JobMaterialGroup": 24,
		"quantity2": 10,
		"material_group_id3_JobMaterialGroup": 9,
		"quantity3": 7,
		"material_group_id4_JobMaterialGroup": 0,
		"quantity4": 0,
		"material_group_id5_JobMaterialGroup": 0,
		"quantity5": 0,
		"amount": 600000
	},
	{
		"ID": 57,
		"culled_value": 13,
		"material_group_id1_JobMaterialGroup": 11,
		"quantity1": 5,
		"material_group_id2_JobMaterialGroup": 24,
		"quantity2": 15,
		"material_group_id3_JobMaterialGroup": 18,
		"quantity3": 5,
		"material_group_id4_JobMaterialGroup": 0,
		"quantity4": 0,
		"material_group_id5_JobMaterialGroup": 0,
		"quantity5": 0,
		"amount": 1125000
	},
	{
		"ID": 58,
		"culled_value": 14,
		"material_group_id1_JobMaterialGroup": 11,
		"quantity1": 5,
		"material_group_id2_JobMaterialGroup": 24,
		"quantity2": 20,
		"material_group_id3_JobMaterialGroup": 18,
		"quantity3": 10,
		"material_group_id4_JobMaterialGroup": 5,
		"quantity4": 3,
		"material_group_id5_JobMaterialGroup": 0,
		"quantity5": 0,
		"amount": 2250000
	},
	{
		"ID": 59,
		"culled_value": 15,
		"material_group_id1_JobMaterialGroup": 11,
		"quantity1": 20,
		"material_group_id2_JobMaterialGroup": 24,
		"quantity2": 30,
		"material_group_id3_JobMaterialGroup": 18,
		"quantity3": 20,
		"material_group_id4_JobMaterialGroup": 5,
		"quantity4": 3,
		"material_group_id5_JobMaterialGroup": 23,
		"quantity5": 2,
		"amount": 7500000
	},
	{
		"ID": 60,
		"culled_value": 11,
		"material_group_id1_JobMaterialGroup": 18,
		"quantity1": 5,
		"material_group_id2_JobMaterialGroup": 1,
		"quantity2": 5,
		"material_group_id3_JobMaterialGroup": 0,
		"quantity3": 0,
		"material_group_id4_JobMaterialGroup": 0,
		"quantity4": 0,
		"material_group_id5_JobMaterialGroup": 0,
		"quantity5": 0,
		"amount": 375000
	},
	{
		"ID": 61,
		"culled_value": 12,
		"material_group_id1_JobMaterialGroup": 11,
		"quantity1": 5,
		"material_group_id2_JobMaterialGroup": 18,
		"quantity2": 10,
		"material_group_id3_JobMaterialGroup": 9,
		"quantity3": 8,
		"material_group_id4_JobMaterialGroup": 0,
		"quantity4": 0,
		"material_group_id5_JobMaterialGroup": 0,
		"quantity5": 0,
		"amount": 600000
	},
	{
		"ID": 62,
		"culled_value": 13,
		"material_group_id1_JobMaterialGroup": 11,
		"quantity1": 10,
		"material_group_id2_JobMaterialGroup": 18,
		"quantity2": 15,
		"material_group_id3_JobMaterialGroup": 24,
		"quantity3": 15,
		"material_group_id4_JobMaterialGroup": 0,
		"quantity4": 0,
		"material_group_id5_JobMaterialGroup": 0,
		"quantity5": 0,
		"amount": 1125000
	},
	{
		"ID": 63,
		"culled_value": 14,
		"material_group_id1_JobMaterialGroup": 11,
		"quantity1": 15,
		"material_group_id2_JobMaterialGroup": 18,
		"quantity2": 20,
		"material_group_id3_JobMaterialGroup": 24,
		"quantity3": 25,
		"material_group_id4_JobMaterialGroup": 1,
		"quantity4": 5,
		"material_group_id5_JobMaterialGroup": 0,
		"quantity5": 0,
		"amount": 2250000
	},
	{
		"ID": 64,
		"culled_value": 15,
		"material_group_id1_JobMaterialGroup": 11,
		"quantity1": 50,
		"material_group_id2_JobMaterialGroup": 18,
		"quantity2": 30,
		"material_group_id3_JobMaterialGroup": 24,
		"quantity3": 40,
		"material_group_id4_JobMaterialGroup": 2,
		"quantity4": 10,
		"material_group_id5_JobMaterialGroup": 23,
		"quantity5": 2,
		"amount": 15000000
	},
	{
		"ID": 65,
		"culled_value": 11,
		"material_group_id1_JobMaterialGroup": 11,
		"quantity1": 5,
		"material_group_id2_JobMaterialGroup": 10,
		"quantity2": 15,
		"material_group_id3_JobMaterialGroup": 0,
		"quantity3": 0,
		"material_group_id4_JobMaterialGroup": 0,
		"quantity4": 0,
		"material_group_id5_JobMaterialGroup": 0,
		"quantity5": 0,
		"amount": 375000
	},
	{
		"ID": 66,
		"culled_value": 12,
		"material_group_id1_JobMaterialGroup": 11,
		"quantity1": 5,
		"material_group_id2_JobMaterialGroup": 24,
		"quantity2": 10,
		"material_group_id3_JobMaterialGroup": 9,
		"quantity3": 7,
		"material_group_id4_JobMaterialGroup": 0,
		"quantity4": 0,
		"material_group_id5_JobMaterialGroup": 0,
		"quantity5": 0,
		"amount": 600000
	},
	{
		"ID": 67,
		"culled_value": 13,
		"material_group_id1_JobMaterialGroup": 11,
		"quantity1": 5,
		"material_group_id2_JobMaterialGroup": 24,
		"quantity2": 15,
		"material_group_id3_JobMaterialGroup": 14,
		"quantity3": 5,
		"material_group_id4_JobMaterialGroup": 0,
		"quantity4": 0,
		"material_group_id5_JobMaterialGroup": 0,
		"quantity5": 0,
		"amount": 1125000
	},
	{
		"ID": 68,
		"culled_value": 14,
		"material_group_id1_JobMaterialGroup": 11,
		"quantity1": 5,
		"material_group_id2_JobMaterialGroup": 24,
		"quantity2": 20,
		"material_group_id3_JobMaterialGroup": 14,
		"quantity3": 10,
		"material_group_id4_JobMaterialGroup": 5,
		"quantity4": 3,
		"material_group_id5_JobMaterialGroup": 0,
		"quantity5": 0,
		"amount": 2250000
	},
	{
		"ID": 69,
		"culled_value": 15,
		"material_group_id1_JobMaterialGroup": 11,
		"quantity1": 20,
		"material_group_id2_JobMaterialGroup": 24,
		"quantity2": 30,
		"material_group_id3_JobMaterialGroup": 14,
		"quantity3": 20,
		"material_group_id4_JobMaterialGroup": 5,
		"quantity4": 3,
		"material_group_id5_JobMaterialGroup": 23,
		"quantity5": 2,
		"amount": 7500000
	},
	{
		"ID": 70,
		"culled_value": 11,
		"material_group_id1_JobMaterialGroup": 14,
		"quantity1": 5,
		"material_group_id2_JobMaterialGroup": 1,
		"quantity2": 5,
		"material_group_id3_JobMaterialGroup": 0,
		"quantity3": 0,
		"material_group_id4_JobMaterialGroup": 0,
		"quantity4": 0,
		"material_group_id5_JobMaterialGroup": 0,
		"quantity5": 0,
		"amount": 375000
	},
	{
		"ID": 71,
		"culled_value": 12,
		"material_group_id1_JobMaterialGroup": 11,
		"quantity1": 5,
		"material_group_id2_JobMaterialGroup": 14,
		"quantity2": 10,
		"material_group_id3_JobMaterialGroup": 9,
		"quantity3": 8,
		"material_group_id4_JobMaterialGroup": 0,
		"quantity4": 0,
		"material_group_id5_JobMaterialGroup": 0,
		"quantity5": 0,
		"amount": 600000
	},
	{
		"ID": 72,
		"culled_value": 13,
		"material_group_id1_JobMaterialGroup": 11,
		"quantity1": 10,
		"material_group_id2_JobMaterialGroup": 14,
		"quantity2": 15,
		"material_group_id3_JobMaterialGroup": 24,
		"quantity3": 15,
		"material_group_id4_JobMaterialGroup": 0,
		"quantity4": 0,
		"material_group_id5_JobMaterialGroup": 0,
		"quantity5": 0,
		"amount": 1125000
	},
	{
		"ID": 73,
		"culled_value": 14,
		"material_group_id1_JobMaterialGroup": 11,
		"quantity1": 15,
		"material_group_id2_JobMaterialGroup": 14,
		"quantity2": 20,
		"material_group_id3_JobMaterialGroup": 24,
		"quantity3": 25,
		"material_group_id4_JobMaterialGroup": 1,
		"quantity4": 5,
		"material_group_id5_JobMaterialGroup": 0,
		"quantity5": 0,
		"amount": 2250000
	},
	{
		"ID": 74,
		"culled_value": 15,
		"material_group_id1_JobMaterialGroup": 11,
		"quantity1": 50,
		"material_group_id2_JobMaterialGroup": 14,
		"quantity2": 30,
		"material_group_id3_JobMaterialGroup": 24,
		"quantity3": 40,
		"material_group_id4_JobMaterialGroup": 2,
		"quantity4": 10,
		"material_group_id5_JobMaterialGroup": 23,
		"quantity5": 2,
		"amount": 15000000
	},
	{
		"ID": 75,
		"culled_value": 11,
		"material_group_id1_JobMaterialGroup": 11,
		"quantity1": 5,
		"material_group_id2_JobMaterialGroup": 10,
		"quantity2": 15,
		"material_group_id3_JobMaterialGroup": 0,
		"quantity3": 0,
		"material_group_id4_JobMaterialGroup": 0,
		"quantity4": 0,
		"material_group_id5_JobMaterialGroup": 0,
		"quantity5": 0,
		"amount": 375000
	},
	{
		"ID": 76,
		"culled_value": 12,
		"material_group_id1_JobMaterialGroup": 11,
		"quantity1": 5,
		"material_group_id2_JobMaterialGroup": 24,
		"quantity2": 10,
		"material_group_id3_JobMaterialGroup": 9,
		"quantity3": 7,
		"material_group_id4_JobMaterialGroup": 0,
		"quantity4": 0,
		"material_group_id5_JobMaterialGroup": 0,
		"quantity5": 0,
		"amount": 600000
	},
	{
		"ID": 77,
		"culled_value": 13,
		"material_group_id1_JobMaterialGroup": 11,
		"quantity1": 5,
		"material_group_id2_JobMaterialGroup": 24,
		"quantity2": 15,
		"material_group_id3_JobMaterialGroup": 15,
		"quantity3": 5,
		"material_group_id4_JobMaterialGroup": 0,
		"quantity4": 0,
		"material_group_id5_JobMaterialGroup": 0,
		"quantity5": 0,
		"amount": 1125000
	},
	{
		"ID": 78,
		"culled_value": 14,
		"material_group_id1_JobMaterialGroup": 11,
		"quantity1": 5,
		"material_group_id2_JobMaterialGroup": 24,
		"quantity2": 20,
		"material_group_id3_JobMaterialGroup": 15,
		"quantity3": 10,
		"material_group_id4_JobMaterialGroup": 5,
		"quantity4": 3,
		"material_group_id5_JobMaterialGroup": 0,
		"quantity5": 0,
		"amount": 2250000
	},
	{
		"ID": 79,
		"culled_value": 15,
		"material_group_id1_JobMaterialGroup": 11,
		"quantity1": 20,
		"material_group_id2_JobMaterialGroup": 24,
		"quantity2": 30,
		"material_group_id3_JobMaterialGroup": 15,
		"quantity3": 20,
		"material_group_id4_JobMaterialGroup": 5,
		"quantity4": 3,
		"material_group_id5_JobMaterialGroup": 23,
		"quantity5": 2,
		"amount": 7500000
	},
	{
		"ID": 80,
		"culled_value": 11,
		"material_group_id1_JobMaterialGroup": 15,
		"quantity1": 5,
		"material_group_id2_JobMaterialGroup": 1,
		"quantity2": 5,
		"material_group_id3_JobMaterialGroup": 0,
		"quantity3": 0,
		"material_group_id4_JobMaterialGroup": 0,
		"quantity4": 0,
		"material_group_id5_JobMaterialGroup": 0,
		"quantity5": 0,
		"amount": 375000
	},
	{
		"ID": 81,
		"culled_value": 12,
		"material_group_id1_JobMaterialGroup": 11,
		"quantity1": 5,
		"material_group_id2_JobMaterialGroup": 15,
		"quantity2": 10,
		"material_group_id3_JobMaterialGroup": 9,
		"quantity3": 8,
		"material_group_id4_JobMaterialGroup": 0,
		"quantity4": 0,
		"material_group_id5_JobMaterialGroup": 0,
		"quantity5": 0,
		"amount": 600000
	},
	{
		"ID": 82,
		"culled_value": 13,
		"material_group_id1_JobMaterialGroup": 11,
		"quantity1": 10,
		"material_group_id2_JobMaterialGroup": 15,
		"quantity2": 15,
		"material_group_id3_JobMaterialGroup": 24,
		"quantity3": 15,
		"material_group_id4_JobMaterialGroup": 0,
		"quantity4": 0,
		"material_group_id5_JobMaterialGroup": 0,
		"quantity5": 0,
		"amount": 1125000
	},
	{
		"ID": 83,
		"culled_value": 14,
		"material_group_id1_JobMaterialGroup": 11,
		"quantity1": 15,
		"material_group_id2_JobMaterialGroup": 15,
		"quantity2": 20,
		"material_group_id3_JobMaterialGroup": 24,
		"quantity3": 25,
		"material_group_id4_JobMaterialGroup": 1,
		"quantity4": 5,
		"material_group_id5_JobMaterialGroup": 0,
		"quantity5": 0,
		"amount": 2250000
	},
	{
		"ID": 84,
		"culled_value": 15,
		"material_group_id1_JobMaterialGroup": 11,
		"quantity1": 50,
		"material_group_id2_JobMaterialGroup": 15,
		"quantity2": 30,
		"material_group_id3_JobMaterialGroup": 24,
		"quantity3": 40,
		"material_group_id4_JobMaterialGroup": 2,
		"quantity4": 10,
		"material_group_id5_JobMaterialGroup": 23,
		"quantity5": 2,
		"amount": 15000000
	},
	{
		"ID": 85,
		"culled_value": 11,
		"material_group_id1_JobMaterialGroup": 11,
		"quantity1": 5,
		"material_group_id2_JobMaterialGroup": 10,
		"quantity2": 15,
		"material_group_id3_JobMaterialGroup": 0,
		"quantity3": 0,
		"material_group_id4_JobMaterialGroup": 0,
		"quantity4": 0,
		"material_group_id5_JobMaterialGroup": 0,
		"quantity5": 0,
		"amount": 375000
	},
	{
		"ID": 86,
		"culled_value": 12,
		"material_group_id1_JobMaterialGroup": 11,
		"quantity1": 5,
		"material_group_id2_JobMaterialGroup": 24,
		"quantity2": 10,
		"material_group_id3_JobMaterialGroup": 9,
		"quantity3": 7,
		"material_group_id4_JobMaterialGroup": 0,
		"quantity4": 0,
		"material_group_id5_JobMaterialGroup": 0,
		"quantity5": 0,
		"amount": 600000
	},
	{
		"ID": 87,
		"culled_value": 13,
		"material_group_id1_JobMaterialGroup": 11,
		"quantity1": 5,
		"material_group_id2_JobMaterialGroup": 24,
		"quantity2": 15,
		"material_group_id3_JobMaterialGroup": 16,
		"quantity3": 5,
		"material_group_id4_JobMaterialGroup": 0,
		"quantity4": 0,
		"material_group_id5_JobMaterialGroup": 0,
		"quantity5": 0,
		"amount": 1125000
	},
	{
		"ID": 88,
		"culled_value": 14,
		"material_group_id1_JobMaterialGroup": 11,
		"quantity1": 5,
		"material_group_id2_JobMaterialGroup": 24,
		"quantity2": 20,
		"material_group_id3_JobMaterialGroup": 16,
		"quantity3": 10,
		"material_group_id4_JobMaterialGroup": 5,
		"quantity4": 3,
		"material_group_id5_JobMaterialGroup": 0,
		"quantity5": 0,
		"amount": 2250000
	},
	{
		"ID": 89,
		"culled_value": 15,
		"material_group_id1_JobMaterialGroup": 11,
		"quantity1": 20,
		"material_group_id2_JobMaterialGroup": 24,
		"quantity2": 30,
		"material_group_id3_JobMaterialGroup": 16,
		"quantity3": 20,
		"material_group_id4_JobMaterialGroup": 5,
		"quantity4": 3,
		"material_group_id5_JobMaterialGroup": 23,
		"quantity5": 2,
		"amount": 7500000
	},
	{
		"ID": 90,
		"culled_value": 11,
		"material_group_id1_JobMaterialGroup": 16,
		"quantity1": 5,
		"material_group_id2_JobMaterialGroup": 1,
		"quantity2": 5,
		"material_group_id3_JobMaterialGroup": 0,
		"quantity3": 0,
		"material_group_id4_JobMaterialGroup": 0,
		"quantity4": 0,
		"material_group_id5_JobMaterialGroup": 0,
		"quantity5": 0,
		"amount": 375000
	},
	{
		"ID": 91,
		"culled_value": 12,
		"material_group_id1_JobMaterialGroup": 11,
		"quantity1": 5,
		"material_group_id2_JobMaterialGroup": 16,
		"quantity2": 10,
		"material_group_id3_JobMaterialGroup": 9,
		"quantity3": 8,
		"material_group_id4_JobMaterialGroup": 0,
		"quantity4": 0,
		"material_group_id5_JobMaterialGroup": 0,
		"quantity5": 0,
		"amount": 600000
	},
	{
		"ID": 92,
		"culled_value": 13,
		"material_group_id1_JobMaterialGroup": 11,
		"quantity1": 10,
		"material_group_id2_JobMaterialGroup": 16,
		"quantity2": 15,
		"material_group_id3_JobMaterialGroup": 24,
		"quantity3": 15,
		"material_group_id4_JobMaterialGroup": 0,
		"quantity4": 0,
		"material_group_id5_JobMaterialGroup": 0,
		"quantity5": 0,
		"amount": 1125000
	},
	{
		"ID": 93,
		"culled_value": 14,
		"material_group_id1_JobMaterialGroup": 11,
		"quantity1": 15,
		"material_group_id2_JobMaterialGroup": 16,
		"quantity2": 20,
		"material_group_id3_JobMaterialGroup": 24,
		"quantity3": 25,
		"material_group_id4_JobMaterialGroup": 1,
		"quantity4": 5,
		"material_group_id5_JobMaterialGroup": 0,
		"quantity5": 0,
		"amount": 2250000
	},
	{
		"ID": 94,
		"culled_value": 15,
		"material_group_id1_JobMaterialGroup": 11,
		"quantity1": 50,
		"material_group_id2_JobMaterialGroup": 16,
		"quantity2": 30,
		"material_group_id3_JobMaterialGroup": 24,
		"quantity3": 40,
		"material_group_id4_JobMaterialGroup": 2,
		"quantity4": 10,
		"material_group_id5_JobMaterialGroup": 23,
		"quantity5": 2,
		"amount": 15000000
	},
	{
		"ID": 95,
		"culled_value": 1,
		"material_group_id1_JobMaterialGroup": 16,
		"quantity1": 5,
		"material_group_id2_JobMaterialGroup": 1,
		"quantity2": 10,
		"material_group_id3_JobMaterialGroup": 0,
		"quantity3": 0,
		"material_group_id4_JobMaterialGroup": 0,
		"quantity4": 0,
		"material_group_id5_JobMaterialGroup": 0,
		"quantity5": 0,
		"amount": 375000
	},
	{
		"ID": 96,
		"culled_value": 2,
		"material_group_id1_JobMaterialGroup": 11,
		"quantity1": 5,
		"material_group_id2_JobMaterialGroup": 16,
		"quantity2": 10,
		"material_group_id3_JobMaterialGroup": 9,
		"quantity3": 15,
		"material_group_id4_JobMaterialGroup": 0,
		"quantity4": 0,
		"material_group_id5_JobMaterialGroup": 0,
		"quantity5": 0,
		"amount": 600000
	},
	{
		"ID": 97,
		"culled_value": 3,
		"material_group_id1_JobMaterialGroup": 11,
		"quantity1": 10,
		"material_group_id2_JobMaterialGroup": 16,
		"quantity2": 15,
		"material_group_id3_JobMaterialGroup": 10,
		"quantity3": 5,
		"material_group_id4_JobMaterialGroup": 0,
		"quantity4": 0,
		"material_group_id5_JobMaterialGroup": 0,
		"quantity5": 0,
		"amount": 1125000
	},
	{
		"ID": 98,
		"culled_value": 4,
		"material_group_id1_JobMaterialGroup": 11,
		"quantity1": 25,
		"material_group_id2_JobMaterialGroup": 16,
		"quantity2": 25,
		"material_group_id3_JobMaterialGroup": 4,
		"quantity3": 3,
		"material_group_id4_JobMaterialGroup": 1,
		"quantity4": 10,
		"material_group_id5_JobMaterialGroup": 0,
		"quantity5": 0,
		"amount": 2250000
	},
	{
		"ID": 99,
		"culled_value": 5,
		"material_group_id1_JobMaterialGroup": 11,
		"quantity1": 50,
		"material_group_id2_JobMaterialGroup": 16,
		"quantity2": 35,
		"material_group_id3_JobMaterialGroup": 2,
		"quantity3": 3,
		"material_group_id4_JobMaterialGroup": 10,
		"quantity4": 10,
		"material_group_id5_JobMaterialGroup": 23,
		"quantity5": 2,
		"amount": 15000000
	},
	{
		"ID": 100,
		"culled_value": 1,
		"material_group_id1_JobMaterialGroup": 11,
		"quantity1": 5,
		"material_group_id2_JobMaterialGroup": 10,
		"quantity2": 5,
		"material_group_id3_JobMaterialGroup": 0,
		"quantity3": 0,
		"material_group_id4_JobMaterialGroup": 0,
		"quantity4": 0,
		"material_group_id5_JobMaterialGroup": 0,
		"quantity5": 0,
		"amount": 375000
	},
	{
		"ID": 101,
		"culled_value": 2,
		"material_group_id1_JobMaterialGroup": 11,
		"quantity1": 5,
		"material_group_id2_JobMaterialGroup": 24,
		"quantity2": 10,
		"material_group_id3_JobMaterialGroup": 9,
		"quantity3": 15,
		"material_group_id4_JobMaterialGroup": 0,
		"quantity4": 0,
		"material_group_id5_JobMaterialGroup": 0,
		"quantity5": 0,
		"amount": 600000
	},
	{
		"ID": 102,
		"culled_value": 3,
		"material_group_id1_JobMaterialGroup": 11,
		"quantity1": 5,
		"material_group_id2_JobMaterialGroup": 24,
		"quantity2": 15,
		"material_group_id3_JobMaterialGroup": 10,
		"quantity3": 5,
		"material_group_id4_JobMaterialGroup": 0,
		"quantity4": 0,
		"material_group_id5_JobMaterialGroup": 0,
		"quantity5": 0,
		"amount": 1125000
	},
	{
		"ID": 103,
		"culled_value": 4,
		"material_group_id1_JobMaterialGroup": 11,
		"quantity1": 5,
		"material_group_id2_JobMaterialGroup": 24,
		"quantity2": 20,
		"material_group_id3_JobMaterialGroup": 5,
		"quantity3": 3,
		"material_group_id4_JobMaterialGroup": 2,
		"quantity4": 5,
		"material_group_id5_JobMaterialGroup": 0,
		"quantity5": 0,
		"amount": 2250000
	},
	{
		"ID": 104,
		"culled_value": 5,
		"material_group_id1_JobMaterialGroup": 11,
		"quantity1": 20,
		"material_group_id2_JobMaterialGroup": 24,
		"quantity2": 35,
		"material_group_id3_JobMaterialGroup": 5,
		"quantity3": 3,
		"material_group_id4_JobMaterialGroup": 10,
		"quantity4": 5,
		"material_group_id5_JobMaterialGroup": 35,
		"quantity5": 1,
		"amount": 7500000
	},
	{
		"ID": 105,
		"culled_value": 1,
		"material_group_id1_JobMaterialGroup": 13,
		"quantity1": 10,
		"material_group_id2_JobMaterialGroup": 1,
		"quantity2": 8,
		"material_group_id3_JobMaterialGroup": 0,
		"quantity3": 0,
		"material_group_id4_JobMaterialGroup": 0,
		"quantity4": 0,
		"material_group_id5_JobMaterialGroup": 0,
		"quantity5": 0,
		"amount": 375000
	},
	{
		"ID": 106,
		"culled_value": 2,
		"material_group_id1_JobMaterialGroup": 11,
		"quantity1": 10,
		"material_group_id2_JobMaterialGroup": 13,
		"quantity2": 15,
		"material_group_id3_JobMaterialGroup": 9,
		"quantity3": 15,
		"material_group_id4_JobMaterialGroup": 0,
		"quantity4": 0,
		"material_group_id5_JobMaterialGroup": 0,
		"quantity5": 0,
		"amount": 600000
	},
	{
		"ID": 107,
		"culled_value": 3,
		"material_group_id1_JobMaterialGroup": 11,
		"quantity1": 15,
		"material_group_id2_JobMaterialGroup": 13,
		"quantity2": 20,
		"material_group_id3_JobMaterialGroup": 10,
		"quantity3": 5,
		"material_group_id4_JobMaterialGroup": 0,
		"quantity4": 0,
		"material_group_id5_JobMaterialGroup": 0,
		"quantity5": 0,
		"amount": 1125000
	},
	{
		"ID": 108,
		"culled_value": 4,
		"material_group_id1_JobMaterialGroup": 11,
		"quantity1": 35,
		"material_group_id2_JobMaterialGroup": 13,
		"quantity2": 25,
		"material_group_id3_JobMaterialGroup": 4,
		"quantity3": 6,
		"material_group_id4_JobMaterialGroup": 1,
		"quantity4": 8,
		"material_group_id5_JobMaterialGroup": 0,
		"quantity5": 0,
		"amount": 2250000
	},
	{
		"ID": 109,
		"culled_value": 5,
		"material_group_id1_JobMaterialGroup": 11,
		"quantity1": 50,
		"material_group_id2_JobMaterialGroup": 13,
		"quantity2": 30,
		"material_group_id3_JobMaterialGroup": 2,
		"quantity3": 5,
		"material_group_id4_JobMaterialGroup": 10,
		"quantity4": 10,
		"material_group_id5_JobMaterialGroup": 35,
		"quantity5": 2,
		"amount": 15000000
	},
	{
		"ID": 110,
		"culled_value": 1,
		"material_group_id1_JobMaterialGroup": 11,
		"quantity1": 5,
		"material_group_id2_JobMaterialGroup": 10,
		"quantity2": 5,
		"material_group_id3_JobMaterialGroup": 0,
		"quantity3": 0,
		"material_group_id4_JobMaterialGroup": 0,
		"quantity4": 0,
		"material_group_id5_JobMaterialGroup": 0,
		"quantity5": 0,
		"amount": 375000
	},
	{
		"ID": 111,
		"culled_value": 2,
		"material_group_id1_JobMaterialGroup": 11,
		"quantity1": 5,
		"material_group_id2_JobMaterialGroup": 24,
		"quantity2": 10,
		"material_group_id3_JobMaterialGroup": 9,
		"quantity3": 15,
		"material_group_id4_JobMaterialGroup": 0,
		"quantity4": 0,
		"material_group_id5_JobMaterialGroup": 0,
		"quantity5": 0,
		"amount": 600000
	},
	{
		"ID": 112,
		"culled_value": 3,
		"material_group_id1_JobMaterialGroup": 11,
		"quantity1": 10,
		"material_group_id2_JobMaterialGroup": 24,
		"quantity2": 20,
		"material_group_id3_JobMaterialGroup": 10,
		"quantity3": 5,
		"material_group_id4_JobMaterialGroup": 0,
		"quantity4": 0,
		"material_group_id5_JobMaterialGroup": 0,
		"quantity5": 0,
		"amount": 1125000
	},
	{
		"ID": 113,
		"culled_value": 4,
		"material_group_id1_JobMaterialGroup": 11,
		"quantity1": 20,
		"material_group_id2_JobMaterialGroup": 24,
		"quantity2": 25,
		"material_group_id3_JobMaterialGroup": 5,
		"quantity3": 3,
		"material_group_id4_JobMaterialGroup": 2,
		"quantity4": 5,
		"material_group_id5_JobMaterialGroup": 0,
		"quantity5": 0,
		"amount": 2250000
	},
	{
		"ID": 114,
		"culled_value": 5,
		"material_group_id1_JobMaterialGroup": 11,
		"quantity1": 20,
		"material_group_id2_JobMaterialGroup": 24,
		"quantity2": 30,
		"material_group_id3_JobMaterialGroup": 5,
		"quantity3": 3,
		"material_group_id4_JobMaterialGroup": 10,
		"quantity4": 5,
		"material_group_id5_JobMaterialGroup": 35,
		"quantity5": 1,
		"amount": 7500000
	},
	{
		"ID": 115,
		"culled_value": 1,
		"material_group_id1_JobMaterialGroup": 36,
		"quantity1": 5,
		"material_group_id2_JobMaterialGroup": 1,
		"quantity2": 10,
		"material_group_id3_JobMaterialGroup": 0,
		"quantity3": 0,
		"material_group_id4_JobMaterialGroup": 0,
		"quantity4": 0,
		"material_group_id5_JobMaterialGroup": 0,
		"quantity5": 0,
		"amount": 375000
	},
	{
		"ID": 116,
		"culled_value": 2,
		"material_group_id1_JobMaterialGroup": 11,
		"quantity1": 5,
		"material_group_id2_JobMaterialGroup": 36,
		"quantity2": 10,
		"material_group_id3_JobMaterialGroup": 9,
		"quantity3": 15,
		"material_group_id4_JobMaterialGroup": 0,
		"quantity4": 0,
		"material_group_id5_JobMaterialGroup": 0,
		"quantity5": 0,
		"amount": 600000
	},
	{
		"ID": 117,
		"culled_value": 3,
		"material_group_id1_JobMaterialGroup": 11,
		"quantity1": 10,
		"material_group_id2_JobMaterialGroup": 36,
		"quantity2": 15,
		"material_group_id3_JobMaterialGroup": 10,
		"quantity3": 5,
		"material_group_id4_JobMaterialGroup": 0,
		"quantity4": 0,
		"material_group_id5_JobMaterialGroup": 0,
		"quantity5": 0,
		"amount": 1125000
	},
	{
		"ID": 118,
		"culled_value": 4,
		"material_group_id1_JobMaterialGroup": 11,
		"quantity1": 25,
		"material_group_id2_JobMaterialGroup": 36,
		"quantity2": 25,
		"material_group_id3_JobMaterialGroup": 4,
		"quantity3": 3,
		"material_group_id4_JobMaterialGroup": 1,
		"quantity4": 10,
		"material_group_id5_JobMaterialGroup": 0,
		"quantity5": 0,
		"amount": 2250000
	},
	{
		"ID": 119,
		"culled_value": 5,
		"material_group_id1_JobMaterialGroup": 11,
		"quantity1": 50,
		"material_group_id2_JobMaterialGroup": 36,
		"quantity2": 35,
		"material_group_id3_JobMaterialGroup": 2,
		"quantity3": 3,
		"material_group_id4_JobMaterialGroup": 10,
		"quantity4": 10,
		"material_group_id5_JobMaterialGroup": 35,
		"quantity5": 2,
		"amount": 15000000
	},
	{
		"ID": 120,
		"culled_value": 11,
		"material_group_id1_JobMaterialGroup": 11,
		"quantity1": 5,
		"material_group_id2_JobMaterialGroup": 10,
		"quantity2": 15,
		"material_group_id3_JobMaterialGroup": 0,
		"quantity3": 0,
		"material_group_id4_JobMaterialGroup": 0,
		"quantity4": 0,
		"material_group_id5_JobMaterialGroup": 0,
		"quantity5": 0,
		"amount": 375000
	},
	{
		"ID": 121,
		"culled_value": 12,
		"material_group_id1_JobMaterialGroup": 11,
		"quantity1": 5,
		"material_group_id2_JobMaterialGroup": 24,
		"quantity2": 10,
		"material_group_id3_JobMaterialGroup": 9,
		"quantity3": 7,
		"material_group_id4_JobMaterialGroup": 0,
		"quantity4": 0,
		"material_group_id5_JobMaterialGroup": 0,
		"quantity5": 0,
		"amount": 600000
	},
	{
		"ID": 122,
		"culled_value": 13,
		"material_group_id1_JobMaterialGroup": 11,
		"quantity1": 5,
		"material_group_id2_JobMaterialGroup": 24,
		"quantity2": 15,
		"material_group_id3_JobMaterialGroup": 36,
		"quantity3": 5,
		"material_group_id4_JobMaterialGroup": 0,
		"quantity4": 0,
		"material_group_id5_JobMaterialGroup": 0,
		"quantity5": 0,
		"amount": 1125000
	},
	{
		"ID": 123,
		"culled_value": 14,
		"material_group_id1_JobMaterialGroup": 11,
		"quantity1": 5,
		"material_group_id2_JobMaterialGroup": 24,
		"quantity2": 20,
		"material_group_id3_JobMaterialGroup": 36,
		"quantity3": 10,
		"material_group_id4_JobMaterialGroup": 5,
		"quantity4": 3,
		"material_group_id5_JobMaterialGroup": 0,
		"quantity5": 0,
		"amount": 2250000
	},
	{
		"ID": 124,
		"culled_value": 15,
		"material_group_id1_JobMaterialGroup": 11,
		"quantity1": 20,
		"material_group_id2_JobMaterialGroup": 24,
		"quantity2": 30,
		"material_group_id3_JobMaterialGroup": 36,
		"quantity3": 20,
		"material_group_id4_JobMaterialGroup": 5,
		"quantity4": 3,
		"material_group_id5_JobMaterialGroup": 35,
		"quantity5": 2,
		"amount": 7500000
	},
	{
		"ID": 125,
		"culled_value": 11,
		"material_group_id1_JobMaterialGroup": 36,
		"quantity1": 5,
		"material_group_id2_JobMaterialGroup": 1,
		"quantity2": 5,
		"material_group_id3_JobMaterialGroup": 0,
		"quantity3": 0,
		"material_group_id4_JobMaterialGroup": 0,
		"quantity4": 0,
		"material_group_id5_JobMaterialGroup": 0,
		"quantity5": 0,
		"amount": 375000
	},
	{
		"ID": 126,
		"culled_value": 12,
		"material_group_id1_JobMaterialGroup": 11,
		"quantity1": 5,
		"material_group_id2_JobMaterialGroup": 36,
		"quantity2": 10,
		"material_group_id3_JobMaterialGroup": 9,
		"quantity3": 8,
		"material_group_id4_JobMaterialGroup": 0,
		"quantity4": 0,
		"material_group_id5_JobMaterialGroup": 0,
		"quantity5": 0,
		"amount": 600000
	},
	{
		"ID": 127,
		"culled_value": 13,
		"material_group_id1_JobMaterialGroup": 11,
		"quantity1": 10,
		"material_group_id2_JobMaterialGroup": 36,
		"quantity2": 15,
		"material_group_id3_JobMaterialGroup": 24,
		"quantity3": 15,
		"material_group_id4_JobMaterialGroup": 0,
		"quantity4": 0,
		"material_group_id5_JobMaterialGroup": 0,
		"quantity5": 0,
		"amount": 1125000
	},
	{
		"ID": 128,
		"culled_value": 14,
		"material_group_id1_JobMaterialGroup": 11,
		"quantity1": 15,
		"material_group_id2_JobMaterialGroup": 36,
		"quantity2": 20,
		"material_group_id3_JobMaterialGroup": 24,
		"quantity3": 25,
		"material_group_id4_JobMaterialGroup": 1,
		"quantity4": 5,
		"material_group_id5_JobMaterialGroup": 0,
		"quantity5": 0,
		"amount": 2250000
	},
	{
		"ID": 129,
		"culled_value": 15,
		"material_group_id1_JobMaterialGroup": 11,
		"quantity1": 50,
		"material_group_id2_JobMaterialGroup": 36,
		"quantity2": 30,
		"material_group_id3_JobMaterialGroup": 24,
		"quantity3": 40,
		"material_group_id4_JobMaterialGroup": 2,
		"quantity4": 10,
		"material_group_id5_JobMaterialGroup": 35,
		"quantity5": 2,
		"amount": 15000000
	},
	{
		"ID": 130,
		"culled_value": 1,
		"material_group_id1_JobMaterialGroup": 11,
		"quantity1": 5,
		"material_group_id2_JobMaterialGroup": 10,
		"quantity2": 5,
		"material_group_id3_JobMaterialGroup": 0,
		"quantity3": 0,
		"material_group_id4_JobMaterialGroup": 0,
		"quantity4": 0,
		"material_group_id5_JobMaterialGroup": 0,
		"quantity5": 0,
		"amount": 375000
	},
	{
		"ID": 131,
		"culled_value": 2,
		"material_group_id1_JobMaterialGroup": 11,
		"quantity1": 5,
		"material_group_id2_JobMaterialGroup": 24,
		"quantity2": 10,
		"material_group_id3_JobMaterialGroup": 9,
		"quantity3": 15,
		"material_group_id4_JobMaterialGroup": 0,
		"quantity4": 0,
		"material_group_id5_JobMaterialGroup": 0,
		"quantity5": 0,
		"amount": 600000
	},
	{
		"ID": 132,
		"culled_value": 3,
		"material_group_id1_JobMaterialGroup": 11,
		"quantity1": 5,
		"material_group_id2_JobMaterialGroup": 24,
		"quantity2": 15,
		"material_group_id3_JobMaterialGroup": 10,
		"quantity3": 5,
		"material_group_id4_JobMaterialGroup": 0,
		"quantity4": 0,
		"material_group_id5_JobMaterialGroup": 0,
		"quantity5": 0,
		"amount": 1125000
	},
	{
		"ID": 133,
		"culled_value": 4,
		"material_group_id1_JobMaterialGroup": 11,
		"quantity1": 5,
		"material_group_id2_JobMaterialGroup": 24,
		"quantity2": 20,
		"material_group_id3_JobMaterialGroup": 5,
		"quantity3": 3,
		"material_group_id4_JobMaterialGroup": 2,
		"quantity4": 5,
		"material_group_id5_JobMaterialGroup": 0,
		"quantity5": 0,
		"amount": 2250000
	},
	{
		"ID": 134,
		"culled_value": 5,
		"material_group_id1_JobMaterialGroup": 11,
		"quantity1": 20,
		"material_group_id2_JobMaterialGroup": 24,
		"quantity2": 35,
		"material_group_id3_JobMaterialGroup": 5,
		"quantity3": 3,
		"material_group_id4_JobMaterialGroup": 10,
		"quantity4": 5,
		"material_group_id5_JobMaterialGroup": 37,
		"quantity5": 1,
		"amount": 7500000
	},
	{
		"ID": 135,
		"culled_value": 1,
		"material_group_id1_JobMaterialGroup": 13,
		"quantity1": 10,
		"material_group_id2_JobMaterialGroup": 1,
		"quantity2": 8,
		"material_group_id3_JobMaterialGroup": 0,
		"quantity3": 0,
		"material_group_id4_JobMaterialGroup": 0,
		"quantity4": 0,
		"material_group_id5_JobMaterialGroup": 0,
		"quantity5": 0,
		"amount": 375000
	},
	{
		"ID": 136,
		"culled_value": 2,
		"material_group_id1_JobMaterialGroup": 11,
		"quantity1": 10,
		"material_group_id2_JobMaterialGroup": 13,
		"quantity2": 15,
		"material_group_id3_JobMaterialGroup": 9,
		"quantity3": 15,
		"material_group_id4_JobMaterialGroup": 0,
		"quantity4": 0,
		"material_group_id5_JobMaterialGroup": 0,
		"quantity5": 0,
		"amount": 600000
	},
	{
		"ID": 137,
		"culled_value": 3,
		"material_group_id1_JobMaterialGroup": 11,
		"quantity1": 15,
		"material_group_id2_JobMaterialGroup": 13,
		"quantity2": 20,
		"material_group_id3_JobMaterialGroup": 10,
		"quantity3": 5,
		"material_group_id4_JobMaterialGroup": 0,
		"quantity4": 0,
		"material_group_id5_JobMaterialGroup": 0,
		"quantity5": 0,
		"amount": 1125000
	},
	{
		"ID": 138,
		"culled_value": 4,
		"material_group_id1_JobMaterialGroup": 11,
		"quantity1": 35,
		"material_group_id2_JobMaterialGroup": 13,
		"quantity2": 25,
		"material_group_id3_JobMaterialGroup": 4,
		"quantity3": 6,
		"material_group_id4_JobMaterialGroup": 1,
		"quantity4": 8,
		"material_group_id5_JobMaterialGroup": 0,
		"quantity5": 0,
		"amount": 2250000
	},
	{
		"ID": 139,
		"culled_value": 5,
		"material_group_id1_JobMaterialGroup": 11,
		"quantity1": 50,
		"material_group_id2_JobMaterialGroup": 13,
		"quantity2": 30,
		"material_group_id3_JobMaterialGroup": 2,
		"quantity3": 5,
		"material_group_id4_JobMaterialGroup": 10,
		"quantity4": 10,
		"material_group_id5_JobMaterialGroup": 37,
		"quantity5": 2,
		"amount": 15000000
	},
	{
		"ID": 140,
		"culled_value": 1,
		"material_group_id1_JobMaterialGroup": 11,
		"quantity1": 5,
		"material_group_id2_JobMaterialGroup": 10,
		"quantity2": 5,
		"material_group_id3_JobMaterialGroup": 0,
		"quantity3": 0,
		"material_group_id4_JobMaterialGroup": 0,
		"quantity4": 0,
		"material_group_id5_JobMaterialGroup": 0,
		"quantity5": 0,
		"amount": 375000
	},
	{
		"ID": 141,
		"culled_value": 2,
		"material_group_id1_JobMaterialGroup": 11,
		"quantity1": 5,
		"material_group_id2_JobMaterialGroup": 34,
		"quantity2": 10,
		"material_group_id3_JobMaterialGroup": 9,
		"quantity3": 15,
		"material_group_id4_JobMaterialGroup": 0,
		"quantity4": 0,
		"material_group_id5_JobMaterialGroup": 0,
		"quantity5": 0,
		"amount": 600000
	},
	{
		"ID": 142,
		"culled_value": 3,
		"material_group_id1_JobMaterialGroup": 11,
		"quantity1": 5,
		"material_group_id2_JobMaterialGroup": 34,
		"quantity2": 15,
		"material_group_id3_JobMaterialGroup": 10,
		"quantity3": 5,
		"material_group_id4_JobMaterialGroup": 0,
		"quantity4": 0,
		"material_group_id5_JobMaterialGroup": 0,
		"quantity5": 0,
		"amount": 1125000
	},
	{
		"ID": 143,
		"culled_value": 4,
		"material_group_id1_JobMaterialGroup": 11,
		"quantity1": 5,
		"material_group_id2_JobMaterialGroup": 34,
		"quantity2": 20,
		"material_group_id3_JobMaterialGroup": 5,
		"quantity3": 3,
		"material_group_id4_JobMaterialGroup": 2,
		"quantity4": 5,
		"material_group_id5_JobMaterialGroup": 0,
		"quantity5": 0,
		"amount": 2250000
	},
	{
		"ID": 144,
		"culled_value": 5,
		"material_group_id1_JobMaterialGroup": 11,
		"quantity1": 20,
		"material_group_id2_JobMaterialGroup": 34,
		"quantity2": 35,
		"material_group_id3_JobMaterialGroup": 5,
		"quantity3": 3,
		"material_group_id4_JobMaterialGroup": 10,
		"quantity4": 5,
		"material_group_id5_JobMaterialGroup": 37,
		"quantity5": 1,
		"amount": 7500000
	},
	{
		"ID": 145,
		"culled_value": 1,
		"material_group_id1_JobMaterialGroup": 13,
		"quantity1": 10,
		"material_group_id2_JobMaterialGroup": 1,
		"quantity2": 8,
		"material_group_id3_JobMaterialGroup": 0,
		"quantity3": 0,
		"material_group_id4_JobMaterialGroup": 0,
		"quantity4": 0,
		"material_group_id5_JobMaterialGroup": 0,
		"quantity5": 0,
		"amount": 375000
	},
	{
		"ID": 146,
		"culled_value": 2,
		"material_group_id1_JobMaterialGroup": 11,
		"quantity1": 10,
		"material_group_id2_JobMaterialGroup": 13,
		"quantity2": 15,
		"material_group_id3_JobMaterialGroup": 9,
		"quantity3": 15,
		"material_group_id4_JobMaterialGroup": 0,
		"quantity4": 0,
		"material_group_id5_JobMaterialGroup": 0,
		"quantity5": 0,
		"amount": 600000
	},
	{
		"ID": 147,
		"culled_value": 3,
		"material_group_id1_JobMaterialGroup": 11,
		"quantity1": 15,
		"material_group_id2_JobMaterialGroup": 13,
		"quantity2": 20,
		"material_group_id3_JobMaterialGroup": 10,
		"quantity3": 5,
		"material_group_id4_JobMaterialGroup": 0,
		"quantity4": 0,
		"material_group_id5_JobMaterialGroup": 0,
		"quantity5": 0,
		"amount": 1125000
	},
	{
		"ID": 148,
		"culled_value": 4,
		"material_group_id1_JobMaterialGroup": 11,
		"quantity1": 35,
		"material_group_id2_JobMaterialGroup": 13,
		"quantity2": 25,
		"material_group_id3_JobMaterialGroup": 4,
		"quantity3": 6,
		"material_group_id4_JobMaterialGroup": 1,
		"quantity4": 8,
		"material_group_id5_JobMaterialGroup": 0,
		"quantity5": 0,
		"amount": 2250000
	},
	{
		"ID": 149,
		"culled_value": 5,
		"material_group_id1_JobMaterialGroup": 11,
		"quantity1": 50,
		"material_group_id2_JobMaterialGroup": 13,
		"quantity2": 30,
		"material_group_id3_JobMaterialGroup": 2,
		"quantity3": 5,
		"material_group_id4_JobMaterialGroup": 10,
		"quantity4": 10,
		"material_group_id5_JobMaterialGroup": 37,
		"quantity5": 2,
		"amount": 15000000
	},
	{
		"ID": 150,
		"culled_value": 1,
		"material_group_id1_JobMaterialGroup": 11,
		"quantity1": 5,
		"material_group_id2_JobMaterialGroup": 10,
		"quantity2": 5,
		"material_group_id3_JobMaterialGroup": 0,
		"quantity3": 0,
		"material_group_id4_JobMaterialGroup": 0,
		"quantity4": 0,
		"material_group_id5_JobMaterialGroup": 0,
		"quantity5": 0,
		"amount": 375000
	},
	{
		"ID": 151,
		"culled_value": 2,
		"material_group_id1_JobMaterialGroup": 11,
		"quantity1": 5,
		"material_group_id2_JobMaterialGroup": 24,
		"quantity2": 10,
		"material_group_id3_JobMaterialGroup": 9,
		"quantity3": 15,
		"material_group_id4_JobMaterialGroup": 0,
		"quantity4": 0,
		"material_group_id5_JobMaterialGroup": 0,
		"quantity5": 0,
		"amount": 600000
	},
	{
		"ID": 152,
		"culled_value": 3,
		"material_group_id1_JobMaterialGroup": 11,
		"quantity1": 10,
		"material_group_id2_JobMaterialGroup": 24,
		"quantity2": 20,
		"material_group_id3_JobMaterialGroup": 10,
		"quantity3": 5,
		"material_group_id4_JobMaterialGroup": 0,
		"quantity4": 0,
		"material_group_id5_JobMaterialGroup": 0,
		"quantity5": 0,
		"amount": 1125000
	},
	{
		"ID": 153,
		"culled_value": 4,
		"material_group_id1_JobMaterialGroup": 11,
		"quantity1": 20,
		"material_group_id2_JobMaterialGroup": 24,
		"quantity2": 25,
		"material_group_id3_JobMaterialGroup": 5,
		"quantity3": 3,
		"material_group_id4_JobMaterialGroup": 2,
		"quantity4": 5,
		"material_group_id5_JobMaterialGroup": 0,
		"quantity5": 0,
		"amount": 2250000
	},
	{
		"ID": 154,
		"culled_value": 5,
		"material_group_id1_JobMaterialGroup": 11,
		"quantity1": 20,
		"material_group_id2_JobMaterialGroup": 24,
		"quantity2": 30,
		"material_group_id3_JobMaterialGroup": 5,
		"quantity3": 3,
		"material_group_id4_JobMaterialGroup": 10,
		"quantity4": 5,
		"material_group_id5_JobMaterialGroup": 23,
		"quantity5": 1,
		"amount": 7500000
	},
	{
		"ID": 155,
		"culled_value": 1,
		"material_group_id1_JobMaterialGroup": 22,
		"quantity1": 5,
		"material_group_id2_JobMaterialGroup": 1,
		"quantity2": 10,
		"material_group_id3_JobMaterialGroup": 0,
		"quantity3": 0,
		"material_group_id4_JobMaterialGroup": 0,
		"quantity4": 0,
		"material_group_id5_JobMaterialGroup": 0,
		"quantity5": 0,
		"amount": 375000
	},
	{
		"ID": 156,
		"culled_value": 2,
		"material_group_id1_JobMaterialGroup": 11,
		"quantity1": 5,
		"material_group_id2_JobMaterialGroup": 22,
		"quantity2": 10,
		"material_group_id3_JobMaterialGroup": 9,
		"quantity3": 15,
		"material_group_id4_JobMaterialGroup": 0,
		"quantity4": 0,
		"material_group_id5_JobMaterialGroup": 0,
		"quantity5": 0,
		"amount": 600000
	},
	{
		"ID": 157,
		"culled_value": 3,
		"material_group_id1_JobMaterialGroup": 11,
		"quantity1": 10,
		"material_group_id2_JobMaterialGroup": 22,
		"quantity2": 15,
		"material_group_id3_JobMaterialGroup": 10,
		"quantity3": 5,
		"material_group_id4_JobMaterialGroup": 0,
		"quantity4": 0,
		"material_group_id5_JobMaterialGroup": 0,
		"quantity5": 0,
		"amount": 1125000
	},
	{
		"ID": 158,
		"culled_value": 4,
		"material_group_id1_JobMaterialGroup": 11,
		"quantity1": 25,
		"material_group_id2_JobMaterialGroup": 22,
		"quantity2": 25,
		"material_group_id3_JobMaterialGroup": 4,
		"quantity3": 3,
		"material_group_id4_JobMaterialGroup": 1,
		"quantity4": 10,
		"material_group_id5_JobMaterialGroup": 0,
		"quantity5": 0,
		"amount": 2250000
	},
	{
		"ID": 159,
		"culled_value": 5,
		"material_group_id1_JobMaterialGroup": 11,
		"quantity1": 50,
		"material_group_id2_JobMaterialGroup": 22,
		"quantity2": 35,
		"material_group_id3_JobMaterialGroup": 2,
		"quantity3": 3,
		"material_group_id4_JobMaterialGroup": 10,
		"quantity4": 10,
		"material_group_id5_JobMaterialGroup": 23,
		"quantity5": 2,
		"amount": 15000000
	},
	{
		"ID": 160,
		"culled_value": 11,
		"material_group_id1_JobMaterialGroup": 11,
		"quantity1": 5,
		"material_group_id2_JobMaterialGroup": 10,
		"quantity2": 15,
		"material_group_id3_JobMaterialGroup": 0,
		"quantity3": 0,
		"material_group_id4_JobMaterialGroup": 0,
		"quantity4": 0,
		"material_group_id5_JobMaterialGroup": 0,
		"quantity5": 0,
		"amount": 375000
	},
	{
		"ID": 161,
		"culled_value": 12,
		"material_group_id1_JobMaterialGroup": 11,
		"quantity1": 5,
		"material_group_id2_JobMaterialGroup": 24,
		"quantity2": 10,
		"material_group_id3_JobMaterialGroup": 9,
		"quantity3": 7,
		"material_group_id4_JobMaterialGroup": 0,
		"quantity4": 0,
		"material_group_id5_JobMaterialGroup": 0,
		"quantity5": 0,
		"amount": 600000
	},
	{
		"ID": 162,
		"culled_value": 13,
		"material_group_id1_JobMaterialGroup": 11,
		"quantity1": 5,
		"material_group_id2_JobMaterialGroup": 24,
		"quantity2": 15,
		"material_group_id3_JobMaterialGroup": 22,
		"quantity3": 5,
		"material_group_id4_JobMaterialGroup": 0,
		"quantity4": 0,
		"material_group_id5_JobMaterialGroup": 0,
		"quantity5": 0,
		"amount": 1125000
	},
	{
		"ID": 163,
		"culled_value": 14,
		"material_group_id1_JobMaterialGroup": 11,
		"quantity1": 5,
		"material_group_id2_JobMaterialGroup": 24,
		"quantity2": 20,
		"material_group_id3_JobMaterialGroup": 22,
		"quantity3": 10,
		"material_group_id4_JobMaterialGroup": 5,
		"quantity4": 3,
		"material_group_id5_JobMaterialGroup": 0,
		"quantity5": 0,
		"amount": 2250000
	},
	{
		"ID": 164,
		"culled_value": 15,
		"material_group_id1_JobMaterialGroup": 11,
		"quantity1": 20,
		"material_group_id2_JobMaterialGroup": 24,
		"quantity2": 30,
		"material_group_id3_JobMaterialGroup": 22,
		"quantity3": 20,
		"material_group_id4_JobMaterialGroup": 5,
		"quantity4": 3,
		"material_group_id5_JobMaterialGroup": 23,
		"quantity5": 2,
		"amount": 7500000
	},
	{
		"ID": 165,
		"culled_value": 11,
		"material_group_id1_JobMaterialGroup": 22,
		"quantity1": 5,
		"material_group_id2_JobMaterialGroup": 1,
		"quantity2": 5,
		"material_group_id3_JobMaterialGroup": 0,
		"quantity3": 0,
		"material_group_id4_JobMaterialGroup": 0,
		"quantity4": 0,
		"material_group_id5_JobMaterialGroup": 0,
		"quantity5": 0,
		"amount": 375000
	},
	{
		"ID": 166,
		"culled_value": 12,
		"material_group_id1_JobMaterialGroup": 11,
		"quantity1": 5,
		"material_group_id2_JobMaterialGroup": 22,
		"quantity2": 10,
		"material_group_id3_JobMaterialGroup": 9,
		"quantity3": 8,
		"material_group_id4_JobMaterialGroup": 0,
		"quantity4": 0,
		"material_group_id5_JobMaterialGroup": 0,
		"quantity5": 0,
		"amount": 600000
	},
	{
		"ID": 167,
		"culled_value": 13,
		"material_group_id1_JobMaterialGroup": 11,
		"quantity1": 10,
		"material_group_id2_JobMaterialGroup": 22,
		"quantity2": 15,
		"material_group_id3_JobMaterialGroup": 24,
		"quantity3": 15,
		"material_group_id4_JobMaterialGroup": 0,
		"quantity4": 0,
		"material_group_id5_JobMaterialGroup": 0,
		"quantity5": 0,
		"amount": 1125000
	},
	{
		"ID": 168,
		"culled_value": 14,
		"material_group_id1_JobMaterialGroup": 11,
		"quantity1": 15,
		"material_group_id2_JobMaterialGroup": 22,
		"quantity2": 20,
		"material_group_id3_JobMaterialGroup": 24,
		"quantity3": 25,
		"material_group_id4_JobMaterialGroup": 1,
		"quantity4": 5,
		"material_group_id5_JobMaterialGroup": 0,
		"quantity5": 0,
		"amount": 2250000
	},
	{
		"ID": 169,
		"culled_value": 15,
		"material_group_id1_JobMaterialGroup": 11,
		"quantity1": 50,
		"material_group_id2_JobMaterialGroup": 22,
		"quantity2": 30,
		"material_group_id3_JobMaterialGroup": 24,
		"quantity3": 40,
		"material_group_id4_JobMaterialGroup": 2,
		"quantity4": 10,
		"material_group_id5_JobMaterialGroup": 23,
		"quantity5": 2,
		"amount": 15000000
	},
	{
		"ID": 170,
		"culled_value": 1,
		"material_group_id1_JobMaterialGroup": 11,
		"quantity1": 5,
		"material_group_id2_JobMaterialGroup": 10,
		"quantity2": 5,
		"material_group_id3_JobMaterialGroup": 0,
		"quantity3": 0,
		"material_group_id4_JobMaterialGroup": 0,
		"quantity4": 0,
		"material_group_id5_JobMaterialGroup": 0,
		"quantity5": 0,
		"amount": 375000
	},
	{
		"ID": 171,
		"culled_value": 2,
		"material_group_id1_JobMaterialGroup": 11,
		"quantity1": 5,
		"material_group_id2_JobMaterialGroup": 26,
		"quantity2": 10,
		"material_group_id3_JobMaterialGroup": 9,
		"quantity3": 15,
		"material_group_id4_JobMaterialGroup": 0,
		"quantity4": 0,
		"material_group_id5_JobMaterialGroup": 0,
		"quantity5": 0,
		"amount": 600000
	},
	{
		"ID": 172,
		"culled_value": 3,
		"material_group_id1_JobMaterialGroup": 11,
		"quantity1": 5,
		"material_group_id2_JobMaterialGroup": 26,
		"quantity2": 15,
		"material_group_id3_JobMaterialGroup": 10,
		"quantity3": 5,
		"material_group_id4_JobMaterialGroup": 0,
		"quantity4": 0,
		"material_group_id5_JobMaterialGroup": 0,
		"quantity5": 0,
		"amount": 1125000
	},
	{
		"ID": 173,
		"culled_value": 4,
		"material_group_id1_JobMaterialGroup": 11,
		"quantity1": 5,
		"material_group_id2_JobMaterialGroup": 26,
		"quantity2": 20,
		"material_group_id3_JobMaterialGroup": 5,
		"quantity3": 3,
		"material_group_id4_JobMaterialGroup": 2,
		"quantity4": 5,
		"material_group_id5_JobMaterialGroup": 0,
		"quantity5": 0,
		"amount": 2250000
	},
	{
		"ID": 174,
		"culled_value": 5,
		"material_group_id1_JobMaterialGroup": 11,
		"quantity1": 20,
		"material_group_id2_JobMaterialGroup": 26,
		"quantity2": 35,
		"material_group_id3_JobMaterialGroup": 5,
		"quantity3": 3,
		"material_group_id4_JobMaterialGroup": 10,
		"quantity4": 5,
		"material_group_id5_JobMaterialGroup": 37,
		"quantity5": 1,
		"amount": 7500000
	},
	{
		"ID": 175,
		"culled_value": 1,
		"material_group_id1_JobMaterialGroup": 11,
		"quantity1": 5,
		"material_group_id2_JobMaterialGroup": 10,
		"quantity2": 5,
		"material_group_id3_JobMaterialGroup": 0,
		"quantity3": 0,
		"material_group_id4_JobMaterialGroup": 0,
		"quantity4": 0,
		"material_group_id5_JobMaterialGroup": 0,
		"quantity5": 0,
		"amount": 375000
	},
	{
		"ID": 176,
		"culled_value": 2,
		"material_group_id1_JobMaterialGroup": 11,
		"quantity1": 5,
		"material_group_id2_JobMaterialGroup": 40,
		"quantity2": 10,
		"material_group_id3_JobMaterialGroup": 9,
		"quantity3": 15,
		"material_group_id4_JobMaterialGroup": 0,
		"quantity4": 0,
		"material_group_id5_JobMaterialGroup": 0,
		"quantity5": 0,
		"amount": 600000
	},
	{
		"ID": 177,
		"culled_value": 3,
		"material_group_id1_JobMaterialGroup": 11,
		"quantity1": 5,
		"material_group_id2_JobMaterialGroup": 40,
		"quantity2": 15,
		"material_group_id3_JobMaterialGroup": 10,
		"quantity3": 5,
		"material_group_id4_JobMaterialGroup": 0,
		"quantity4": 0,
		"material_group_id5_JobMaterialGroup": 0,
		"quantity5": 0,
		"amount": 1125000
	},
	{
		"ID": 178,
		"culled_value": 4,
		"material_group_id1_JobMaterialGroup": 11,
		"quantity1": 5,
		"material_group_id2_JobMaterialGroup": 40,
		"quantity2": 20,
		"material_group_id3_JobMaterialGroup": 5,
		"quantity3": 3,
		"material_group_id4_JobMaterialGroup": 2,
		"quantity4": 5,
		"material_group_id5_JobMaterialGroup": 0,
		"quantity5": 0,
		"amount": 2250000
	},
	{
		"ID": 179,
		"culled_value": 5,
		"material_group_id1_JobMaterialGroup": 11,
		"quantity1": 20,
		"material_group_id2_JobMaterialGroup": 40,
		"quantity2": 35,
		"material_group_id3_JobMaterialGroup": 5,
		"quantity3": 3,
		"material_group_id4_JobMaterialGroup": 10,
		"quantity4": 5,
		"material_group_id5_JobMaterialGroup": 23,
		"quantity5": 1,
		"amount": 7500000
	},
	{
		"ID": 180,
		"culled_value": 1,
		"material_group_id1_JobMaterialGroup": 11,
		"quantity1": 5,
		"material_group_id2_JobMaterialGroup": 10,
		"quantity2": 5,
		"material_group_id3_JobMaterialGroup": 0,
		"quantity3": 0,
		"material_group_id4_JobMaterialGroup": 0,
		"quantity4": 0,
		"material_group_id5_JobMaterialGroup": 0,
		"quantity5": 0,
		"amount": 375000
	},
	{
		"ID": 181,
		"culled_value": 2,
		"material_group_id1_JobMaterialGroup": 11,
		"quantity1": 5,
		"material_group_id2_JobMaterialGroup": 24,
		"quantity2": 10,
		"material_group_id3_JobMaterialGroup": 9,
		"quantity3": 15,
		"material_group_id4_JobMaterialGroup": 0,
		"quantity4": 0,
		"material_group_id5_JobMaterialGroup": 0,
		"quantity5": 0,
		"amount": 600000
	},
	{
		"ID": 182,
		"culled_value": 3,
		"material_group_id1_JobMaterialGroup": 11,
		"quantity1": 5,
		"material_group_id2_JobMaterialGroup": 24,
		"quantity2": 15,
		"material_group_id3_JobMaterialGroup": 10,
		"quantity3": 5,
		"material_group_id4_JobMaterialGroup": 0,
		"quantity4": 0,
		"material_group_id5_JobMaterialGroup": 0,
		"quantity5": 0,
		"amount": 1125000
	},
	{
		"ID": 183,
		"culled_value": 4,
		"material_group_id1_JobMaterialGroup": 11,
		"quantity1": 5,
		"material_group_id2_JobMaterialGroup": 24,
		"quantity2": 20,
		"material_group_id3_JobMaterialGroup": 5,
		"quantity3": 3,
		"material_group_id4_JobMaterialGroup": 2,
		"quantity4": 5,
		"material_group_id5_JobMaterialGroup": 0,
		"quantity5": 0,
		"amount": 2250000
	},
	{
		"ID": 184,
		"culled_value": 5,
		"material_group_id1_JobMaterialGroup": 11,
		"quantity1": 20,
		"material_group_id2_JobMaterialGroup": 24,
		"quantity2": 35,
		"material_group_id3_JobMaterialGroup": 5,
		"quantity3": 3,
		"material_group_id4_JobMaterialGroup": 10,
		"quantity4": 5,
		"material_group_id5_JobMaterialGroup": 38,
		"quantity5": 1,
		"amount": 7500000
	},
	{
		"ID": 185,
		"culled_value": 1,
		"material_group_id1_JobMaterialGroup": 13,
		"quantity1": 10,
		"material_group_id2_JobMaterialGroup": 1,
		"quantity2": 8,
		"material_group_id3_JobMaterialGroup": 0,
		"quantity3": 0,
		"material_group_id4_JobMaterialGroup": 0,
		"quantity4": 0,
		"material_group_id5_JobMaterialGroup": 0,
		"quantity5": 0,
		"amount": 375000
	},
	{
		"ID": 186,
		"culled_value": 2,
		"material_group_id1_JobMaterialGroup": 11,
		"quantity1": 10,
		"material_group_id2_JobMaterialGroup": 13,
		"quantity2": 15,
		"material_group_id3_JobMaterialGroup": 9,
		"quantity3": 15,
		"material_group_id4_JobMaterialGroup": 0,
		"quantity4": 0,
		"material_group_id5_JobMaterialGroup": 0,
		"quantity5": 0,
		"amount": 600000
	},
	{
		"ID": 187,
		"culled_value": 3,
		"material_group_id1_JobMaterialGroup": 11,
		"quantity1": 15,
		"material_group_id2_JobMaterialGroup": 13,
		"quantity2": 20,
		"material_group_id3_JobMaterialGroup": 10,
		"quantity3": 5,
		"material_group_id4_JobMaterialGroup": 0,
		"quantity4": 0,
		"material_group_id5_JobMaterialGroup": 0,
		"quantity5": 0,
		"amount": 1125000
	},
	{
		"ID": 188,
		"culled_value": 4,
		"material_group_id1_JobMaterialGroup": 11,
		"quantity1": 35,
		"material_group_id2_JobMaterialGroup": 13,
		"quantity2": 25,
		"material_group_id3_JobMaterialGroup": 4,
		"quantity3": 6,
		"material_group_id4_JobMaterialGroup": 1,
		"quantity4": 8,
		"material_group_id5_JobMaterialGroup": 0,
		"quantity5": 0,
		"amount": 2250000
	},
	{
		"ID": 189,
		"culled_value": 5,
		"material_group_id1_JobMaterialGroup": 11,
		"quantity1": 50,
		"material_group_id2_JobMaterialGroup": 13,
		"quantity2": 30,
		"material_group_id3_JobMaterialGroup": 2,
		"quantity3": 5,
		"material_group_id4_JobMaterialGroup": 10,
		"quantity4": 10,
		"material_group_id5_JobMaterialGroup": 38,
		"quantity5": 2,
		"amount": 15000000
	},
	{
		"ID": 190,
		"culled_value": 1,
		"material_group_id1_JobMaterialGroup": 11,
		"quantity1": 5,
		"material_group_id2_JobMaterialGroup": 10,
		"quantity2": 5,
		"material_group_id3_JobMaterialGroup": 0,
		"quantity3": 0,
		"material_group_id4_JobMaterialGroup": 0,
		"quantity4": 0,
		"material_group_id5_JobMaterialGroup": 0,
		"quantity5": 0,
		"amount": 375000
	},
	{
		"ID": 191,
		"culled_value": 2,
		"material_group_id1_JobMaterialGroup": 11,
		"quantity1": 5,
		"material_group_id2_JobMaterialGroup": 24,
		"quantity2": 10,
		"material_group_id3_JobMaterialGroup": 9,
		"quantity3": 15,
		"material_group_id4_JobMaterialGroup": 0,
		"quantity4": 0,
		"material_group_id5_JobMaterialGroup": 0,
		"quantity5": 0,
		"amount": 600000
	},
	{
		"ID": 192,
		"culled_value": 3,
		"material_group_id1_JobMaterialGroup": 11,
		"quantity1": 10,
		"material_group_id2_JobMaterialGroup": 24,
		"quantity2": 20,
		"material_group_id3_JobMaterialGroup": 10,
		"quantity3": 5,
		"material_group_id4_JobMaterialGroup": 0,
		"quantity4": 0,
		"material_group_id5_JobMaterialGroup": 0,
		"quantity5": 0,
		"amount": 1125000
	},
	{
		"ID": 193,
		"culled_value": 4,
		"material_group_id1_JobMaterialGroup": 11,
		"quantity1": 20,
		"material_group_id2_JobMaterialGroup": 24,
		"quantity2": 25,
		"material_group_id3_JobMaterialGroup": 5,
		"quantity3": 3,
		"material_group_id4_JobMaterialGroup": 2,
		"quantity4": 5,
		"material_group_id5_JobMaterialGroup": 0,
		"quantity5": 0,
		"amount": 2250000
	},
	{
		"ID": 194,
		"culled_value": 5,
		"material_group_id1_JobMaterialGroup": 11,
		"quantity1": 20,
		"material_group_id2_JobMaterialGroup": 24,
		"quantity2": 30,
		"material_group_id3_JobMaterialGroup": 5,
		"quantity3": 3,
		"material_group_id4_JobMaterialGroup": 10,
		"quantity4": 5,
		"material_group_id5_JobMaterialGroup": 38,
		"quantity5": 1,
		"amount": 7500000
	},
	{
		"ID": 195,
		"culled_value": 1,
		"material_group_id1_JobMaterialGroup": 39,
		"quantity1": 5,
		"material_group_id2_JobMaterialGroup": 1,
		"quantity2": 10,
		"material_group_id3_JobMaterialGroup": 0,
		"quantity3": 0,
		"material_group_id4_JobMaterialGroup": 0,
		"quantity4": 0,
		"material_group_id5_JobMaterialGroup": 0,
		"quantity5": 0,
		"amount": 375000
	},
	{
		"ID": 196,
		"culled_value": 2,
		"material_group_id1_JobMaterialGroup": 11,
		"quantity1": 5,
		"material_group_id2_JobMaterialGroup": 39,
		"quantity2": 10,
		"material_group_id3_JobMaterialGroup": 9,
		"quantity3": 15,
		"material_group_id4_JobMaterialGroup": 0,
		"quantity4": 0,
		"material_group_id5_JobMaterialGroup": 0,
		"quantity5": 0,
		"amount": 600000
	},
	{
		"ID": 197,
		"culled_value": 3,
		"material_group_id1_JobMaterialGroup": 11,
		"quantity1": 10,
		"material_group_id2_JobMaterialGroup": 39,
		"quantity2": 15,
		"material_group_id3_JobMaterialGroup": 10,
		"quantity3": 5,
		"material_group_id4_JobMaterialGroup": 0,
		"quantity4": 0,
		"material_group_id5_JobMaterialGroup": 0,
		"quantity5": 0,
		"amount": 1125000
	},
	{
		"ID": 198,
		"culled_value": 4,
		"material_group_id1_JobMaterialGroup": 11,
		"quantity1": 25,
		"material_group_id2_JobMaterialGroup": 39,
		"quantity2": 25,
		"material_group_id3_JobMaterialGroup": 4,
		"quantity3": 3,
		"material_group_id4_JobMaterialGroup": 1,
		"quantity4": 10,
		"material_group_id5_JobMaterialGroup": 0,
		"quantity5": 0,
		"amount": 2250000
	},
	{
		"ID": 199,
		"culled_value": 5,
		"material_group_id1_JobMaterialGroup": 11,
		"quantity1": 50,
		"material_group_id2_JobMaterialGroup": 39,
		"quantity2": 35,
		"material_group_id3_JobMaterialGroup": 2,
		"quantity3": 3,
		"material_group_id4_JobMaterialGroup": 10,
		"quantity4": 10,
		"material_group_id5_JobMaterialGroup": 38,
		"quantity5": 2,
		"amount": 15000000
	},
	{
		"ID": 200,
		"culled_value": 11,
		"material_group_id1_JobMaterialGroup": 11,
		"quantity1": 5,
		"material_group_id2_JobMaterialGroup": 10,
		"quantity2": 15,
		"material_group_id3_JobMaterialGroup": 0,
		"quantity3": 0,
		"material_group_id4_JobMaterialGroup": 0,
		"quantity4": 0,
		"material_group_id5_JobMaterialGroup": 0,
		"quantity5": 0,
		"amount": 375000
	},
	{
		"ID": 201,
		"culled_value": 12,
		"material_group_id1_JobMaterialGroup": 11,
		"quantity1": 5,
		"material_group_id2_JobMaterialGroup": 24,
		"quantity2": 10,
		"material_group_id3_JobMaterialGroup": 9,
		"quantity3": 7,
		"material_group_id4_JobMaterialGroup": 0,
		"quantity4": 0,
		"material_group_id5_JobMaterialGroup": 0,
		"quantity5": 0,
		"amount": 600000
	},
	{
		"ID": 202,
		"culled_value": 13,
		"material_group_id1_JobMaterialGroup": 11,
		"quantity1": 5,
		"material_group_id2_JobMaterialGroup": 24,
		"quantity2": 15,
		"material_group_id3_JobMaterialGroup": 39,
		"quantity3": 5,
		"material_group_id4_JobMaterialGroup": 0,
		"quantity4": 0,
		"material_group_id5_JobMaterialGroup": 0,
		"quantity5": 0,
		"amount": 1125000
	},
	{
		"ID": 203,
		"culled_value": 14,
		"material_group_id1_JobMaterialGroup": 11,
		"quantity1": 5,
		"material_group_id2_JobMaterialGroup": 24,
		"quantity2": 20,
		"material_group_id3_JobMaterialGroup": 39,
		"quantity3": 10,
		"material_group_id4_JobMaterialGroup": 5,
		"quantity4": 3,
		"material_group_id5_JobMaterialGroup": 0,
		"quantity5": 0,
		"amount": 2250000
	},
	{
		"ID": 204,
		"culled_value": 15,
		"material_group_id1_JobMaterialGroup": 11,
		"quantity1": 20,
		"material_group_id2_JobMaterialGroup": 24,
		"quantity2": 30,
		"material_group_id3_JobMaterialGroup": 39,
		"quantity3": 20,
		"material_group_id4_JobMaterialGroup": 5,
		"quantity4": 3,
		"material_group_id5_JobMaterialGroup": 38,
		"quantity5": 2,
		"amount": 7500000
	},
	{
		"ID": 205,
		"culled_value": 11,
		"material_group_id1_JobMaterialGroup": 39,
		"quantity1": 5,
		"material_group_id2_JobMaterialGroup": 1,
		"quantity2": 5,
		"material_group_id3_JobMaterialGroup": 0,
		"quantity3": 0,
		"material_group_id4_JobMaterialGroup": 0,
		"quantity4": 0,
		"material_group_id5_JobMaterialGroup": 0,
		"quantity5": 0,
		"amount": 375000
	},
	{
		"ID": 206,
		"culled_value": 12,
		"material_group_id1_JobMaterialGroup": 11,
		"quantity1": 5,
		"material_group_id2_JobMaterialGroup": 39,
		"quantity2": 10,
		"material_group_id3_JobMaterialGroup": 9,
		"quantity3": 8,
		"material_group_id4_JobMaterialGroup": 0,
		"quantity4": 0,
		"material_group_id5_JobMaterialGroup": 0,
		"quantity5": 0,
		"amount": 600000
	},
	{
		"ID": 207,
		"culled_value": 13,
		"material_group_id1_JobMaterialGroup": 11,
		"quantity1": 10,
		"material_group_id2_JobMaterialGroup": 39,
		"quantity2": 15,
		"material_group_id3_JobMaterialGroup": 24,
		"quantity3": 15,
		"material_group_id4_JobMaterialGroup": 0,
		"quantity4": 0,
		"material_group_id5_JobMaterialGroup": 0,
		"quantity5": 0,
		"amount": 1125000
	},
	{
		"ID": 208,
		"culled_value": 14,
		"material_group_id1_JobMaterialGroup": 11,
		"quantity1": 15,
		"material_group_id2_JobMaterialGroup": 39,
		"quantity2": 20,
		"material_group_id3_JobMaterialGroup": 24,
		"quantity3": 25,
		"material_group_id4_JobMaterialGroup": 1,
		"quantity4": 5,
		"material_group_id5_JobMaterialGroup": 0,
		"quantity5": 0,
		"amount": 2250000
	},
	{
		"ID": 209,
		"culled_value": 15,
		"material_group_id1_JobMaterialGroup": 11,
		"quantity1": 50,
		"material_group_id2_JobMaterialGroup": 39,
		"quantity2": 30,
		"material_group_id3_JobMaterialGroup": 24,
		"quantity3": 40,
		"material_group_id4_JobMaterialGroup": 2,
		"quantity4": 10,
		"material_group_id5_JobMaterialGroup": 38,
		"quantity5": 2,
		"amount": 15000000
	},
	{
		"ID": 210,
		"culled_value": 1,
		"material_group_id1_JobMaterialGroup": 11,
		"quantity1": 1,
		"material_group_id2_JobMaterialGroup": 10,
		"quantity2": 5,
		"material_group_id3_JobMaterialGroup": 0,
		"quantity3": 0,
		"material_group_id4_JobMaterialGroup": 0,
		"quantity4": 0,
		"material_group_id5_JobMaterialGroup": 0,
		"quantity5": 0,
		"amount": 37500
	},
	{
		"ID": 211,
		"culled_value": 2,
		"material_group_id1_JobMaterialGroup": 11,
		"quantity1": 1,
		"material_group_id2_JobMaterialGroup": 24,
		"quantity2": 2,
		"material_group_id3_JobMaterialGroup": 9,
		"quantity3": 15,
		"material_group_id4_JobMaterialGroup": 0,
		"quantity4": 0,
		"material_group_id5_JobMaterialGroup": 0,
		"quantity5": 0,
		"amount": 60000
	},
	{
		"ID": 212,
		"culled_value": 3,
		"material_group_id1_JobMaterialGroup": 11,
		"quantity1": 1,
		"material_group_id2_JobMaterialGroup": 24,
		"quantity2": 3,
		"material_group_id3_JobMaterialGroup": 10,
		"quantity3": 5,
		"material_group_id4_JobMaterialGroup": 0,
		"quantity4": 0,
		"material_group_id5_JobMaterialGroup": 0,
		"quantity5": 0,
		"amount": 112500
	},
	{
		"ID": 213,
		"culled_value": 4,
		"material_group_id1_JobMaterialGroup": 11,
		"quantity1": 1,
		"material_group_id2_JobMaterialGroup": 24,
		"quantity2": 4,
		"material_group_id3_JobMaterialGroup": 5,
		"quantity3": 3,
		"material_group_id4_JobMaterialGroup": 2,
		"quantity4": 5,
		"material_group_id5_JobMaterialGroup": 0,
		"quantity5": 0,
		"amount": 225000
	},
	{
		"ID": 214,
		"culled_value": 5,
		"material_group_id1_JobMaterialGroup": 11,
		"quantity1": 4,
		"material_group_id2_JobMaterialGroup": 24,
		"quantity2": 7,
		"material_group_id3_JobMaterialGroup": 5,
		"quantity3": 3,
		"material_group_id4_JobMaterialGroup": 10,
		"quantity4": 5,
		"material_group_id5_JobMaterialGroup": 41,
		"quantity5": 1,
		"amount": 750000
	},
	{
		"ID": 215,
		"culled_value": 1,
		"material_group_id1_JobMaterialGroup": 13,
		"quantity1": 2,
		"material_group_id2_JobMaterialGroup": 1,
		"quantity2": 8,
		"material_group_id3_JobMaterialGroup": 0,
		"quantity3": 0,
		"material_group_id4_JobMaterialGroup": 0,
		"quantity4": 0,
		"material_group_id5_JobMaterialGroup": 0,
		"quantity5": 0,
		"amount": 37500
	},
	{
		"ID": 216,
		"culled_value": 2,
		"material_group_id1_JobMaterialGroup": 11,
		"quantity1": 2,
		"material_group_id2_JobMaterialGroup": 13,
		"quantity2": 3,
		"material_group_id3_JobMaterialGroup": 9,
		"quantity3": 15,
		"material_group_id4_JobMaterialGroup": 0,
		"quantity4": 0,
		"material_group_id5_JobMaterialGroup": 0,
		"quantity5": 0,
		"amount": 60000
	},
	{
		"ID": 217,
		"culled_value": 3,
		"material_group_id1_JobMaterialGroup": 11,
		"quantity1": 3,
		"material_group_id2_JobMaterialGroup": 13,
		"quantity2": 4,
		"material_group_id3_JobMaterialGroup": 10,
		"quantity3": 5,
		"material_group_id4_JobMaterialGroup": 0,
		"quantity4": 0,
		"material_group_id5_JobMaterialGroup": 0,
		"quantity5": 0,
		"amount": 112500
	},
	{
		"ID": 218,
		"culled_value": 4,
		"material_group_id1_JobMaterialGroup": 11,
		"quantity1": 7,
		"material_group_id2_JobMaterialGroup": 13,
		"quantity2": 5,
		"material_group_id3_JobMaterialGroup": 4,
		"quantity3": 6,
		"material_group_id4_JobMaterialGroup": 1,
		"quantity4": 8,
		"material_group_id5_JobMaterialGroup": 0,
		"quantity5": 0,
		"amount": 225000
	},
	{
		"ID": 219,
		"culled_value": 5,
		"material_group_id1_JobMaterialGroup": 11,
		"quantity1": 10,
		"material_group_id2_JobMaterialGroup": 13,
		"quantity2": 6,
		"material_group_id3_JobMaterialGroup": 2,
		"quantity3": 5,
		"material_group_id4_JobMaterialGroup": 10,
		"quantity4": 10,
		"material_group_id5_JobMaterialGroup": 41,
		"quantity5": 2,
		"amount": 1500000
	},
	{
		"ID": 220,
		"culled_value": 1,
		"material_group_id1_JobMaterialGroup": 11,
		"quantity1": 1,
		"material_group_id2_JobMaterialGroup": 10,
		"quantity2": 5,
		"material_group_id3_JobMaterialGroup": 0,
		"quantity3": 0,
		"material_group_id4_JobMaterialGroup": 0,
		"quantity4": 0,
		"material_group_id5_JobMaterialGroup": 0,
		"quantity5": 0,
		"amount": 37500
	},
	{
		"ID": 221,
		"culled_value": 2,
		"material_group_id1_JobMaterialGroup": 11,
		"quantity1": 1,
		"material_group_id2_JobMaterialGroup": 24,
		"quantity2": 2,
		"material_group_id3_JobMaterialGroup": 9,
		"quantity3": 15,
		"material_group_id4_JobMaterialGroup": 0,
		"quantity4": 0,
		"material_group_id5_JobMaterialGroup": 0,
		"quantity5": 0,
		"amount": 60000
	},
	{
		"ID": 222,
		"culled_value": 3,
		"material_group_id1_JobMaterialGroup": 11,
		"quantity1": 2,
		"material_group_id2_JobMaterialGroup": 24,
		"quantity2": 4,
		"material_group_id3_JobMaterialGroup": 10,
		"quantity3": 5,
		"material_group_id4_JobMaterialGroup": 0,
		"quantity4": 0,
		"material_group_id5_JobMaterialGroup": 0,
		"quantity5": 0,
		"amount": 112500
	},
	{
		"ID": 223,
		"culled_value": 4,
		"material_group_id1_JobMaterialGroup": 11,
		"quantity1": 4,
		"material_group_id2_JobMaterialGroup": 24,
		"quantity2": 5,
		"material_group_id3_JobMaterialGroup": 5,
		"quantity3": 3,
		"material_group_id4_JobMaterialGroup": 2,
		"quantity4": 5,
		"material_group_id5_JobMaterialGroup": 0,
		"quantity5": 0,
		"amount": 225000
	},
	{
		"ID": 224,
		"culled_value": 5,
		"material_group_id1_JobMaterialGroup": 11,
		"quantity1": 4,
		"material_group_id2_JobMaterialGroup": 24,
		"quantity2": 6,
		"material_group_id3_JobMaterialGroup": 5,
		"quantity3": 3,
		"material_group_id4_JobMaterialGroup": 10,
		"quantity4": 5,
		"material_group_id5_JobMaterialGroup": 41,
		"quantity5": 1,
		"amount": 750000
	},
	{
		"ID": 225,
		"culled_value": 1,
		"material_group_id1_JobMaterialGroup": 42,
		"quantity1": 1,
		"material_group_id2_JobMaterialGroup": 1,
		"quantity2": 10,
		"material_group_id3_JobMaterialGroup": 0,
		"quantity3": 0,
		"material_group_id4_JobMaterialGroup": 0,
		"quantity4": 0,
		"material_group_id5_JobMaterialGroup": 0,
		"quantity5": 0,
		"amount": 37500
	},
	{
		"ID": 226,
		"culled_value": 2,
		"material_group_id1_JobMaterialGroup": 11,
		"quantity1": 1,
		"material_group_id2_JobMaterialGroup": 42,
		"quantity2": 2,
		"material_group_id3_JobMaterialGroup": 9,
		"quantity3": 15,
		"material_group_id4_JobMaterialGroup": 0,
		"quantity4": 0,
		"material_group_id5_JobMaterialGroup": 0,
		"quantity5": 0,
		"amount": 60000
	},
	{
		"ID": 227,
		"culled_value": 3,
		"material_group_id1_JobMaterialGroup": 11,
		"quantity1": 2,
		"material_group_id2_JobMaterialGroup": 42,
		"quantity2": 3,
		"material_group_id3_JobMaterialGroup": 10,
		"quantity3": 5,
		"material_group_id4_JobMaterialGroup": 0,
		"quantity4": 0,
		"material_group_id5_JobMaterialGroup": 0,
		"quantity5": 0,
		"amount": 112500
	},
	{
		"ID": 228,
		"culled_value": 4,
		"material_group_id1_JobMaterialGroup": 11,
		"quantity1": 5,
		"material_group_id2_JobMaterialGroup": 42,
		"quantity2": 5,
		"material_group_id3_JobMaterialGroup": 4,
		"quantity3": 3,
		"material_group_id4_JobMaterialGroup": 1,
		"quantity4": 10,
		"material_group_id5_JobMaterialGroup": 0,
		"quantity5": 0,
		"amount": 225000
	},
	{
		"ID": 229,
		"culled_value": 5,
		"material_group_id1_JobMaterialGroup": 11,
		"quantity1": 10,
		"material_group_id2_JobMaterialGroup": 42,
		"quantity2": 7,
		"material_group_id3_JobMaterialGroup": 2,
		"quantity3": 3,
		"material_group_id4_JobMaterialGroup": 10,
		"quantity4": 10,
		"material_group_id5_JobMaterialGroup": 41,
		"quantity5": 2,
		"amount": 1500000
	},
	{
		"ID": 230,
		"culled_value": 11,
		"material_group_id1_JobMaterialGroup": 11,
		"quantity1": 1,
		"material_group_id2_JobMaterialGroup": 10,
		"quantity2": 15,
		"material_group_id3_JobMaterialGroup": 0,
		"quantity3": 0,
		"material_group_id4_JobMaterialGroup": 0,
		"quantity4": 0,
		"material_group_id5_JobMaterialGroup": 0,
		"quantity5": 0,
		"amount": 37500
	},
	{
		"ID": 231,
		"culled_value": 12,
		"material_group_id1_JobMaterialGroup": 11,
		"quantity1": 1,
		"material_group_id2_JobMaterialGroup": 24,
		"quantity2": 2,
		"material_group_id3_JobMaterialGroup": 9,
		"quantity3": 7,
		"material_group_id4_JobMaterialGroup": 0,
		"quantity4": 0,
		"material_group_id5_JobMaterialGroup": 0,
		"quantity5": 0,
		"amount": 60000
	},
	{
		"ID": 232,
		"culled_value": 13,
		"material_group_id1_JobMaterialGroup": 11,
		"quantity1": 1,
		"material_group_id2_JobMaterialGroup": 24,
		"quantity2": 3,
		"material_group_id3_JobMaterialGroup": 42,
		"quantity3": 1,
		"material_group_id4_JobMaterialGroup": 0,
		"quantity4": 0,
		"material_group_id5_JobMaterialGroup": 0,
		"quantity5": 0,
		"amount": 112500
	},
	{
		"ID": 233,
		"culled_value": 14,
		"material_group_id1_JobMaterialGroup": 11,
		"quantity1": 1,
		"material_group_id2_JobMaterialGroup": 24,
		"quantity2": 4,
		"material_group_id3_JobMaterialGroup": 42,
		"quantity3": 2,
		"material_group_id4_JobMaterialGroup": 5,
		"quantity4": 3,
		"material_group_id5_JobMaterialGroup": 0,
		"quantity5": 0,
		"amount": 225000
	},
	{
		"ID": 234,
		"culled_value": 15,
		"material_group_id1_JobMaterialGroup": 11,
		"quantity1": 4,
		"material_group_id2_JobMaterialGroup": 24,
		"quantity2": 6,
		"material_group_id3_JobMaterialGroup": 42,
		"quantity3": 4,
		"material_group_id4_JobMaterialGroup": 5,
		"quantity4": 3,
		"material_group_id5_JobMaterialGroup": 41,
		"quantity5": 2,
		"amount": 750000
	},
	{
		"ID": 235,
		"culled_value": 11,
		"material_group_id1_JobMaterialGroup": 42,
		"quantity1": 1,
		"material_group_id2_JobMaterialGroup": 1,
		"quantity2": 5,
		"material_group_id3_JobMaterialGroup": 0,
		"quantity3": 0,
		"material_group_id4_JobMaterialGroup": 0,
		"quantity4": 0,
		"material_group_id5_JobMaterialGroup": 0,
		"quantity5": 0,
		"amount": 37500
	},
	{
		"ID": 236,
		"culled_value": 12,
		"material_group_id1_JobMaterialGroup": 11,
		"quantity1": 1,
		"material_group_id2_JobMaterialGroup": 42,
		"quantity2": 2,
		"material_group_id3_JobMaterialGroup": 9,
		"quantity3": 8,
		"material_group_id4_JobMaterialGroup": 0,
		"quantity4": 0,
		"material_group_id5_JobMaterialGroup": 0,
		"quantity5": 0,
		"amount": 60000
	},
	{
		"ID": 237,
		"culled_value": 13,
		"material_group_id1_JobMaterialGroup": 11,
		"quantity1": 2,
		"material_group_id2_JobMaterialGroup": 42,
		"quantity2": 3,
		"material_group_id3_JobMaterialGroup": 24,
		"quantity3": 3,
		"material_group_id4_JobMaterialGroup": 0,
		"quantity4": 0,
		"material_group_id5_JobMaterialGroup": 0,
		"quantity5": 0,
		"amount": 112500
	},
	{
		"ID": 238,
		"culled_value": 14,
		"material_group_id1_JobMaterialGroup": 11,
		"quantity1": 3,
		"material_group_id2_JobMaterialGroup": 42,
		"quantity2": 4,
		"material_group_id3_JobMaterialGroup": 24,
		"quantity3": 5,
		"material_group_id4_JobMaterialGroup": 1,
		"quantity4": 5,
		"material_group_id5_JobMaterialGroup": 0,
		"quantity5": 0,
		"amount": 225000
	},
	{
		"ID": 239,
		"culled_value": 15,
		"material_group_id1_JobMaterialGroup": 11,
		"quantity1": 10,
		"material_group_id2_JobMaterialGroup": 42,
		"quantity2": 6,
		"material_group_id3_JobMaterialGroup": 24,
		"quantity3": 8,
		"material_group_id4_JobMaterialGroup": 2,
		"quantity4": 10,
		"material_group_id5_JobMaterialGroup": 41,
		"quantity5": 2,
		"amount": 1500000
	},
	{
		"ID": 240,
		"culled_value": 1,
		"material_group_id1_JobMaterialGroup": 11,
		"quantity1": 5,
		"material_group_id2_JobMaterialGroup": 10,
		"quantity2": 5,
		"material_group_id3_JobMaterialGroup": 0,
		"quantity3": 0,
		"material_group_id4_JobMaterialGroup": 0,
		"quantity4": 0,
		"material_group_id5_JobMaterialGroup": 0,
		"quantity5": 0,
		"amount": 375000
	},
	{
		"ID": 241,
		"culled_value": 2,
		"material_group_id1_JobMaterialGroup": 11,
		"quantity1": 5,
		"material_group_id2_JobMaterialGroup": 25,
		"quantity2": 10,
		"material_group_id3_JobMaterialGroup": 9,
		"quantity3": 15,
		"material_group_id4_JobMaterialGroup": 0,
		"quantity4": 0,
		"material_group_id5_JobMaterialGroup": 0,
		"quantity5": 0,
		"amount": 600000
	},
	{
		"ID": 242,
		"culled_value": 3,
		"material_group_id1_JobMaterialGroup": 11,
		"quantity1": 5,
		"material_group_id2_JobMaterialGroup": 25,
		"quantity2": 15,
		"material_group_id3_JobMaterialGroup": 10,
		"quantity3": 5,
		"material_group_id4_JobMaterialGroup": 0,
		"quantity4": 0,
		"material_group_id5_JobMaterialGroup": 0,
		"quantity5": 0,
		"amount": 1125000
	},
	{
		"ID": 243,
		"culled_value": 4,
		"material_group_id1_JobMaterialGroup": 11,
		"quantity1": 5,
		"material_group_id2_JobMaterialGroup": 25,
		"quantity2": 20,
		"material_group_id3_JobMaterialGroup": 5,
		"quantity3": 3,
		"material_group_id4_JobMaterialGroup": 2,
		"quantity4": 5,
		"material_group_id5_JobMaterialGroup": 0,
		"quantity5": 0,
		"amount": 2250000
	},
	{
		"ID": 244,
		"culled_value": 5,
		"material_group_id1_JobMaterialGroup": 11,
		"quantity1": 20,
		"material_group_id2_JobMaterialGroup": 25,
		"quantity2": 35,
		"material_group_id3_JobMaterialGroup": 5,
		"quantity3": 3,
		"material_group_id4_JobMaterialGroup": 10,
		"quantity4": 5,
		"material_group_id5_JobMaterialGroup": 23,
		"quantity5": 1,
		"amount": 7500000
	},
	{
		"ID": 245,
		"culled_value": 1,
		"material_group_id1_JobMaterialGroup": 11,
		"quantity1": 5,
		"material_group_id2_JobMaterialGroup": 10,
		"quantity2": 5,
		"material_group_id3_JobMaterialGroup": 0,
		"quantity3": 0,
		"material_group_id4_JobMaterialGroup": 0,
		"quantity4": 0,
		"material_group_id5_JobMaterialGroup": 0,
		"quantity5": 0,
		"amount": 375000
	},
	{
		"ID": 246,
		"culled_value": 2,
		"material_group_id1_JobMaterialGroup": 11,
		"quantity1": 5,
		"material_group_id2_JobMaterialGroup": 26,
		"quantity2": 10,
		"material_group_id3_JobMaterialGroup": 9,
		"quantity3": 15,
		"material_group_id4_JobMaterialGroup": 0,
		"quantity4": 0,
		"material_group_id5_JobMaterialGroup": 0,
		"quantity5": 0,
		"amount": 600000
	},
	{
		"ID": 247,
		"culled_value": 3,
		"material_group_id1_JobMaterialGroup": 11,
		"quantity1": 5,
		"material_group_id2_JobMaterialGroup": 26,
		"quantity2": 15,
		"material_group_id3_JobMaterialGroup": 10,
		"quantity3": 5,
		"material_group_id4_JobMaterialGroup": 0,
		"quantity4": 0,
		"material_group_id5_JobMaterialGroup": 0,
		"quantity5": 0,
		"amount": 1125000
	},
	{
		"ID": 248,
		"culled_value": 4,
		"material_group_id1_JobMaterialGroup": 11,
		"quantity1": 5,
		"material_group_id2_JobMaterialGroup": 26,
		"quantity2": 20,
		"material_group_id3_JobMaterialGroup": 5,
		"quantity3": 3,
		"material_group_id4_JobMaterialGroup": 2,
		"quantity4": 5,
		"material_group_id5_JobMaterialGroup": 0,
		"quantity5": 0,
		"amount": 2250000
	},
	{
		"ID": 249,
		"culled_value": 5,
		"material_group_id1_JobMaterialGroup": 11,
		"quantity1": 20,
		"material_group_id2_JobMaterialGroup": 26,
		"quantity2": 35,
		"material_group_id3_JobMaterialGroup": 5,
		"quantity3": 3,
		"material_group_id4_JobMaterialGroup": 10,
		"quantity4": 5,
		"material_group_id5_JobMaterialGroup": 23,
		"quantity5": 1,
		"amount": 7500000
	},
	{
		"ID": 250,
		"culled_value": 1,
		"material_group_id1_JobMaterialGroup": 11,
		"quantity1": 5,
		"material_group_id2_JobMaterialGroup": 10,
		"quantity2": 5,
		"material_group_id3_JobMaterialGroup": 0,
		"quantity3": 0,
		"material_group_id4_JobMaterialGroup": 0,
		"quantity4": 0,
		"material_group_id5_JobMaterialGroup": 0,
		"quantity5": 0,
		"amount": 375000
	},
	{
		"ID": 251,
		"culled_value": 2,
		"material_group_id1_JobMaterialGroup": 11,
		"quantity1": 5,
		"material_group_id2_JobMaterialGroup": 28,
		"quantity2": 10,
		"material_group_id3_JobMaterialGroup": 9,
		"quantity3": 15,
		"material_group_id4_JobMaterialGroup": 0,
		"quantity4": 0,
		"material_group_id5_JobMaterialGroup": 0,
		"quantity5": 0,
		"amount": 600000
	},
	{
		"ID": 252,
		"culled_value": 3,
		"material_group_id1_JobMaterialGroup": 11,
		"quantity1": 5,
		"material_group_id2_JobMaterialGroup": 28,
		"quantity2": 15,
		"material_group_id3_JobMaterialGroup": 10,
		"quantity3": 5,
		"material_group_id4_JobMaterialGroup": 0,
		"quantity4": 0,
		"material_group_id5_JobMaterialGroup": 0,
		"quantity5": 0,
		"amount": 1125000
	},
	{
		"ID": 253,
		"culled_value": 4,
		"material_group_id1_JobMaterialGroup": 11,
		"quantity1": 5,
		"material_group_id2_JobMaterialGroup": 28,
		"quantity2": 20,
		"material_group_id3_JobMaterialGroup": 5,
		"quantity3": 3,
		"material_group_id4_JobMaterialGroup": 2,
		"quantity4": 5,
		"material_group_id5_JobMaterialGroup": 0,
		"quantity5": 0,
		"amount": 2250000
	},
	{
		"ID": 254,
		"culled_value": 5,
		"material_group_id1_JobMaterialGroup": 11,
		"quantity1": 20,
		"material_group_id2_JobMaterialGroup": 28,
		"quantity2": 35,
		"material_group_id3_JobMaterialGroup": 5,
		"quantity3": 3,
		"material_group_id4_JobMaterialGroup": 10,
		"quantity4": 5,
		"material_group_id5_JobMaterialGroup": 23,
		"quantity5": 1,
		"amount": 7500000
	}
]