[
	{
		"ID": 1,
		"quest_m_QuestStoryM": 6,
		"reward_type_CommonRewardType": 3,
		"reward_id": 54004,
		"quantity": 1,
		"message": "キルモード1章1話ミッションコンプリート報酬として【バスターキャノン】を1個プレゼントします。",
		"result_message": "キルモード1章1話ミッションコンプリート！　【バスターキャノン】入手！"
	},
	{
		"ID": 2,
		"quest_m_QuestStoryM": 7,
		"reward_type_CommonRewardType": 3,
		"reward_id": 65003,
		"quantity": 1,
		"message": "キルモード1章2話ミッションコンプリート報酬として【天命杖ヘブンズコア】を1個プレゼントします。",
		"result_message": "キルモード1章2話ミッションコンプリート！　【天命杖ヘブンズコア】入手！"
	},
	{
		"ID": 3,
		"quest_m_QuestStoryM": 8,
		"reward_type_CommonRewardType": 3,
		"reward_id": 24004,
		"quantity": 1,
		"message": "キルモード1章3話ミッションコンプリート報酬として【海峰断ポセイシス】を1個プレゼントします。",
		"result_message": "キルモード1章3話ミッションコンプリート！　【海峰断ポセイシス】入手！"
	},
	{
		"ID": 4,
		"quest_m_QuestStoryM": 9,
		"reward_type_CommonRewardType": 3,
		"reward_id": 34004,
		"quantity": 1,
		"message": "キルモード1章4話ミッションコンプリート報酬として【氷結槍シャルナーク】を1個プレゼントします。",
		"result_message": "キルモード1章4話ミッションコンプリート！　【氷結槍シャルナーク】入手！"
	},
	{
		"ID": 5,
		"quest_m_QuestStoryM": 10,
		"reward_type_CommonRewardType": 3,
		"reward_id": 44004,
		"quantity": 1,
		"message": "キルモード1章5話ミッションコンプリート報酬として【魔道弓メアリーボウ】を1個プレゼントします。",
		"result_message": "キルモード1章5話ミッションコンプリート！　【魔道弓メアリーボウ】入手！"
	},
	{
		"ID": 6,
		"quest_m_QuestStoryM": 16,
		"reward_type_CommonRewardType": 3,
		"reward_id": 64004,
		"quantity": 1,
		"message": "キルモード2章1話ミッションコンプリート報酬として【クラスタースタッフ】を1個プレゼントします。",
		"result_message": "キルモード2章1話ミッションコンプリート！　【クラスタースタッフ】入手！"
	},
	{
		"ID": 7,
		"quest_m_QuestStoryM": 17,
		"reward_type_CommonRewardType": 3,
		"reward_id": 33004,
		"quantity": 1,
		"message": "キルモード2章2話ミッションコンプリート報酬として【デモンズトリアイナ】を1個プレゼントします。",
		"result_message": "キルモード2章2話ミッションコンプリート！　【デモンズトリアイナ】入手！"
	},
	{
		"ID": 8,
		"quest_m_QuestStoryM": 18,
		"reward_type_CommonRewardType": 3,
		"reward_id": 13010,
		"quantity": 1,
		"message": "キルモード2章3話ミッションコンプリート報酬として【ダークショーテル】を1個プレゼントします。",
		"result_message": "キルモード2章3話ミッションコンプリート！　【ダークショーテル】入手！"
	},
	{
		"ID": 9,
		"quest_m_QuestStoryM": 19,
		"reward_type_CommonRewardType": 3,
		"reward_id": 24007,
		"quantity": 1,
		"message": "キルモード2章4話ミッションコンプリート報酬として【海輝石カナロア】を1個プレゼントします。",
		"result_message": "キルモード2章4話ミッションコンプリート！　【海輝石カナロア】入手！"
	},
	{
		"ID": 10,
		"quest_m_QuestStoryM": 20,
		"reward_type_CommonRewardType": 3,
		"reward_id": 53008,
		"quantity": 1,
		"message": "キルモード2章5話ミッションコンプリート報酬として【マゼンタリボルバー】を1個プレゼントします。",
		"result_message": "キルモード2章5話ミッションコンプリート！　【マゼンタリボルバー】入手！"
	},
	{
		"ID": 11,
		"quest_m_QuestStoryM": 26,
		"reward_type_CommonRewardType": 3,
		"reward_id": 14002,
		"quantity": 1,
		"message": "キルモード3章1話ミッションコンプリート報酬として【炎牙刀ジャバラ】を1個プレゼントします。",
		"result_message": "キルモード3章1話ミッションコンプリート！　【炎牙刀ジャバラ】入手！"
	},
	{
		"ID": 12,
		"quest_m_QuestStoryM": 27,
		"reward_type_CommonRewardType": 3,
		"reward_id": 34010,
		"quantity": 1,
		"message": "キルモード3章2話ミッションコンプリート報酬として【トライピアース】を1個プレゼントします。",
		"result_message": "キルモード3章2話ミッションコンプリート！　【トライピアース】入手！"
	},
	{
		"ID": 13,
		"quest_m_QuestStoryM": 28,
		"reward_type_CommonRewardType": 3,
		"reward_id": 24008,
		"quantity": 1,
		"message": "キルモード3章3話ミッションコンプリート報酬として【狂戦士の大斧】を1個プレゼントします。",
		"result_message": "キルモード3章3話ミッションコンプリート！　【狂戦士の大斧】入手！"
	},
	{
		"ID": 14,
		"quest_m_QuestStoryM": 29,
		"reward_type_CommonRewardType": 3,
		"reward_id": 44006,
		"quantity": 1,
		"message": "キルモード3章4話ミッションコンプリート報酬として【ボタニカルアロー】を1個プレゼントします。",
		"result_message": "キルモード3章4話ミッションコンプリート！　【ボタニカルアロー】入手！"
	},
	{
		"ID": 15,
		"quest_m_QuestStoryM": 30,
		"reward_type_CommonRewardType": 3,
		"reward_id": 64006,
		"quantity": 1,
		"message": "キルモード3章5話ミッションコンプリート報酬として【黒魔杖バルバラ】を1個プレゼントします。",
		"result_message": "キルモード3章5話ミッションコンプリート！　【黒魔杖バルバラ】入手！"
	},
	{
		"ID": 16,
		"quest_m_QuestStoryM": 36,
		"reward_type_CommonRewardType": 3,
		"reward_id": 24010,
		"quantity": 1,
		"message": "キルモード4章1話ミッションコンプリート報酬として【ダイヤウォーピック】を1個プレゼントします。",
		"result_message": "キルモード4章1話ミッションコンプリート！　【ダイヤウォーピック】入手！"
	},
	{
		"ID": 17,
		"quest_m_QuestStoryM": 37,
		"reward_type_CommonRewardType": 3,
		"reward_id": 12008,
		"quantity": 1,
		"message": "キルモード4章2話ミッションコンプリート報酬として【演殺青竜刀】を1個プレゼントします。",
		"result_message": "キルモード4章2話ミッションコンプリート！　【演殺青竜刀】入手！"
	},
	{
		"ID": 18,
		"quest_m_QuestStoryM": 38,
		"reward_type_CommonRewardType": 3,
		"reward_id": 52004,
		"quantity": 1,
		"message": "キルモード4章3話ミッションコンプリート報酬として【ハンドパニッシャー】を1個プレゼントします。",
		"result_message": "キルモード4章3話ミッションコンプリート！　【ハンドパニッシャー】入手！"
	},
	{
		"ID": 19,
		"quest_m_QuestStoryM": 39,
		"reward_type_CommonRewardType": 3,
		"reward_id": 31003,
		"quantity": 1,
		"message": "キルモード4章4話ミッションコンプリート報酬として【ボーンスピア】を1個プレゼントします。",
		"result_message": "キルモード4章4話ミッションコンプリート！　【ボーンスピア】入手！"
	},
	{
		"ID": 20,
		"quest_m_QuestStoryM": 40,
		"reward_type_CommonRewardType": 3,
		"reward_id": 44007,
		"quantity": 1,
		"message": "キルモード4章5話ミッションコンプリート報酬として【キーンエッジアロー】を1個プレゼントします。",
		"result_message": "キルモード4章5話ミッションコンプリート！　【キーンエッジアロー】入手！"
	}
]