[
	{
		"ID": 113,
		"name": "",
		"index": 0
	},
	{
		"ID": 238,
		"name": "☆",
		"index": 1
	},
	{
		"ID": 267,
		"name": "☆☆",
		"index": 2
	},
	{
		"ID": 483,
		"name": "☆☆☆",
		"index": 3
	},
	{
		"ID": 742,
		"name": "☆☆☆☆",
		"index": 4
	},
	{
		"ID": 903,
		"name": "☆☆☆☆☆",
		"index": 5
	},
	{
		"ID": 951,
		"name": "☆☆☆☆☆☆",
		"index": 6
	}
]