[
	{
		"ID": 1,
		"reward_id": "1,2"
	},
	{
		"ID": 2,
		"reward_id": "3,4,5"
	},
	{
		"ID": 3,
		"reward_id": "6,7,8"
	},
	{
		"ID": 4,
		"reward_id": "9,10,11"
	},
	{
		"ID": 5,
		"reward_id": "12,13,14"
	},
	{
		"ID": 6,
		"reward_id": "15,16,17"
	},
	{
		"ID": 7,
		"reward_id": "18,19"
	},
	{
		"ID": 8,
		"reward_id": "20,21,22"
	},
	{
		"ID": 9,
		"reward_id": "23,24,25"
	},
	{
		"ID": 10,
		"reward_id": "26,27,28"
	},
	{
		"ID": 11,
		"reward_id": "29,30,31"
	},
	{
		"ID": 12,
		"reward_id": "32,33,34"
	},
	{
		"ID": 13,
		"reward_id": "35,36"
	},
	{
		"ID": 14,
		"reward_id": "37,38,39"
	},
	{
		"ID": 15,
		"reward_id": "40,41,42"
	},
	{
		"ID": 16,
		"reward_id": "43,44,45"
	},
	{
		"ID": 17,
		"reward_id": "46,47,48"
	},
	{
		"ID": 18,
		"reward_id": "49,50,51"
	},
	{
		"ID": 19,
		"reward_id": "52,53"
	},
	{
		"ID": 20,
		"reward_id": "54,55,56"
	},
	{
		"ID": 21,
		"reward_id": "57,58,59"
	},
	{
		"ID": 22,
		"reward_id": "60,61,62"
	},
	{
		"ID": 23,
		"reward_id": "63,64,65"
	},
	{
		"ID": 24,
		"reward_id": "66,67"
	},
	{
		"ID": 25,
		"reward_id": "68,69,70"
	},
	{
		"ID": 26,
		"reward_id": "71,72,73"
	},
	{
		"ID": 27,
		"reward_id": "74,75,76"
	},
	{
		"ID": 28,
		"reward_id": "77,78,79,80"
	},
	{
		"ID": 29,
		"reward_id": "81,82,83,84"
	},
	{
		"ID": 30,
		"reward_id": "85,86"
	},
	{
		"ID": 31,
		"reward_id": "87,88,89"
	},
	{
		"ID": 32,
		"reward_id": "90,91,92"
	},
	{
		"ID": 33,
		"reward_id": "93,94,95"
	},
	{
		"ID": 34,
		"reward_id": "96,97,98"
	},
	{
		"ID": 35,
		"reward_id": "99,100,101"
	},
	{
		"ID": 36,
		"reward_id": "102,103"
	},
	{
		"ID": 37,
		"reward_id": "104,105,106"
	},
	{
		"ID": 38,
		"reward_id": "107,108,109"
	},
	{
		"ID": 39,
		"reward_id": "110,111,112"
	},
	{
		"ID": 40,
		"reward_id": "113,114,115"
	},
	{
		"ID": 41,
		"reward_id": "116,117,118"
	}
]