[
	{
		"ID": 1,
		"rarity_name_UnitRarity": 138,
		"price": 1000
	},
	{
		"ID": 2,
		"rarity_name_UnitRarity": 167,
		"price": 2500
	},
	{
		"ID": 3,
		"rarity_name_UnitRarity": 383,
		"price": 5000
	},
	{
		"ID": 4,
		"rarity_name_UnitRarity": 642,
		"price": 15000
	},
	{
		"ID": 5,
		"rarity_name_UnitRarity": 803,
		"price": 40000
	},
	{
		"ID": 6,
		"rarity_name_UnitRarity": 991,
		"price": 60000
	}
]