[
	{
		"ID": 1,
		"unit_UnitUnit": 2300813,
		"skill_groupID": 3
	},
	{
		"ID": 2,
		"unit_UnitUnit": 2300412,
		"skill_groupID": 3
	},
	{
		"ID": 3,
		"unit_UnitUnit": 2300413,
		"skill_groupID": 3
	},
	{
		"ID": 4,
		"unit_UnitUnit": 2300113,
		"skill_groupID": 3
	},
	{
		"ID": 5,
		"unit_UnitUnit": 2302412,
		"skill_groupID": 3
	},
	{
		"ID": 6,
		"unit_UnitUnit": 2302413,
		"skill_groupID": 3
	},
	{
		"ID": 7,
		"unit_UnitUnit": 2300313,
		"skill_groupID": 3
	},
	{
		"ID": 8,
		"unit_UnitUnit": 2302112,
		"skill_groupID": 3
	},
	{
		"ID": 9,
		"unit_UnitUnit": 2302113,
		"skill_groupID": 3
	},
	{
		"ID": 10,
		"unit_UnitUnit": 2301412,
		"skill_groupID": 3
	},
	{
		"ID": 11,
		"unit_UnitUnit": 2301413,
		"skill_groupID": 3
	},
	{
		"ID": 12,
		"unit_UnitUnit": 2302012,
		"skill_groupID": 3
	},
	{
		"ID": 13,
		"unit_UnitUnit": 2400213,
		"skill_groupID": 4
	},
	{
		"ID": 14,
		"unit_UnitUnit": 2400512,
		"skill_groupID": 4
	},
	{
		"ID": 15,
		"unit_UnitUnit": 2400513,
		"skill_groupID": 4
	},
	{
		"ID": 16,
		"unit_UnitUnit": 2400113,
		"skill_groupID": 4
	},
	{
		"ID": 17,
		"unit_UnitUnit": 2401013,
		"skill_groupID": 4
	},
	{
		"ID": 18,
		"unit_UnitUnit": 2201613,
		"skill_groupID": 5
	},
	{
		"ID": 19,
		"unit_UnitUnit": 2200812,
		"skill_groupID": 5
	},
	{
		"ID": 20,
		"unit_UnitUnit": 2200813,
		"skill_groupID": 5
	},
	{
		"ID": 21,
		"unit_UnitUnit": 2202012,
		"skill_groupID": 5
	},
	{
		"ID": 22,
		"unit_UnitUnit": 2202013,
		"skill_groupID": 5
	},
	{
		"ID": 23,
		"unit_UnitUnit": 2200112,
		"skill_groupID": 5
	},
	{
		"ID": 24,
		"unit_UnitUnit": 2200113,
		"skill_groupID": 5
	},
	{
		"ID": 25,
		"unit_UnitUnit": 2200512,
		"skill_groupID": 5
	},
	{
		"ID": 26,
		"unit_UnitUnit": 2200513,
		"skill_groupID": 5
	},
	{
		"ID": 27,
		"unit_UnitUnit": 2200413,
		"skill_groupID": 5
	},
	{
		"ID": 28,
		"unit_UnitUnit": 2201712,
		"skill_groupID": 5
	},
	{
		"ID": 29,
		"unit_UnitUnit": 2201713,
		"skill_groupID": 5
	},
	{
		"ID": 30,
		"unit_UnitUnit": 2200312,
		"skill_groupID": 5
	},
	{
		"ID": 31,
		"unit_UnitUnit": 2200313,
		"skill_groupID": 5
	},
	{
		"ID": 32,
		"unit_UnitUnit": 2200613,
		"skill_groupID": 5
	},
	{
		"ID": 33,
		"unit_UnitUnit": 2201012,
		"skill_groupID": 5
	},
	{
		"ID": 34,
		"unit_UnitUnit": 2201013,
		"skill_groupID": 5
	},
	{
		"ID": 35,
		"unit_UnitUnit": 2102313,
		"skill_groupID": 6
	},
	{
		"ID": 36,
		"unit_UnitUnit": 2100913,
		"skill_groupID": 6
	},
	{
		"ID": 37,
		"unit_UnitUnit": 2100813,
		"skill_groupID": 6
	},
	{
		"ID": 38,
		"unit_UnitUnit": 2100413,
		"skill_groupID": 6
	},
	{
		"ID": 39,
		"unit_UnitUnit": 2101213,
		"skill_groupID": 6
	},
	{
		"ID": 40,
		"unit_UnitUnit": 2102713,
		"skill_groupID": 6
	},
	{
		"ID": 41,
		"unit_UnitUnit": 2101113,
		"skill_groupID": 6
	},
	{
		"ID": 42,
		"unit_UnitUnit": 2201013,
		"skill_groupID": 7
	},
	{
		"ID": 43,
		"unit_UnitUnit": 2301812,
		"skill_groupID": 7
	},
	{
		"ID": 44,
		"unit_UnitUnit": 2301813,
		"skill_groupID": 7
	},
	{
		"ID": 45,
		"unit_UnitUnit": 2401313,
		"skill_groupID": 7
	},
	{
		"ID": 46,
		"unit_UnitUnit": 2400413,
		"skill_groupID": 7
	},
	{
		"ID": 47,
		"unit_UnitUnit": 2401012,
		"skill_groupID": 8
	},
	{
		"ID": 48,
		"unit_UnitUnit": 2401013,
		"skill_groupID": 8
	},
	{
		"ID": 49,
		"unit_UnitUnit": 2101311,
		"skill_groupID": 8
	},
	{
		"ID": 50,
		"unit_UnitUnit": 2101312,
		"skill_groupID": 8
	},
	{
		"ID": 51,
		"unit_UnitUnit": 2101313,
		"skill_groupID": 8
	},
	{
		"ID": 52,
		"unit_UnitUnit": 2400812,
		"skill_groupID": 8
	},
	{
		"ID": 53,
		"unit_UnitUnit": 2400813,
		"skill_groupID": 8
	},
	{
		"ID": 54,
		"unit_UnitUnit": 2400711,
		"skill_groupID": 9
	},
	{
		"ID": 55,
		"unit_UnitUnit": 2400712,
		"skill_groupID": 9
	},
	{
		"ID": 56,
		"unit_UnitUnit": 2400713,
		"skill_groupID": 9
	},
	{
		"ID": 57,
		"unit_UnitUnit": 2400312,
		"skill_groupID": 8
	},
	{
		"ID": 58,
		"unit_UnitUnit": 2400313,
		"skill_groupID": 8
	},
	{
		"ID": 59,
		"unit_UnitUnit": 2400313,
		"skill_groupID": 7
	},
	{
		"ID": 60,
		"unit_UnitUnit": 2300712,
		"skill_groupID": 9
	},
	{
		"ID": 61,
		"unit_UnitUnit": 2300713,
		"skill_groupID": 9
	},
	{
		"ID": 62,
		"unit_UnitUnit": 601811,
		"skill_groupID": 10
	},
	{
		"ID": 63,
		"unit_UnitUnit": 601812,
		"skill_groupID": 10
	},
	{
		"ID": 64,
		"unit_UnitUnit": 601813,
		"skill_groupID": 10
	},
	{
		"ID": 65,
		"unit_UnitUnit": 502611,
		"skill_groupID": 10
	},
	{
		"ID": 66,
		"unit_UnitUnit": 502612,
		"skill_groupID": 10
	},
	{
		"ID": 67,
		"unit_UnitUnit": 502613,
		"skill_groupID": 10
	},
	{
		"ID": 68,
		"unit_UnitUnit": 103411,
		"skill_groupID": 10
	},
	{
		"ID": 69,
		"unit_UnitUnit": 103412,
		"skill_groupID": 10
	},
	{
		"ID": 70,
		"unit_UnitUnit": 103413,
		"skill_groupID": 10
	},
	{
		"ID": 71,
		"unit_UnitUnit": 103421,
		"skill_groupID": 10
	},
	{
		"ID": 72,
		"unit_UnitUnit": 103422,
		"skill_groupID": 10
	},
	{
		"ID": 73,
		"unit_UnitUnit": 103423,
		"skill_groupID": 10
	},
	{
		"ID": 74,
		"unit_UnitUnit": 2103411,
		"skill_groupID": 10
	},
	{
		"ID": 75,
		"unit_UnitUnit": 2103412,
		"skill_groupID": 10
	},
	{
		"ID": 76,
		"unit_UnitUnit": 2103413,
		"skill_groupID": 10
	},
	{
		"ID": 77,
		"unit_UnitUnit": 502511,
		"skill_groupID": 10
	},
	{
		"ID": 78,
		"unit_UnitUnit": 502512,
		"skill_groupID": 10
	},
	{
		"ID": 79,
		"unit_UnitUnit": 502513,
		"skill_groupID": 10
	},
	{
		"ID": 80,
		"unit_UnitUnit": 502521,
		"skill_groupID": 10
	},
	{
		"ID": 81,
		"unit_UnitUnit": 502522,
		"skill_groupID": 10
	},
	{
		"ID": 82,
		"unit_UnitUnit": 502523,
		"skill_groupID": 10
	},
	{
		"ID": 83,
		"unit_UnitUnit": 2502511,
		"skill_groupID": 10
	},
	{
		"ID": 84,
		"unit_UnitUnit": 2502512,
		"skill_groupID": 10
	},
	{
		"ID": 85,
		"unit_UnitUnit": 2502513,
		"skill_groupID": 10
	},
	{
		"ID": 86,
		"unit_UnitUnit": 601711,
		"skill_groupID": 10
	},
	{
		"ID": 87,
		"unit_UnitUnit": 601712,
		"skill_groupID": 10
	},
	{
		"ID": 88,
		"unit_UnitUnit": 601713,
		"skill_groupID": 10
	},
	{
		"ID": 89,
		"unit_UnitUnit": 601721,
		"skill_groupID": 10
	},
	{
		"ID": 90,
		"unit_UnitUnit": 601722,
		"skill_groupID": 10
	},
	{
		"ID": 91,
		"unit_UnitUnit": 601723,
		"skill_groupID": 10
	},
	{
		"ID": 92,
		"unit_UnitUnit": 2601711,
		"skill_groupID": 10
	},
	{
		"ID": 93,
		"unit_UnitUnit": 2601712,
		"skill_groupID": 10
	},
	{
		"ID": 94,
		"unit_UnitUnit": 2601713,
		"skill_groupID": 10
	},
	{
		"ID": 95,
		"unit_UnitUnit": 3100111,
		"skill_groupID": 11
	},
	{
		"ID": 96,
		"unit_UnitUnit": 3100112,
		"skill_groupID": 11
	},
	{
		"ID": 97,
		"unit_UnitUnit": 3100113,
		"skill_groupID": 11
	},
	{
		"ID": 98,
		"unit_UnitUnit": 3601111,
		"skill_groupID": 11
	},
	{
		"ID": 99,
		"unit_UnitUnit": 3601112,
		"skill_groupID": 11
	},
	{
		"ID": 100,
		"unit_UnitUnit": 3601113,
		"skill_groupID": 11
	},
	{
		"ID": 101,
		"unit_UnitUnit": 3201911,
		"skill_groupID": 11
	},
	{
		"ID": 102,
		"unit_UnitUnit": 3201912,
		"skill_groupID": 11
	},
	{
		"ID": 103,
		"unit_UnitUnit": 3201913,
		"skill_groupID": 11
	},
	{
		"ID": 104,
		"unit_UnitUnit": 3301811,
		"skill_groupID": 11
	},
	{
		"ID": 105,
		"unit_UnitUnit": 3301812,
		"skill_groupID": 11
	},
	{
		"ID": 106,
		"unit_UnitUnit": 3301813,
		"skill_groupID": 11
	},
	{
		"ID": 107,
		"unit_UnitUnit": 3102511,
		"skill_groupID": 11
	},
	{
		"ID": 108,
		"unit_UnitUnit": 3102512,
		"skill_groupID": 11
	},
	{
		"ID": 109,
		"unit_UnitUnit": 3102513,
		"skill_groupID": 11
	},
	{
		"ID": 110,
		"unit_UnitUnit": 3300111,
		"skill_groupID": 11
	},
	{
		"ID": 111,
		"unit_UnitUnit": 3300112,
		"skill_groupID": 11
	},
	{
		"ID": 112,
		"unit_UnitUnit": 3300113,
		"skill_groupID": 11
	},
	{
		"ID": 113,
		"unit_UnitUnit": 3102311,
		"skill_groupID": 11
	},
	{
		"ID": 114,
		"unit_UnitUnit": 3102312,
		"skill_groupID": 11
	},
	{
		"ID": 115,
		"unit_UnitUnit": 3102313,
		"skill_groupID": 11
	},
	{
		"ID": 116,
		"unit_UnitUnit": 3501711,
		"skill_groupID": 11
	},
	{
		"ID": 117,
		"unit_UnitUnit": 3501712,
		"skill_groupID": 11
	},
	{
		"ID": 118,
		"unit_UnitUnit": 3501713,
		"skill_groupID": 11
	},
	{
		"ID": 119,
		"unit_UnitUnit": 3500211,
		"skill_groupID": 11
	},
	{
		"ID": 120,
		"unit_UnitUnit": 3500212,
		"skill_groupID": 11
	},
	{
		"ID": 121,
		"unit_UnitUnit": 3500213,
		"skill_groupID": 11
	},
	{
		"ID": 122,
		"unit_UnitUnit": 3401311,
		"skill_groupID": 11
	},
	{
		"ID": 123,
		"unit_UnitUnit": 3401312,
		"skill_groupID": 11
	},
	{
		"ID": 124,
		"unit_UnitUnit": 3401313,
		"skill_groupID": 11
	},
	{
		"ID": 125,
		"unit_UnitUnit": 3400111,
		"skill_groupID": 11
	},
	{
		"ID": 126,
		"unit_UnitUnit": 3400112,
		"skill_groupID": 11
	},
	{
		"ID": 127,
		"unit_UnitUnit": 3400113,
		"skill_groupID": 11
	},
	{
		"ID": 128,
		"unit_UnitUnit": 3200411,
		"skill_groupID": 11
	},
	{
		"ID": 129,
		"unit_UnitUnit": 3200412,
		"skill_groupID": 11
	},
	{
		"ID": 130,
		"unit_UnitUnit": 3200413,
		"skill_groupID": 11
	},
	{
		"ID": 131,
		"unit_UnitUnit": 3601114,
		"skill_groupID": 11
	},
	{
		"ID": 132,
		"unit_UnitUnit": 3100114,
		"skill_groupID": 11
	},
	{
		"ID": 133,
		"unit_UnitUnit": 3301821,
		"skill_groupID": 11
	},
	{
		"ID": 134,
		"unit_UnitUnit": 3301822,
		"skill_groupID": 11
	},
	{
		"ID": 135,
		"unit_UnitUnit": 3301823,
		"skill_groupID": 11
	},
	{
		"ID": 136,
		"unit_UnitUnit": 3100211,
		"skill_groupID": 12
	},
	{
		"ID": 137,
		"unit_UnitUnit": 3100212,
		"skill_groupID": 12
	},
	{
		"ID": 138,
		"unit_UnitUnit": 3100213,
		"skill_groupID": 12
	},
	{
		"ID": 139,
		"unit_UnitUnit": 3302811,
		"skill_groupID": 12
	},
	{
		"ID": 140,
		"unit_UnitUnit": 3302812,
		"skill_groupID": 12
	},
	{
		"ID": 141,
		"unit_UnitUnit": 3302813,
		"skill_groupID": 12
	},
	{
		"ID": 142,
		"unit_UnitUnit": 3602511,
		"skill_groupID": 12
	},
	{
		"ID": 143,
		"unit_UnitUnit": 3602512,
		"skill_groupID": 12
	},
	{
		"ID": 144,
		"unit_UnitUnit": 3602513,
		"skill_groupID": 12
	},
	{
		"ID": 145,
		"unit_UnitUnit": 3503111,
		"skill_groupID": 12
	},
	{
		"ID": 146,
		"unit_UnitUnit": 3503112,
		"skill_groupID": 12
	},
	{
		"ID": 147,
		"unit_UnitUnit": 3503113,
		"skill_groupID": 12
	},
	{
		"ID": 148,
		"unit_UnitUnit": 3602521,
		"skill_groupID": 12
	},
	{
		"ID": 149,
		"unit_UnitUnit": 3602522,
		"skill_groupID": 12
	},
	{
		"ID": 150,
		"unit_UnitUnit": 3602523,
		"skill_groupID": 12
	},
	{
		"ID": 151,
		"unit_UnitUnit": 3503121,
		"skill_groupID": 12
	},
	{
		"ID": 152,
		"unit_UnitUnit": 3503122,
		"skill_groupID": 12
	},
	{
		"ID": 153,
		"unit_UnitUnit": 3503123,
		"skill_groupID": 12
	},
	{
		"ID": 154,
		"unit_UnitUnit": 3820001,
		"skill_groupID": 13
	},
	{
		"ID": 155,
		"unit_UnitUnit": 3820002,
		"skill_groupID": 13
	},
	{
		"ID": 156,
		"unit_UnitUnit": 3820003,
		"skill_groupID": 13
	},
	{
		"ID": 157,
		"unit_UnitUnit": 3820004,
		"skill_groupID": 13
	},
	{
		"ID": 158,
		"unit_UnitUnit": 3820005,
		"skill_groupID": 13
	},
	{
		"ID": 159,
		"unit_UnitUnit": 3820006,
		"skill_groupID": 13
	},
	{
		"ID": 160,
		"unit_UnitUnit": 3500811,
		"skill_groupID": 13
	},
	{
		"ID": 161,
		"unit_UnitUnit": 3500812,
		"skill_groupID": 13
	},
	{
		"ID": 162,
		"unit_UnitUnit": 3500813,
		"skill_groupID": 13
	},
	{
		"ID": 163,
		"unit_UnitUnit": 3101311,
		"skill_groupID": 13
	},
	{
		"ID": 164,
		"unit_UnitUnit": 3101312,
		"skill_groupID": 13
	},
	{
		"ID": 165,
		"unit_UnitUnit": 3101313,
		"skill_groupID": 13
	},
	{
		"ID": 166,
		"unit_UnitUnit": 3401011,
		"skill_groupID": 13
	},
	{
		"ID": 167,
		"unit_UnitUnit": 3401012,
		"skill_groupID": 13
	},
	{
		"ID": 168,
		"unit_UnitUnit": 3401013,
		"skill_groupID": 13
	},
	{
		"ID": 169,
		"unit_UnitUnit": 702314,
		"skill_groupID": 13
	},
	{
		"ID": 170,
		"unit_UnitUnit": 3201711,
		"skill_groupID": 13
	},
	{
		"ID": 171,
		"unit_UnitUnit": 3201712,
		"skill_groupID": 13
	},
	{
		"ID": 172,
		"unit_UnitUnit": 3201713,
		"skill_groupID": 13
	},
	{
		"ID": 173,
		"unit_UnitUnit": 3400811,
		"skill_groupID": 13
	},
	{
		"ID": 174,
		"unit_UnitUnit": 3400812,
		"skill_groupID": 13
	},
	{
		"ID": 175,
		"unit_UnitUnit": 3400813,
		"skill_groupID": 13
	},
	{
		"ID": 176,
		"unit_UnitUnit": 3502411,
		"skill_groupID": 13
	},
	{
		"ID": 177,
		"unit_UnitUnit": 3502412,
		"skill_groupID": 13
	},
	{
		"ID": 178,
		"unit_UnitUnit": 3502413,
		"skill_groupID": 13
	},
	{
		"ID": 179,
		"unit_UnitUnit": 3201911,
		"skill_groupID": 13
	},
	{
		"ID": 180,
		"unit_UnitUnit": 3201912,
		"skill_groupID": 13
	},
	{
		"ID": 181,
		"unit_UnitUnit": 3201913,
		"skill_groupID": 13
	},
	{
		"ID": 182,
		"unit_UnitUnit": 3600211,
		"skill_groupID": 13
	},
	{
		"ID": 183,
		"unit_UnitUnit": 3600212,
		"skill_groupID": 13
	},
	{
		"ID": 184,
		"unit_UnitUnit": 3600213,
		"skill_groupID": 13
	},
	{
		"ID": 185,
		"unit_UnitUnit": 3302811,
		"skill_groupID": 13
	},
	{
		"ID": 186,
		"unit_UnitUnit": 3302812,
		"skill_groupID": 13
	},
	{
		"ID": 187,
		"unit_UnitUnit": 3302813,
		"skill_groupID": 13
	},
	{
		"ID": 188,
		"unit_UnitUnit": 3301011,
		"skill_groupID": 13
	},
	{
		"ID": 189,
		"unit_UnitUnit": 3301012,
		"skill_groupID": 13
	},
	{
		"ID": 190,
		"unit_UnitUnit": 3301013,
		"skill_groupID": 13
	},
	{
		"ID": 191,
		"unit_UnitUnit": 3102311,
		"skill_groupID": 13
	},
	{
		"ID": 192,
		"unit_UnitUnit": 3102312,
		"skill_groupID": 13
	},
	{
		"ID": 193,
		"unit_UnitUnit": 3102313,
		"skill_groupID": 13
	},
	{
		"ID": 194,
		"unit_UnitUnit": 3401311,
		"skill_groupID": 13
	},
	{
		"ID": 195,
		"unit_UnitUnit": 3401312,
		"skill_groupID": 13
	},
	{
		"ID": 196,
		"unit_UnitUnit": 3401313,
		"skill_groupID": 13
	},
	{
		"ID": 197,
		"unit_UnitUnit": 3200411,
		"skill_groupID": 13
	},
	{
		"ID": 198,
		"unit_UnitUnit": 3200412,
		"skill_groupID": 13
	},
	{
		"ID": 199,
		"unit_UnitUnit": 3200413,
		"skill_groupID": 13
	},
	{
		"ID": 200,
		"unit_UnitUnit": 3820008,
		"skill_groupID": 13
	},
	{
		"ID": 201,
		"unit_UnitUnit": 3401911,
		"skill_groupID": 13
	},
	{
		"ID": 202,
		"unit_UnitUnit": 3401912,
		"skill_groupID": 13
	},
	{
		"ID": 203,
		"unit_UnitUnit": 3401913,
		"skill_groupID": 13
	},
	{
		"ID": 204,
		"unit_UnitUnit": 3401021,
		"skill_groupID": 13
	},
	{
		"ID": 205,
		"unit_UnitUnit": 3401022,
		"skill_groupID": 13
	},
	{
		"ID": 206,
		"unit_UnitUnit": 3401023,
		"skill_groupID": 13
	},
	{
		"ID": 207,
		"unit_UnitUnit": 3303211,
		"skill_groupID": 14
	},
	{
		"ID": 208,
		"unit_UnitUnit": 3303212,
		"skill_groupID": 14
	},
	{
		"ID": 209,
		"unit_UnitUnit": 3303213,
		"skill_groupID": 14
	},
	{
		"ID": 210,
		"unit_UnitUnit": 3303111,
		"skill_groupID": 14
	},
	{
		"ID": 211,
		"unit_UnitUnit": 3303112,
		"skill_groupID": 14
	},
	{
		"ID": 212,
		"unit_UnitUnit": 3303113,
		"skill_groupID": 14
	},
	{
		"ID": 213,
		"unit_UnitUnit": 3302111,
		"skill_groupID": 14
	},
	{
		"ID": 214,
		"unit_UnitUnit": 3302112,
		"skill_groupID": 14
	},
	{
		"ID": 215,
		"unit_UnitUnit": 3302113,
		"skill_groupID": 14
	},
	{
		"ID": 216,
		"unit_UnitUnit": 3300711,
		"skill_groupID": 14
	},
	{
		"ID": 217,
		"unit_UnitUnit": 3300712,
		"skill_groupID": 14
	},
	{
		"ID": 218,
		"unit_UnitUnit": 3300713,
		"skill_groupID": 14
	},
	{
		"ID": 219,
		"unit_UnitUnit": 3600811,
		"skill_groupID": 13
	},
	{
		"ID": 220,
		"unit_UnitUnit": 3600812,
		"skill_groupID": 13
	},
	{
		"ID": 221,
		"unit_UnitUnit": 3600813,
		"skill_groupID": 13
	},
	{
		"ID": 222,
		"unit_UnitUnit": 302021,
		"skill_groupID": 15
	},
	{
		"ID": 223,
		"unit_UnitUnit": 302022,
		"skill_groupID": 15
	},
	{
		"ID": 224,
		"unit_UnitUnit": 302023,
		"skill_groupID": 15
	},
	{
		"ID": 225,
		"unit_UnitUnit": 302621,
		"skill_groupID": 15
	},
	{
		"ID": 226,
		"unit_UnitUnit": 302622,
		"skill_groupID": 15
	},
	{
		"ID": 227,
		"unit_UnitUnit": 302623,
		"skill_groupID": 15
	},
	{
		"ID": 228,
		"unit_UnitUnit": 3302821,
		"skill_groupID": 15
	},
	{
		"ID": 229,
		"unit_UnitUnit": 3302822,
		"skill_groupID": 15
	},
	{
		"ID": 230,
		"unit_UnitUnit": 3302823,
		"skill_groupID": 15
	},
	{
		"ID": 231,
		"unit_UnitUnit": 3302821,
		"skill_groupID": 12
	},
	{
		"ID": 232,
		"unit_UnitUnit": 3302822,
		"skill_groupID": 12
	},
	{
		"ID": 233,
		"unit_UnitUnit": 3302823,
		"skill_groupID": 12
	},
	{
		"ID": 234,
		"unit_UnitUnit": 3302821,
		"skill_groupID": 13
	},
	{
		"ID": 235,
		"unit_UnitUnit": 3302822,
		"skill_groupID": 13
	},
	{
		"ID": 236,
		"unit_UnitUnit": 3302823,
		"skill_groupID": 13
	},
	{
		"ID": 237,
		"unit_UnitUnit": 3400821,
		"skill_groupID": 13
	},
	{
		"ID": 238,
		"unit_UnitUnit": 3400822,
		"skill_groupID": 13
	},
	{
		"ID": 239,
		"unit_UnitUnit": 3400823,
		"skill_groupID": 13
	},
	{
		"ID": 240,
		"unit_UnitUnit": 3502111,
		"skill_groupID": 13
	},
	{
		"ID": 241,
		"unit_UnitUnit": 3502112,
		"skill_groupID": 13
	},
	{
		"ID": 242,
		"unit_UnitUnit": 3502113,
		"skill_groupID": 13
	},
	{
		"ID": 243,
		"unit_UnitUnit": 3100311,
		"skill_groupID": 13
	},
	{
		"ID": 244,
		"unit_UnitUnit": 3100312,
		"skill_groupID": 13
	},
	{
		"ID": 245,
		"unit_UnitUnit": 3100313,
		"skill_groupID": 13
	},
	{
		"ID": 246,
		"unit_UnitUnit": 3301411,
		"skill_groupID": 13
	},
	{
		"ID": 247,
		"unit_UnitUnit": 3301412,
		"skill_groupID": 13
	},
	{
		"ID": 248,
		"unit_UnitUnit": 3301413,
		"skill_groupID": 13
	},
	{
		"ID": 249,
		"unit_UnitUnit": 41002011,
		"skill_groupID": 12
	},
	{
		"ID": 250,
		"unit_UnitUnit": 43028001,
		"skill_groupID": 12
	},
	{
		"ID": 251,
		"unit_UnitUnit": 46025001,
		"skill_groupID": 12
	},
	{
		"ID": 252,
		"unit_UnitUnit": 45031001,
		"skill_groupID": 12
	},
	{
		"ID": 253,
		"unit_UnitUnit": 3201921,
		"skill_groupID": 11
	},
	{
		"ID": 254,
		"unit_UnitUnit": 3201922,
		"skill_groupID": 11
	},
	{
		"ID": 255,
		"unit_UnitUnit": 3201923,
		"skill_groupID": 11
	},
	{
		"ID": 256,
		"unit_UnitUnit": 3601121,
		"skill_groupID": 11
	},
	{
		"ID": 257,
		"unit_UnitUnit": 3601122,
		"skill_groupID": 11
	},
	{
		"ID": 258,
		"unit_UnitUnit": 3601123,
		"skill_groupID": 11
	},
	{
		"ID": 259,
		"unit_UnitUnit": 43028001,
		"skill_groupID": 13
	},
	{
		"ID": 260,
		"unit_UnitUnit": 3100211,
		"skill_groupID": 16
	},
	{
		"ID": 261,
		"unit_UnitUnit": 3100212,
		"skill_groupID": 16
	},
	{
		"ID": 262,
		"unit_UnitUnit": 3100213,
		"skill_groupID": 16
	},
	{
		"ID": 263,
		"unit_UnitUnit": 41002011,
		"skill_groupID": 16
	},
	{
		"ID": 264,
		"unit_UnitUnit": 502511,
		"skill_groupID": 17
	},
	{
		"ID": 265,
		"unit_UnitUnit": 502512,
		"skill_groupID": 17
	},
	{
		"ID": 266,
		"unit_UnitUnit": 502513,
		"skill_groupID": 17
	},
	{
		"ID": 267,
		"unit_UnitUnit": 501511,
		"skill_groupID": 17
	},
	{
		"ID": 268,
		"unit_UnitUnit": 501512,
		"skill_groupID": 17
	},
	{
		"ID": 269,
		"unit_UnitUnit": 501911,
		"skill_groupID": 17
	},
	{
		"ID": 270,
		"unit_UnitUnit": 501912,
		"skill_groupID": 17
	},
	{
		"ID": 271,
		"unit_UnitUnit": 501913,
		"skill_groupID": 17
	},
	{
		"ID": 272,
		"unit_UnitUnit": 502213,
		"skill_groupID": 17
	},
	{
		"ID": 273,
		"unit_UnitUnit": 502521,
		"skill_groupID": 17
	},
	{
		"ID": 274,
		"unit_UnitUnit": 502522,
		"skill_groupID": 17
	},
	{
		"ID": 275,
		"unit_UnitUnit": 502523,
		"skill_groupID": 17
	},
	{
		"ID": 276,
		"unit_UnitUnit": 101511,
		"skill_groupID": 18
	},
	{
		"ID": 277,
		"unit_UnitUnit": 101512,
		"skill_groupID": 18
	},
	{
		"ID": 278,
		"unit_UnitUnit": 101513,
		"skill_groupID": 18
	},
	{
		"ID": 279,
		"unit_UnitUnit": 101521,
		"skill_groupID": 18
	},
	{
		"ID": 280,
		"unit_UnitUnit": 101522,
		"skill_groupID": 18
	},
	{
		"ID": 281,
		"unit_UnitUnit": 101523,
		"skill_groupID": 18
	},
	{
		"ID": 282,
		"unit_UnitUnit": 101524,
		"skill_groupID": 18
	},
	{
		"ID": 283,
		"unit_UnitUnit": 202113,
		"skill_groupID": 19
	},
	{
		"ID": 284,
		"unit_UnitUnit": 3202911,
		"skill_groupID": 19
	},
	{
		"ID": 285,
		"unit_UnitUnit": 3202912,
		"skill_groupID": 19
	},
	{
		"ID": 286,
		"unit_UnitUnit": 3202913,
		"skill_groupID": 19
	},
	{
		"ID": 287,
		"unit_UnitUnit": 301111,
		"skill_groupID": 20
	},
	{
		"ID": 288,
		"unit_UnitUnit": 301112,
		"skill_groupID": 20
	},
	{
		"ID": 289,
		"unit_UnitUnit": 301113,
		"skill_groupID": 20
	},
	{
		"ID": 290,
		"unit_UnitUnit": 301121,
		"skill_groupID": 20
	},
	{
		"ID": 291,
		"unit_UnitUnit": 301122,
		"skill_groupID": 20
	},
	{
		"ID": 292,
		"unit_UnitUnit": 301123,
		"skill_groupID": 20
	},
	{
		"ID": 293,
		"unit_UnitUnit": 301124,
		"skill_groupID": 20
	},
	{
		"ID": 294,
		"unit_UnitUnit": 301611,
		"skill_groupID": 20
	},
	{
		"ID": 295,
		"unit_UnitUnit": 301612,
		"skill_groupID": 20
	},
	{
		"ID": 296,
		"unit_UnitUnit": 301613,
		"skill_groupID": 20
	},
	{
		"ID": 297,
		"unit_UnitUnit": 401111,
		"skill_groupID": 21
	},
	{
		"ID": 298,
		"unit_UnitUnit": 401112,
		"skill_groupID": 21
	},
	{
		"ID": 299,
		"unit_UnitUnit": 401113,
		"skill_groupID": 21
	},
	{
		"ID": 300,
		"unit_UnitUnit": 401114,
		"skill_groupID": 21
	},
	{
		"ID": 301,
		"unit_UnitUnit": 401131,
		"skill_groupID": 21
	},
	{
		"ID": 302,
		"unit_UnitUnit": 401132,
		"skill_groupID": 21
	},
	{
		"ID": 303,
		"unit_UnitUnit": 401413,
		"skill_groupID": 21
	},
	{
		"ID": 304,
		"unit_UnitUnit": 200911,
		"skill_groupID": 22
	},
	{
		"ID": 305,
		"unit_UnitUnit": 200912,
		"skill_groupID": 22
	},
	{
		"ID": 306,
		"unit_UnitUnit": 200913,
		"skill_groupID": 22
	},
	{
		"ID": 307,
		"unit_UnitUnit": 200921,
		"skill_groupID": 22
	},
	{
		"ID": 308,
		"unit_UnitUnit": 200922,
		"skill_groupID": 22
	},
	{
		"ID": 309,
		"unit_UnitUnit": 200923,
		"skill_groupID": 22
	},
	{
		"ID": 310,
		"unit_UnitUnit": 200924,
		"skill_groupID": 22
	},
	{
		"ID": 311,
		"unit_UnitUnit": 302213,
		"skill_groupID": 23
	},
	{
		"ID": 312,
		"unit_UnitUnit": 301211,
		"skill_groupID": 23
	},
	{
		"ID": 313,
		"unit_UnitUnit": 301212,
		"skill_groupID": 23
	},
	{
		"ID": 314,
		"unit_UnitUnit": 301213,
		"skill_groupID": 23
	},
	{
		"ID": 315,
		"unit_UnitUnit": 301214,
		"skill_groupID": 23
	},
	{
		"ID": 316,
		"unit_UnitUnit": 301911,
		"skill_groupID": 23
	},
	{
		"ID": 317,
		"unit_UnitUnit": 301912,
		"skill_groupID": 23
	},
	{
		"ID": 318,
		"unit_UnitUnit": 301913,
		"skill_groupID": 23
	},
	{
		"ID": 319,
		"unit_UnitUnit": 500911,
		"skill_groupID": 24
	},
	{
		"ID": 320,
		"unit_UnitUnit": 500912,
		"skill_groupID": 24
	},
	{
		"ID": 321,
		"unit_UnitUnit": 500913,
		"skill_groupID": 24
	},
	{
		"ID": 322,
		"unit_UnitUnit": 500921,
		"skill_groupID": 24
	},
	{
		"ID": 323,
		"unit_UnitUnit": 500922,
		"skill_groupID": 24
	},
	{
		"ID": 324,
		"unit_UnitUnit": 500923,
		"skill_groupID": 24
	},
	{
		"ID": 325,
		"unit_UnitUnit": 500924,
		"skill_groupID": 24
	},
	{
		"ID": 326,
		"unit_UnitUnit": 501011,
		"skill_groupID": 24
	},
	{
		"ID": 327,
		"unit_UnitUnit": 501012,
		"skill_groupID": 24
	},
	{
		"ID": 328,
		"unit_UnitUnit": 501013,
		"skill_groupID": 24
	},
	{
		"ID": 329,
		"unit_UnitUnit": 501111,
		"skill_groupID": 24
	},
	{
		"ID": 330,
		"unit_UnitUnit": 501112,
		"skill_groupID": 24
	},
	{
		"ID": 331,
		"unit_UnitUnit": 501113,
		"skill_groupID": 24
	},
	{
		"ID": 332,
		"unit_UnitUnit": 501211,
		"skill_groupID": 24
	},
	{
		"ID": 333,
		"unit_UnitUnit": 501212,
		"skill_groupID": 24
	},
	{
		"ID": 334,
		"unit_UnitUnit": 501213,
		"skill_groupID": 24
	},
	{
		"ID": 335,
		"unit_UnitUnit": 501311,
		"skill_groupID": 24
	},
	{
		"ID": 336,
		"unit_UnitUnit": 501312,
		"skill_groupID": 24
	},
	{
		"ID": 337,
		"unit_UnitUnit": 501313,
		"skill_groupID": 24
	},
	{
		"ID": 338,
		"unit_UnitUnit": 501314,
		"skill_groupID": 24
	},
	{
		"ID": 339,
		"unit_UnitUnit": 501321,
		"skill_groupID": 24
	},
	{
		"ID": 340,
		"unit_UnitUnit": 501322,
		"skill_groupID": 24
	},
	{
		"ID": 341,
		"unit_UnitUnit": 501811,
		"skill_groupID": 24
	},
	{
		"ID": 342,
		"unit_UnitUnit": 501812,
		"skill_groupID": 24
	},
	{
		"ID": 343,
		"unit_UnitUnit": 501813,
		"skill_groupID": 24
	},
	{
		"ID": 344,
		"unit_UnitUnit": 600711,
		"skill_groupID": 25
	},
	{
		"ID": 345,
		"unit_UnitUnit": 600712,
		"skill_groupID": 25
	},
	{
		"ID": 346,
		"unit_UnitUnit": 600713,
		"skill_groupID": 25
	},
	{
		"ID": 347,
		"unit_UnitUnit": 600721,
		"skill_groupID": 25
	},
	{
		"ID": 348,
		"unit_UnitUnit": 600722,
		"skill_groupID": 25
	},
	{
		"ID": 349,
		"unit_UnitUnit": 600723,
		"skill_groupID": 25
	},
	{
		"ID": 350,
		"unit_UnitUnit": 600724,
		"skill_groupID": 25
	},
	{
		"ID": 351,
		"unit_UnitUnit": 601811,
		"skill_groupID": 25
	},
	{
		"ID": 352,
		"unit_UnitUnit": 601812,
		"skill_groupID": 25
	},
	{
		"ID": 353,
		"unit_UnitUnit": 601813,
		"skill_groupID": 25
	},
	{
		"ID": 354,
		"unit_UnitUnit": 101911,
		"skill_groupID": 26
	},
	{
		"ID": 355,
		"unit_UnitUnit": 101912,
		"skill_groupID": 26
	},
	{
		"ID": 356,
		"unit_UnitUnit": 101913,
		"skill_groupID": 26
	},
	{
		"ID": 357,
		"unit_UnitUnit": 102111,
		"skill_groupID": 26
	},
	{
		"ID": 358,
		"unit_UnitUnit": 102112,
		"skill_groupID": 26
	},
	{
		"ID": 359,
		"unit_UnitUnit": 102113,
		"skill_groupID": 26
	},
	{
		"ID": 360,
		"unit_UnitUnit": 102411,
		"skill_groupID": 26
	},
	{
		"ID": 361,
		"unit_UnitUnit": 102412,
		"skill_groupID": 26
	},
	{
		"ID": 362,
		"unit_UnitUnit": 102413,
		"skill_groupID": 26
	},
	{
		"ID": 363,
		"unit_UnitUnit": 102421,
		"skill_groupID": 26
	},
	{
		"ID": 364,
		"unit_UnitUnit": 102422,
		"skill_groupID": 26
	},
	{
		"ID": 365,
		"unit_UnitUnit": 102423,
		"skill_groupID": 26
	},
	{
		"ID": 366,
		"unit_UnitUnit": 102424,
		"skill_groupID": 26
	},
	{
		"ID": 367,
		"unit_UnitUnit": 103013,
		"skill_groupID": 26
	},
	{
		"ID": 368,
		"unit_UnitUnit": 102114,
		"skill_groupID": 26
	},
	{
		"ID": 369,
		"unit_UnitUnit": 2502511,
		"skill_groupID": 17
	},
	{
		"ID": 370,
		"unit_UnitUnit": 2502512,
		"skill_groupID": 17
	},
	{
		"ID": 371,
		"unit_UnitUnit": 2502513,
		"skill_groupID": 17
	},
	{
		"ID": 372,
		"unit_UnitUnit": 301614,
		"skill_groupID": 20
	},
	{
		"ID": 373,
		"unit_UnitUnit": 3201921,
		"skill_groupID": 13
	},
	{
		"ID": 374,
		"unit_UnitUnit": 3201922,
		"skill_groupID": 13
	},
	{
		"ID": 375,
		"unit_UnitUnit": 3201923,
		"skill_groupID": 13
	},
	{
		"ID": 376,
		"unit_UnitUnit": 3602721,
		"skill_groupID": 27
	},
	{
		"ID": 377,
		"unit_UnitUnit": 3602722,
		"skill_groupID": 27
	},
	{
		"ID": 378,
		"unit_UnitUnit": 3602723,
		"skill_groupID": 27
	},
	{
		"ID": 379,
		"unit_UnitUnit": 3602711,
		"skill_groupID": 27
	},
	{
		"ID": 380,
		"unit_UnitUnit": 3602712,
		"skill_groupID": 27
	},
	{
		"ID": 381,
		"unit_UnitUnit": 3602713,
		"skill_groupID": 27
	},
	{
		"ID": 382,
		"unit_UnitUnit": 3202911,
		"skill_groupID": 27
	},
	{
		"ID": 383,
		"unit_UnitUnit": 3202912,
		"skill_groupID": 27
	},
	{
		"ID": 384,
		"unit_UnitUnit": 3202913,
		"skill_groupID": 27
	},
	{
		"ID": 385,
		"unit_UnitUnit": 3503311,
		"skill_groupID": 27
	},
	{
		"ID": 386,
		"unit_UnitUnit": 3503312,
		"skill_groupID": 27
	},
	{
		"ID": 387,
		"unit_UnitUnit": 3503313,
		"skill_groupID": 27
	},
	{
		"ID": 388,
		"unit_UnitUnit": 3202921,
		"skill_groupID": 27
	},
	{
		"ID": 389,
		"unit_UnitUnit": 3202922,
		"skill_groupID": 27
	},
	{
		"ID": 390,
		"unit_UnitUnit": 3202923,
		"skill_groupID": 27
	},
	{
		"ID": 391,
		"unit_UnitUnit": 3503321,
		"skill_groupID": 27
	},
	{
		"ID": 392,
		"unit_UnitUnit": 3503322,
		"skill_groupID": 27
	},
	{
		"ID": 393,
		"unit_UnitUnit": 3503323,
		"skill_groupID": 27
	},
	{
		"ID": 394,
		"unit_UnitUnit": 100151,
		"skill_groupID": 28
	},
	{
		"ID": 395,
		"unit_UnitUnit": 100152,
		"skill_groupID": 28
	},
	{
		"ID": 396,
		"unit_UnitUnit": 100153,
		"skill_groupID": 28
	},
	{
		"ID": 397,
		"unit_UnitUnit": 100154,
		"skill_groupID": 28
	},
	{
		"ID": 398,
		"unit_UnitUnit": 102351,
		"skill_groupID": 28
	},
	{
		"ID": 399,
		"unit_UnitUnit": 102352,
		"skill_groupID": 28
	},
	{
		"ID": 400,
		"unit_UnitUnit": 102353,
		"skill_groupID": 28
	},
	{
		"ID": 401,
		"unit_UnitUnit": 200451,
		"skill_groupID": 28
	},
	{
		"ID": 402,
		"unit_UnitUnit": 200452,
		"skill_groupID": 28
	},
	{
		"ID": 403,
		"unit_UnitUnit": 200453,
		"skill_groupID": 28
	},
	{
		"ID": 404,
		"unit_UnitUnit": 200454,
		"skill_groupID": 28
	},
	{
		"ID": 405,
		"unit_UnitUnit": 500851,
		"skill_groupID": 28
	},
	{
		"ID": 406,
		"unit_UnitUnit": 500852,
		"skill_groupID": 28
	},
	{
		"ID": 407,
		"unit_UnitUnit": 500853,
		"skill_groupID": 28
	},
	{
		"ID": 408,
		"unit_UnitUnit": 400461,
		"skill_groupID": 28
	},
	{
		"ID": 409,
		"unit_UnitUnit": 400462,
		"skill_groupID": 28
	},
	{
		"ID": 410,
		"unit_UnitUnit": 400463,
		"skill_groupID": 28
	},
	{
		"ID": 411,
		"unit_UnitUnit": 600641,
		"skill_groupID": 28
	},
	{
		"ID": 412,
		"unit_UnitUnit": 600642,
		"skill_groupID": 28
	},
	{
		"ID": 413,
		"unit_UnitUnit": 600643,
		"skill_groupID": 28
	},
	{
		"ID": 414,
		"unit_UnitUnit": 400771,
		"skill_groupID": 28
	},
	{
		"ID": 415,
		"unit_UnitUnit": 400772,
		"skill_groupID": 28
	},
	{
		"ID": 416,
		"unit_UnitUnit": 400773,
		"skill_groupID": 28
	},
	{
		"ID": 417,
		"unit_UnitUnit": 401721,
		"skill_groupID": 28
	},
	{
		"ID": 418,
		"unit_UnitUnit": 401722,
		"skill_groupID": 28
	},
	{
		"ID": 419,
		"unit_UnitUnit": 401723,
		"skill_groupID": 28
	},
	{
		"ID": 420,
		"unit_UnitUnit": 3602721,
		"skill_groupID": 28
	},
	{
		"ID": 421,
		"unit_UnitUnit": 3602722,
		"skill_groupID": 28
	},
	{
		"ID": 422,
		"unit_UnitUnit": 3602723,
		"skill_groupID": 28
	},
	{
		"ID": 423,
		"unit_UnitUnit": 3503331,
		"skill_groupID": 28
	},
	{
		"ID": 424,
		"unit_UnitUnit": 3503332,
		"skill_groupID": 28
	},
	{
		"ID": 425,
		"unit_UnitUnit": 3503333,
		"skill_groupID": 28
	},
	{
		"ID": 426,
		"unit_UnitUnit": 3503331,
		"skill_groupID": 27
	},
	{
		"ID": 427,
		"unit_UnitUnit": 3503332,
		"skill_groupID": 27
	},
	{
		"ID": 428,
		"unit_UnitUnit": 3503333,
		"skill_groupID": 27
	},
	{
		"ID": 429,
		"unit_UnitUnit": 3202931,
		"skill_groupID": 19
	},
	{
		"ID": 430,
		"unit_UnitUnit": 3202932,
		"skill_groupID": 19
	},
	{
		"ID": 431,
		"unit_UnitUnit": 3202933,
		"skill_groupID": 19
	},
	{
		"ID": 432,
		"unit_UnitUnit": 3202931,
		"skill_groupID": 27
	},
	{
		"ID": 433,
		"unit_UnitUnit": 3202932,
		"skill_groupID": 27
	},
	{
		"ID": 434,
		"unit_UnitUnit": 3202933,
		"skill_groupID": 27
	},
	{
		"ID": 435,
		"unit_UnitUnit": 3202931,
		"skill_groupID": 28
	},
	{
		"ID": 436,
		"unit_UnitUnit": 3202932,
		"skill_groupID": 28
	},
	{
		"ID": 437,
		"unit_UnitUnit": 3202933,
		"skill_groupID": 28
	},
	{
		"ID": 438,
		"unit_UnitUnit": 3503131,
		"skill_groupID": 28
	},
	{
		"ID": 439,
		"unit_UnitUnit": 3503132,
		"skill_groupID": 28
	},
	{
		"ID": 440,
		"unit_UnitUnit": 3503133,
		"skill_groupID": 28
	},
	{
		"ID": 441,
		"unit_UnitUnit": 3300121,
		"skill_groupID": 28
	},
	{
		"ID": 442,
		"unit_UnitUnit": 3300122,
		"skill_groupID": 28
	},
	{
		"ID": 443,
		"unit_UnitUnit": 3300123,
		"skill_groupID": 28
	},
	{
		"ID": 444,
		"unit_UnitUnit": 3300121,
		"skill_groupID": 11
	},
	{
		"ID": 445,
		"unit_UnitUnit": 3300122,
		"skill_groupID": 11
	},
	{
		"ID": 446,
		"unit_UnitUnit": 3300123,
		"skill_groupID": 11
	},
	{
		"ID": 447,
		"unit_UnitUnit": 3503131,
		"skill_groupID": 12
	},
	{
		"ID": 448,
		"unit_UnitUnit": 3503132,
		"skill_groupID": 12
	},
	{
		"ID": 449,
		"unit_UnitUnit": 3503133,
		"skill_groupID": 12
	},
	{
		"ID": 450,
		"unit_UnitUnit": 3203011,
		"skill_groupID": 29
	},
	{
		"ID": 451,
		"unit_UnitUnit": 3203012,
		"skill_groupID": 29
	},
	{
		"ID": 452,
		"unit_UnitUnit": 3203013,
		"skill_groupID": 29
	},
	{
		"ID": 453,
		"unit_UnitUnit": 2302811,
		"skill_groupID": 12
	},
	{
		"ID": 454,
		"unit_UnitUnit": 2302812,
		"skill_groupID": 12
	},
	{
		"ID": 455,
		"unit_UnitUnit": 2302813,
		"skill_groupID": 12
	},
	{
		"ID": 456,
		"unit_UnitUnit": 2502611,
		"skill_groupID": 10
	},
	{
		"ID": 457,
		"unit_UnitUnit": 2502612,
		"skill_groupID": 10
	},
	{
		"ID": 458,
		"unit_UnitUnit": 2502613,
		"skill_groupID": 10
	},
	{
		"ID": 459,
		"unit_UnitUnit": 2601811,
		"skill_groupID": 10
	},
	{
		"ID": 460,
		"unit_UnitUnit": 2601812,
		"skill_groupID": 10
	},
	{
		"ID": 461,
		"unit_UnitUnit": 2601813,
		"skill_groupID": 10
	},
	{
		"ID": 462,
		"unit_UnitUnit": 2601811,
		"skill_groupID": 25
	},
	{
		"ID": 463,
		"unit_UnitUnit": 2601812,
		"skill_groupID": 25
	},
	{
		"ID": 464,
		"unit_UnitUnit": 2601813,
		"skill_groupID": 25
	},
	{
		"ID": 465,
		"unit_UnitUnit": 2100231,
		"skill_groupID": 12
	},
	{
		"ID": 466,
		"unit_UnitUnit": 2100232,
		"skill_groupID": 12
	},
	{
		"ID": 467,
		"unit_UnitUnit": 2100233,
		"skill_groupID": 12
	},
	{
		"ID": 468,
		"unit_UnitUnit": 2100231,
		"skill_groupID": 16
	},
	{
		"ID": 469,
		"unit_UnitUnit": 2100232,
		"skill_groupID": 16
	},
	{
		"ID": 470,
		"unit_UnitUnit": 2100233,
		"skill_groupID": 16
	},
	{
		"ID": 471,
		"unit_UnitUnit": 2303111,
		"skill_groupID": 14
	},
	{
		"ID": 472,
		"unit_UnitUnit": 2303112,
		"skill_groupID": 14
	},
	{
		"ID": 473,
		"unit_UnitUnit": 2303113,
		"skill_groupID": 14
	},
	{
		"ID": 474,
		"unit_UnitUnit": 2602511,
		"skill_groupID": 12
	},
	{
		"ID": 475,
		"unit_UnitUnit": 2602512,
		"skill_groupID": 12
	},
	{
		"ID": 476,
		"unit_UnitUnit": 2602513,
		"skill_groupID": 12
	},
	{
		"ID": 477,
		"unit_UnitUnit": 3100121,
		"skill_groupID": 11
	},
	{
		"ID": 478,
		"unit_UnitUnit": 3100122,
		"skill_groupID": 11
	},
	{
		"ID": 479,
		"unit_UnitUnit": 3100123,
		"skill_groupID": 11
	},
	{
		"ID": 480,
		"unit_UnitUnit": 3401111,
		"skill_groupID": 30
	},
	{
		"ID": 481,
		"unit_UnitUnit": 3401112,
		"skill_groupID": 30
	},
	{
		"ID": 482,
		"unit_UnitUnit": 3401113,
		"skill_groupID": 30
	},
	{
		"ID": 483,
		"unit_UnitUnit": 3501411,
		"skill_groupID": 30
	},
	{
		"ID": 484,
		"unit_UnitUnit": 3501412,
		"skill_groupID": 30
	},
	{
		"ID": 485,
		"unit_UnitUnit": 3501413,
		"skill_groupID": 30
	},
	{
		"ID": 486,
		"unit_UnitUnit": 401111,
		"skill_groupID": 30
	},
	{
		"ID": 487,
		"unit_UnitUnit": 401112,
		"skill_groupID": 30
	},
	{
		"ID": 488,
		"unit_UnitUnit": 401113,
		"skill_groupID": 30
	},
	{
		"ID": 489,
		"unit_UnitUnit": 401114,
		"skill_groupID": 30
	},
	{
		"ID": 490,
		"unit_UnitUnit": 401122,
		"skill_groupID": 30
	},
	{
		"ID": 491,
		"unit_UnitUnit": 401123,
		"skill_groupID": 30
	},
	{
		"ID": 492,
		"unit_UnitUnit": 401124,
		"skill_groupID": 30
	},
	{
		"ID": 493,
		"unit_UnitUnit": 501311,
		"skill_groupID": 30
	},
	{
		"ID": 494,
		"unit_UnitUnit": 501312,
		"skill_groupID": 30
	},
	{
		"ID": 495,
		"unit_UnitUnit": 501313,
		"skill_groupID": 30
	},
	{
		"ID": 496,
		"unit_UnitUnit": 501314,
		"skill_groupID": 30
	},
	{
		"ID": 497,
		"unit_UnitUnit": 501811,
		"skill_groupID": 30
	},
	{
		"ID": 498,
		"unit_UnitUnit": 501812,
		"skill_groupID": 30
	},
	{
		"ID": 499,
		"unit_UnitUnit": 501813,
		"skill_groupID": 30
	},
	{
		"ID": 500,
		"unit_UnitUnit": 501411,
		"skill_groupID": 30
	},
	{
		"ID": 501,
		"unit_UnitUnit": 501412,
		"skill_groupID": 30
	},
	{
		"ID": 502,
		"unit_UnitUnit": 501413,
		"skill_groupID": 30
	},
	{
		"ID": 503,
		"unit_UnitUnit": 501414,
		"skill_groupID": 30
	},
	{
		"ID": 504,
		"unit_UnitUnit": 102011,
		"skill_groupID": 30
	},
	{
		"ID": 505,
		"unit_UnitUnit": 102012,
		"skill_groupID": 30
	},
	{
		"ID": 506,
		"unit_UnitUnit": 102013,
		"skill_groupID": 30
	},
	{
		"ID": 507,
		"unit_UnitUnit": 102014,
		"skill_groupID": 30
	},
	{
		"ID": 508,
		"unit_UnitUnit": 301511,
		"skill_groupID": 30
	},
	{
		"ID": 509,
		"unit_UnitUnit": 301512,
		"skill_groupID": 30
	},
	{
		"ID": 510,
		"unit_UnitUnit": 301513,
		"skill_groupID": 30
	},
	{
		"ID": 511,
		"unit_UnitUnit": 301514,
		"skill_groupID": 30
	},
	{
		"ID": 512,
		"unit_UnitUnit": 401131,
		"skill_groupID": 30
	},
	{
		"ID": 513,
		"unit_UnitUnit": 401132,
		"skill_groupID": 30
	},
	{
		"ID": 514,
		"unit_UnitUnit": 501321,
		"skill_groupID": 30
	},
	{
		"ID": 515,
		"unit_UnitUnit": 501322,
		"skill_groupID": 30
	},
	{
		"ID": 516,
		"unit_UnitUnit": 3102011,
		"skill_groupID": 30
	},
	{
		"ID": 517,
		"unit_UnitUnit": 3102012,
		"skill_groupID": 30
	},
	{
		"ID": 518,
		"unit_UnitUnit": 3102013,
		"skill_groupID": 30
	},
	{
		"ID": 519,
		"unit_UnitUnit": 3301511,
		"skill_groupID": 30
	},
	{
		"ID": 520,
		"unit_UnitUnit": 3301512,
		"skill_groupID": 30
	},
	{
		"ID": 521,
		"unit_UnitUnit": 3301513,
		"skill_groupID": 30
	},
	{
		"ID": 522,
		"unit_UnitUnit": 3501311,
		"skill_groupID": 30
	},
	{
		"ID": 523,
		"unit_UnitUnit": 3501312,
		"skill_groupID": 30
	},
	{
		"ID": 524,
		"unit_UnitUnit": 3501313,
		"skill_groupID": 30
	},
	{
		"ID": 525,
		"unit_UnitUnit": 3401111,
		"skill_groupID": 21
	},
	{
		"ID": 526,
		"unit_UnitUnit": 3401112,
		"skill_groupID": 21
	},
	{
		"ID": 527,
		"unit_UnitUnit": 3401113,
		"skill_groupID": 21
	},
	{
		"ID": 528,
		"unit_UnitUnit": 3501311,
		"skill_groupID": 24
	},
	{
		"ID": 529,
		"unit_UnitUnit": 3501312,
		"skill_groupID": 24
	},
	{
		"ID": 530,
		"unit_UnitUnit": 3501313,
		"skill_groupID": 24
	},
	{
		"ID": 531,
		"unit_UnitUnit": 3203021,
		"skill_groupID": 29
	},
	{
		"ID": 532,
		"unit_UnitUnit": 3203022,
		"skill_groupID": 29
	},
	{
		"ID": 533,
		"unit_UnitUnit": 3203023,
		"skill_groupID": 29
	},
	{
		"ID": 534,
		"unit_UnitUnit": 3501721,
		"skill_groupID": 11
	},
	{
		"ID": 535,
		"unit_UnitUnit": 3501722,
		"skill_groupID": 11
	},
	{
		"ID": 536,
		"unit_UnitUnit": 3501723,
		"skill_groupID": 11
	},
	{
		"ID": 537,
		"unit_UnitUnit": 501014,
		"skill_groupID": 24
	},
	{
		"ID": 538,
		"unit_UnitUnit": 501114,
		"skill_groupID": 24
	},
	{
		"ID": 539,
		"unit_UnitUnit": 501214,
		"skill_groupID": 24
	},
	{
		"ID": 540,
		"unit_UnitUnit": 3303121,
		"skill_groupID": 14
	},
	{
		"ID": 541,
		"unit_UnitUnit": 3303122,
		"skill_groupID": 14
	},
	{
		"ID": 542,
		"unit_UnitUnit": 3303123,
		"skill_groupID": 14
	},
	{
		"ID": 543,
		"unit_UnitUnit": 5500231,
		"skill_groupID": 31
	},
	{
		"ID": 544,
		"unit_UnitUnit": 5500232,
		"skill_groupID": 31
	},
	{
		"ID": 545,
		"unit_UnitUnit": 5500233,
		"skill_groupID": 31
	},
	{
		"ID": 546,
		"unit_UnitUnit": 5400131,
		"skill_groupID": 31
	},
	{
		"ID": 547,
		"unit_UnitUnit": 5400132,
		"skill_groupID": 31
	},
	{
		"ID": 548,
		"unit_UnitUnit": 5400133,
		"skill_groupID": 31
	},
	{
		"ID": 549,
		"unit_UnitUnit": 5300131,
		"skill_groupID": 31
	},
	{
		"ID": 550,
		"unit_UnitUnit": 5300132,
		"skill_groupID": 31
	},
	{
		"ID": 551,
		"unit_UnitUnit": 5300133,
		"skill_groupID": 31
	},
	{
		"ID": 552,
		"unit_UnitUnit": 5200431,
		"skill_groupID": 31
	},
	{
		"ID": 553,
		"unit_UnitUnit": 5200432,
		"skill_groupID": 31
	},
	{
		"ID": 554,
		"unit_UnitUnit": 5200433,
		"skill_groupID": 31
	},
	{
		"ID": 555,
		"unit_UnitUnit": 5103831,
		"skill_groupID": 32
	},
	{
		"ID": 556,
		"unit_UnitUnit": 5103832,
		"skill_groupID": 32
	},
	{
		"ID": 557,
		"unit_UnitUnit": 5103833,
		"skill_groupID": 32
	},
	{
		"ID": 558,
		"unit_UnitUnit": 5101431,
		"skill_groupID": 32
	},
	{
		"ID": 559,
		"unit_UnitUnit": 5101432,
		"skill_groupID": 32
	},
	{
		"ID": 560,
		"unit_UnitUnit": 5101433,
		"skill_groupID": 32
	},
	{
		"ID": 561,
		"unit_UnitUnit": 5100131,
		"skill_groupID": 32
	},
	{
		"ID": 562,
		"unit_UnitUnit": 5100132,
		"skill_groupID": 32
	},
	{
		"ID": 563,
		"unit_UnitUnit": 5100133,
		"skill_groupID": 32
	},
	{
		"ID": 564,
		"unit_UnitUnit": 5100231,
		"skill_groupID": 32
	},
	{
		"ID": 565,
		"unit_UnitUnit": 5100232,
		"skill_groupID": 32
	},
	{
		"ID": 566,
		"unit_UnitUnit": 5100233,
		"skill_groupID": 32
	}
]