[
	{
		"ID": 1,
		"job_UnitJob": 410,
		"element_UnitFamily": 2
	},
	{
		"ID": 2,
		"job_UnitJob": 411,
		"element_UnitFamily": 0
	},
	{
		"ID": 3,
		"job_UnitJob": 412,
		"element_UnitFamily": 0
	},
	{
		"ID": 4,
		"job_UnitJob": 413,
		"element_UnitFamily": 0
	},
	{
		"ID": 5,
		"job_UnitJob": 414,
		"element_UnitFamily": 0
	},
	{
		"ID": 6,
		"job_UnitJob": 415,
		"element_UnitFamily": 0
	},
	{
		"ID": 7,
		"job_UnitJob": 416,
		"element_UnitFamily": 0
	},
	{
		"ID": 8,
		"job_UnitJob": 454,
		"element_UnitFamily": 0
	},
	{
		"ID": 9,
		"job_UnitJob": 455,
		"element_UnitFamily": 0
	},
	{
		"ID": 10,
		"job_UnitJob": 456,
		"element_UnitFamily": 0
	},
	{
		"ID": 11,
		"job_UnitJob": 457,
		"element_UnitFamily": 0
	},
	{
		"ID": 12,
		"job_UnitJob": 472,
		"element_UnitFamily": 2
	},
	{
		"ID": 13,
		"job_UnitJob": 473,
		"element_UnitFamily": 0
	},
	{
		"ID": 14,
		"job_UnitJob": 474,
		"element_UnitFamily": 0
	},
	{
		"ID": 15,
		"job_UnitJob": 475,
		"element_UnitFamily": 0
	},
	{
		"ID": 16,
		"job_UnitJob": 482,
		"element_UnitFamily": 0
	},
	{
		"ID": 17,
		"job_UnitJob": 483,
		"element_UnitFamily": 0
	},
	{
		"ID": 18,
		"job_UnitJob": 484,
		"element_UnitFamily": 0
	},
	{
		"ID": 19,
		"job_UnitJob": 485,
		"element_UnitFamily": 0
	},
	{
		"ID": 20,
		"job_UnitJob": 486,
		"element_UnitFamily": 0
	},
	{
		"ID": 21,
		"job_UnitJob": 487,
		"element_UnitFamily": 0
	},
	{
		"ID": 22,
		"job_UnitJob": 491,
		"element_UnitFamily": 0
	},
	{
		"ID": 23,
		"job_UnitJob": 492,
		"element_UnitFamily": 0
	},
	{
		"ID": 24,
		"job_UnitJob": 493,
		"element_UnitFamily": 0
	},
	{
		"ID": 25,
		"job_UnitJob": 494,
		"element_UnitFamily": 0
	},
	{
		"ID": 26,
		"job_UnitJob": 495,
		"element_UnitFamily": 0
	},
	{
		"ID": 27,
		"job_UnitJob": 496,
		"element_UnitFamily": 0
	},
	{
		"ID": 28,
		"job_UnitJob": 500,
		"element_UnitFamily": 0
	},
	{
		"ID": 29,
		"job_UnitJob": 501,
		"element_UnitFamily": 0
	},
	{
		"ID": 30,
		"job_UnitJob": 512,
		"element_UnitFamily": 0
	},
	{
		"ID": 31,
		"job_UnitJob": 513,
		"element_UnitFamily": 0
	},
	{
		"ID": 32,
		"job_UnitJob": 502,
		"element_UnitFamily": 0
	},
	{
		"ID": 33,
		"job_UnitJob": 503,
		"element_UnitFamily": 0
	},
	{
		"ID": 34,
		"job_UnitJob": 514,
		"element_UnitFamily": 0
	},
	{
		"ID": 35,
		"job_UnitJob": 520,
		"element_UnitFamily": 0
	},
	{
		"ID": 36,
		"job_UnitJob": 521,
		"element_UnitFamily": 0
	},
	{
		"ID": 37,
		"job_UnitJob": 522,
		"element_UnitFamily": 0
	},
	{
		"ID": 38,
		"job_UnitJob": 523,
		"element_UnitFamily": 2
	},
	{
		"ID": 39,
		"job_UnitJob": 515,
		"element_UnitFamily": 0
	},
	{
		"ID": 40,
		"job_UnitJob": 535,
		"element_UnitFamily": 0
	},
	{
		"ID": 41,
		"job_UnitJob": 536,
		"element_UnitFamily": 0
	},
	{
		"ID": 42,
		"job_UnitJob": 537,
		"element_UnitFamily": 0
	},
	{
		"ID": 43,
		"job_UnitJob": 538,
		"element_UnitFamily": 0
	},
	{
		"ID": 44,
		"job_UnitJob": 539,
		"element_UnitFamily": 0
	},
	{
		"ID": 45,
		"job_UnitJob": 540,
		"element_UnitFamily": 0
	},
	{
		"ID": 46,
		"job_UnitJob": 541,
		"element_UnitFamily": 0
	},
	{
		"ID": 47,
		"job_UnitJob": 542,
		"element_UnitFamily": 0
	},
	{
		"ID": 48,
		"job_UnitJob": 543,
		"element_UnitFamily": 0
	},
	{
		"ID": 49,
		"job_UnitJob": 544,
		"element_UnitFamily": 0
	},
	{
		"ID": 50,
		"job_UnitJob": 547,
		"element_UnitFamily": 0
	},
	{
		"ID": 51,
		"job_UnitJob": 548,
		"element_UnitFamily": 0
	},
	{
		"ID": 52,
		"job_UnitJob": 549,
		"element_UnitFamily": 0
	},
	{
		"ID": 53,
		"job_UnitJob": 527,
		"element_UnitFamily": 0
	},
	{
		"ID": 54,
		"job_UnitJob": 528,
		"element_UnitFamily": 0
	},
	{
		"ID": 55,
		"job_UnitJob": 564,
		"element_UnitFamily": 0
	},
	{
		"ID": 56,
		"job_UnitJob": 565,
		"element_UnitFamily": 0
	},
	{
		"ID": 57,
		"job_UnitJob": 568,
		"element_UnitFamily": 0
	},
	{
		"ID": 58,
		"job_UnitJob": 570,
		"element_UnitFamily": 0
	},
	{
		"ID": 59,
		"job_UnitJob": 575,
		"element_UnitFamily": 0
	},
	{
		"ID": 60,
		"job_UnitJob": 554,
		"element_UnitFamily": 0
	},
	{
		"ID": 61,
		"job_UnitJob": 555,
		"element_UnitFamily": 0
	},
	{
		"ID": 62,
		"job_UnitJob": 556,
		"element_UnitFamily": 0
	},
	{
		"ID": 63,
		"job_UnitJob": 557,
		"element_UnitFamily": 0
	},
	{
		"ID": 64,
		"job_UnitJob": 558,
		"element_UnitFamily": 0
	},
	{
		"ID": 65,
		"job_UnitJob": 559,
		"element_UnitFamily": 0
	},
	{
		"ID": 66,
		"job_UnitJob": 529,
		"element_UnitFamily": 0
	},
	{
		"ID": 67,
		"job_UnitJob": 530,
		"element_UnitFamily": 0
	},
	{
		"ID": 68,
		"job_UnitJob": 531,
		"element_UnitFamily": 0
	},
	{
		"ID": 69,
		"job_UnitJob": 687,
		"element_UnitFamily": 0
	},
	{
		"ID": 70,
		"job_UnitJob": 588,
		"element_UnitFamily": 0
	},
	{
		"ID": 71,
		"job_UnitJob": 589,
		"element_UnitFamily": 0
	},
	{
		"ID": 72,
		"job_UnitJob": 590,
		"element_UnitFamily": 0
	},
	{
		"ID": 73,
		"job_UnitJob": 591,
		"element_UnitFamily": 0
	},
	{
		"ID": 74,
		"job_UnitJob": 592,
		"element_UnitFamily": 0
	},
	{
		"ID": 75,
		"job_UnitJob": 593,
		"element_UnitFamily": 0
	},
	{
		"ID": 76,
		"job_UnitJob": 594,
		"element_UnitFamily": 0
	},
	{
		"ID": 77,
		"job_UnitJob": 595,
		"element_UnitFamily": 0
	},
	{
		"ID": 78,
		"job_UnitJob": 596,
		"element_UnitFamily": 0
	},
	{
		"ID": 79,
		"job_UnitJob": 597,
		"element_UnitFamily": 0
	},
	{
		"ID": 80,
		"job_UnitJob": 598,
		"element_UnitFamily": 0
	},
	{
		"ID": 81,
		"job_UnitJob": 599,
		"element_UnitFamily": 0
	},
	{
		"ID": 82,
		"job_UnitJob": 600,
		"element_UnitFamily": 0
	},
	{
		"ID": 83,
		"job_UnitJob": 601,
		"element_UnitFamily": 0
	},
	{
		"ID": 84,
		"job_UnitJob": 602,
		"element_UnitFamily": 0
	},
	{
		"ID": 85,
		"job_UnitJob": 603,
		"element_UnitFamily": 0
	},
	{
		"ID": 86,
		"job_UnitJob": 604,
		"element_UnitFamily": 0
	},
	{
		"ID": 87,
		"job_UnitJob": 605,
		"element_UnitFamily": 0
	},
	{
		"ID": 88,
		"job_UnitJob": 606,
		"element_UnitFamily": 0
	},
	{
		"ID": 89,
		"job_UnitJob": 607,
		"element_UnitFamily": 0
	},
	{
		"ID": 90,
		"job_UnitJob": 608,
		"element_UnitFamily": 0
	},
	{
		"ID": 91,
		"job_UnitJob": 609,
		"element_UnitFamily": 0
	},
	{
		"ID": 92,
		"job_UnitJob": 610,
		"element_UnitFamily": 0
	},
	{
		"ID": 93,
		"job_UnitJob": 611,
		"element_UnitFamily": 0
	},
	{
		"ID": 94,
		"job_UnitJob": 612,
		"element_UnitFamily": 0
	},
	{
		"ID": 95,
		"job_UnitJob": 613,
		"element_UnitFamily": 0
	},
	{
		"ID": 96,
		"job_UnitJob": 614,
		"element_UnitFamily": 0
	},
	{
		"ID": 97,
		"job_UnitJob": 615,
		"element_UnitFamily": 0
	},
	{
		"ID": 98,
		"job_UnitJob": 616,
		"element_UnitFamily": 0
	},
	{
		"ID": 99,
		"job_UnitJob": 617,
		"element_UnitFamily": 0
	},
	{
		"ID": 100,
		"job_UnitJob": 618,
		"element_UnitFamily": 0
	},
	{
		"ID": 101,
		"job_UnitJob": 619,
		"element_UnitFamily": 0
	},
	{
		"ID": 102,
		"job_UnitJob": 620,
		"element_UnitFamily": 0
	},
	{
		"ID": 103,
		"job_UnitJob": 621,
		"element_UnitFamily": 0
	},
	{
		"ID": 104,
		"job_UnitJob": 622,
		"element_UnitFamily": 0
	},
	{
		"ID": 105,
		"job_UnitJob": 623,
		"element_UnitFamily": 0
	},
	{
		"ID": 106,
		"job_UnitJob": 624,
		"element_UnitFamily": 0
	},
	{
		"ID": 107,
		"job_UnitJob": 625,
		"element_UnitFamily": 0
	},
	{
		"ID": 108,
		"job_UnitJob": 626,
		"element_UnitFamily": 0
	},
	{
		"ID": 109,
		"job_UnitJob": 627,
		"element_UnitFamily": 0
	},
	{
		"ID": 110,
		"job_UnitJob": 628,
		"element_UnitFamily": 0
	},
	{
		"ID": 111,
		"job_UnitJob": 629,
		"element_UnitFamily": 0
	},
	{
		"ID": 112,
		"job_UnitJob": 630,
		"element_UnitFamily": 0
	},
	{
		"ID": 113,
		"job_UnitJob": 631,
		"element_UnitFamily": 0
	},
	{
		"ID": 114,
		"job_UnitJob": 632,
		"element_UnitFamily": 0
	},
	{
		"ID": 115,
		"job_UnitJob": 633,
		"element_UnitFamily": 0
	},
	{
		"ID": 116,
		"job_UnitJob": 634,
		"element_UnitFamily": 0
	},
	{
		"ID": 117,
		"job_UnitJob": 635,
		"element_UnitFamily": 0
	},
	{
		"ID": 118,
		"job_UnitJob": 636,
		"element_UnitFamily": 0
	},
	{
		"ID": 119,
		"job_UnitJob": 637,
		"element_UnitFamily": 0
	},
	{
		"ID": 120,
		"job_UnitJob": 638,
		"element_UnitFamily": 0
	},
	{
		"ID": 121,
		"job_UnitJob": 639,
		"element_UnitFamily": 0
	},
	{
		"ID": 122,
		"job_UnitJob": 640,
		"element_UnitFamily": 0
	},
	{
		"ID": 123,
		"job_UnitJob": 641,
		"element_UnitFamily": 0
	},
	{
		"ID": 124,
		"job_UnitJob": 642,
		"element_UnitFamily": 0
	},
	{
		"ID": 125,
		"job_UnitJob": 643,
		"element_UnitFamily": 0
	},
	{
		"ID": 126,
		"job_UnitJob": 644,
		"element_UnitFamily": 0
	},
	{
		"ID": 127,
		"job_UnitJob": 645,
		"element_UnitFamily": 0
	},
	{
		"ID": 128,
		"job_UnitJob": 646,
		"element_UnitFamily": 0
	},
	{
		"ID": 129,
		"job_UnitJob": 647,
		"element_UnitFamily": 0
	},
	{
		"ID": 130,
		"job_UnitJob": 648,
		"element_UnitFamily": 0
	},
	{
		"ID": 131,
		"job_UnitJob": 649,
		"element_UnitFamily": 0
	},
	{
		"ID": 132,
		"job_UnitJob": 650,
		"element_UnitFamily": 0
	},
	{
		"ID": 133,
		"job_UnitJob": 651,
		"element_UnitFamily": 0
	},
	{
		"ID": 134,
		"job_UnitJob": 652,
		"element_UnitFamily": 0
	},
	{
		"ID": 135,
		"job_UnitJob": 653,
		"element_UnitFamily": 0
	},
	{
		"ID": 136,
		"job_UnitJob": 654,
		"element_UnitFamily": 0
	},
	{
		"ID": 137,
		"job_UnitJob": 655,
		"element_UnitFamily": 0
	},
	{
		"ID": 138,
		"job_UnitJob": 656,
		"element_UnitFamily": 0
	},
	{
		"ID": 139,
		"job_UnitJob": 657,
		"element_UnitFamily": 0
	},
	{
		"ID": 140,
		"job_UnitJob": 658,
		"element_UnitFamily": 0
	},
	{
		"ID": 141,
		"job_UnitJob": 659,
		"element_UnitFamily": 0
	},
	{
		"ID": 142,
		"job_UnitJob": 660,
		"element_UnitFamily": 0
	},
	{
		"ID": 143,
		"job_UnitJob": 661,
		"element_UnitFamily": 0
	},
	{
		"ID": 144,
		"job_UnitJob": 662,
		"element_UnitFamily": 0
	},
	{
		"ID": 145,
		"job_UnitJob": 663,
		"element_UnitFamily": 0
	},
	{
		"ID": 146,
		"job_UnitJob": 664,
		"element_UnitFamily": 0
	},
	{
		"ID": 147,
		"job_UnitJob": 665,
		"element_UnitFamily": 0
	},
	{
		"ID": 148,
		"job_UnitJob": 666,
		"element_UnitFamily": 0
	},
	{
		"ID": 149,
		"job_UnitJob": 667,
		"element_UnitFamily": 0
	},
	{
		"ID": 150,
		"job_UnitJob": 668,
		"element_UnitFamily": 0
	},
	{
		"ID": 151,
		"job_UnitJob": 669,
		"element_UnitFamily": 0
	},
	{
		"ID": 152,
		"job_UnitJob": 670,
		"element_UnitFamily": 0
	},
	{
		"ID": 153,
		"job_UnitJob": 671,
		"element_UnitFamily": 0
	},
	{
		"ID": 154,
		"job_UnitJob": 672,
		"element_UnitFamily": 32
	},
	{
		"ID": 155,
		"job_UnitJob": 673,
		"element_UnitFamily": 32
	},
	{
		"ID": 156,
		"job_UnitJob": 674,
		"element_UnitFamily": 32
	},
	{
		"ID": 157,
		"job_UnitJob": 675,
		"element_UnitFamily": 32
	},
	{
		"ID": 158,
		"job_UnitJob": 676,
		"element_UnitFamily": 32
	},
	{
		"ID": 159,
		"job_UnitJob": 677,
		"element_UnitFamily": 32
	},
	{
		"ID": 160,
		"job_UnitJob": 678,
		"element_UnitFamily": 32
	},
	{
		"ID": 161,
		"job_UnitJob": 679,
		"element_UnitFamily": 32
	},
	{
		"ID": 162,
		"job_UnitJob": 680,
		"element_UnitFamily": 0
	},
	{
		"ID": 163,
		"job_UnitJob": 681,
		"element_UnitFamily": 0
	},
	{
		"ID": 164,
		"job_UnitJob": 682,
		"element_UnitFamily": 0
	},
	{
		"ID": 165,
		"job_UnitJob": 683,
		"element_UnitFamily": 0
	},
	{
		"ID": 166,
		"job_UnitJob": 684,
		"element_UnitFamily": 0
	},
	{
		"ID": 167,
		"job_UnitJob": 685,
		"element_UnitFamily": 0
	},
	{
		"ID": 168,
		"job_UnitJob": 686,
		"element_UnitFamily": 0
	},
	{
		"ID": 169,
		"job_UnitJob": 688,
		"element_UnitFamily": 32
	},
	{
		"ID": 170,
		"job_UnitJob": 576,
		"element_UnitFamily": 0
	},
	{
		"ID": 171,
		"job_UnitJob": 577,
		"element_UnitFamily": 0
	},
	{
		"ID": 172,
		"job_UnitJob": 578,
		"element_UnitFamily": 0
	},
	{
		"ID": 173,
		"job_UnitJob": 579,
		"element_UnitFamily": 0
	},
	{
		"ID": 174,
		"job_UnitJob": 580,
		"element_UnitFamily": 0
	},
	{
		"ID": 175,
		"job_UnitJob": 581,
		"element_UnitFamily": 0
	},
	{
		"ID": 176,
		"job_UnitJob": 582,
		"element_UnitFamily": 2
	},
	{
		"ID": 177,
		"job_UnitJob": 583,
		"element_UnitFamily": 0
	},
	{
		"ID": 178,
		"job_UnitJob": 584,
		"element_UnitFamily": 0
	},
	{
		"ID": 179,
		"job_UnitJob": 585,
		"element_UnitFamily": 0
	},
	{
		"ID": 180,
		"job_UnitJob": 586,
		"element_UnitFamily": 0
	},
	{
		"ID": 181,
		"job_UnitJob": 587,
		"element_UnitFamily": 0
	},
	{
		"ID": 182,
		"job_UnitJob": 727,
		"element_UnitFamily": 0
	},
	{
		"ID": 183,
		"job_UnitJob": 728,
		"element_UnitFamily": 0
	},
	{
		"ID": 184,
		"job_UnitJob": 729,
		"element_UnitFamily": 0
	},
	{
		"ID": 185,
		"job_UnitJob": 732,
		"element_UnitFamily": 2
	},
	{
		"ID": 186,
		"job_UnitJob": 694,
		"element_UnitFamily": 0
	},
	{
		"ID": 187,
		"job_UnitJob": 696,
		"element_UnitFamily": 0
	},
	{
		"ID": 188,
		"job_UnitJob": 697,
		"element_UnitFamily": 0
	},
	{
		"ID": 189,
		"job_UnitJob": 698,
		"element_UnitFamily": 0
	},
	{
		"ID": 190,
		"job_UnitJob": 699,
		"element_UnitFamily": 0
	},
	{
		"ID": 191,
		"job_UnitJob": 700,
		"element_UnitFamily": 0
	},
	{
		"ID": 192,
		"job_UnitJob": 701,
		"element_UnitFamily": 0
	},
	{
		"ID": 193,
		"job_UnitJob": 702,
		"element_UnitFamily": 0
	},
	{
		"ID": 194,
		"job_UnitJob": 703,
		"element_UnitFamily": 0
	},
	{
		"ID": 195,
		"job_UnitJob": 704,
		"element_UnitFamily": 0
	},
	{
		"ID": 196,
		"job_UnitJob": 705,
		"element_UnitFamily": 0
	},
	{
		"ID": 197,
		"job_UnitJob": 733,
		"element_UnitFamily": 32
	},
	{
		"ID": 198,
		"job_UnitJob": 734,
		"element_UnitFamily": 0
	},
	{
		"ID": 199,
		"job_UnitJob": 735,
		"element_UnitFamily": 0
	},
	{
		"ID": 200,
		"job_UnitJob": 736,
		"element_UnitFamily": 0
	},
	{
		"ID": 201,
		"job_UnitJob": 737,
		"element_UnitFamily": 0
	},
	{
		"ID": 202,
		"job_UnitJob": 738,
		"element_UnitFamily": 0
	},
	{
		"ID": 203,
		"job_UnitJob": 739,
		"element_UnitFamily": 0
	},
	{
		"ID": 204,
		"job_UnitJob": 740,
		"element_UnitFamily": 0
	},
	{
		"ID": 205,
		"job_UnitJob": 741,
		"element_UnitFamily": 0
	},
	{
		"ID": 206,
		"job_UnitJob": 742,
		"element_UnitFamily": 0
	},
	{
		"ID": 207,
		"job_UnitJob": 743,
		"element_UnitFamily": 0
	},
	{
		"ID": 208,
		"job_UnitJob": 744,
		"element_UnitFamily": 0
	},
	{
		"ID": 209,
		"job_UnitJob": 745,
		"element_UnitFamily": 0
	},
	{
		"ID": 210,
		"job_UnitJob": 746,
		"element_UnitFamily": 0
	},
	{
		"ID": 211,
		"job_UnitJob": 747,
		"element_UnitFamily": 0
	},
	{
		"ID": 212,
		"job_UnitJob": 748,
		"element_UnitFamily": 0
	},
	{
		"ID": 213,
		"job_UnitJob": 749,
		"element_UnitFamily": 32
	},
	{
		"ID": 214,
		"job_UnitJob": 750,
		"element_UnitFamily": 0
	},
	{
		"ID": 215,
		"job_UnitJob": 751,
		"element_UnitFamily": 0
	},
	{
		"ID": 216,
		"job_UnitJob": 752,
		"element_UnitFamily": 0
	},
	{
		"ID": 217,
		"job_UnitJob": 753,
		"element_UnitFamily": 0
	},
	{
		"ID": 218,
		"job_UnitJob": 754,
		"element_UnitFamily": 0
	},
	{
		"ID": 219,
		"job_UnitJob": 755,
		"element_UnitFamily": 0
	},
	{
		"ID": 220,
		"job_UnitJob": 756,
		"element_UnitFamily": 0
	},
	{
		"ID": 221,
		"job_UnitJob": 757,
		"element_UnitFamily": 0
	},
	{
		"ID": 222,
		"job_UnitJob": 758,
		"element_UnitFamily": 0
	},
	{
		"ID": 223,
		"job_UnitJob": 765,
		"element_UnitFamily": 32
	},
	{
		"ID": 224,
		"job_UnitJob": 766,
		"element_UnitFamily": 0
	},
	{
		"ID": 225,
		"job_UnitJob": 767,
		"element_UnitFamily": 0
	},
	{
		"ID": 226,
		"job_UnitJob": 771,
		"element_UnitFamily": 0
	},
	{
		"ID": 227,
		"job_UnitJob": 772,
		"element_UnitFamily": 0
	},
	{
		"ID": 228,
		"job_UnitJob": 773,
		"element_UnitFamily": 0
	},
	{
		"ID": 229,
		"job_UnitJob": 774,
		"element_UnitFamily": 0
	},
	{
		"ID": 230,
		"job_UnitJob": 775,
		"element_UnitFamily": 0
	},
	{
		"ID": 231,
		"job_UnitJob": 776,
		"element_UnitFamily": 0
	},
	{
		"ID": 232,
		"job_UnitJob": 777,
		"element_UnitFamily": 0
	},
	{
		"ID": 233,
		"job_UnitJob": 778,
		"element_UnitFamily": 0
	},
	{
		"ID": 234,
		"job_UnitJob": 779,
		"element_UnitFamily": 0
	},
	{
		"ID": 235,
		"job_UnitJob": 780,
		"element_UnitFamily": 0
	},
	{
		"ID": 236,
		"job_UnitJob": 781,
		"element_UnitFamily": 0
	},
	{
		"ID": 237,
		"job_UnitJob": 782,
		"element_UnitFamily": 0
	},
	{
		"ID": 238,
		"job_UnitJob": 783,
		"element_UnitFamily": 0
	},
	{
		"ID": 239,
		"job_UnitJob": 786,
		"element_UnitFamily": 0
	},
	{
		"ID": 240,
		"job_UnitJob": 787,
		"element_UnitFamily": 0
	},
	{
		"ID": 241,
		"job_UnitJob": 788,
		"element_UnitFamily": 0
	},
	{
		"ID": 242,
		"job_UnitJob": 789,
		"element_UnitFamily": 0
	},
	{
		"ID": 243,
		"job_UnitJob": 790,
		"element_UnitFamily": 0
	},
	{
		"ID": 244,
		"job_UnitJob": 791,
		"element_UnitFamily": 0
	},
	{
		"ID": 245,
		"job_UnitJob": 792,
		"element_UnitFamily": 0
	},
	{
		"ID": 246,
		"job_UnitJob": 793,
		"element_UnitFamily": 0
	},
	{
		"ID": 247,
		"job_UnitJob": 794,
		"element_UnitFamily": 0
	},
	{
		"ID": 248,
		"job_UnitJob": 795,
		"element_UnitFamily": 0
	},
	{
		"ID": 249,
		"job_UnitJob": 796,
		"element_UnitFamily": 0
	},
	{
		"ID": 250,
		"job_UnitJob": 797,
		"element_UnitFamily": 0
	},
	{
		"ID": 251,
		"job_UnitJob": 798,
		"element_UnitFamily": 0
	},
	{
		"ID": 252,
		"job_UnitJob": 799,
		"element_UnitFamily": 0
	},
	{
		"ID": 253,
		"job_UnitJob": 800,
		"element_UnitFamily": 0
	},
	{
		"ID": 254,
		"job_UnitJob": 801,
		"element_UnitFamily": 22
	},
	{
		"ID": 255,
		"job_UnitJob": 802,
		"element_UnitFamily": 21
	},
	{
		"ID": 256,
		"job_UnitJob": 803,
		"element_UnitFamily": 21
	},
	{
		"ID": 257,
		"job_UnitJob": 804,
		"element_UnitFamily": 22
	},
	{
		"ID": 258,
		"job_UnitJob": 805,
		"element_UnitFamily": 0
	},
	{
		"ID": 259,
		"job_UnitJob": 806,
		"element_UnitFamily": 0
	},
	{
		"ID": 260,
		"job_UnitJob": 807,
		"element_UnitFamily": 0
	},
	{
		"ID": 261,
		"job_UnitJob": 808,
		"element_UnitFamily": 0
	},
	{
		"ID": 262,
		"job_UnitJob": 809,
		"element_UnitFamily": 0
	},
	{
		"ID": 263,
		"job_UnitJob": 810,
		"element_UnitFamily": 0
	},
	{
		"ID": 264,
		"job_UnitJob": 811,
		"element_UnitFamily": 0
	},
	{
		"ID": 265,
		"job_UnitJob": 812,
		"element_UnitFamily": 0
	},
	{
		"ID": 266,
		"job_UnitJob": 813,
		"element_UnitFamily": 0
	},
	{
		"ID": 267,
		"job_UnitJob": 814,
		"element_UnitFamily": 0
	},
	{
		"ID": 268,
		"job_UnitJob": 815,
		"element_UnitFamily": 0
	},
	{
		"ID": 269,
		"job_UnitJob": 816,
		"element_UnitFamily": 0
	},
	{
		"ID": 270,
		"job_UnitJob": 817,
		"element_UnitFamily": 0
	},
	{
		"ID": 271,
		"job_UnitJob": 818,
		"element_UnitFamily": 0
	},
	{
		"ID": 272,
		"job_UnitJob": 819,
		"element_UnitFamily": 0
	},
	{
		"ID": 273,
		"job_UnitJob": 820,
		"element_UnitFamily": 0
	},
	{
		"ID": 274,
		"job_UnitJob": 821,
		"element_UnitFamily": 0
	},
	{
		"ID": 275,
		"job_UnitJob": 822,
		"element_UnitFamily": 0
	},
	{
		"ID": 276,
		"job_UnitJob": 823,
		"element_UnitFamily": 0
	},
	{
		"ID": 277,
		"job_UnitJob": 824,
		"element_UnitFamily": 0
	},
	{
		"ID": 278,
		"job_UnitJob": 825,
		"element_UnitFamily": 0
	},
	{
		"ID": 279,
		"job_UnitJob": 826,
		"element_UnitFamily": 0
	},
	{
		"ID": 280,
		"job_UnitJob": 827,
		"element_UnitFamily": 0
	},
	{
		"ID": 281,
		"job_UnitJob": 828,
		"element_UnitFamily": 0
	},
	{
		"ID": 282,
		"job_UnitJob": 829,
		"element_UnitFamily": 0
	},
	{
		"ID": 283,
		"job_UnitJob": 830,
		"element_UnitFamily": 0
	},
	{
		"ID": 284,
		"job_UnitJob": 835,
		"element_UnitFamily": 0
	},
	{
		"ID": 285,
		"job_UnitJob": 836,
		"element_UnitFamily": 0
	},
	{
		"ID": 286,
		"job_UnitJob": 837,
		"element_UnitFamily": 0
	},
	{
		"ID": 287,
		"job_UnitJob": 572,
		"element_UnitFamily": 0
	},
	{
		"ID": 288,
		"job_UnitJob": 573,
		"element_UnitFamily": 0
	},
	{
		"ID": 289,
		"job_UnitJob": 574,
		"element_UnitFamily": 0
	},
	{
		"ID": 290,
		"job_UnitJob": 847,
		"element_UnitFamily": 0
	},
	{
		"ID": 291,
		"job_UnitJob": 844,
		"element_UnitFamily": 0
	},
	{
		"ID": 292,
		"job_UnitJob": 845,
		"element_UnitFamily": 0
	},
	{
		"ID": 293,
		"job_UnitJob": 846,
		"element_UnitFamily": 0
	},
	{
		"ID": 294,
		"job_UnitJob": 852,
		"element_UnitFamily": 0
	},
	{
		"ID": 295,
		"job_UnitJob": 853,
		"element_UnitFamily": 0
	},
	{
		"ID": 296,
		"job_UnitJob": 854,
		"element_UnitFamily": 0
	},
	{
		"ID": 297,
		"job_UnitJob": 872,
		"element_UnitFamily": 0
	},
	{
		"ID": 298,
		"job_UnitJob": 873,
		"element_UnitFamily": 0
	},
	{
		"ID": 299,
		"job_UnitJob": 874,
		"element_UnitFamily": 0
	},
	{
		"ID": 300,
		"job_UnitJob": 875,
		"element_UnitFamily": 0
	},
	{
		"ID": 301,
		"job_UnitJob": 831,
		"element_UnitFamily": 0
	},
	{
		"ID": 302,
		"job_UnitJob": 832,
		"element_UnitFamily": 0
	},
	{
		"ID": 303,
		"job_UnitJob": 833,
		"element_UnitFamily": 0
	},
	{
		"ID": 304,
		"job_UnitJob": 862,
		"element_UnitFamily": 0
	},
	{
		"ID": 305,
		"job_UnitJob": 863,
		"element_UnitFamily": 0
	},
	{
		"ID": 306,
		"job_UnitJob": 864,
		"element_UnitFamily": 0
	},
	{
		"ID": 307,
		"job_UnitJob": 865,
		"element_UnitFamily": 0
	},
	{
		"ID": 308,
		"job_UnitJob": 866,
		"element_UnitFamily": 0
	},
	{
		"ID": 309,
		"job_UnitJob": 870,
		"element_UnitFamily": 0
	},
	{
		"ID": 310,
		"job_UnitJob": 871,
		"element_UnitFamily": 0
	},
	{
		"ID": 311,
		"job_UnitJob": 885,
		"element_UnitFamily": 0
	},
	{
		"ID": 312,
		"job_UnitJob": 886,
		"element_UnitFamily": 0
	},
	{
		"ID": 313,
		"job_UnitJob": 867,
		"element_UnitFamily": 0
	},
	{
		"ID": 314,
		"job_UnitJob": 892,
		"element_UnitFamily": 0
	},
	{
		"ID": 315,
		"job_UnitJob": 893,
		"element_UnitFamily": 0
	},
	{
		"ID": 316,
		"job_UnitJob": 894,
		"element_UnitFamily": 0
	},
	{
		"ID": 317,
		"job_UnitJob": 895,
		"element_UnitFamily": 1
	},
	{
		"ID": 318,
		"job_UnitJob": 896,
		"element_UnitFamily": 1
	},
	{
		"ID": 319,
		"job_UnitJob": 897,
		"element_UnitFamily": 0
	},
	{
		"ID": 320,
		"job_UnitJob": 898,
		"element_UnitFamily": 0
	},
	{
		"ID": 321,
		"job_UnitJob": 902,
		"element_UnitFamily": 0
	},
	{
		"ID": 322,
		"job_UnitJob": 858,
		"element_UnitFamily": 0
	},
	{
		"ID": 323,
		"job_UnitJob": 859,
		"element_UnitFamily": 0
	},
	{
		"ID": 324,
		"job_UnitJob": 860,
		"element_UnitFamily": 0
	},
	{
		"ID": 325,
		"job_UnitJob": 861,
		"element_UnitFamily": 0
	},
	{
		"ID": 326,
		"job_UnitJob": 922,
		"element_UnitFamily": 0
	},
	{
		"ID": 327,
		"job_UnitJob": 923,
		"element_UnitFamily": 0
	},
	{
		"ID": 328,
		"job_UnitJob": 924,
		"element_UnitFamily": 0
	},
	{
		"ID": 329,
		"job_UnitJob": 925,
		"element_UnitFamily": 0
	},
	{
		"ID": 330,
		"job_UnitJob": 926,
		"element_UnitFamily": 0
	},
	{
		"ID": 331,
		"job_UnitJob": 927,
		"element_UnitFamily": 2
	},
	{
		"ID": 332,
		"job_UnitJob": 928,
		"element_UnitFamily": 0
	},
	{
		"ID": 333,
		"job_UnitJob": 907,
		"element_UnitFamily": 0
	},
	{
		"ID": 334,
		"job_UnitJob": 908,
		"element_UnitFamily": 0
	},
	{
		"ID": 335,
		"job_UnitJob": 909,
		"element_UnitFamily": 0
	},
	{
		"ID": 336,
		"job_UnitJob": 929,
		"element_UnitFamily": 0
	},
	{
		"ID": 337,
		"job_UnitJob": 930,
		"element_UnitFamily": 0
	},
	{
		"ID": 338,
		"job_UnitJob": 931,
		"element_UnitFamily": 0
	},
	{
		"ID": 339,
		"job_UnitJob": 932,
		"element_UnitFamily": 0
	},
	{
		"ID": 340,
		"job_UnitJob": 868,
		"element_UnitFamily": 0
	},
	{
		"ID": 341,
		"job_UnitJob": 869,
		"element_UnitFamily": 0
	},
	{
		"ID": 342,
		"job_UnitJob": 876,
		"element_UnitFamily": 0
	},
	{
		"ID": 343,
		"job_UnitJob": 877,
		"element_UnitFamily": 0
	},
	{
		"ID": 344,
		"job_UnitJob": 878,
		"element_UnitFamily": 0
	},
	{
		"ID": 345,
		"job_UnitJob": 879,
		"element_UnitFamily": 0
	},
	{
		"ID": 346,
		"job_UnitJob": 880,
		"element_UnitFamily": 0
	},
	{
		"ID": 347,
		"job_UnitJob": 881,
		"element_UnitFamily": 0
	},
	{
		"ID": 348,
		"job_UnitJob": 910,
		"element_UnitFamily": 0
	},
	{
		"ID": 349,
		"job_UnitJob": 911,
		"element_UnitFamily": 0
	},
	{
		"ID": 350,
		"job_UnitJob": 912,
		"element_UnitFamily": 0
	},
	{
		"ID": 351,
		"job_UnitJob": 913,
		"element_UnitFamily": 0
	},
	{
		"ID": 352,
		"job_UnitJob": 914,
		"element_UnitFamily": 0
	},
	{
		"ID": 353,
		"job_UnitJob": 915,
		"element_UnitFamily": 0
	},
	{
		"ID": 354,
		"job_UnitJob": 916,
		"element_UnitFamily": 0
	},
	{
		"ID": 355,
		"job_UnitJob": 917,
		"element_UnitFamily": 0
	},
	{
		"ID": 356,
		"job_UnitJob": 918,
		"element_UnitFamily": 0
	},
	{
		"ID": 357,
		"job_UnitJob": 933,
		"element_UnitFamily": 4
	},
	{
		"ID": 358,
		"job_UnitJob": 934,
		"element_UnitFamily": 0
	},
	{
		"ID": 359,
		"job_UnitJob": 935,
		"element_UnitFamily": 0
	},
	{
		"ID": 360,
		"job_UnitJob": 936,
		"element_UnitFamily": 0
	},
	{
		"ID": 361,
		"job_UnitJob": 937,
		"element_UnitFamily": 0
	},
	{
		"ID": 362,
		"job_UnitJob": 938,
		"element_UnitFamily": 0
	},
	{
		"ID": 363,
		"job_UnitJob": 939,
		"element_UnitFamily": 0
	},
	{
		"ID": 364,
		"job_UnitJob": 940,
		"element_UnitFamily": 0
	},
	{
		"ID": 365,
		"job_UnitJob": 941,
		"element_UnitFamily": 0
	},
	{
		"ID": 366,
		"job_UnitJob": 942,
		"element_UnitFamily": 0
	},
	{
		"ID": 367,
		"job_UnitJob": 943,
		"element_UnitFamily": 0
	},
	{
		"ID": 368,
		"job_UnitJob": 944,
		"element_UnitFamily": 0
	},
	{
		"ID": 369,
		"job_UnitJob": 945,
		"element_UnitFamily": 2
	},
	{
		"ID": 370,
		"job_UnitJob": 946,
		"element_UnitFamily": 0
	},
	{
		"ID": 371,
		"job_UnitJob": 965,
		"element_UnitFamily": 0
	},
	{
		"ID": 372,
		"job_UnitJob": 966,
		"element_UnitFamily": 0
	},
	{
		"ID": 373,
		"job_UnitJob": 967,
		"element_UnitFamily": 0
	},
	{
		"ID": 374,
		"job_UnitJob": 968,
		"element_UnitFamily": 0
	},
	{
		"ID": 375,
		"job_UnitJob": 969,
		"element_UnitFamily": 0
	},
	{
		"ID": 376,
		"job_UnitJob": 970,
		"element_UnitFamily": 0
	},
	{
		"ID": 377,
		"job_UnitJob": 971,
		"element_UnitFamily": 0
	},
	{
		"ID": 378,
		"job_UnitJob": 972,
		"element_UnitFamily": 0
	},
	{
		"ID": 379,
		"job_UnitJob": 973,
		"element_UnitFamily": 0
	},
	{
		"ID": 380,
		"job_UnitJob": 979,
		"element_UnitFamily": 1
	},
	{
		"ID": 381,
		"job_UnitJob": 980,
		"element_UnitFamily": 4
	},
	{
		"ID": 382,
		"job_UnitJob": 981,
		"element_UnitFamily": 1
	},
	{
		"ID": 383,
		"job_UnitJob": 982,
		"element_UnitFamily": 4
	},
	{
		"ID": 384,
		"job_UnitJob": 983,
		"element_UnitFamily": 1
	},
	{
		"ID": 385,
		"job_UnitJob": 984,
		"element_UnitFamily": 4
	},
	{
		"ID": 386,
		"job_UnitJob": 985,
		"element_UnitFamily": 4
	}
]