[
	{
		"ID": 2,
		"material_unit_UnitUnit": 702312,
		"rarity_UnitRarity": 0,
		"kind_GearKind": 0,
		"element_UnitFamily": 0,
		"skill_BattleskillSkill": 0,
		"target_character_UnitCharacter": 0,
		"target_unit_UnitUnit": 0,
		"group_large_category_id_UnitGroupLargeCategory": 5,
		"group_small_category_id_UnitGroupSmallCategory": 1,
		"group_clothing_category_id_UnitGroupClothingCategory": 1,
		"group_generation_category_id_UnitGroupGenerationCategory": 1,
		"increase_value": 5.0
	},
	{
		"ID": 3,
		"material_unit_UnitUnit": 702313,
		"rarity_UnitRarity": 0,
		"kind_GearKind": 0,
		"element_UnitFamily": 0,
		"skill_BattleskillSkill": 0,
		"target_character_UnitCharacter": 0,
		"target_unit_UnitUnit": 0,
		"group_large_category_id_UnitGroupLargeCategory": 5,
		"group_small_category_id_UnitGroupSmallCategory": 10,
		"group_clothing_category_id_UnitGroupClothingCategory": 1,
		"group_generation_category_id_UnitGroupGenerationCategory": 1,
		"increase_value": 1.0
	},
	{
		"ID": 4,
		"material_unit_UnitUnit": 702314,
		"rarity_UnitRarity": 0,
		"kind_GearKind": 0,
		"element_UnitFamily": 0,
		"skill_BattleskillSkill": 0,
		"target_character_UnitCharacter": 0,
		"target_unit_UnitUnit": 0,
		"group_large_category_id_UnitGroupLargeCategory": 5,
		"group_small_category_id_UnitGroupSmallCategory": 11,
		"group_clothing_category_id_UnitGroupClothingCategory": 1,
		"group_generation_category_id_UnitGroupGenerationCategory": 1,
		"increase_value": 1.0
	},
	{
		"ID": 5,
		"material_unit_UnitUnit": 702315,
		"rarity_UnitRarity": 0,
		"kind_GearKind": 0,
		"element_UnitFamily": 0,
		"skill_BattleskillSkill": 0,
		"target_character_UnitCharacter": 0,
		"target_unit_UnitUnit": 0,
		"group_large_category_id_UnitGroupLargeCategory": 5,
		"group_small_category_id_UnitGroupSmallCategory": 12,
		"group_clothing_category_id_UnitGroupClothingCategory": 1,
		"group_generation_category_id_UnitGroupGenerationCategory": 1,
		"increase_value": 1.0
	},
	{
		"ID": 6,
		"material_unit_UnitUnit": 702311,
		"rarity_UnitRarity": 0,
		"kind_GearKind": 0,
		"element_UnitFamily": 0,
		"skill_BattleskillSkill": 0,
		"target_character_UnitCharacter": 0,
		"target_unit_UnitUnit": 0,
		"group_large_category_id_UnitGroupLargeCategory": 5,
		"group_small_category_id_UnitGroupSmallCategory": 1,
		"group_clothing_category_id_UnitGroupClothingCategory": 1,
		"group_generation_category_id_UnitGroupGenerationCategory": 1,
		"increase_value": 10.0
	},
	{
		"ID": 7,
		"material_unit_UnitUnit": 702316,
		"rarity_UnitRarity": 0,
		"kind_GearKind": 0,
		"element_UnitFamily": 0,
		"skill_BattleskillSkill": 0,
		"target_character_UnitCharacter": 0,
		"target_unit_UnitUnit": 0,
		"group_large_category_id_UnitGroupLargeCategory": 5,
		"group_small_category_id_UnitGroupSmallCategory": 13,
		"group_clothing_category_id_UnitGroupClothingCategory": 1,
		"group_generation_category_id_UnitGroupGenerationCategory": 1,
		"increase_value": 1.0
	},
	{
		"ID": 8,
		"material_unit_UnitUnit": 702311,
		"rarity_UnitRarity": 0,
		"kind_GearKind": 0,
		"element_UnitFamily": 0,
		"skill_BattleskillSkill": 0,
		"target_character_UnitCharacter": 0,
		"target_unit_UnitUnit": 41038001,
		"group_large_category_id_UnitGroupLargeCategory": 1,
		"group_small_category_id_UnitGroupSmallCategory": 1,
		"group_clothing_category_id_UnitGroupClothingCategory": 1,
		"group_generation_category_id_UnitGroupGenerationCategory": 1,
		"increase_value": 10.0
	},
	{
		"ID": 9,
		"material_unit_UnitUnit": 702312,
		"rarity_UnitRarity": 0,
		"kind_GearKind": 0,
		"element_UnitFamily": 0,
		"skill_BattleskillSkill": 0,
		"target_character_UnitCharacter": 0,
		"target_unit_UnitUnit": 41038001,
		"group_large_category_id_UnitGroupLargeCategory": 1,
		"group_small_category_id_UnitGroupSmallCategory": 1,
		"group_clothing_category_id_UnitGroupClothingCategory": 1,
		"group_generation_category_id_UnitGroupGenerationCategory": 1,
		"increase_value": 5.0
	},
	{
		"ID": 10,
		"material_unit_UnitUnit": 702311,
		"rarity_UnitRarity": 0,
		"kind_GearKind": 0,
		"element_UnitFamily": 0,
		"skill_BattleskillSkill": 0,
		"target_character_UnitCharacter": 0,
		"target_unit_UnitUnit": 41040001,
		"group_large_category_id_UnitGroupLargeCategory": 1,
		"group_small_category_id_UnitGroupSmallCategory": 1,
		"group_clothing_category_id_UnitGroupClothingCategory": 1,
		"group_generation_category_id_UnitGroupGenerationCategory": 1,
		"increase_value": 10.0
	},
	{
		"ID": 11,
		"material_unit_UnitUnit": 702311,
		"rarity_UnitRarity": 0,
		"kind_GearKind": 0,
		"element_UnitFamily": 0,
		"skill_BattleskillSkill": 0,
		"target_character_UnitCharacter": 0,
		"target_unit_UnitUnit": 41040002,
		"group_large_category_id_UnitGroupLargeCategory": 1,
		"group_small_category_id_UnitGroupSmallCategory": 1,
		"group_clothing_category_id_UnitGroupClothingCategory": 1,
		"group_generation_category_id_UnitGroupGenerationCategory": 1,
		"increase_value": 10.0
	},
	{
		"ID": 12,
		"material_unit_UnitUnit": 702311,
		"rarity_UnitRarity": 0,
		"kind_GearKind": 0,
		"element_UnitFamily": 0,
		"skill_BattleskillSkill": 0,
		"target_character_UnitCharacter": 0,
		"target_unit_UnitUnit": 41040003,
		"group_large_category_id_UnitGroupLargeCategory": 1,
		"group_small_category_id_UnitGroupSmallCategory": 1,
		"group_clothing_category_id_UnitGroupClothingCategory": 1,
		"group_generation_category_id_UnitGroupGenerationCategory": 1,
		"increase_value": 10.0
	},
	{
		"ID": 13,
		"material_unit_UnitUnit": 702311,
		"rarity_UnitRarity": 0,
		"kind_GearKind": 0,
		"element_UnitFamily": 0,
		"skill_BattleskillSkill": 0,
		"target_character_UnitCharacter": 0,
		"target_unit_UnitUnit": 41040004,
		"group_large_category_id_UnitGroupLargeCategory": 1,
		"group_small_category_id_UnitGroupSmallCategory": 1,
		"group_clothing_category_id_UnitGroupClothingCategory": 1,
		"group_generation_category_id_UnitGroupGenerationCategory": 1,
		"increase_value": 10.0
	},
	{
		"ID": 14,
		"material_unit_UnitUnit": 702311,
		"rarity_UnitRarity": 0,
		"kind_GearKind": 0,
		"element_UnitFamily": 0,
		"skill_BattleskillSkill": 0,
		"target_character_UnitCharacter": 0,
		"target_unit_UnitUnit": 41040005,
		"group_large_category_id_UnitGroupLargeCategory": 1,
		"group_small_category_id_UnitGroupSmallCategory": 1,
		"group_clothing_category_id_UnitGroupClothingCategory": 1,
		"group_generation_category_id_UnitGroupGenerationCategory": 1,
		"increase_value": 10.0
	},
	{
		"ID": 15,
		"material_unit_UnitUnit": 702311,
		"rarity_UnitRarity": 0,
		"kind_GearKind": 0,
		"element_UnitFamily": 0,
		"skill_BattleskillSkill": 0,
		"target_character_UnitCharacter": 0,
		"target_unit_UnitUnit": 41040006,
		"group_large_category_id_UnitGroupLargeCategory": 1,
		"group_small_category_id_UnitGroupSmallCategory": 1,
		"group_clothing_category_id_UnitGroupClothingCategory": 1,
		"group_generation_category_id_UnitGroupGenerationCategory": 1,
		"increase_value": 10.0
	},
	{
		"ID": 16,
		"material_unit_UnitUnit": 702312,
		"rarity_UnitRarity": 0,
		"kind_GearKind": 0,
		"element_UnitFamily": 0,
		"skill_BattleskillSkill": 0,
		"target_character_UnitCharacter": 0,
		"target_unit_UnitUnit": 41040001,
		"group_large_category_id_UnitGroupLargeCategory": 1,
		"group_small_category_id_UnitGroupSmallCategory": 1,
		"group_clothing_category_id_UnitGroupClothingCategory": 1,
		"group_generation_category_id_UnitGroupGenerationCategory": 1,
		"increase_value": 5.0
	},
	{
		"ID": 17,
		"material_unit_UnitUnit": 702312,
		"rarity_UnitRarity": 0,
		"kind_GearKind": 0,
		"element_UnitFamily": 0,
		"skill_BattleskillSkill": 0,
		"target_character_UnitCharacter": 0,
		"target_unit_UnitUnit": 41040002,
		"group_large_category_id_UnitGroupLargeCategory": 1,
		"group_small_category_id_UnitGroupSmallCategory": 1,
		"group_clothing_category_id_UnitGroupClothingCategory": 1,
		"group_generation_category_id_UnitGroupGenerationCategory": 1,
		"increase_value": 5.0
	},
	{
		"ID": 18,
		"material_unit_UnitUnit": 702312,
		"rarity_UnitRarity": 0,
		"kind_GearKind": 0,
		"element_UnitFamily": 0,
		"skill_BattleskillSkill": 0,
		"target_character_UnitCharacter": 0,
		"target_unit_UnitUnit": 41040003,
		"group_large_category_id_UnitGroupLargeCategory": 1,
		"group_small_category_id_UnitGroupSmallCategory": 1,
		"group_clothing_category_id_UnitGroupClothingCategory": 1,
		"group_generation_category_id_UnitGroupGenerationCategory": 1,
		"increase_value": 5.0
	},
	{
		"ID": 19,
		"material_unit_UnitUnit": 702312,
		"rarity_UnitRarity": 0,
		"kind_GearKind": 0,
		"element_UnitFamily": 0,
		"skill_BattleskillSkill": 0,
		"target_character_UnitCharacter": 0,
		"target_unit_UnitUnit": 41040004,
		"group_large_category_id_UnitGroupLargeCategory": 1,
		"group_small_category_id_UnitGroupSmallCategory": 1,
		"group_clothing_category_id_UnitGroupClothingCategory": 1,
		"group_generation_category_id_UnitGroupGenerationCategory": 1,
		"increase_value": 5.0
	},
	{
		"ID": 20,
		"material_unit_UnitUnit": 702312,
		"rarity_UnitRarity": 0,
		"kind_GearKind": 0,
		"element_UnitFamily": 0,
		"skill_BattleskillSkill": 0,
		"target_character_UnitCharacter": 0,
		"target_unit_UnitUnit": 41040005,
		"group_large_category_id_UnitGroupLargeCategory": 1,
		"group_small_category_id_UnitGroupSmallCategory": 1,
		"group_clothing_category_id_UnitGroupClothingCategory": 1,
		"group_generation_category_id_UnitGroupGenerationCategory": 1,
		"increase_value": 5.0
	},
	{
		"ID": 21,
		"material_unit_UnitUnit": 702312,
		"rarity_UnitRarity": 0,
		"kind_GearKind": 0,
		"element_UnitFamily": 0,
		"skill_BattleskillSkill": 0,
		"target_character_UnitCharacter": 0,
		"target_unit_UnitUnit": 41040006,
		"group_large_category_id_UnitGroupLargeCategory": 1,
		"group_small_category_id_UnitGroupSmallCategory": 1,
		"group_clothing_category_id_UnitGroupClothingCategory": 1,
		"group_generation_category_id_UnitGroupGenerationCategory": 1,
		"increase_value": 5.0
	},
	{
		"ID": 22,
		"material_unit_UnitUnit": 702311,
		"rarity_UnitRarity": 0,
		"kind_GearKind": 0,
		"element_UnitFamily": 0,
		"skill_BattleskillSkill": 0,
		"target_character_UnitCharacter": 0,
		"target_unit_UnitUnit": 41041001,
		"group_large_category_id_UnitGroupLargeCategory": 1,
		"group_small_category_id_UnitGroupSmallCategory": 1,
		"group_clothing_category_id_UnitGroupClothingCategory": 1,
		"group_generation_category_id_UnitGroupGenerationCategory": 1,
		"increase_value": 10.0
	},
	{
		"ID": 23,
		"material_unit_UnitUnit": 702311,
		"rarity_UnitRarity": 0,
		"kind_GearKind": 0,
		"element_UnitFamily": 0,
		"skill_BattleskillSkill": 0,
		"target_character_UnitCharacter": 0,
		"target_unit_UnitUnit": 41041002,
		"group_large_category_id_UnitGroupLargeCategory": 1,
		"group_small_category_id_UnitGroupSmallCategory": 1,
		"group_clothing_category_id_UnitGroupClothingCategory": 1,
		"group_generation_category_id_UnitGroupGenerationCategory": 1,
		"increase_value": 10.0
	},
	{
		"ID": 24,
		"material_unit_UnitUnit": 702311,
		"rarity_UnitRarity": 0,
		"kind_GearKind": 0,
		"element_UnitFamily": 0,
		"skill_BattleskillSkill": 0,
		"target_character_UnitCharacter": 0,
		"target_unit_UnitUnit": 41041003,
		"group_large_category_id_UnitGroupLargeCategory": 1,
		"group_small_category_id_UnitGroupSmallCategory": 1,
		"group_clothing_category_id_UnitGroupClothingCategory": 1,
		"group_generation_category_id_UnitGroupGenerationCategory": 1,
		"increase_value": 10.0
	},
	{
		"ID": 25,
		"material_unit_UnitUnit": 702311,
		"rarity_UnitRarity": 0,
		"kind_GearKind": 0,
		"element_UnitFamily": 0,
		"skill_BattleskillSkill": 0,
		"target_character_UnitCharacter": 0,
		"target_unit_UnitUnit": 41041004,
		"group_large_category_id_UnitGroupLargeCategory": 1,
		"group_small_category_id_UnitGroupSmallCategory": 1,
		"group_clothing_category_id_UnitGroupClothingCategory": 1,
		"group_generation_category_id_UnitGroupGenerationCategory": 1,
		"increase_value": 10.0
	},
	{
		"ID": 26,
		"material_unit_UnitUnit": 702311,
		"rarity_UnitRarity": 0,
		"kind_GearKind": 0,
		"element_UnitFamily": 0,
		"skill_BattleskillSkill": 0,
		"target_character_UnitCharacter": 0,
		"target_unit_UnitUnit": 41041005,
		"group_large_category_id_UnitGroupLargeCategory": 1,
		"group_small_category_id_UnitGroupSmallCategory": 1,
		"group_clothing_category_id_UnitGroupClothingCategory": 1,
		"group_generation_category_id_UnitGroupGenerationCategory": 1,
		"increase_value": 10.0
	},
	{
		"ID": 27,
		"material_unit_UnitUnit": 702311,
		"rarity_UnitRarity": 0,
		"kind_GearKind": 0,
		"element_UnitFamily": 0,
		"skill_BattleskillSkill": 0,
		"target_character_UnitCharacter": 0,
		"target_unit_UnitUnit": 41041006,
		"group_large_category_id_UnitGroupLargeCategory": 1,
		"group_small_category_id_UnitGroupSmallCategory": 1,
		"group_clothing_category_id_UnitGroupClothingCategory": 1,
		"group_generation_category_id_UnitGroupGenerationCategory": 1,
		"increase_value": 10.0
	},
	{
		"ID": 28,
		"material_unit_UnitUnit": 702312,
		"rarity_UnitRarity": 0,
		"kind_GearKind": 0,
		"element_UnitFamily": 0,
		"skill_BattleskillSkill": 0,
		"target_character_UnitCharacter": 0,
		"target_unit_UnitUnit": 41041001,
		"group_large_category_id_UnitGroupLargeCategory": 1,
		"group_small_category_id_UnitGroupSmallCategory": 1,
		"group_clothing_category_id_UnitGroupClothingCategory": 1,
		"group_generation_category_id_UnitGroupGenerationCategory": 1,
		"increase_value": 5.0
	},
	{
		"ID": 29,
		"material_unit_UnitUnit": 702312,
		"rarity_UnitRarity": 0,
		"kind_GearKind": 0,
		"element_UnitFamily": 0,
		"skill_BattleskillSkill": 0,
		"target_character_UnitCharacter": 0,
		"target_unit_UnitUnit": 41041002,
		"group_large_category_id_UnitGroupLargeCategory": 1,
		"group_small_category_id_UnitGroupSmallCategory": 1,
		"group_clothing_category_id_UnitGroupClothingCategory": 1,
		"group_generation_category_id_UnitGroupGenerationCategory": 1,
		"increase_value": 5.0
	},
	{
		"ID": 30,
		"material_unit_UnitUnit": 702312,
		"rarity_UnitRarity": 0,
		"kind_GearKind": 0,
		"element_UnitFamily": 0,
		"skill_BattleskillSkill": 0,
		"target_character_UnitCharacter": 0,
		"target_unit_UnitUnit": 41041003,
		"group_large_category_id_UnitGroupLargeCategory": 1,
		"group_small_category_id_UnitGroupSmallCategory": 1,
		"group_clothing_category_id_UnitGroupClothingCategory": 1,
		"group_generation_category_id_UnitGroupGenerationCategory": 1,
		"increase_value": 5.0
	},
	{
		"ID": 31,
		"material_unit_UnitUnit": 702312,
		"rarity_UnitRarity": 0,
		"kind_GearKind": 0,
		"element_UnitFamily": 0,
		"skill_BattleskillSkill": 0,
		"target_character_UnitCharacter": 0,
		"target_unit_UnitUnit": 41041004,
		"group_large_category_id_UnitGroupLargeCategory": 1,
		"group_small_category_id_UnitGroupSmallCategory": 1,
		"group_clothing_category_id_UnitGroupClothingCategory": 1,
		"group_generation_category_id_UnitGroupGenerationCategory": 1,
		"increase_value": 5.0
	},
	{
		"ID": 32,
		"material_unit_UnitUnit": 702312,
		"rarity_UnitRarity": 0,
		"kind_GearKind": 0,
		"element_UnitFamily": 0,
		"skill_BattleskillSkill": 0,
		"target_character_UnitCharacter": 0,
		"target_unit_UnitUnit": 41041005,
		"group_large_category_id_UnitGroupLargeCategory": 1,
		"group_small_category_id_UnitGroupSmallCategory": 1,
		"group_clothing_category_id_UnitGroupClothingCategory": 1,
		"group_generation_category_id_UnitGroupGenerationCategory": 1,
		"increase_value": 5.0
	},
	{
		"ID": 33,
		"material_unit_UnitUnit": 702312,
		"rarity_UnitRarity": 0,
		"kind_GearKind": 0,
		"element_UnitFamily": 0,
		"skill_BattleskillSkill": 0,
		"target_character_UnitCharacter": 0,
		"target_unit_UnitUnit": 41041006,
		"group_large_category_id_UnitGroupLargeCategory": 1,
		"group_small_category_id_UnitGroupSmallCategory": 1,
		"group_clothing_category_id_UnitGroupClothingCategory": 1,
		"group_generation_category_id_UnitGroupGenerationCategory": 1,
		"increase_value": 5.0
	},
	{
		"ID": 34,
		"material_unit_UnitUnit": 702317,
		"rarity_UnitRarity": 0,
		"kind_GearKind": 0,
		"element_UnitFamily": 0,
		"skill_BattleskillSkill": 0,
		"target_character_UnitCharacter": 0,
		"target_unit_UnitUnit": 0,
		"group_large_category_id_UnitGroupLargeCategory": 5,
		"group_small_category_id_UnitGroupSmallCategory": 1,
		"group_clothing_category_id_UnitGroupClothingCategory": 1,
		"group_generation_category_id_UnitGroupGenerationCategory": 1,
		"increase_value": 1.0
	},
	{
		"ID": 35,
		"material_unit_UnitUnit": 702318,
		"rarity_UnitRarity": 0,
		"kind_GearKind": 0,
		"element_UnitFamily": 0,
		"skill_BattleskillSkill": 0,
		"target_character_UnitCharacter": 0,
		"target_unit_UnitUnit": 0,
		"group_large_category_id_UnitGroupLargeCategory": 5,
		"group_small_category_id_UnitGroupSmallCategory": 16,
		"group_clothing_category_id_UnitGroupClothingCategory": 1,
		"group_generation_category_id_UnitGroupGenerationCategory": 1,
		"increase_value": 1.0
	},
	{
		"ID": 36,
		"material_unit_UnitUnit": 702319,
		"rarity_UnitRarity": 0,
		"kind_GearKind": 0,
		"element_UnitFamily": 0,
		"skill_BattleskillSkill": 0,
		"target_character_UnitCharacter": 0,
		"target_unit_UnitUnit": 3602711,
		"group_large_category_id_UnitGroupLargeCategory": 1,
		"group_small_category_id_UnitGroupSmallCategory": 1,
		"group_clothing_category_id_UnitGroupClothingCategory": 1,
		"group_generation_category_id_UnitGroupGenerationCategory": 1,
		"increase_value": 1.0
	},
	{
		"ID": 37,
		"material_unit_UnitUnit": 702319,
		"rarity_UnitRarity": 0,
		"kind_GearKind": 0,
		"element_UnitFamily": 0,
		"skill_BattleskillSkill": 0,
		"target_character_UnitCharacter": 0,
		"target_unit_UnitUnit": 3602712,
		"group_large_category_id_UnitGroupLargeCategory": 1,
		"group_small_category_id_UnitGroupSmallCategory": 1,
		"group_clothing_category_id_UnitGroupClothingCategory": 1,
		"group_generation_category_id_UnitGroupGenerationCategory": 1,
		"increase_value": 1.0
	},
	{
		"ID": 38,
		"material_unit_UnitUnit": 702319,
		"rarity_UnitRarity": 0,
		"kind_GearKind": 0,
		"element_UnitFamily": 0,
		"skill_BattleskillSkill": 0,
		"target_character_UnitCharacter": 0,
		"target_unit_UnitUnit": 3602713,
		"group_large_category_id_UnitGroupLargeCategory": 1,
		"group_small_category_id_UnitGroupSmallCategory": 1,
		"group_clothing_category_id_UnitGroupClothingCategory": 1,
		"group_generation_category_id_UnitGroupGenerationCategory": 1,
		"increase_value": 1.0
	},
	{
		"ID": 39,
		"material_unit_UnitUnit": 702319,
		"rarity_UnitRarity": 0,
		"kind_GearKind": 0,
		"element_UnitFamily": 0,
		"skill_BattleskillSkill": 0,
		"target_character_UnitCharacter": 0,
		"target_unit_UnitUnit": 3202911,
		"group_large_category_id_UnitGroupLargeCategory": 1,
		"group_small_category_id_UnitGroupSmallCategory": 1,
		"group_clothing_category_id_UnitGroupClothingCategory": 1,
		"group_generation_category_id_UnitGroupGenerationCategory": 1,
		"increase_value": 1.0
	},
	{
		"ID": 40,
		"material_unit_UnitUnit": 702319,
		"rarity_UnitRarity": 0,
		"kind_GearKind": 0,
		"element_UnitFamily": 0,
		"skill_BattleskillSkill": 0,
		"target_character_UnitCharacter": 0,
		"target_unit_UnitUnit": 3202912,
		"group_large_category_id_UnitGroupLargeCategory": 1,
		"group_small_category_id_UnitGroupSmallCategory": 1,
		"group_clothing_category_id_UnitGroupClothingCategory": 1,
		"group_generation_category_id_UnitGroupGenerationCategory": 1,
		"increase_value": 1.0
	},
	{
		"ID": 41,
		"material_unit_UnitUnit": 702319,
		"rarity_UnitRarity": 0,
		"kind_GearKind": 0,
		"element_UnitFamily": 0,
		"skill_BattleskillSkill": 0,
		"target_character_UnitCharacter": 0,
		"target_unit_UnitUnit": 3202913,
		"group_large_category_id_UnitGroupLargeCategory": 1,
		"group_small_category_id_UnitGroupSmallCategory": 1,
		"group_clothing_category_id_UnitGroupClothingCategory": 1,
		"group_generation_category_id_UnitGroupGenerationCategory": 1,
		"increase_value": 1.0
	},
	{
		"ID": 42,
		"material_unit_UnitUnit": 702319,
		"rarity_UnitRarity": 0,
		"kind_GearKind": 0,
		"element_UnitFamily": 0,
		"skill_BattleskillSkill": 0,
		"target_character_UnitCharacter": 0,
		"target_unit_UnitUnit": 3202921,
		"group_large_category_id_UnitGroupLargeCategory": 1,
		"group_small_category_id_UnitGroupSmallCategory": 1,
		"group_clothing_category_id_UnitGroupClothingCategory": 1,
		"group_generation_category_id_UnitGroupGenerationCategory": 1,
		"increase_value": 1.0
	},
	{
		"ID": 43,
		"material_unit_UnitUnit": 702319,
		"rarity_UnitRarity": 0,
		"kind_GearKind": 0,
		"element_UnitFamily": 0,
		"skill_BattleskillSkill": 0,
		"target_character_UnitCharacter": 0,
		"target_unit_UnitUnit": 3202922,
		"group_large_category_id_UnitGroupLargeCategory": 1,
		"group_small_category_id_UnitGroupSmallCategory": 1,
		"group_clothing_category_id_UnitGroupClothingCategory": 1,
		"group_generation_category_id_UnitGroupGenerationCategory": 1,
		"increase_value": 1.0
	},
	{
		"ID": 44,
		"material_unit_UnitUnit": 702319,
		"rarity_UnitRarity": 0,
		"kind_GearKind": 0,
		"element_UnitFamily": 0,
		"skill_BattleskillSkill": 0,
		"target_character_UnitCharacter": 0,
		"target_unit_UnitUnit": 3202923,
		"group_large_category_id_UnitGroupLargeCategory": 1,
		"group_small_category_id_UnitGroupSmallCategory": 1,
		"group_clothing_category_id_UnitGroupClothingCategory": 1,
		"group_generation_category_id_UnitGroupGenerationCategory": 1,
		"increase_value": 1.0
	},
	{
		"ID": 45,
		"material_unit_UnitUnit": 702319,
		"rarity_UnitRarity": 0,
		"kind_GearKind": 0,
		"element_UnitFamily": 0,
		"skill_BattleskillSkill": 0,
		"target_character_UnitCharacter": 0,
		"target_unit_UnitUnit": 3503321,
		"group_large_category_id_UnitGroupLargeCategory": 1,
		"group_small_category_id_UnitGroupSmallCategory": 1,
		"group_clothing_category_id_UnitGroupClothingCategory": 1,
		"group_generation_category_id_UnitGroupGenerationCategory": 1,
		"increase_value": 1.0
	},
	{
		"ID": 46,
		"material_unit_UnitUnit": 702319,
		"rarity_UnitRarity": 0,
		"kind_GearKind": 0,
		"element_UnitFamily": 0,
		"skill_BattleskillSkill": 0,
		"target_character_UnitCharacter": 0,
		"target_unit_UnitUnit": 3503322,
		"group_large_category_id_UnitGroupLargeCategory": 1,
		"group_small_category_id_UnitGroupSmallCategory": 1,
		"group_clothing_category_id_UnitGroupClothingCategory": 1,
		"group_generation_category_id_UnitGroupGenerationCategory": 1,
		"increase_value": 1.0
	},
	{
		"ID": 47,
		"material_unit_UnitUnit": 702319,
		"rarity_UnitRarity": 0,
		"kind_GearKind": 0,
		"element_UnitFamily": 0,
		"skill_BattleskillSkill": 0,
		"target_character_UnitCharacter": 0,
		"target_unit_UnitUnit": 3503323,
		"group_large_category_id_UnitGroupLargeCategory": 1,
		"group_small_category_id_UnitGroupSmallCategory": 1,
		"group_clothing_category_id_UnitGroupClothingCategory": 1,
		"group_generation_category_id_UnitGroupGenerationCategory": 1,
		"increase_value": 1.0
	},
	{
		"ID": 48,
		"material_unit_UnitUnit": 702319,
		"rarity_UnitRarity": 0,
		"kind_GearKind": 0,
		"element_UnitFamily": 0,
		"skill_BattleskillSkill": 0,
		"target_character_UnitCharacter": 0,
		"target_unit_UnitUnit": 3503311,
		"group_large_category_id_UnitGroupLargeCategory": 1,
		"group_small_category_id_UnitGroupSmallCategory": 1,
		"group_clothing_category_id_UnitGroupClothingCategory": 1,
		"group_generation_category_id_UnitGroupGenerationCategory": 1,
		"increase_value": 1.0
	},
	{
		"ID": 49,
		"material_unit_UnitUnit": 702319,
		"rarity_UnitRarity": 0,
		"kind_GearKind": 0,
		"element_UnitFamily": 0,
		"skill_BattleskillSkill": 0,
		"target_character_UnitCharacter": 0,
		"target_unit_UnitUnit": 3503312,
		"group_large_category_id_UnitGroupLargeCategory": 1,
		"group_small_category_id_UnitGroupSmallCategory": 1,
		"group_clothing_category_id_UnitGroupClothingCategory": 1,
		"group_generation_category_id_UnitGroupGenerationCategory": 1,
		"increase_value": 1.0
	},
	{
		"ID": 50,
		"material_unit_UnitUnit": 702319,
		"rarity_UnitRarity": 0,
		"kind_GearKind": 0,
		"element_UnitFamily": 0,
		"skill_BattleskillSkill": 0,
		"target_character_UnitCharacter": 0,
		"target_unit_UnitUnit": 3503313,
		"group_large_category_id_UnitGroupLargeCategory": 1,
		"group_small_category_id_UnitGroupSmallCategory": 1,
		"group_clothing_category_id_UnitGroupClothingCategory": 1,
		"group_generation_category_id_UnitGroupGenerationCategory": 1,
		"increase_value": 1.0
	},
	{
		"ID": 51,
		"material_unit_UnitUnit": 702319,
		"rarity_UnitRarity": 0,
		"kind_GearKind": 0,
		"element_UnitFamily": 0,
		"skill_BattleskillSkill": 0,
		"target_character_UnitCharacter": 0,
		"target_unit_UnitUnit": 3602721,
		"group_large_category_id_UnitGroupLargeCategory": 1,
		"group_small_category_id_UnitGroupSmallCategory": 1,
		"group_clothing_category_id_UnitGroupClothingCategory": 1,
		"group_generation_category_id_UnitGroupGenerationCategory": 1,
		"increase_value": 1.0
	},
	{
		"ID": 52,
		"material_unit_UnitUnit": 702319,
		"rarity_UnitRarity": 0,
		"kind_GearKind": 0,
		"element_UnitFamily": 0,
		"skill_BattleskillSkill": 0,
		"target_character_UnitCharacter": 0,
		"target_unit_UnitUnit": 3602722,
		"group_large_category_id_UnitGroupLargeCategory": 1,
		"group_small_category_id_UnitGroupSmallCategory": 1,
		"group_clothing_category_id_UnitGroupClothingCategory": 1,
		"group_generation_category_id_UnitGroupGenerationCategory": 1,
		"increase_value": 1.0
	},
	{
		"ID": 53,
		"material_unit_UnitUnit": 702319,
		"rarity_UnitRarity": 0,
		"kind_GearKind": 0,
		"element_UnitFamily": 0,
		"skill_BattleskillSkill": 0,
		"target_character_UnitCharacter": 0,
		"target_unit_UnitUnit": 3602723,
		"group_large_category_id_UnitGroupLargeCategory": 1,
		"group_small_category_id_UnitGroupSmallCategory": 1,
		"group_clothing_category_id_UnitGroupClothingCategory": 1,
		"group_generation_category_id_UnitGroupGenerationCategory": 1,
		"increase_value": 1.0
	},
	{
		"ID": 54,
		"material_unit_UnitUnit": 702319,
		"rarity_UnitRarity": 0,
		"kind_GearKind": 0,
		"element_UnitFamily": 0,
		"skill_BattleskillSkill": 0,
		"target_character_UnitCharacter": 0,
		"target_unit_UnitUnit": 3503331,
		"group_large_category_id_UnitGroupLargeCategory": 1,
		"group_small_category_id_UnitGroupSmallCategory": 1,
		"group_clothing_category_id_UnitGroupClothingCategory": 1,
		"group_generation_category_id_UnitGroupGenerationCategory": 1,
		"increase_value": 1.0
	},
	{
		"ID": 55,
		"material_unit_UnitUnit": 702319,
		"rarity_UnitRarity": 0,
		"kind_GearKind": 0,
		"element_UnitFamily": 0,
		"skill_BattleskillSkill": 0,
		"target_character_UnitCharacter": 0,
		"target_unit_UnitUnit": 3503332,
		"group_large_category_id_UnitGroupLargeCategory": 1,
		"group_small_category_id_UnitGroupSmallCategory": 1,
		"group_clothing_category_id_UnitGroupClothingCategory": 1,
		"group_generation_category_id_UnitGroupGenerationCategory": 1,
		"increase_value": 1.0
	},
	{
		"ID": 56,
		"material_unit_UnitUnit": 702319,
		"rarity_UnitRarity": 0,
		"kind_GearKind": 0,
		"element_UnitFamily": 0,
		"skill_BattleskillSkill": 0,
		"target_character_UnitCharacter": 0,
		"target_unit_UnitUnit": 3503333,
		"group_large_category_id_UnitGroupLargeCategory": 1,
		"group_small_category_id_UnitGroupSmallCategory": 1,
		"group_clothing_category_id_UnitGroupClothingCategory": 1,
		"group_generation_category_id_UnitGroupGenerationCategory": 1,
		"increase_value": 1.0
	},
	{
		"ID": 57,
		"material_unit_UnitUnit": 702319,
		"rarity_UnitRarity": 0,
		"kind_GearKind": 0,
		"element_UnitFamily": 0,
		"skill_BattleskillSkill": 0,
		"target_character_UnitCharacter": 0,
		"target_unit_UnitUnit": 3202931,
		"group_large_category_id_UnitGroupLargeCategory": 1,
		"group_small_category_id_UnitGroupSmallCategory": 1,
		"group_clothing_category_id_UnitGroupClothingCategory": 1,
		"group_generation_category_id_UnitGroupGenerationCategory": 1,
		"increase_value": 1.0
	},
	{
		"ID": 58,
		"material_unit_UnitUnit": 702319,
		"rarity_UnitRarity": 0,
		"kind_GearKind": 0,
		"element_UnitFamily": 0,
		"skill_BattleskillSkill": 0,
		"target_character_UnitCharacter": 0,
		"target_unit_UnitUnit": 3202932,
		"group_large_category_id_UnitGroupLargeCategory": 1,
		"group_small_category_id_UnitGroupSmallCategory": 1,
		"group_clothing_category_id_UnitGroupClothingCategory": 1,
		"group_generation_category_id_UnitGroupGenerationCategory": 1,
		"increase_value": 1.0
	},
	{
		"ID": 59,
		"material_unit_UnitUnit": 702319,
		"rarity_UnitRarity": 0,
		"kind_GearKind": 0,
		"element_UnitFamily": 0,
		"skill_BattleskillSkill": 0,
		"target_character_UnitCharacter": 0,
		"target_unit_UnitUnit": 3202933,
		"group_large_category_id_UnitGroupLargeCategory": 1,
		"group_small_category_id_UnitGroupSmallCategory": 1,
		"group_clothing_category_id_UnitGroupClothingCategory": 1,
		"group_generation_category_id_UnitGroupGenerationCategory": 1,
		"increase_value": 1.0
	},
	{
		"ID": 60,
		"material_unit_UnitUnit": 795001,
		"rarity_UnitRarity": 0,
		"kind_GearKind": 0,
		"element_UnitFamily": 0,
		"skill_BattleskillSkill": 0,
		"target_character_UnitCharacter": 0,
		"target_unit_UnitUnit": 0,
		"group_large_category_id_UnitGroupLargeCategory": 5,
		"group_small_category_id_UnitGroupSmallCategory": 1,
		"group_clothing_category_id_UnitGroupClothingCategory": 1,
		"group_generation_category_id_UnitGroupGenerationCategory": 1,
		"increase_value": 1.0
	},
	{
		"ID": 61,
		"material_unit_UnitUnit": 795002,
		"rarity_UnitRarity": 0,
		"kind_GearKind": 0,
		"element_UnitFamily": 0,
		"skill_BattleskillSkill": 0,
		"target_character_UnitCharacter": 0,
		"target_unit_UnitUnit": 0,
		"group_large_category_id_UnitGroupLargeCategory": 5,
		"group_small_category_id_UnitGroupSmallCategory": 1,
		"group_clothing_category_id_UnitGroupClothingCategory": 1,
		"group_generation_category_id_UnitGroupGenerationCategory": 1,
		"increase_value": 1.0
	},
	{
		"ID": 62,
		"material_unit_UnitUnit": 795003,
		"rarity_UnitRarity": 0,
		"kind_GearKind": 0,
		"element_UnitFamily": 0,
		"skill_BattleskillSkill": 0,
		"target_character_UnitCharacter": 0,
		"target_unit_UnitUnit": 0,
		"group_large_category_id_UnitGroupLargeCategory": 5,
		"group_small_category_id_UnitGroupSmallCategory": 1,
		"group_clothing_category_id_UnitGroupClothingCategory": 1,
		"group_generation_category_id_UnitGroupGenerationCategory": 1,
		"increase_value": 1.0
	},
	{
		"ID": 63,
		"material_unit_UnitUnit": 795004,
		"rarity_UnitRarity": 0,
		"kind_GearKind": 0,
		"element_UnitFamily": 0,
		"skill_BattleskillSkill": 0,
		"target_character_UnitCharacter": 0,
		"target_unit_UnitUnit": 0,
		"group_large_category_id_UnitGroupLargeCategory": 5,
		"group_small_category_id_UnitGroupSmallCategory": 1,
		"group_clothing_category_id_UnitGroupClothingCategory": 1,
		"group_generation_category_id_UnitGroupGenerationCategory": 1,
		"increase_value": 1.0
	},
	{
		"ID": 64,
		"material_unit_UnitUnit": 795005,
		"rarity_UnitRarity": 0,
		"kind_GearKind": 0,
		"element_UnitFamily": 0,
		"skill_BattleskillSkill": 0,
		"target_character_UnitCharacter": 0,
		"target_unit_UnitUnit": 0,
		"group_large_category_id_UnitGroupLargeCategory": 5,
		"group_small_category_id_UnitGroupSmallCategory": 1,
		"group_clothing_category_id_UnitGroupClothingCategory": 1,
		"group_generation_category_id_UnitGroupGenerationCategory": 1,
		"increase_value": 1.0
	},
	{
		"ID": 65,
		"material_unit_UnitUnit": 795006,
		"rarity_UnitRarity": 0,
		"kind_GearKind": 0,
		"element_UnitFamily": 0,
		"skill_BattleskillSkill": 0,
		"target_character_UnitCharacter": 0,
		"target_unit_UnitUnit": 0,
		"group_large_category_id_UnitGroupLargeCategory": 5,
		"group_small_category_id_UnitGroupSmallCategory": 1,
		"group_clothing_category_id_UnitGroupClothingCategory": 1,
		"group_generation_category_id_UnitGroupGenerationCategory": 1,
		"increase_value": 1.0
	},
	{
		"ID": 66,
		"material_unit_UnitUnit": 795007,
		"rarity_UnitRarity": 0,
		"kind_GearKind": 0,
		"element_UnitFamily": 0,
		"skill_BattleskillSkill": 0,
		"target_character_UnitCharacter": 0,
		"target_unit_UnitUnit": 0,
		"group_large_category_id_UnitGroupLargeCategory": 5,
		"group_small_category_id_UnitGroupSmallCategory": 1,
		"group_clothing_category_id_UnitGroupClothingCategory": 1,
		"group_generation_category_id_UnitGroupGenerationCategory": 1,
		"increase_value": 1.0
	},
	{
		"ID": 67,
		"material_unit_UnitUnit": 795008,
		"rarity_UnitRarity": 0,
		"kind_GearKind": 0,
		"element_UnitFamily": 0,
		"skill_BattleskillSkill": 0,
		"target_character_UnitCharacter": 0,
		"target_unit_UnitUnit": 0,
		"group_large_category_id_UnitGroupLargeCategory": 5,
		"group_small_category_id_UnitGroupSmallCategory": 1,
		"group_clothing_category_id_UnitGroupClothingCategory": 1,
		"group_generation_category_id_UnitGroupGenerationCategory": 1,
		"increase_value": 1.0
	},
	{
		"ID": 68,
		"material_unit_UnitUnit": 795009,
		"rarity_UnitRarity": 0,
		"kind_GearKind": 0,
		"element_UnitFamily": 0,
		"skill_BattleskillSkill": 0,
		"target_character_UnitCharacter": 0,
		"target_unit_UnitUnit": 0,
		"group_large_category_id_UnitGroupLargeCategory": 5,
		"group_small_category_id_UnitGroupSmallCategory": 1,
		"group_clothing_category_id_UnitGroupClothingCategory": 1,
		"group_generation_category_id_UnitGroupGenerationCategory": 1,
		"increase_value": 1.0
	},
	{
		"ID": 69,
		"material_unit_UnitUnit": 795010,
		"rarity_UnitRarity": 0,
		"kind_GearKind": 0,
		"element_UnitFamily": 0,
		"skill_BattleskillSkill": 0,
		"target_character_UnitCharacter": 0,
		"target_unit_UnitUnit": 0,
		"group_large_category_id_UnitGroupLargeCategory": 5,
		"group_small_category_id_UnitGroupSmallCategory": 1,
		"group_clothing_category_id_UnitGroupClothingCategory": 1,
		"group_generation_category_id_UnitGroupGenerationCategory": 1,
		"increase_value": 1.0
	},
	{
		"ID": 70,
		"material_unit_UnitUnit": 795011,
		"rarity_UnitRarity": 0,
		"kind_GearKind": 0,
		"element_UnitFamily": 0,
		"skill_BattleskillSkill": 0,
		"target_character_UnitCharacter": 0,
		"target_unit_UnitUnit": 0,
		"group_large_category_id_UnitGroupLargeCategory": 5,
		"group_small_category_id_UnitGroupSmallCategory": 1,
		"group_clothing_category_id_UnitGroupClothingCategory": 1,
		"group_generation_category_id_UnitGroupGenerationCategory": 1,
		"increase_value": 1.0
	},
	{
		"ID": 71,
		"material_unit_UnitUnit": 709711,
		"rarity_UnitRarity": 0,
		"kind_GearKind": 0,
		"element_UnitFamily": 0,
		"skill_BattleskillSkill": 0,
		"target_character_UnitCharacter": 0,
		"target_unit_UnitUnit": 0,
		"group_large_category_id_UnitGroupLargeCategory": 5,
		"group_small_category_id_UnitGroupSmallCategory": 1,
		"group_clothing_category_id_UnitGroupClothingCategory": 1,
		"group_generation_category_id_UnitGroupGenerationCategory": 1,
		"increase_value": 15.0
	},
	{
		"ID": 72,
		"material_unit_UnitUnit": 709711,
		"rarity_UnitRarity": 0,
		"kind_GearKind": 0,
		"element_UnitFamily": 0,
		"skill_BattleskillSkill": 0,
		"target_character_UnitCharacter": 0,
		"target_unit_UnitUnit": 0,
		"group_large_category_id_UnitGroupLargeCategory": 7,
		"group_small_category_id_UnitGroupSmallCategory": 1,
		"group_clothing_category_id_UnitGroupClothingCategory": 1,
		"group_generation_category_id_UnitGroupGenerationCategory": 1,
		"increase_value": 15.0
	},
	{
		"ID": 73,
		"material_unit_UnitUnit": 702312,
		"rarity_UnitRarity": 0,
		"kind_GearKind": 0,
		"element_UnitFamily": 0,
		"skill_BattleskillSkill": 0,
		"target_character_UnitCharacter": 0,
		"target_unit_UnitUnit": 0,
		"group_large_category_id_UnitGroupLargeCategory": 7,
		"group_small_category_id_UnitGroupSmallCategory": 1,
		"group_clothing_category_id_UnitGroupClothingCategory": 1,
		"group_generation_category_id_UnitGroupGenerationCategory": 1,
		"increase_value": 5.0
	},
	{
		"ID": 74,
		"material_unit_UnitUnit": 702311,
		"rarity_UnitRarity": 0,
		"kind_GearKind": 0,
		"element_UnitFamily": 0,
		"skill_BattleskillSkill": 0,
		"target_character_UnitCharacter": 0,
		"target_unit_UnitUnit": 0,
		"group_large_category_id_UnitGroupLargeCategory": 7,
		"group_small_category_id_UnitGroupSmallCategory": 1,
		"group_clothing_category_id_UnitGroupClothingCategory": 1,
		"group_generation_category_id_UnitGroupGenerationCategory": 1,
		"increase_value": 10.0
	},
	{
		"ID": 75,
		"material_unit_UnitUnit": 702326,
		"rarity_UnitRarity": 0,
		"kind_GearKind": 0,
		"element_UnitFamily": 0,
		"skill_BattleskillSkill": 0,
		"target_character_UnitCharacter": 0,
		"target_unit_UnitUnit": 401111,
		"group_large_category_id_UnitGroupLargeCategory": 1,
		"group_small_category_id_UnitGroupSmallCategory": 1,
		"group_clothing_category_id_UnitGroupClothingCategory": 1,
		"group_generation_category_id_UnitGroupGenerationCategory": 1,
		"increase_value": 1.0
	},
	{
		"ID": 76,
		"material_unit_UnitUnit": 702326,
		"rarity_UnitRarity": 0,
		"kind_GearKind": 0,
		"element_UnitFamily": 0,
		"skill_BattleskillSkill": 0,
		"target_character_UnitCharacter": 0,
		"target_unit_UnitUnit": 401112,
		"group_large_category_id_UnitGroupLargeCategory": 1,
		"group_small_category_id_UnitGroupSmallCategory": 1,
		"group_clothing_category_id_UnitGroupClothingCategory": 1,
		"group_generation_category_id_UnitGroupGenerationCategory": 1,
		"increase_value": 1.0
	},
	{
		"ID": 77,
		"material_unit_UnitUnit": 702326,
		"rarity_UnitRarity": 0,
		"kind_GearKind": 0,
		"element_UnitFamily": 0,
		"skill_BattleskillSkill": 0,
		"target_character_UnitCharacter": 0,
		"target_unit_UnitUnit": 401113,
		"group_large_category_id_UnitGroupLargeCategory": 1,
		"group_small_category_id_UnitGroupSmallCategory": 1,
		"group_clothing_category_id_UnitGroupClothingCategory": 1,
		"group_generation_category_id_UnitGroupGenerationCategory": 1,
		"increase_value": 1.0
	},
	{
		"ID": 78,
		"material_unit_UnitUnit": 702326,
		"rarity_UnitRarity": 0,
		"kind_GearKind": 0,
		"element_UnitFamily": 0,
		"skill_BattleskillSkill": 0,
		"target_character_UnitCharacter": 0,
		"target_unit_UnitUnit": 401114,
		"group_large_category_id_UnitGroupLargeCategory": 1,
		"group_small_category_id_UnitGroupSmallCategory": 1,
		"group_clothing_category_id_UnitGroupClothingCategory": 1,
		"group_generation_category_id_UnitGroupGenerationCategory": 1,
		"increase_value": 1.0
	},
	{
		"ID": 79,
		"material_unit_UnitUnit": 702326,
		"rarity_UnitRarity": 0,
		"kind_GearKind": 0,
		"element_UnitFamily": 0,
		"skill_BattleskillSkill": 0,
		"target_character_UnitCharacter": 0,
		"target_unit_UnitUnit": 501311,
		"group_large_category_id_UnitGroupLargeCategory": 1,
		"group_small_category_id_UnitGroupSmallCategory": 1,
		"group_clothing_category_id_UnitGroupClothingCategory": 1,
		"group_generation_category_id_UnitGroupGenerationCategory": 1,
		"increase_value": 1.0
	},
	{
		"ID": 80,
		"material_unit_UnitUnit": 702326,
		"rarity_UnitRarity": 0,
		"kind_GearKind": 0,
		"element_UnitFamily": 0,
		"skill_BattleskillSkill": 0,
		"target_character_UnitCharacter": 0,
		"target_unit_UnitUnit": 501312,
		"group_large_category_id_UnitGroupLargeCategory": 1,
		"group_small_category_id_UnitGroupSmallCategory": 1,
		"group_clothing_category_id_UnitGroupClothingCategory": 1,
		"group_generation_category_id_UnitGroupGenerationCategory": 1,
		"increase_value": 1.0
	},
	{
		"ID": 81,
		"material_unit_UnitUnit": 702326,
		"rarity_UnitRarity": 0,
		"kind_GearKind": 0,
		"element_UnitFamily": 0,
		"skill_BattleskillSkill": 0,
		"target_character_UnitCharacter": 0,
		"target_unit_UnitUnit": 501313,
		"group_large_category_id_UnitGroupLargeCategory": 1,
		"group_small_category_id_UnitGroupSmallCategory": 1,
		"group_clothing_category_id_UnitGroupClothingCategory": 1,
		"group_generation_category_id_UnitGroupGenerationCategory": 1,
		"increase_value": 1.0
	},
	{
		"ID": 82,
		"material_unit_UnitUnit": 702326,
		"rarity_UnitRarity": 0,
		"kind_GearKind": 0,
		"element_UnitFamily": 0,
		"skill_BattleskillSkill": 0,
		"target_character_UnitCharacter": 0,
		"target_unit_UnitUnit": 501314,
		"group_large_category_id_UnitGroupLargeCategory": 1,
		"group_small_category_id_UnitGroupSmallCategory": 1,
		"group_clothing_category_id_UnitGroupClothingCategory": 1,
		"group_generation_category_id_UnitGroupGenerationCategory": 1,
		"increase_value": 1.0
	},
	{
		"ID": 83,
		"material_unit_UnitUnit": 702326,
		"rarity_UnitRarity": 0,
		"kind_GearKind": 0,
		"element_UnitFamily": 0,
		"skill_BattleskillSkill": 0,
		"target_character_UnitCharacter": 0,
		"target_unit_UnitUnit": 102011,
		"group_large_category_id_UnitGroupLargeCategory": 1,
		"group_small_category_id_UnitGroupSmallCategory": 1,
		"group_clothing_category_id_UnitGroupClothingCategory": 1,
		"group_generation_category_id_UnitGroupGenerationCategory": 1,
		"increase_value": 1.0
	},
	{
		"ID": 84,
		"material_unit_UnitUnit": 702326,
		"rarity_UnitRarity": 0,
		"kind_GearKind": 0,
		"element_UnitFamily": 0,
		"skill_BattleskillSkill": 0,
		"target_character_UnitCharacter": 0,
		"target_unit_UnitUnit": 102012,
		"group_large_category_id_UnitGroupLargeCategory": 1,
		"group_small_category_id_UnitGroupSmallCategory": 1,
		"group_clothing_category_id_UnitGroupClothingCategory": 1,
		"group_generation_category_id_UnitGroupGenerationCategory": 1,
		"increase_value": 1.0
	},
	{
		"ID": 85,
		"material_unit_UnitUnit": 702326,
		"rarity_UnitRarity": 0,
		"kind_GearKind": 0,
		"element_UnitFamily": 0,
		"skill_BattleskillSkill": 0,
		"target_character_UnitCharacter": 0,
		"target_unit_UnitUnit": 102013,
		"group_large_category_id_UnitGroupLargeCategory": 1,
		"group_small_category_id_UnitGroupSmallCategory": 1,
		"group_clothing_category_id_UnitGroupClothingCategory": 1,
		"group_generation_category_id_UnitGroupGenerationCategory": 1,
		"increase_value": 1.0
	},
	{
		"ID": 86,
		"material_unit_UnitUnit": 702326,
		"rarity_UnitRarity": 0,
		"kind_GearKind": 0,
		"element_UnitFamily": 0,
		"skill_BattleskillSkill": 0,
		"target_character_UnitCharacter": 0,
		"target_unit_UnitUnit": 102014,
		"group_large_category_id_UnitGroupLargeCategory": 1,
		"group_small_category_id_UnitGroupSmallCategory": 1,
		"group_clothing_category_id_UnitGroupClothingCategory": 1,
		"group_generation_category_id_UnitGroupGenerationCategory": 1,
		"increase_value": 1.0
	},
	{
		"ID": 87,
		"material_unit_UnitUnit": 702326,
		"rarity_UnitRarity": 0,
		"kind_GearKind": 0,
		"element_UnitFamily": 0,
		"skill_BattleskillSkill": 0,
		"target_character_UnitCharacter": 0,
		"target_unit_UnitUnit": 301511,
		"group_large_category_id_UnitGroupLargeCategory": 1,
		"group_small_category_id_UnitGroupSmallCategory": 1,
		"group_clothing_category_id_UnitGroupClothingCategory": 1,
		"group_generation_category_id_UnitGroupGenerationCategory": 1,
		"increase_value": 1.0
	},
	{
		"ID": 88,
		"material_unit_UnitUnit": 702326,
		"rarity_UnitRarity": 0,
		"kind_GearKind": 0,
		"element_UnitFamily": 0,
		"skill_BattleskillSkill": 0,
		"target_character_UnitCharacter": 0,
		"target_unit_UnitUnit": 301512,
		"group_large_category_id_UnitGroupLargeCategory": 1,
		"group_small_category_id_UnitGroupSmallCategory": 1,
		"group_clothing_category_id_UnitGroupClothingCategory": 1,
		"group_generation_category_id_UnitGroupGenerationCategory": 1,
		"increase_value": 1.0
	},
	{
		"ID": 89,
		"material_unit_UnitUnit": 702326,
		"rarity_UnitRarity": 0,
		"kind_GearKind": 0,
		"element_UnitFamily": 0,
		"skill_BattleskillSkill": 0,
		"target_character_UnitCharacter": 0,
		"target_unit_UnitUnit": 301513,
		"group_large_category_id_UnitGroupLargeCategory": 1,
		"group_small_category_id_UnitGroupSmallCategory": 1,
		"group_clothing_category_id_UnitGroupClothingCategory": 1,
		"group_generation_category_id_UnitGroupGenerationCategory": 1,
		"increase_value": 1.0
	},
	{
		"ID": 90,
		"material_unit_UnitUnit": 702326,
		"rarity_UnitRarity": 0,
		"kind_GearKind": 0,
		"element_UnitFamily": 0,
		"skill_BattleskillSkill": 0,
		"target_character_UnitCharacter": 0,
		"target_unit_UnitUnit": 301514,
		"group_large_category_id_UnitGroupLargeCategory": 1,
		"group_small_category_id_UnitGroupSmallCategory": 1,
		"group_clothing_category_id_UnitGroupClothingCategory": 1,
		"group_generation_category_id_UnitGroupGenerationCategory": 1,
		"increase_value": 1.0
	},
	{
		"ID": 91,
		"material_unit_UnitUnit": 702326,
		"rarity_UnitRarity": 0,
		"kind_GearKind": 0,
		"element_UnitFamily": 0,
		"skill_BattleskillSkill": 0,
		"target_character_UnitCharacter": 0,
		"target_unit_UnitUnit": 501411,
		"group_large_category_id_UnitGroupLargeCategory": 1,
		"group_small_category_id_UnitGroupSmallCategory": 1,
		"group_clothing_category_id_UnitGroupClothingCategory": 1,
		"group_generation_category_id_UnitGroupGenerationCategory": 1,
		"increase_value": 1.0
	},
	{
		"ID": 92,
		"material_unit_UnitUnit": 702326,
		"rarity_UnitRarity": 0,
		"kind_GearKind": 0,
		"element_UnitFamily": 0,
		"skill_BattleskillSkill": 0,
		"target_character_UnitCharacter": 0,
		"target_unit_UnitUnit": 501412,
		"group_large_category_id_UnitGroupLargeCategory": 1,
		"group_small_category_id_UnitGroupSmallCategory": 1,
		"group_clothing_category_id_UnitGroupClothingCategory": 1,
		"group_generation_category_id_UnitGroupGenerationCategory": 1,
		"increase_value": 1.0
	},
	{
		"ID": 93,
		"material_unit_UnitUnit": 702326,
		"rarity_UnitRarity": 0,
		"kind_GearKind": 0,
		"element_UnitFamily": 0,
		"skill_BattleskillSkill": 0,
		"target_character_UnitCharacter": 0,
		"target_unit_UnitUnit": 501413,
		"group_large_category_id_UnitGroupLargeCategory": 1,
		"group_small_category_id_UnitGroupSmallCategory": 1,
		"group_clothing_category_id_UnitGroupClothingCategory": 1,
		"group_generation_category_id_UnitGroupGenerationCategory": 1,
		"increase_value": 1.0
	},
	{
		"ID": 94,
		"material_unit_UnitUnit": 702326,
		"rarity_UnitRarity": 0,
		"kind_GearKind": 0,
		"element_UnitFamily": 0,
		"skill_BattleskillSkill": 0,
		"target_character_UnitCharacter": 0,
		"target_unit_UnitUnit": 501414,
		"group_large_category_id_UnitGroupLargeCategory": 1,
		"group_small_category_id_UnitGroupSmallCategory": 1,
		"group_clothing_category_id_UnitGroupClothingCategory": 1,
		"group_generation_category_id_UnitGroupGenerationCategory": 1,
		"increase_value": 1.0
	},
	{
		"ID": 95,
		"material_unit_UnitUnit": 702326,
		"rarity_UnitRarity": 0,
		"kind_GearKind": 0,
		"element_UnitFamily": 0,
		"skill_BattleskillSkill": 0,
		"target_character_UnitCharacter": 0,
		"target_unit_UnitUnit": 401121,
		"group_large_category_id_UnitGroupLargeCategory": 1,
		"group_small_category_id_UnitGroupSmallCategory": 1,
		"group_clothing_category_id_UnitGroupClothingCategory": 1,
		"group_generation_category_id_UnitGroupGenerationCategory": 1,
		"increase_value": 1.0
	},
	{
		"ID": 96,
		"material_unit_UnitUnit": 702326,
		"rarity_UnitRarity": 0,
		"kind_GearKind": 0,
		"element_UnitFamily": 0,
		"skill_BattleskillSkill": 0,
		"target_character_UnitCharacter": 0,
		"target_unit_UnitUnit": 401122,
		"group_large_category_id_UnitGroupLargeCategory": 1,
		"group_small_category_id_UnitGroupSmallCategory": 1,
		"group_clothing_category_id_UnitGroupClothingCategory": 1,
		"group_generation_category_id_UnitGroupGenerationCategory": 1,
		"increase_value": 1.0
	},
	{
		"ID": 97,
		"material_unit_UnitUnit": 702326,
		"rarity_UnitRarity": 0,
		"kind_GearKind": 0,
		"element_UnitFamily": 0,
		"skill_BattleskillSkill": 0,
		"target_character_UnitCharacter": 0,
		"target_unit_UnitUnit": 401123,
		"group_large_category_id_UnitGroupLargeCategory": 1,
		"group_small_category_id_UnitGroupSmallCategory": 1,
		"group_clothing_category_id_UnitGroupClothingCategory": 1,
		"group_generation_category_id_UnitGroupGenerationCategory": 1,
		"increase_value": 1.0
	},
	{
		"ID": 98,
		"material_unit_UnitUnit": 702326,
		"rarity_UnitRarity": 0,
		"kind_GearKind": 0,
		"element_UnitFamily": 0,
		"skill_BattleskillSkill": 0,
		"target_character_UnitCharacter": 0,
		"target_unit_UnitUnit": 401124,
		"group_large_category_id_UnitGroupLargeCategory": 1,
		"group_small_category_id_UnitGroupSmallCategory": 1,
		"group_clothing_category_id_UnitGroupClothingCategory": 1,
		"group_generation_category_id_UnitGroupGenerationCategory": 1,
		"increase_value": 1.0
	},
	{
		"ID": 99,
		"material_unit_UnitUnit": 702326,
		"rarity_UnitRarity": 0,
		"kind_GearKind": 0,
		"element_UnitFamily": 0,
		"skill_BattleskillSkill": 0,
		"target_character_UnitCharacter": 0,
		"target_unit_UnitUnit": 501811,
		"group_large_category_id_UnitGroupLargeCategory": 1,
		"group_small_category_id_UnitGroupSmallCategory": 1,
		"group_clothing_category_id_UnitGroupClothingCategory": 1,
		"group_generation_category_id_UnitGroupGenerationCategory": 1,
		"increase_value": 1.0
	},
	{
		"ID": 100,
		"material_unit_UnitUnit": 702326,
		"rarity_UnitRarity": 0,
		"kind_GearKind": 0,
		"element_UnitFamily": 0,
		"skill_BattleskillSkill": 0,
		"target_character_UnitCharacter": 0,
		"target_unit_UnitUnit": 501812,
		"group_large_category_id_UnitGroupLargeCategory": 1,
		"group_small_category_id_UnitGroupSmallCategory": 1,
		"group_clothing_category_id_UnitGroupClothingCategory": 1,
		"group_generation_category_id_UnitGroupGenerationCategory": 1,
		"increase_value": 1.0
	},
	{
		"ID": 101,
		"material_unit_UnitUnit": 702326,
		"rarity_UnitRarity": 0,
		"kind_GearKind": 0,
		"element_UnitFamily": 0,
		"skill_BattleskillSkill": 0,
		"target_character_UnitCharacter": 0,
		"target_unit_UnitUnit": 501813,
		"group_large_category_id_UnitGroupLargeCategory": 1,
		"group_small_category_id_UnitGroupSmallCategory": 1,
		"group_clothing_category_id_UnitGroupClothingCategory": 1,
		"group_generation_category_id_UnitGroupGenerationCategory": 1,
		"increase_value": 1.0
	},
	{
		"ID": 102,
		"material_unit_UnitUnit": 702326,
		"rarity_UnitRarity": 0,
		"kind_GearKind": 0,
		"element_UnitFamily": 0,
		"skill_BattleskillSkill": 0,
		"target_character_UnitCharacter": 0,
		"target_unit_UnitUnit": 3401111,
		"group_large_category_id_UnitGroupLargeCategory": 1,
		"group_small_category_id_UnitGroupSmallCategory": 1,
		"group_clothing_category_id_UnitGroupClothingCategory": 1,
		"group_generation_category_id_UnitGroupGenerationCategory": 1,
		"increase_value": 1.0
	},
	{
		"ID": 103,
		"material_unit_UnitUnit": 702326,
		"rarity_UnitRarity": 0,
		"kind_GearKind": 0,
		"element_UnitFamily": 0,
		"skill_BattleskillSkill": 0,
		"target_character_UnitCharacter": 0,
		"target_unit_UnitUnit": 3401112,
		"group_large_category_id_UnitGroupLargeCategory": 1,
		"group_small_category_id_UnitGroupSmallCategory": 1,
		"group_clothing_category_id_UnitGroupClothingCategory": 1,
		"group_generation_category_id_UnitGroupGenerationCategory": 1,
		"increase_value": 1.0
	},
	{
		"ID": 104,
		"material_unit_UnitUnit": 702326,
		"rarity_UnitRarity": 0,
		"kind_GearKind": 0,
		"element_UnitFamily": 0,
		"skill_BattleskillSkill": 0,
		"target_character_UnitCharacter": 0,
		"target_unit_UnitUnit": 3401113,
		"group_large_category_id_UnitGroupLargeCategory": 1,
		"group_small_category_id_UnitGroupSmallCategory": 1,
		"group_clothing_category_id_UnitGroupClothingCategory": 1,
		"group_generation_category_id_UnitGroupGenerationCategory": 1,
		"increase_value": 1.0
	},
	{
		"ID": 105,
		"material_unit_UnitUnit": 702326,
		"rarity_UnitRarity": 0,
		"kind_GearKind": 0,
		"element_UnitFamily": 0,
		"skill_BattleskillSkill": 0,
		"target_character_UnitCharacter": 0,
		"target_unit_UnitUnit": 3501411,
		"group_large_category_id_UnitGroupLargeCategory": 1,
		"group_small_category_id_UnitGroupSmallCategory": 1,
		"group_clothing_category_id_UnitGroupClothingCategory": 1,
		"group_generation_category_id_UnitGroupGenerationCategory": 1,
		"increase_value": 1.0
	},
	{
		"ID": 106,
		"material_unit_UnitUnit": 702326,
		"rarity_UnitRarity": 0,
		"kind_GearKind": 0,
		"element_UnitFamily": 0,
		"skill_BattleskillSkill": 0,
		"target_character_UnitCharacter": 0,
		"target_unit_UnitUnit": 3501412,
		"group_large_category_id_UnitGroupLargeCategory": 1,
		"group_small_category_id_UnitGroupSmallCategory": 1,
		"group_clothing_category_id_UnitGroupClothingCategory": 1,
		"group_generation_category_id_UnitGroupGenerationCategory": 1,
		"increase_value": 1.0
	},
	{
		"ID": 107,
		"material_unit_UnitUnit": 702326,
		"rarity_UnitRarity": 0,
		"kind_GearKind": 0,
		"element_UnitFamily": 0,
		"skill_BattleskillSkill": 0,
		"target_character_UnitCharacter": 0,
		"target_unit_UnitUnit": 3501413,
		"group_large_category_id_UnitGroupLargeCategory": 1,
		"group_small_category_id_UnitGroupSmallCategory": 1,
		"group_clothing_category_id_UnitGroupClothingCategory": 1,
		"group_generation_category_id_UnitGroupGenerationCategory": 1,
		"increase_value": 1.0
	},
	{
		"ID": 108,
		"material_unit_UnitUnit": 702327,
		"rarity_UnitRarity": 0,
		"kind_GearKind": 0,
		"element_UnitFamily": 0,
		"skill_BattleskillSkill": 0,
		"target_character_UnitCharacter": 0,
		"target_unit_UnitUnit": 0,
		"group_large_category_id_UnitGroupLargeCategory": 7,
		"group_small_category_id_UnitGroupSmallCategory": 17,
		"group_clothing_category_id_UnitGroupClothingCategory": 1,
		"group_generation_category_id_UnitGroupGenerationCategory": 1,
		"increase_value": 1.0
	},
	{
		"ID": 109,
		"material_unit_UnitUnit": 702326,
		"rarity_UnitRarity": 0,
		"kind_GearKind": 0,
		"element_UnitFamily": 0,
		"skill_BattleskillSkill": 0,
		"target_character_UnitCharacter": 0,
		"target_unit_UnitUnit": 3102011,
		"group_large_category_id_UnitGroupLargeCategory": 1,
		"group_small_category_id_UnitGroupSmallCategory": 1,
		"group_clothing_category_id_UnitGroupClothingCategory": 1,
		"group_generation_category_id_UnitGroupGenerationCategory": 1,
		"increase_value": 1.0
	},
	{
		"ID": 110,
		"material_unit_UnitUnit": 702326,
		"rarity_UnitRarity": 0,
		"kind_GearKind": 0,
		"element_UnitFamily": 0,
		"skill_BattleskillSkill": 0,
		"target_character_UnitCharacter": 0,
		"target_unit_UnitUnit": 3102012,
		"group_large_category_id_UnitGroupLargeCategory": 1,
		"group_small_category_id_UnitGroupSmallCategory": 1,
		"group_clothing_category_id_UnitGroupClothingCategory": 1,
		"group_generation_category_id_UnitGroupGenerationCategory": 1,
		"increase_value": 1.0
	},
	{
		"ID": 111,
		"material_unit_UnitUnit": 702326,
		"rarity_UnitRarity": 0,
		"kind_GearKind": 0,
		"element_UnitFamily": 0,
		"skill_BattleskillSkill": 0,
		"target_character_UnitCharacter": 0,
		"target_unit_UnitUnit": 3102013,
		"group_large_category_id_UnitGroupLargeCategory": 1,
		"group_small_category_id_UnitGroupSmallCategory": 1,
		"group_clothing_category_id_UnitGroupClothingCategory": 1,
		"group_generation_category_id_UnitGroupGenerationCategory": 1,
		"increase_value": 1.0
	},
	{
		"ID": 112,
		"material_unit_UnitUnit": 702326,
		"rarity_UnitRarity": 0,
		"kind_GearKind": 0,
		"element_UnitFamily": 0,
		"skill_BattleskillSkill": 0,
		"target_character_UnitCharacter": 0,
		"target_unit_UnitUnit": 3301511,
		"group_large_category_id_UnitGroupLargeCategory": 1,
		"group_small_category_id_UnitGroupSmallCategory": 1,
		"group_clothing_category_id_UnitGroupClothingCategory": 1,
		"group_generation_category_id_UnitGroupGenerationCategory": 1,
		"increase_value": 1.0
	},
	{
		"ID": 113,
		"material_unit_UnitUnit": 702326,
		"rarity_UnitRarity": 0,
		"kind_GearKind": 0,
		"element_UnitFamily": 0,
		"skill_BattleskillSkill": 0,
		"target_character_UnitCharacter": 0,
		"target_unit_UnitUnit": 3301512,
		"group_large_category_id_UnitGroupLargeCategory": 1,
		"group_small_category_id_UnitGroupSmallCategory": 1,
		"group_clothing_category_id_UnitGroupClothingCategory": 1,
		"group_generation_category_id_UnitGroupGenerationCategory": 1,
		"increase_value": 1.0
	},
	{
		"ID": 114,
		"material_unit_UnitUnit": 702326,
		"rarity_UnitRarity": 0,
		"kind_GearKind": 0,
		"element_UnitFamily": 0,
		"skill_BattleskillSkill": 0,
		"target_character_UnitCharacter": 0,
		"target_unit_UnitUnit": 3301513,
		"group_large_category_id_UnitGroupLargeCategory": 1,
		"group_small_category_id_UnitGroupSmallCategory": 1,
		"group_clothing_category_id_UnitGroupClothingCategory": 1,
		"group_generation_category_id_UnitGroupGenerationCategory": 1,
		"increase_value": 1.0
	},
	{
		"ID": 115,
		"material_unit_UnitUnit": 702326,
		"rarity_UnitRarity": 0,
		"kind_GearKind": 0,
		"element_UnitFamily": 0,
		"skill_BattleskillSkill": 0,
		"target_character_UnitCharacter": 0,
		"target_unit_UnitUnit": 3501311,
		"group_large_category_id_UnitGroupLargeCategory": 1,
		"group_small_category_id_UnitGroupSmallCategory": 1,
		"group_clothing_category_id_UnitGroupClothingCategory": 1,
		"group_generation_category_id_UnitGroupGenerationCategory": 1,
		"increase_value": 1.0
	},
	{
		"ID": 116,
		"material_unit_UnitUnit": 702326,
		"rarity_UnitRarity": 0,
		"kind_GearKind": 0,
		"element_UnitFamily": 0,
		"skill_BattleskillSkill": 0,
		"target_character_UnitCharacter": 0,
		"target_unit_UnitUnit": 3501312,
		"group_large_category_id_UnitGroupLargeCategory": 1,
		"group_small_category_id_UnitGroupSmallCategory": 1,
		"group_clothing_category_id_UnitGroupClothingCategory": 1,
		"group_generation_category_id_UnitGroupGenerationCategory": 1,
		"increase_value": 1.0
	},
	{
		"ID": 117,
		"material_unit_UnitUnit": 702326,
		"rarity_UnitRarity": 0,
		"kind_GearKind": 0,
		"element_UnitFamily": 0,
		"skill_BattleskillSkill": 0,
		"target_character_UnitCharacter": 0,
		"target_unit_UnitUnit": 3501313,
		"group_large_category_id_UnitGroupLargeCategory": 1,
		"group_small_category_id_UnitGroupSmallCategory": 1,
		"group_clothing_category_id_UnitGroupClothingCategory": 1,
		"group_generation_category_id_UnitGroupGenerationCategory": 1,
		"increase_value": 1.0
	},
	{
		"ID": 118,
		"material_unit_UnitUnit": 702312,
		"rarity_UnitRarity": 0,
		"kind_GearKind": 0,
		"element_UnitFamily": 0,
		"skill_BattleskillSkill": 0,
		"target_character_UnitCharacter": 0,
		"target_unit_UnitUnit": 0,
		"group_large_category_id_UnitGroupLargeCategory": 2,
		"group_small_category_id_UnitGroupSmallCategory": 1,
		"group_clothing_category_id_UnitGroupClothingCategory": 1,
		"group_generation_category_id_UnitGroupGenerationCategory": 1,
		"increase_value": 5.0
	},
	{
		"ID": 119,
		"material_unit_UnitUnit": 702311,
		"rarity_UnitRarity": 0,
		"kind_GearKind": 0,
		"element_UnitFamily": 0,
		"skill_BattleskillSkill": 0,
		"target_character_UnitCharacter": 0,
		"target_unit_UnitUnit": 0,
		"group_large_category_id_UnitGroupLargeCategory": 2,
		"group_small_category_id_UnitGroupSmallCategory": 1,
		"group_clothing_category_id_UnitGroupClothingCategory": 1,
		"group_generation_category_id_UnitGroupGenerationCategory": 1,
		"increase_value": 10.0
	},
	{
		"ID": 120,
		"material_unit_UnitUnit": 709711,
		"rarity_UnitRarity": 0,
		"kind_GearKind": 0,
		"element_UnitFamily": 0,
		"skill_BattleskillSkill": 0,
		"target_character_UnitCharacter": 0,
		"target_unit_UnitUnit": 0,
		"group_large_category_id_UnitGroupLargeCategory": 2,
		"group_small_category_id_UnitGroupSmallCategory": 1,
		"group_clothing_category_id_UnitGroupClothingCategory": 1,
		"group_generation_category_id_UnitGroupGenerationCategory": 1,
		"increase_value": 15.0
	},
	{
		"ID": 121,
		"material_unit_UnitUnit": 702328,
		"rarity_UnitRarity": 0,
		"kind_GearKind": 0,
		"element_UnitFamily": 0,
		"skill_BattleskillSkill": 0,
		"target_character_UnitCharacter": 0,
		"target_unit_UnitUnit": 0,
		"group_large_category_id_UnitGroupLargeCategory": 7,
		"group_small_category_id_UnitGroupSmallCategory": 18,
		"group_clothing_category_id_UnitGroupClothingCategory": 1,
		"group_generation_category_id_UnitGroupGenerationCategory": 1,
		"increase_value": 1.0
	},
	{
		"ID": 122,
		"material_unit_UnitUnit": 702317,
		"rarity_UnitRarity": 0,
		"kind_GearKind": 0,
		"element_UnitFamily": 0,
		"skill_BattleskillSkill": 0,
		"target_character_UnitCharacter": 0,
		"target_unit_UnitUnit": 0,
		"group_large_category_id_UnitGroupLargeCategory": 2,
		"group_small_category_id_UnitGroupSmallCategory": 1,
		"group_clothing_category_id_UnitGroupClothingCategory": 1,
		"group_generation_category_id_UnitGroupGenerationCategory": 1,
		"increase_value": 1.0
	},
	{
		"ID": 123,
		"material_unit_UnitUnit": 702317,
		"rarity_UnitRarity": 0,
		"kind_GearKind": 0,
		"element_UnitFamily": 0,
		"skill_BattleskillSkill": 0,
		"target_character_UnitCharacter": 0,
		"target_unit_UnitUnit": 0,
		"group_large_category_id_UnitGroupLargeCategory": 7,
		"group_small_category_id_UnitGroupSmallCategory": 1,
		"group_clothing_category_id_UnitGroupClothingCategory": 1,
		"group_generation_category_id_UnitGroupGenerationCategory": 1,
		"increase_value": 1.0
	},
	{
		"ID": 124,
		"material_unit_UnitUnit": 702318,
		"rarity_UnitRarity": 0,
		"kind_GearKind": 0,
		"element_UnitFamily": 0,
		"skill_BattleskillSkill": 0,
		"target_character_UnitCharacter": 0,
		"target_unit_UnitUnit": 5301811,
		"group_large_category_id_UnitGroupLargeCategory": 1,
		"group_small_category_id_UnitGroupSmallCategory": 1,
		"group_clothing_category_id_UnitGroupClothingCategory": 1,
		"group_generation_category_id_UnitGroupGenerationCategory": 1,
		"increase_value": 1.0
	},
	{
		"ID": 125,
		"material_unit_UnitUnit": 702318,
		"rarity_UnitRarity": 0,
		"kind_GearKind": 0,
		"element_UnitFamily": 0,
		"skill_BattleskillSkill": 0,
		"target_character_UnitCharacter": 0,
		"target_unit_UnitUnit": 5301812,
		"group_large_category_id_UnitGroupLargeCategory": 1,
		"group_small_category_id_UnitGroupSmallCategory": 1,
		"group_clothing_category_id_UnitGroupClothingCategory": 1,
		"group_generation_category_id_UnitGroupGenerationCategory": 1,
		"increase_value": 1.0
	},
	{
		"ID": 126,
		"material_unit_UnitUnit": 702318,
		"rarity_UnitRarity": 0,
		"kind_GearKind": 0,
		"element_UnitFamily": 0,
		"skill_BattleskillSkill": 0,
		"target_character_UnitCharacter": 0,
		"target_unit_UnitUnit": 5301813,
		"group_large_category_id_UnitGroupLargeCategory": 1,
		"group_small_category_id_UnitGroupSmallCategory": 1,
		"group_clothing_category_id_UnitGroupClothingCategory": 1,
		"group_generation_category_id_UnitGroupGenerationCategory": 1,
		"increase_value": 1.0
	},
	{
		"ID": 127,
		"material_unit_UnitUnit": 702318,
		"rarity_UnitRarity": 0,
		"kind_GearKind": 0,
		"element_UnitFamily": 0,
		"skill_BattleskillSkill": 0,
		"target_character_UnitCharacter": 0,
		"target_unit_UnitUnit": 5402011,
		"group_large_category_id_UnitGroupLargeCategory": 1,
		"group_small_category_id_UnitGroupSmallCategory": 1,
		"group_clothing_category_id_UnitGroupClothingCategory": 1,
		"group_generation_category_id_UnitGroupGenerationCategory": 1,
		"increase_value": 1.0
	},
	{
		"ID": 128,
		"material_unit_UnitUnit": 702318,
		"rarity_UnitRarity": 0,
		"kind_GearKind": 0,
		"element_UnitFamily": 0,
		"skill_BattleskillSkill": 0,
		"target_character_UnitCharacter": 0,
		"target_unit_UnitUnit": 5402012,
		"group_large_category_id_UnitGroupLargeCategory": 1,
		"group_small_category_id_UnitGroupSmallCategory": 1,
		"group_clothing_category_id_UnitGroupClothingCategory": 1,
		"group_generation_category_id_UnitGroupGenerationCategory": 1,
		"increase_value": 1.0
	},
	{
		"ID": 129,
		"material_unit_UnitUnit": 702318,
		"rarity_UnitRarity": 0,
		"kind_GearKind": 0,
		"element_UnitFamily": 0,
		"skill_BattleskillSkill": 0,
		"target_character_UnitCharacter": 0,
		"target_unit_UnitUnit": 5402013,
		"group_large_category_id_UnitGroupLargeCategory": 1,
		"group_small_category_id_UnitGroupSmallCategory": 1,
		"group_clothing_category_id_UnitGroupClothingCategory": 1,
		"group_generation_category_id_UnitGroupGenerationCategory": 1,
		"increase_value": 1.0
	}
]