[
	{
		"ID": 1,
		"group_id": 1,
		"skill_id": 400000050
	},
	{
		"ID": 2,
		"group_id": 1,
		"skill_id": 400000055
	},
	{
		"ID": 3,
		"group_id": 1,
		"skill_id": 400000129
	},
	{
		"ID": 4,
		"group_id": 1,
		"skill_id": 400000127
	},
	{
		"ID": 5,
		"group_id": 1,
		"skill_id": 400000051
	},
	{
		"ID": 6,
		"group_id": 1,
		"skill_id": 400000123
	},
	{
		"ID": 7,
		"group_id": 1,
		"skill_id": 400000130
	},
	{
		"ID": 8,
		"group_id": 1,
		"skill_id": 400000124
	},
	{
		"ID": 9,
		"group_id": 1,
		"skill_id": 400000052
	},
	{
		"ID": 10,
		"group_id": 1,
		"skill_id": 400000131
	},
	{
		"ID": 11,
		"group_id": 1,
		"skill_id": 400000054
	},
	{
		"ID": 12,
		"group_id": 1,
		"skill_id": 400000133
	},
	{
		"ID": 13,
		"group_id": 1,
		"skill_id": 400000053
	},
	{
		"ID": 14,
		"group_id": 1,
		"skill_id": 400000132
	},
	{
		"ID": 15,
		"group_id": 1,
		"skill_id": 400000030
	},
	{
		"ID": 16,
		"group_id": 1,
		"skill_id": 400000027
	},
	{
		"ID": 17,
		"group_id": 5,
		"skill_id": 300000711
	},
	{
		"ID": 18,
		"group_id": 5,
		"skill_id": 100000154
	},
	{
		"ID": 19,
		"group_id": 5,
		"skill_id": 100000155
	},
	{
		"ID": 20,
		"group_id": 5,
		"skill_id": 300000712
	},
	{
		"ID": 21,
		"group_id": 5,
		"skill_id": 400000463
	},
	{
		"ID": 22,
		"group_id": 5,
		"skill_id": 300000736
	},
	{
		"ID": 23,
		"group_id": 5,
		"skill_id": 200000125
	},
	{
		"ID": 24,
		"group_id": 5,
		"skill_id": 400000485
	},
	{
		"ID": 25,
		"group_id": 5,
		"skill_id": 400000466
	},
	{
		"ID": 26,
		"group_id": 5,
		"skill_id": 300000713
	},
	{
		"ID": 27,
		"group_id": 5,
		"skill_id": 300000714
	},
	{
		"ID": 28,
		"group_id": 5,
		"skill_id": 300000715
	},
	{
		"ID": 29,
		"group_id": 5,
		"skill_id": 400000467
	},
	{
		"ID": 30,
		"group_id": 5,
		"skill_id": 300000711
	},
	{
		"ID": 31,
		"group_id": 5,
		"skill_id": 100000154
	},
	{
		"ID": 32,
		"group_id": 5,
		"skill_id": 200000126
	},
	{
		"ID": 33,
		"group_id": 5,
		"skill_id": 100000156
	},
	{
		"ID": 34,
		"group_id": 5,
		"skill_id": 100000157
	},
	{
		"ID": 35,
		"group_id": 5,
		"skill_id": 300000716
	},
	{
		"ID": 36,
		"group_id": 5,
		"skill_id": 200000127
	},
	{
		"ID": 37,
		"group_id": 5,
		"skill_id": 300000729
	},
	{
		"ID": 38,
		"group_id": 5,
		"skill_id": 400000491
	},
	{
		"ID": 39,
		"group_id": 5,
		"skill_id": 200000130
	},
	{
		"ID": 40,
		"group_id": 5,
		"skill_id": 100000160
	},
	{
		"ID": 41,
		"group_id": 5,
		"skill_id": 400000477
	},
	{
		"ID": 42,
		"group_id": 5,
		"skill_id": 400000493
	},
	{
		"ID": 43,
		"group_id": 5,
		"skill_id": 300000743
	},
	{
		"ID": 44,
		"group_id": 5,
		"skill_id": 100000159
	},
	{
		"ID": 45,
		"group_id": 5,
		"skill_id": 400000483
	},
	{
		"ID": 46,
		"group_id": 4,
		"skill_id": 1000000001
	},
	{
		"ID": 47,
		"group_id": 4,
		"skill_id": 1000000002
	},
	{
		"ID": 48,
		"group_id": 4,
		"skill_id": 1000000003
	},
	{
		"ID": 49,
		"group_id": 4,
		"skill_id": 1000000004
	},
	{
		"ID": 50,
		"group_id": 4,
		"skill_id": 1000000005
	},
	{
		"ID": 51,
		"group_id": 4,
		"skill_id": 1000000006
	},
	{
		"ID": 52,
		"group_id": 4,
		"skill_id": 1000000007
	},
	{
		"ID": 53,
		"group_id": 4,
		"skill_id": 1000000008
	},
	{
		"ID": 54,
		"group_id": 4,
		"skill_id": 1000000009
	},
	{
		"ID": 55,
		"group_id": 4,
		"skill_id": 1000000010
	},
	{
		"ID": 56,
		"group_id": 4,
		"skill_id": 1000000011
	},
	{
		"ID": 57,
		"group_id": 4,
		"skill_id": 1000000012
	},
	{
		"ID": 58,
		"group_id": 4,
		"skill_id": 1000000013
	},
	{
		"ID": 59,
		"group_id": 4,
		"skill_id": 1000000014
	},
	{
		"ID": 60,
		"group_id": 4,
		"skill_id": 1000000015
	},
	{
		"ID": 61,
		"group_id": 4,
		"skill_id": 1000000016
	},
	{
		"ID": 62,
		"group_id": 4,
		"skill_id": 1000000017
	},
	{
		"ID": 63,
		"group_id": 4,
		"skill_id": 1000000018
	},
	{
		"ID": 64,
		"group_id": 4,
		"skill_id": 1000000019
	},
	{
		"ID": 65,
		"group_id": 4,
		"skill_id": 1000000020
	},
	{
		"ID": 66,
		"group_id": 4,
		"skill_id": 1000000021
	},
	{
		"ID": 67,
		"group_id": 4,
		"skill_id": 1000000022
	},
	{
		"ID": 68,
		"group_id": 4,
		"skill_id": 1000000023
	},
	{
		"ID": 69,
		"group_id": 4,
		"skill_id": 1000000024
	},
	{
		"ID": 70,
		"group_id": 4,
		"skill_id": 1000000025
	},
	{
		"ID": 71,
		"group_id": 4,
		"skill_id": 1000000026
	},
	{
		"ID": 72,
		"group_id": 4,
		"skill_id": 1000000027
	},
	{
		"ID": 73,
		"group_id": 4,
		"skill_id": 1000000028
	},
	{
		"ID": 74,
		"group_id": 4,
		"skill_id": 1000000029
	},
	{
		"ID": 75,
		"group_id": 4,
		"skill_id": 1000000030
	},
	{
		"ID": 76,
		"group_id": 4,
		"skill_id": 1000000031
	},
	{
		"ID": 77,
		"group_id": 4,
		"skill_id": 1000000032
	},
	{
		"ID": 78,
		"group_id": 4,
		"skill_id": 1000000033
	},
	{
		"ID": 79,
		"group_id": 4,
		"skill_id": 1000000034
	},
	{
		"ID": 80,
		"group_id": 4,
		"skill_id": 1000000035
	},
	{
		"ID": 81,
		"group_id": 4,
		"skill_id": 1000000036
	},
	{
		"ID": 82,
		"group_id": 4,
		"skill_id": 1000000037
	},
	{
		"ID": 83,
		"group_id": 4,
		"skill_id": 1000000038
	},
	{
		"ID": 84,
		"group_id": 4,
		"skill_id": 1000000039
	},
	{
		"ID": 85,
		"group_id": 4,
		"skill_id": 1000000040
	},
	{
		"ID": 86,
		"group_id": 4,
		"skill_id": 1000000041
	},
	{
		"ID": 87,
		"group_id": 4,
		"skill_id": 1000000042
	},
	{
		"ID": 88,
		"group_id": 4,
		"skill_id": 1000000043
	},
	{
		"ID": 89,
		"group_id": 4,
		"skill_id": 1000000044
	},
	{
		"ID": 90,
		"group_id": 4,
		"skill_id": 1000000045
	},
	{
		"ID": 91,
		"group_id": 4,
		"skill_id": 1000000046
	},
	{
		"ID": 92,
		"group_id": 4,
		"skill_id": 1000000047
	},
	{
		"ID": 93,
		"group_id": 4,
		"skill_id": 1000000048
	},
	{
		"ID": 94,
		"group_id": 4,
		"skill_id": 1000000049
	},
	{
		"ID": 95,
		"group_id": 4,
		"skill_id": 1000000050
	},
	{
		"ID": 96,
		"group_id": 4,
		"skill_id": 1000000051
	},
	{
		"ID": 97,
		"group_id": 4,
		"skill_id": 1000000052
	},
	{
		"ID": 98,
		"group_id": 4,
		"skill_id": 1000000053
	},
	{
		"ID": 99,
		"group_id": 4,
		"skill_id": 1000000054
	},
	{
		"ID": 100,
		"group_id": 4,
		"skill_id": 1000000055
	},
	{
		"ID": 101,
		"group_id": 4,
		"skill_id": 1000000056
	},
	{
		"ID": 102,
		"group_id": 4,
		"skill_id": 1000000057
	},
	{
		"ID": 103,
		"group_id": 4,
		"skill_id": 1000000058
	},
	{
		"ID": 104,
		"group_id": 4,
		"skill_id": 1000000059
	},
	{
		"ID": 105,
		"group_id": 4,
		"skill_id": 1000000060
	},
	{
		"ID": 106,
		"group_id": 4,
		"skill_id": 1000000061
	},
	{
		"ID": 107,
		"group_id": 4,
		"skill_id": 1000000062
	},
	{
		"ID": 108,
		"group_id": 4,
		"skill_id": 1000000063
	},
	{
		"ID": 109,
		"group_id": 4,
		"skill_id": 1000000064
	},
	{
		"ID": 110,
		"group_id": 4,
		"skill_id": 1000000065
	},
	{
		"ID": 111,
		"group_id": 4,
		"skill_id": 1000000066
	},
	{
		"ID": 112,
		"group_id": 4,
		"skill_id": 1000000067
	},
	{
		"ID": 113,
		"group_id": 4,
		"skill_id": 1000000068
	},
	{
		"ID": 114,
		"group_id": 6,
		"skill_id": 300001254
	},
	{
		"ID": 115,
		"group_id": 6,
		"skill_id": 300001255
	},
	{
		"ID": 116,
		"group_id": 6,
		"skill_id": 300001256
	},
	{
		"ID": 117,
		"group_id": 6,
		"skill_id": 1000000065
	},
	{
		"ID": 118,
		"group_id": 6,
		"skill_id": 100000209
	},
	{
		"ID": 119,
		"group_id": 6,
		"skill_id": 300001257
	},
	{
		"ID": 120,
		"group_id": 6,
		"skill_id": 300001258
	},
	{
		"ID": 121,
		"group_id": 6,
		"skill_id": 100000210
	},
	{
		"ID": 122,
		"group_id": 6,
		"skill_id": 1000000066
	},
	{
		"ID": 123,
		"group_id": 6,
		"skill_id": 200000220
	},
	{
		"ID": 124,
		"group_id": 6,
		"skill_id": 300001259
	},
	{
		"ID": 125,
		"group_id": 6,
		"skill_id": 300001260
	},
	{
		"ID": 126,
		"group_id": 6,
		"skill_id": 300001261
	},
	{
		"ID": 127,
		"group_id": 6,
		"skill_id": 1000000067
	},
	{
		"ID": 128,
		"group_id": 6,
		"skill_id": 100000211
	},
	{
		"ID": 129,
		"group_id": 6,
		"skill_id": 300001262
	},
	{
		"ID": 130,
		"group_id": 6,
		"skill_id": 400000757
	},
	{
		"ID": 131,
		"group_id": 6,
		"skill_id": 100000212
	},
	{
		"ID": 132,
		"group_id": 6,
		"skill_id": 1000000068
	},
	{
		"ID": 133,
		"group_id": 6,
		"skill_id": 300001263
	},
	{
		"ID": 134,
		"group_id": 6,
		"skill_id": 400000742
	},
	{
		"ID": 135,
		"group_id": 6,
		"skill_id": 400000741
	},
	{
		"ID": 136,
		"group_id": 6,
		"skill_id": 400000745
	},
	{
		"ID": 137,
		"group_id": 6,
		"skill_id": 400000755
	},
	{
		"ID": 138,
		"group_id": 4,
		"skill_id": 1000000069
	},
	{
		"ID": 139,
		"group_id": 4,
		"skill_id": 1000000070
	},
	{
		"ID": 140,
		"group_id": 6,
		"skill_id": 300001277
	},
	{
		"ID": 141,
		"group_id": 6,
		"skill_id": 200000222
	},
	{
		"ID": 142,
		"group_id": 6,
		"skill_id": 1000000069
	},
	{
		"ID": 143,
		"group_id": 6,
		"skill_id": 100000213
	},
	{
		"ID": 144,
		"group_id": 6,
		"skill_id": 400000746
	},
	{
		"ID": 145,
		"group_id": 6,
		"skill_id": 300001250
	},
	{
		"ID": 146,
		"group_id": 6,
		"skill_id": 300001278
	},
	{
		"ID": 147,
		"group_id": 6,
		"skill_id": 300001279
	},
	{
		"ID": 148,
		"group_id": 6,
		"skill_id": 300001280
	},
	{
		"ID": 149,
		"group_id": 6,
		"skill_id": 1000000070
	},
	{
		"ID": 150,
		"group_id": 6,
		"skill_id": 100000214
	},
	{
		"ID": 151,
		"group_id": 6,
		"skill_id": 400000743
	},
	{
		"ID": 152,
		"group_id": 4,
		"skill_id": 1000000071
	},
	{
		"ID": 153,
		"group_id": 4,
		"skill_id": 1000000072
	},
	{
		"ID": 154,
		"group_id": 4,
		"skill_id": 1000000073
	},
	{
		"ID": 155,
		"group_id": 4,
		"skill_id": 1000000074
	},
	{
		"ID": 156,
		"group_id": 4,
		"skill_id": 1000000075
	},
	{
		"ID": 157,
		"group_id": 4,
		"skill_id": 1000000076
	},
	{
		"ID": 158,
		"group_id": 4,
		"skill_id": 1000000077
	},
	{
		"ID": 159,
		"group_id": 4,
		"skill_id": 1000000078
	},
	{
		"ID": 160,
		"group_id": 5,
		"skill_id": 300002070
	},
	{
		"ID": 161,
		"group_id": 5,
		"skill_id": 300002071
	},
	{
		"ID": 162,
		"group_id": 5,
		"skill_id": 400000840
	},
	{
		"ID": 163,
		"group_id": 5,
		"skill_id": 300002072
	},
	{
		"ID": 164,
		"group_id": 5,
		"skill_id": 300002053
	},
	{
		"ID": 165,
		"group_id": 5,
		"skill_id": 300002054
	},
	{
		"ID": 166,
		"group_id": 5,
		"skill_id": 400000839
	},
	{
		"ID": 167,
		"group_id": 5,
		"skill_id": 300002055
	},
	{
		"ID": 168,
		"group_id": 4,
		"skill_id": 1000000079
	},
	{
		"ID": 169,
		"group_id": 4,
		"skill_id": 1000000080
	},
	{
		"ID": 170,
		"group_id": 5,
		"skill_id": 300002242
	},
	{
		"ID": 171,
		"group_id": 5,
		"skill_id": 400000844
	},
	{
		"ID": 172,
		"group_id": 5,
		"skill_id": 300002244
	},
	{
		"ID": 173,
		"group_id": 5,
		"skill_id": 400000845
	},
	{
		"ID": 174,
		"group_id": 5,
		"skill_id": 300002234
	},
	{
		"ID": 175,
		"group_id": 5,
		"skill_id": 300002235
	},
	{
		"ID": 176,
		"group_id": 4,
		"skill_id": 1000000081
	},
	{
		"ID": 177,
		"group_id": 4,
		"skill_id": 1000000082
	},
	{
		"ID": 178,
		"group_id": 4,
		"skill_id": 1000000083
	},
	{
		"ID": 179,
		"group_id": 4,
		"skill_id": 1000000084
	},
	{
		"ID": 180,
		"group_id": 4,
		"skill_id": 1000000085
	},
	{
		"ID": 181,
		"group_id": 4,
		"skill_id": 1000000086
	},
	{
		"ID": 182,
		"group_id": 4,
		"skill_id": 1000000087
	},
	{
		"ID": 183,
		"group_id": 4,
		"skill_id": 1000000089
	},
	{
		"ID": 184,
		"group_id": 4,
		"skill_id": 1000000088
	},
	{
		"ID": 185,
		"group_id": 7,
		"skill_id": 300002575
	},
	{
		"ID": 186,
		"group_id": 7,
		"skill_id": 300002576
	},
	{
		"ID": 187,
		"group_id": 7,
		"skill_id": 300002577
	},
	{
		"ID": 188,
		"group_id": 7,
		"skill_id": 300002578
	},
	{
		"ID": 189,
		"group_id": 7,
		"skill_id": 300002579
	},
	{
		"ID": 190,
		"group_id": 7,
		"skill_id": 300002580
	},
	{
		"ID": 191,
		"group_id": 7,
		"skill_id": 300002581
	},
	{
		"ID": 192,
		"group_id": 7,
		"skill_id": 100000409
	},
	{
		"ID": 193,
		"group_id": 7,
		"skill_id": 300002582
	},
	{
		"ID": 194,
		"group_id": 7,
		"skill_id": 100000410
	},
	{
		"ID": 195,
		"group_id": 7,
		"skill_id": 400000895
	},
	{
		"ID": 196,
		"group_id": 7,
		"skill_id": 400000901
	},
	{
		"ID": 197,
		"group_id": 7,
		"skill_id": 300002584
	},
	{
		"ID": 198,
		"group_id": 7,
		"skill_id": 300002585
	},
	{
		"ID": 199,
		"group_id": 7,
		"skill_id": 300002586
	},
	{
		"ID": 200,
		"group_id": 7,
		"skill_id": 300002587
	},
	{
		"ID": 201,
		"group_id": 7,
		"skill_id": 300002588
	},
	{
		"ID": 202,
		"group_id": 7,
		"skill_id": 300002589
	},
	{
		"ID": 203,
		"group_id": 7,
		"skill_id": 300002590
	},
	{
		"ID": 204,
		"group_id": 7,
		"skill_id": 100000411
	},
	{
		"ID": 205,
		"group_id": 7,
		"skill_id": 300002591
	},
	{
		"ID": 206,
		"group_id": 7,
		"skill_id": 300002592
	},
	{
		"ID": 207,
		"group_id": 7,
		"skill_id": 300002593
	},
	{
		"ID": 208,
		"group_id": 7,
		"skill_id": 300002594
	},
	{
		"ID": 209,
		"group_id": 7,
		"skill_id": 300002602
	},
	{
		"ID": 210,
		"group_id": 7,
		"skill_id": 300002603
	},
	{
		"ID": 211,
		"group_id": 4,
		"skill_id": 1000000090
	},
	{
		"ID": 212,
		"group_id": 4,
		"skill_id": 1000000091
	},
	{
		"ID": 213,
		"group_id": 7,
		"skill_id": 300002639
	},
	{
		"ID": 214,
		"group_id": 7,
		"skill_id": 300002640
	},
	{
		"ID": 215,
		"group_id": 7,
		"skill_id": 300002641
	},
	{
		"ID": 216,
		"group_id": 7,
		"skill_id": 100000423
	},
	{
		"ID": 217,
		"group_id": 7,
		"skill_id": 400000938
	},
	{
		"ID": 218,
		"group_id": 7,
		"skill_id": 300002642
	},
	{
		"ID": 219,
		"group_id": 7,
		"skill_id": 300002630
	},
	{
		"ID": 220,
		"group_id": 7,
		"skill_id": 100000422
	},
	{
		"ID": 221,
		"group_id": 7,
		"skill_id": 300002631
	},
	{
		"ID": 222,
		"group_id": 7,
		"skill_id": 400000937
	},
	{
		"ID": 223,
		"group_id": 7,
		"skill_id": 300002632
	},
	{
		"ID": 224,
		"group_id": 7,
		"skill_id": 400000896
	},
	{
		"ID": 225,
		"group_id": 7,
		"skill_id": 400000900
	},
	{
		"ID": 226,
		"group_id": 7,
		"skill_id": 400000897
	},
	{
		"ID": 227,
		"group_id": 7,
		"skill_id": 600001386
	},
	{
		"ID": 228,
		"group_id": 7,
		"skill_id": 600001387
	},
	{
		"ID": 229,
		"group_id": 7,
		"skill_id": 300002684
	},
	{
		"ID": 230,
		"group_id": 7,
		"skill_id": 100000427
	},
	{
		"ID": 231,
		"group_id": 7,
		"skill_id": 300002685
	},
	{
		"ID": 232,
		"group_id": 7,
		"skill_id": 100000428
	},
	{
		"ID": 233,
		"group_id": 7,
		"skill_id": 100000429
	},
	{
		"ID": 234,
		"group_id": 7,
		"skill_id": 300002686
	},
	{
		"ID": 235,
		"group_id": 7,
		"skill_id": 300002702
	},
	{
		"ID": 236,
		"group_id": 7,
		"skill_id": 380000149
	},
	{
		"ID": 237,
		"group_id": 4,
		"skill_id": 1000000092
	},
	{
		"ID": 238,
		"group_id": 4,
		"skill_id": 1000000093
	},
	{
		"ID": 239,
		"group_id": 4,
		"skill_id": 1000000094
	},
	{
		"ID": 240,
		"group_id": 4,
		"skill_id": 1000000095
	},
	{
		"ID": 241,
		"group_id": 4,
		"skill_id": 1000000096
	},
	{
		"ID": 242,
		"group_id": 4,
		"skill_id": 1000000097
	},
	{
		"ID": 243,
		"group_id": 6,
		"skill_id": 300003083
	},
	{
		"ID": 244,
		"group_id": 6,
		"skill_id": 300003084
	},
	{
		"ID": 245,
		"group_id": 6,
		"skill_id": 300003085
	},
	{
		"ID": 246,
		"group_id": 6,
		"skill_id": 300003086
	},
	{
		"ID": 247,
		"group_id": 6,
		"skill_id": 300003087
	},
	{
		"ID": 248,
		"group_id": 6,
		"skill_id": 300003088
	},
	{
		"ID": 249,
		"group_id": 6,
		"skill_id": 300003089
	},
	{
		"ID": 250,
		"group_id": 6,
		"skill_id": 300003090
	},
	{
		"ID": 251,
		"group_id": 6,
		"skill_id": 300003091
	},
	{
		"ID": 252,
		"group_id": 6,
		"skill_id": 300003092
	},
	{
		"ID": 253,
		"group_id": 6,
		"skill_id": 300003093
	},
	{
		"ID": 254,
		"group_id": 6,
		"skill_id": 300003094
	},
	{
		"ID": 255,
		"group_id": 6,
		"skill_id": 300003095
	},
	{
		"ID": 256,
		"group_id": 6,
		"skill_id": 300003096
	},
	{
		"ID": 257,
		"group_id": 6,
		"skill_id": 400000998
	},
	{
		"ID": 258,
		"group_id": 6,
		"skill_id": 300003097
	},
	{
		"ID": 259,
		"group_id": 6,
		"skill_id": 300003098
	},
	{
		"ID": 260,
		"group_id": 6,
		"skill_id": 300003099
	},
	{
		"ID": 261,
		"group_id": 6,
		"skill_id": 300003100
	},
	{
		"ID": 262,
		"group_id": 6,
		"skill_id": 300003101
	},
	{
		"ID": 263,
		"group_id": 6,
		"skill_id": 300003102
	},
	{
		"ID": 264,
		"group_id": 6,
		"skill_id": 300003103
	},
	{
		"ID": 265,
		"group_id": 6,
		"skill_id": 300003104
	},
	{
		"ID": 266,
		"group_id": 6,
		"skill_id": 300003105
	},
	{
		"ID": 267,
		"group_id": 6,
		"skill_id": 300003106
	},
	{
		"ID": 268,
		"group_id": 6,
		"skill_id": 300003107
	},
	{
		"ID": 269,
		"group_id": 6,
		"skill_id": 300003108
	},
	{
		"ID": 270,
		"group_id": 6,
		"skill_id": 300003109
	},
	{
		"ID": 271,
		"group_id": 6,
		"skill_id": 300003110
	},
	{
		"ID": 272,
		"group_id": 6,
		"skill_id": 300003111
	},
	{
		"ID": 273,
		"group_id": 6,
		"skill_id": 300003112
	},
	{
		"ID": 274,
		"group_id": 6,
		"skill_id": 100000496
	},
	{
		"ID": 275,
		"group_id": 4,
		"skill_id": 1000000098
	},
	{
		"ID": 276,
		"group_id": 6,
		"skill_id": 300003075
	},
	{
		"ID": 277,
		"group_id": 6,
		"skill_id": 400000996
	},
	{
		"ID": 278,
		"group_id": 6,
		"skill_id": 100000493
	},
	{
		"ID": 279,
		"group_id": 6,
		"skill_id": 100000494
	},
	{
		"ID": 280,
		"group_id": 6,
		"skill_id": 300003077
	},
	{
		"ID": 281,
		"group_id": 6,
		"skill_id": 1000000098
	},
	{
		"ID": 282,
		"group_id": 6,
		"skill_id": 100000495
	},
	{
		"ID": 283,
		"group_id": 6,
		"skill_id": 300003078
	},
	{
		"ID": 284,
		"group_id": 6,
		"skill_id": 300003079
	},
	{
		"ID": 285,
		"group_id": 6,
		"skill_id": 300003080
	},
	{
		"ID": 286,
		"group_id": 6,
		"skill_id": 300003081
	},
	{
		"ID": 287,
		"group_id": 6,
		"skill_id": 300003082
	},
	{
		"ID": 288,
		"group_id": 6,
		"skill_id": 400000992
	},
	{
		"ID": 289,
		"group_id": 4,
		"skill_id": 1000000099
	},
	{
		"ID": 290,
		"group_id": 4,
		"skill_id": 1000000100
	},
	{
		"ID": 291,
		"group_id": 4,
		"skill_id": 1000000101
	},
	{
		"ID": 292,
		"group_id": 4,
		"skill_id": 1000000102
	},
	{
		"ID": 293,
		"group_id": 4,
		"skill_id": 1000000103
	},
	{
		"ID": 294,
		"group_id": 7,
		"skill_id": 600001461
	},
	{
		"ID": 295,
		"group_id": 7,
		"skill_id": 600001462
	},
	{
		"ID": 296,
		"group_id": 7,
		"skill_id": 300003270
	},
	{
		"ID": 297,
		"group_id": 7,
		"skill_id": 300003271
	},
	{
		"ID": 298,
		"group_id": 7,
		"skill_id": 100000522
	},
	{
		"ID": 299,
		"group_id": 7,
		"skill_id": 100000523
	},
	{
		"ID": 300,
		"group_id": 7,
		"skill_id": 300003272
	},
	{
		"ID": 301,
		"group_id": 7,
		"skill_id": 300003280
	},
	{
		"ID": 302,
		"group_id": 7,
		"skill_id": 380000180
	},
	{
		"ID": 303,
		"group_id": 7,
		"skill_id": 300003274
	},
	{
		"ID": 304,
		"group_id": 7,
		"skill_id": 300003275
	},
	{
		"ID": 305,
		"group_id": 7,
		"skill_id": 300003276
	},
	{
		"ID": 306,
		"group_id": 7,
		"skill_id": 300003277
	},
	{
		"ID": 307,
		"group_id": 7,
		"skill_id": 300003279
	},
	{
		"ID": 308,
		"group_id": 7,
		"skill_id": 400001009
	},
	{
		"ID": 309,
		"group_id": 7,
		"skill_id": 600001467
	},
	{
		"ID": 310,
		"group_id": 7,
		"skill_id": 600001468
	},
	{
		"ID": 311,
		"group_id": 7,
		"skill_id": 300003323
	},
	{
		"ID": 312,
		"group_id": 7,
		"skill_id": 100000536
	},
	{
		"ID": 313,
		"group_id": 7,
		"skill_id": 300003324
	},
	{
		"ID": 314,
		"group_id": 7,
		"skill_id": 100000537
	},
	{
		"ID": 315,
		"group_id": 7,
		"skill_id": 100000538
	},
	{
		"ID": 316,
		"group_id": 7,
		"skill_id": 300003325
	},
	{
		"ID": 317,
		"group_id": 7,
		"skill_id": 300003326
	},
	{
		"ID": 318,
		"group_id": 7,
		"skill_id": 380000181
	},
	{
		"ID": 319,
		"group_id": 7,
		"skill_id": 300003327
	},
	{
		"ID": 320,
		"group_id": 7,
		"skill_id": 300003328
	},
	{
		"ID": 321,
		"group_id": 7,
		"skill_id": 300003329
	},
	{
		"ID": 322,
		"group_id": 7,
		"skill_id": 400001031
	},
	{
		"ID": 323,
		"group_id": 7,
		"skill_id": 300003330
	},
	{
		"ID": 324,
		"group_id": 7,
		"skill_id": 400001008
	},
	{
		"ID": 325,
		"group_id": 4,
		"skill_id": 1000000104
	},
	{
		"ID": 326,
		"group_id": 4,
		"skill_id": 1000000105
	},
	{
		"ID": 327,
		"group_id": 4,
		"skill_id": 1000000106
	},
	{
		"ID": 328,
		"group_id": 7,
		"skill_id": 600001473
	},
	{
		"ID": 329,
		"group_id": 7,
		"skill_id": 600001474
	},
	{
		"ID": 330,
		"group_id": 7,
		"skill_id": 300003407
	},
	{
		"ID": 331,
		"group_id": 7,
		"skill_id": 300003408
	},
	{
		"ID": 332,
		"group_id": 7,
		"skill_id": 100000549
	},
	{
		"ID": 333,
		"group_id": 7,
		"skill_id": 100000550
	},
	{
		"ID": 334,
		"group_id": 7,
		"skill_id": 300003409
	},
	{
		"ID": 335,
		"group_id": 7,
		"skill_id": 300003410
	},
	{
		"ID": 336,
		"group_id": 7,
		"skill_id": 390002366
	},
	{
		"ID": 337,
		"group_id": 7,
		"skill_id": 400001007
	},
	{
		"ID": 338,
		"group_id": 7,
		"skill_id": 300003411
	},
	{
		"ID": 339,
		"group_id": 7,
		"skill_id": 380000184
	},
	{
		"ID": 340,
		"group_id": 7,
		"skill_id": 300003412
	},
	{
		"ID": 341,
		"group_id": 7,
		"skill_id": 300003413
	},
	{
		"ID": 342,
		"group_id": 7,
		"skill_id": 300003414
	},
	{
		"ID": 343,
		"group_id": 7,
		"skill_id": 300003415
	},
	{
		"ID": 344,
		"group_id": 7,
		"skill_id": 300003416
	},
	{
		"ID": 345,
		"group_id": 4,
		"skill_id": 1000000107
	},
	{
		"ID": 346,
		"group_id": 4,
		"skill_id": 1000000108
	},
	{
		"ID": 347,
		"group_id": 4,
		"skill_id": 1000000109
	},
	{
		"ID": 348,
		"group_id": 4,
		"skill_id": 1000000110
	},
	{
		"ID": 349,
		"group_id": 4,
		"skill_id": 1000000111
	},
	{
		"ID": 350,
		"group_id": 5,
		"skill_id": 600001511
	},
	{
		"ID": 351,
		"group_id": 5,
		"skill_id": 600001512
	},
	{
		"ID": 352,
		"group_id": 5,
		"skill_id": 300003672
	},
	{
		"ID": 353,
		"group_id": 5,
		"skill_id": 100000614
	},
	{
		"ID": 354,
		"group_id": 5,
		"skill_id": 300003673
	},
	{
		"ID": 355,
		"group_id": 5,
		"skill_id": 300000712
	},
	{
		"ID": 356,
		"group_id": 5,
		"skill_id": 100000615
	},
	{
		"ID": 357,
		"group_id": 5,
		"skill_id": 300003675
	},
	{
		"ID": 358,
		"group_id": 5,
		"skill_id": 400001063
	},
	{
		"ID": 359,
		"group_id": 5,
		"skill_id": 300003676
	},
	{
		"ID": 360,
		"group_id": 5,
		"skill_id": 380000200
	},
	{
		"ID": 361,
		"group_id": 5,
		"skill_id": 300003677
	},
	{
		"ID": 362,
		"group_id": 5,
		"skill_id": 300003678
	},
	{
		"ID": 363,
		"group_id": 5,
		"skill_id": 300003679
	},
	{
		"ID": 364,
		"group_id": 5,
		"skill_id": 300003680
	},
	{
		"ID": 365,
		"group_id": 5,
		"skill_id": 300003681
	},
	{
		"ID": 366,
		"group_id": 5,
		"skill_id": 600001513
	},
	{
		"ID": 367,
		"group_id": 5,
		"skill_id": 600001514
	},
	{
		"ID": 368,
		"group_id": 5,
		"skill_id": 300003682
	},
	{
		"ID": 369,
		"group_id": 5,
		"skill_id": 100000616
	},
	{
		"ID": 370,
		"group_id": 5,
		"skill_id": 300003683
	},
	{
		"ID": 371,
		"group_id": 5,
		"skill_id": 100000617
	},
	{
		"ID": 372,
		"group_id": 5,
		"skill_id": 100000618
	},
	{
		"ID": 373,
		"group_id": 5,
		"skill_id": 300003684
	},
	{
		"ID": 374,
		"group_id": 5,
		"skill_id": 400001062
	},
	{
		"ID": 375,
		"group_id": 5,
		"skill_id": 300003685
	},
	{
		"ID": 376,
		"group_id": 5,
		"skill_id": 380000201
	},
	{
		"ID": 377,
		"group_id": 5,
		"skill_id": 300003686
	},
	{
		"ID": 378,
		"group_id": 5,
		"skill_id": 300003687
	},
	{
		"ID": 379,
		"group_id": 5,
		"skill_id": 300003688
	},
	{
		"ID": 380,
		"group_id": 5,
		"skill_id": 400001079
	},
	{
		"ID": 381,
		"group_id": 5,
		"skill_id": 300003689
	},
	{
		"ID": 382,
		"group_id": 4,
		"skill_id": 1000000112
	},
	{
		"ID": 383,
		"group_id": 4,
		"skill_id": 1000000113
	},
	{
		"ID": 384,
		"group_id": 4,
		"skill_id": 1000000114
	},
	{
		"ID": 385,
		"group_id": 4,
		"skill_id": 1000000115
	},
	{
		"ID": 386,
		"group_id": 4,
		"skill_id": 1000000116
	},
	{
		"ID": 387,
		"group_id": 4,
		"skill_id": 1000000117
	},
	{
		"ID": 388,
		"group_id": 4,
		"skill_id": 1000000118
	},
	{
		"ID": 389,
		"group_id": 4,
		"skill_id": 1000000119
	},
	{
		"ID": 390,
		"group_id": 4,
		"skill_id": 1000000120
	},
	{
		"ID": 391,
		"group_id": 4,
		"skill_id": 1000000121
	},
	{
		"ID": 392,
		"group_id": 4,
		"skill_id": 1000000122
	},
	{
		"ID": 393,
		"group_id": 4,
		"skill_id": 1000000123
	},
	{
		"ID": 394,
		"group_id": 4,
		"skill_id": 1000000124
	},
	{
		"ID": 395,
		"group_id": 4,
		"skill_id": 1000000125
	},
	{
		"ID": 396,
		"group_id": 1,
		"skill_id": 300004159
	},
	{
		"ID": 397,
		"group_id": 1,
		"skill_id": 300004160
	},
	{
		"ID": 398,
		"group_id": 1,
		"skill_id": 300004161
	},
	{
		"ID": 399,
		"group_id": 1,
		"skill_id": 300004162
	},
	{
		"ID": 400,
		"group_id": 1,
		"skill_id": 300004163
	},
	{
		"ID": 401,
		"group_id": 1,
		"skill_id": 300004155
	},
	{
		"ID": 402,
		"group_id": 1,
		"skill_id": 300004156
	},
	{
		"ID": 403,
		"group_id": 1,
		"skill_id": 1000000124
	},
	{
		"ID": 404,
		"group_id": 1,
		"skill_id": 400001138
	},
	{
		"ID": 405,
		"group_id": 1,
		"skill_id": 300004157
	},
	{
		"ID": 406,
		"group_id": 1,
		"skill_id": 400001091
	},
	{
		"ID": 407,
		"group_id": 1,
		"skill_id": 300004158
	},
	{
		"ID": 408,
		"group_id": 1,
		"skill_id": 300004150
	},
	{
		"ID": 409,
		"group_id": 1,
		"skill_id": 300004151
	},
	{
		"ID": 410,
		"group_id": 1,
		"skill_id": 300004152
	},
	{
		"ID": 411,
		"group_id": 1,
		"skill_id": 300004153
	},
	{
		"ID": 412,
		"group_id": 1,
		"skill_id": 300004154
	},
	{
		"ID": 413,
		"group_id": 1,
		"skill_id": 300004146
	},
	{
		"ID": 414,
		"group_id": 1,
		"skill_id": 300004147
	},
	{
		"ID": 415,
		"group_id": 1,
		"skill_id": 1000000123
	},
	{
		"ID": 416,
		"group_id": 1,
		"skill_id": 400001137
	},
	{
		"ID": 417,
		"group_id": 1,
		"skill_id": 300004148
	},
	{
		"ID": 418,
		"group_id": 1,
		"skill_id": 400001088
	},
	{
		"ID": 419,
		"group_id": 1,
		"skill_id": 300004149
	},
	{
		"ID": 420,
		"group_id": 1,
		"skill_id": 300000009
	},
	{
		"ID": 421,
		"group_id": 1,
		"skill_id": 200000006
	},
	{
		"ID": 422,
		"group_id": 1,
		"skill_id": 300004121
	},
	{
		"ID": 423,
		"group_id": 1,
		"skill_id": 300004122
	},
	{
		"ID": 424,
		"group_id": 1,
		"skill_id": 300004123
	},
	{
		"ID": 425,
		"group_id": 1,
		"skill_id": 300004124
	},
	{
		"ID": 426,
		"group_id": 1,
		"skill_id": 300004125
	},
	{
		"ID": 427,
		"group_id": 1,
		"skill_id": 100000754
	},
	{
		"ID": 428,
		"group_id": 1,
		"skill_id": 300000017
	},
	{
		"ID": 429,
		"group_id": 1,
		"skill_id": 100000013
	},
	{
		"ID": 430,
		"group_id": 1,
		"skill_id": 300000128
	},
	{
		"ID": 431,
		"group_id": 1,
		"skill_id": 300004126
	},
	{
		"ID": 432,
		"group_id": 1,
		"skill_id": 300004127
	},
	{
		"ID": 433,
		"group_id": 1,
		"skill_id": 300004128
	},
	{
		"ID": 434,
		"group_id": 1,
		"skill_id": 300004129
	},
	{
		"ID": 435,
		"group_id": 1,
		"skill_id": 300004130
	},
	{
		"ID": 436,
		"group_id": 1,
		"skill_id": 100000758
	},
	{
		"ID": 437,
		"group_id": 1,
		"skill_id": 300004203
	},
	{
		"ID": 438,
		"group_id": 1,
		"skill_id": 300000010
	},
	{
		"ID": 439,
		"group_id": 1,
		"skill_id": 300000002
	},
	{
		"ID": 440,
		"group_id": 1,
		"skill_id": 300000013
	},
	{
		"ID": 441,
		"group_id": 1,
		"skill_id": 200000053
	},
	{
		"ID": 442,
		"group_id": 1,
		"skill_id": 300000024
	},
	{
		"ID": 443,
		"group_id": 1,
		"skill_id": 200000005
	},
	{
		"ID": 444,
		"group_id": 1,
		"skill_id": 300004111
	},
	{
		"ID": 445,
		"group_id": 1,
		"skill_id": 300004112
	},
	{
		"ID": 446,
		"group_id": 1,
		"skill_id": 300004113
	},
	{
		"ID": 447,
		"group_id": 1,
		"skill_id": 300004114
	},
	{
		"ID": 448,
		"group_id": 1,
		"skill_id": 300004115
	},
	{
		"ID": 449,
		"group_id": 1,
		"skill_id": 300004116
	},
	{
		"ID": 450,
		"group_id": 1,
		"skill_id": 300004117
	},
	{
		"ID": 451,
		"group_id": 1,
		"skill_id": 300004118
	},
	{
		"ID": 452,
		"group_id": 1,
		"skill_id": 300004119
	},
	{
		"ID": 453,
		"group_id": 1,
		"skill_id": 300004120
	},
	{
		"ID": 454,
		"group_id": 1,
		"skill_id": 100000753
	},
	{
		"ID": 455,
		"group_id": 1,
		"skill_id": 100000757
	},
	{
		"ID": 456,
		"group_id": 1,
		"skill_id": 300004202
	},
	{
		"ID": 457,
		"group_id": 1,
		"skill_id": 300000012
	},
	{
		"ID": 458,
		"group_id": 1,
		"skill_id": 300000074
	},
	{
		"ID": 459,
		"group_id": 1,
		"skill_id": 300004131
	},
	{
		"ID": 460,
		"group_id": 1,
		"skill_id": 300004132
	},
	{
		"ID": 461,
		"group_id": 1,
		"skill_id": 300004133
	},
	{
		"ID": 462,
		"group_id": 1,
		"skill_id": 300004134
	},
	{
		"ID": 463,
		"group_id": 1,
		"skill_id": 300004135
	},
	{
		"ID": 464,
		"group_id": 1,
		"skill_id": 100000755
	},
	{
		"ID": 465,
		"group_id": 1,
		"skill_id": 300000014
	},
	{
		"ID": 466,
		"group_id": 1,
		"skill_id": 300000006
	},
	{
		"ID": 467,
		"group_id": 1,
		"skill_id": 300004136
	},
	{
		"ID": 468,
		"group_id": 1,
		"skill_id": 300004137
	},
	{
		"ID": 469,
		"group_id": 1,
		"skill_id": 300004138
	},
	{
		"ID": 470,
		"group_id": 1,
		"skill_id": 300004139
	},
	{
		"ID": 471,
		"group_id": 1,
		"skill_id": 300004140
	},
	{
		"ID": 472,
		"group_id": 1,
		"skill_id": 100000756
	},
	{
		"ID": 473,
		"group_id": 1,
		"skill_id": 300000008
	},
	{
		"ID": 474,
		"group_id": 1,
		"skill_id": 200000009
	},
	{
		"ID": 475,
		"group_id": 1,
		"skill_id": 300004141
	},
	{
		"ID": 476,
		"group_id": 1,
		"skill_id": 300004142
	},
	{
		"ID": 477,
		"group_id": 1,
		"skill_id": 300004143
	},
	{
		"ID": 478,
		"group_id": 1,
		"skill_id": 400001136
	},
	{
		"ID": 479,
		"group_id": 1,
		"skill_id": 300004145
	},
	{
		"ID": 480,
		"group_id": 1,
		"skill_id": 300004164
	},
	{
		"ID": 481,
		"group_id": 1,
		"skill_id": 100000752
	},
	{
		"ID": 482,
		"group_id": 1,
		"skill_id": 300004222
	},
	{
		"ID": 483,
		"group_id": 1,
		"skill_id": 300004223
	},
	{
		"ID": 484,
		"group_id": 1,
		"skill_id": 1000000126
	},
	{
		"ID": 485,
		"group_id": 1,
		"skill_id": 400001140
	},
	{
		"ID": 486,
		"group_id": 1,
		"skill_id": 300004224
	},
	{
		"ID": 487,
		"group_id": 1,
		"skill_id": 400001089
	},
	{
		"ID": 488,
		"group_id": 1,
		"skill_id": 300004225
	},
	{
		"ID": 489,
		"group_id": 1,
		"skill_id": 380000215
	},
	{
		"ID": 490,
		"group_id": 1,
		"skill_id": 300004226
	},
	{
		"ID": 491,
		"group_id": 1,
		"skill_id": 300004227
	},
	{
		"ID": 492,
		"group_id": 1,
		"skill_id": 300004228
	},
	{
		"ID": 493,
		"group_id": 1,
		"skill_id": 400001141
	},
	{
		"ID": 494,
		"group_id": 1,
		"skill_id": 100000762
	},
	{
		"ID": 495,
		"group_id": 1,
		"skill_id": 300004230
	},
	{
		"ID": 496,
		"group_id": 1,
		"skill_id": 400001145
	},
	{
		"ID": 497,
		"group_id": 1,
		"skill_id": 1000000127
	},
	{
		"ID": 498,
		"group_id": 1,
		"skill_id": 400001142
	},
	{
		"ID": 499,
		"group_id": 1,
		"skill_id": 300004232
	},
	{
		"ID": 500,
		"group_id": 1,
		"skill_id": 400001090
	},
	{
		"ID": 501,
		"group_id": 1,
		"skill_id": 300004233
	},
	{
		"ID": 502,
		"group_id": 1,
		"skill_id": 380000216
	},
	{
		"ID": 503,
		"group_id": 1,
		"skill_id": 300004234
	},
	{
		"ID": 504,
		"group_id": 1,
		"skill_id": 300004235
	},
	{
		"ID": 505,
		"group_id": 1,
		"skill_id": 300004236
	},
	{
		"ID": 506,
		"group_id": 1,
		"skill_id": 300004237
	},
	{
		"ID": 507,
		"group_id": 1,
		"skill_id": 300004238
	},
	{
		"ID": 508,
		"group_id": 1,
		"skill_id": 300004239
	},
	{
		"ID": 509,
		"group_id": 1,
		"skill_id": 100000770
	},
	{
		"ID": 510,
		"group_id": 1,
		"skill_id": 1000000128
	},
	{
		"ID": 511,
		"group_id": 1,
		"skill_id": 400001143
	},
	{
		"ID": 512,
		"group_id": 1,
		"skill_id": 300004241
	},
	{
		"ID": 513,
		"group_id": 1,
		"skill_id": 400001092
	},
	{
		"ID": 514,
		"group_id": 1,
		"skill_id": 300004242
	},
	{
		"ID": 515,
		"group_id": 1,
		"skill_id": 380000217
	},
	{
		"ID": 516,
		"group_id": 1,
		"skill_id": 300004243
	},
	{
		"ID": 517,
		"group_id": 1,
		"skill_id": 300004244
	},
	{
		"ID": 518,
		"group_id": 1,
		"skill_id": 300004245
	},
	{
		"ID": 519,
		"group_id": 1,
		"skill_id": 300004246
	},
	{
		"ID": 520,
		"group_id": 1,
		"skill_id": 300004247
	},
	{
		"ID": 521,
		"group_id": 4,
		"skill_id": 1000000126
	},
	{
		"ID": 522,
		"group_id": 4,
		"skill_id": 1000000127
	},
	{
		"ID": 523,
		"group_id": 4,
		"skill_id": 1000000128
	},
	{
		"ID": 524,
		"group_id": 4,
		"skill_id": 1000000129
	},
	{
		"ID": 525,
		"group_id": 4,
		"skill_id": 1000000130
	},
	{
		"ID": 526,
		"group_id": 4,
		"skill_id": 1000000131
	},
	{
		"ID": 527,
		"group_id": 4,
		"skill_id": 1000000132
	},
	{
		"ID": 528,
		"group_id": 4,
		"skill_id": 1000000133
	},
	{
		"ID": 529,
		"group_id": 4,
		"skill_id": 1000000134
	},
	{
		"ID": 530,
		"group_id": 4,
		"skill_id": 1000000135
	},
	{
		"ID": 531,
		"group_id": 4,
		"skill_id": 1000000136
	},
	{
		"ID": 532,
		"group_id": 4,
		"skill_id": 1000000137
	}
]