[
	{
		"ID": 1,
		"camera_pattern_UnitCameraPattern": 0,
		"texture_x": 0.0,
		"texture_y": -35.0
	},
	{
		"ID": 2,
		"camera_pattern_UnitCameraPattern": 0,
		"texture_x": 0.0,
		"texture_y": -35.0
	},
	{
		"ID": 3,
		"camera_pattern_UnitCameraPattern": 0,
		"texture_x": 0.0,
		"texture_y": -45.0
	},
	{
		"ID": 4,
		"camera_pattern_UnitCameraPattern": 0,
		"texture_x": 0.0,
		"texture_y": -55.0
	}
]